%!PS-Adobe-3.0 EPSF-3.0
%%Creator: MATLAB, The MathWorks, Inc. Version 7.13.0.564 (R2011b). Operating System: Microsoft Windows XP.
%%Title: D:\DriveG\Sem2-2012\Program\ReferenceMetric-v3\metricfig\zdt4\zdt4-ws.eps
%%CreationDate: 03/15/2013  01:58:03
%%DocumentNeededFonts: Helvetica
%%+ Times-Roman
%%DocumentProcessColors: Cyan Magenta Yellow Black
%%LanguageLevel: 2
%%Pages: 1
%%BoundingBox:   107   222   487   619
%%EndComments

%%BeginProlog
% MathWorks dictionary
/MathWorks 160 dict begin
% definition operators
/bdef {bind def} bind def
/ldef {load def} bind def
/xdef {exch def} bdef
/xstore {exch store} bdef
% operator abbreviations
/c  /clip ldef
/cc /concat ldef
/cp /closepath ldef
/gr /grestore ldef
/gs /gsave ldef
/mt /moveto ldef
/np /newpath ldef
/cm /currentmatrix ldef
/sm /setmatrix ldef
/rm /rmoveto ldef
/rl /rlineto ldef
/s {show newpath} bdef
/sc {setcmykcolor} bdef
/sr /setrgbcolor ldef
/sg /setgray ldef
/w /setlinewidth ldef
/j /setlinejoin ldef
/cap /setlinecap ldef
/rc {rectclip} bdef
/rf {rectfill} bdef
% page state control
/pgsv () def
/bpage {/pgsv save def} bdef
/epage {pgsv restore} bdef
/bplot /gsave ldef
/eplot {stroke grestore} bdef
% orientation switch
/portraitMode 0 def /landscapeMode 1 def /rotateMode 2 def
% coordinate system mappings
/dpi2point 0 def
% font control
/FontSize 0 def
/FMS {/FontSize xstore findfont [FontSize 0 0 FontSize neg 0 0]
  makefont setfont} bdef
/ISOLatin1Encoding where {pop /WindowsLatin1Encoding 256 array bdef
ISOLatin1Encoding WindowsLatin1Encoding copy pop
/.notdef/.notdef/quotesinglbase/florin/quotedblbase/ellipsis/dagger
/daggerdbl/circumflex/perthousand/Scaron/guilsinglleft/OE/.notdef/.notdef
/.notdef/.notdef/quoteleft/quoteright/quotedblleft/quotedblright/bullet
/endash/emdash/tilde/trademark/scaron/guilsinglright/oe/.notdef/.notdef
/Ydieresis WindowsLatin1Encoding 128 32 getinterval astore pop}
{/WindowsLatin1Encoding StandardEncoding bdef} ifelse
/reencode {exch dup where {pop load} {pop StandardEncoding} ifelse
  exch dup 3 1 roll findfont dup length dict begin
  { 1 index /FID ne {def}{pop pop} ifelse } forall
  /Encoding exch def currentdict end definefont pop} bdef
/isroman {findfont /CharStrings get /Agrave known} bdef
/FMSR {3 1 roll 1 index dup isroman {reencode} {pop pop} ifelse
  exch FMS} bdef
/csm {1 dpi2point div -1 dpi2point div scale neg translate
 dup landscapeMode eq {pop -90 rotate}
  {rotateMode eq {90 rotate} if} ifelse} bdef
% line types: solid, dotted, dashed, dotdash
/SO { [] 0 setdash } bdef
/DO { [.5 dpi2point mul 4 dpi2point mul] 0 setdash } bdef
/DA { [6 dpi2point mul] 0 setdash } bdef
/DD { [.5 dpi2point mul 4 dpi2point mul 6 dpi2point mul 4
  dpi2point mul] 0 setdash } bdef
% macros for lines and objects
/L {lineto stroke} bdef
/MP {3 1 roll moveto 1 sub {rlineto} repeat} bdef
/AP {{rlineto} repeat} bdef
/PDlw -1 def
/W {/PDlw currentlinewidth def setlinewidth} def
/PP {closepath eofill} bdef
/DP {closepath stroke} bdef
/MR {4 -2 roll moveto dup  0 exch rlineto exch 0 rlineto
  neg 0 exch rlineto closepath} bdef
/FR {MR stroke} bdef
/PR {MR fill} bdef
/L1i {{currentfile picstr readhexstring pop} image} bdef
/tMatrix matrix def
/MakeOval {newpath tMatrix currentmatrix pop translate scale
0 0 1 0 360 arc tMatrix setmatrix} bdef
/FO {MakeOval stroke} bdef
/PO {MakeOval fill} bdef
/PD {currentlinewidth 2 div 0 360 arc fill
   PDlw -1 eq not {PDlw w /PDlw -1 def} if} def
/FA {newpath tMatrix currentmatrix pop translate scale
  0 0 1 5 -2 roll arc tMatrix setmatrix stroke} bdef
/PA {newpath tMatrix currentmatrix pop	translate 0 0 moveto scale
  0 0 1 5 -2 roll arc closepath tMatrix setmatrix fill} bdef
/FAn {newpath tMatrix currentmatrix pop translate scale
  0 0 1 5 -2 roll arcn tMatrix setmatrix stroke} bdef
/PAn {newpath tMatrix currentmatrix pop translate 0 0 moveto scale
  0 0 1 5 -2 roll arcn closepath tMatrix setmatrix fill} bdef
/vradius 0 def /hradius 0 def /lry 0 def
/lrx 0 def /uly 0 def /ulx 0 def /rad 0 def
/MRR {/vradius xdef /hradius xdef /lry xdef /lrx xdef /uly xdef
  /ulx xdef newpath tMatrix currentmatrix pop ulx hradius add uly
  vradius add translate hradius vradius scale 0 0 1 180 270 arc 
  tMatrix setmatrix lrx hradius sub uly vradius add translate
  hradius vradius scale 0 0 1 270 360 arc tMatrix setmatrix
  lrx hradius sub lry vradius sub translate hradius vradius scale
  0 0 1 0 90 arc tMatrix setmatrix ulx hradius add lry vradius sub
  translate hradius vradius scale 0 0 1 90 180 arc tMatrix setmatrix
  closepath} bdef
/FRR {MRR stroke } bdef
/PRR {MRR fill } bdef
/MlrRR {/lry xdef /lrx xdef /uly xdef /ulx xdef /rad lry uly sub 2 div def
  newpath tMatrix currentmatrix pop ulx rad add uly rad add translate
  rad rad scale 0 0 1 90 270 arc tMatrix setmatrix lrx rad sub lry rad
  sub translate rad rad scale 0 0 1 270 90 arc tMatrix setmatrix
  closepath} bdef
/FlrRR {MlrRR stroke } bdef
/PlrRR {MlrRR fill } bdef
/MtbRR {/lry xdef /lrx xdef /uly xdef /ulx xdef /rad lrx ulx sub 2 div def
  newpath tMatrix currentmatrix pop ulx rad add uly rad add translate
  rad rad scale 0 0 1 180 360 arc tMatrix setmatrix lrx rad sub lry rad
  sub translate rad rad scale 0 0 1 0 180 arc tMatrix setmatrix
  closepath} bdef
/FtbRR {MtbRR stroke } bdef
/PtbRR {MtbRR fill } bdef
/stri 6 array def /dtri 6 array def
/smat 6 array def /dmat 6 array def
/tmat1 6 array def /tmat2 6 array def /dif 3 array def
/asub {/ind2 exch def /ind1 exch def dup dup
  ind1 get exch ind2 get sub exch } bdef
/tri_to_matrix {
  2 0 asub 3 1 asub 4 0 asub 5 1 asub
  dup 0 get exch 1 get 7 -1 roll astore } bdef
/compute_transform {
  dmat dtri tri_to_matrix tmat1 invertmatrix 
  smat stri tri_to_matrix tmat2 concatmatrix } bdef
/ds {stri astore pop} bdef
/dt {dtri astore pop} bdef
/db {2 copy /cols xdef /rows xdef mul dup 3 mul string
  currentfile 
  3 index 0 eq {/ASCIIHexDecode filter}
  {/ASCII85Decode filter 3 index 2 eq {/RunLengthDecode filter} if }
  ifelse exch readstring pop
  dup 0 3 index getinterval /rbmap xdef
  dup 2 index dup getinterval /gbmap xdef
  1 index dup 2 mul exch getinterval /bbmap xdef pop pop}bdef
/it {gs np dtri aload pop moveto lineto lineto cp c
  cols rows 8 compute_transform 
  rbmap gbmap bbmap true 3 colorimage gr}bdef
/il {newpath moveto lineto stroke}bdef
currentdict end def
%%EndProlog

%%BeginSetup
MathWorks begin

0 cap

end
%%EndSetup

%%Page: 1 1
%%BeginPageSetup
%%PageBoundingBox:   107   222   487   619
MathWorks begin
bpage
%%EndPageSetup

%%BeginObject: obj1
bplot

/dpi2point 12 def
portraitMode 1284 7428 csm

    0     0  4567  4754 rc
86 dict begin %Colortable dictionary
/c0 { 0.000000 0.000000 0.000000 sr} bdef
/c1 { 1.000000 1.000000 1.000000 sr} bdef
/c2 { 0.900000 0.000000 0.000000 sr} bdef
/c3 { 0.000000 0.820000 0.000000 sr} bdef
/c4 { 0.000000 0.000000 0.800000 sr} bdef
/c5 { 0.910000 0.820000 0.320000 sr} bdef
/c6 { 1.000000 0.260000 0.820000 sr} bdef
/c7 { 0.000000 0.820000 0.820000 sr} bdef
c0
1 j
1 sg
   0    0 4568 4755 rf
6 w
0 3565 3425 0 0 -3565 594 4231 4 MP
PP
-3425 0 0 3565 3425 0 0 -3565 594 4231 5 MP stroke
4 w
DO
SO
6 w
0 sg
 594  666 mt 4019  666 L
 594 4231 mt 4019 4231 L
4019 4231 mt 4019  666 L
 594 4231 mt  594  666 L
 594 4231 mt 4019 4231 L
 594 4231 mt  594  666 L
 594 4231 mt  594 4195 L
 594  666 mt  594  701 L
%%IncludeResource: font Times-Roman
/Times-Roman /WindowsLatin1Encoding 144 FMSR

 558 4394 mt 
(0) s
1279 4231 mt 1279 4195 L
1279  666 mt 1279  701 L
1189 4394 mt 
(0.2) s
1964 4231 mt 1964 4195 L
1964  666 mt 1964  701 L
1874 4394 mt 
(0.4) s
2649 4231 mt 2649 4195 L
2649  666 mt 2649  701 L
2559 4394 mt 
(0.6) s
3334 4231 mt 3334 4195 L
3334  666 mt 3334  701 L
3244 4394 mt 
(0.8) s
4019 4231 mt 4019 4195 L
4019  666 mt 4019  701 L
3983 4394 mt 
(1) s
 594 4231 mt  629 4231 L
4019 4231 mt 3983 4231 L
 487 4282 mt 
(0) s
 594 3874 mt  629 3874 L
4019 3874 mt 3983 3874 L
 379 3925 mt 
(0.1) s
 594 3518 mt  629 3518 L
4019 3518 mt 3983 3518 L
 379 3569 mt 
(0.2) s
 594 3161 mt  629 3161 L
4019 3161 mt 3983 3161 L
 379 3212 mt 
(0.3) s
 594 2805 mt  629 2805 L
4019 2805 mt 3983 2805 L
 379 2856 mt 
(0.4) s
 594 2448 mt  629 2448 L
4019 2448 mt 3983 2448 L
 379 2499 mt 
(0.5) s
 594 2091 mt  629 2091 L
4019 2091 mt 3983 2091 L
 379 2142 mt 
(0.6) s
 594 1735 mt  629 1735 L
4019 1735 mt 3983 1735 L
 379 1786 mt 
(0.7) s
 594 1379 mt  629 1379 L
4019 1379 mt 3983 1379 L
 379 1430 mt 
(0.8) s
 594 1022 mt  629 1022 L
4019 1022 mt 3983 1022 L
 379 1073 mt 
(0.9) s
 594  666 mt  629  666 L
4019  666 mt 3983  666 L
 487  717 mt 
(1) s
 594  666 mt 4019  666 L
 594 4231 mt 4019 4231 L
4019 4231 mt 4019  666 L
 594 4231 mt  594  666 L
gs 594 666 3426 3566 rc
27.6 w
/c8 { 0.000000 0.000000 1.000000 sr} bdef
c8
4 2 3 2 4 2 3 2 4 1 3 2 3 2 4 2 
3 2 4 1 3 2 4 2 3 2 3 2 4 1 3 2 
4 2 3 2 4 2 3 1 3 2 4 2 3 2 4 2 
3 1 4 2 3 2 3 2 4 2 3 1 4 2 3 2 
4 2 3 2 3 1 4 2 3 2 4 2 3 2 3 2 
4 1 3 2 4 2 3 2 4 2 3 1 3 2 4 2 
3 2 4 2 3 2 4 1 3 2 3 2 4 2 3 2 
4 2 3 1 4 2 3 2 3 2 4 2 3 2 4 1 
3 2 4 2 3 2 3 2 4 2 3 2 4 1 3 2 
4 2 3 2 3 2 4 2 3 2 4 1 3 2 3 2 
4 2 3 2 4 2 3 2 4 1 3 2 3 2 4 2 
3 2 4 2 3 2 4 1 3 2 3 2 4 2 3 2 
4 2 3 2 4 2 3 1 3 2 4 2 3 2 4 2 
3 2 4 2 3 2 3 2 4 1 3 2 4 2 3 2 
4 2 3 2 3 2 4 2 3 2 4 1 3 2 3 2 
4 2 3 2 4 2 3 2 4 2 3 2 3 2 4 1 
3 2 4 2 3 2 4 2 3 2 3 2 4 2 3 2 
4 2 3 2 4 2 3 1 3 2 4 2 3 2 4 2 
3 2 4 2 3 2 3 2 4 2 3 2 4 2 3 2 
4 2 3 1 3 2 4 2 3 2 4 2 3 2 3 2 
4 2 3 2 4 2 3 2 4 2 3 2 3 2 4 2 
3 2 4 2 3 2 4 2 3 2 3 1 4 2 3 2 
4 2 3 2 4 2 3 2 3 2 4 2 3 2 4 2 
3 2 4 2 3 2 3 2 4 2 3 2 4 2 3 2 
4 2 3 2 3 2 4 2 3 2 4 2 3 2 3 2 
4 2 3 2 4 2 3 2 4 2 3 2 3 2 4 2 
3 2 4 2 3 2 4 2 3 2 3 2 4 2 3 2 
4 2 3 2 4 2 3 2 3 2 4 2 3 2 4 2 
3 2 4 2 3 2 3 2 4 2 3 2 4 2 3 2 
4 2 3 2 3 2 4 2 3 2 4 3 3 2 3 2 
4 2 3 2 4 2 3 2 4 2 3 2 3 2 4 2 
3 2 4 2 3 2 4 2 3 2 3 2 4 2 3 2 
4 3 3 2 4 2 3 2 3 2 4 2 3 2 4 2 
3 2 4 2 3 2 3 2 4 2 3 3 4 2 3 2 
4 2 3 2 3 2 4 2 3 2 4 2 3 2 3 2 
4 3 3 2 4 2 3 2 4 2 3 2 3 2 4 2 
3 2 4 3 3 2 4 2 3 2 3 2 4 2 3 2 
4 2 3 3 4 2 2994 3650 300 MP stroke
3 2 3 2 4 2 3 2 4 2 3 2 4 3 3 2 
3 2 4 2 3 2 4 2 3 2 4 3 3 2 3 2 
4 2 3 2 4 2 3 3 3 2 4 2 3 2 4 2 
3 2 4 3 3 2 3 2 4 2 3 2 4 2 3 3 
4 2 3 2 3 2 4 2 3 3 4 2 3 2 4 2 
3 2 3 2 4 3 3 2 4 2 3 2 4 2 3 3 
3 2 4 2 3 2 4 3 3 2 4 2 3 2 3 2 
4 3 3 2 4 2 3 2 3 2 4 3 3 2 4 2 
3 2 4 3 3 2 3 2 4 2 3 3 4 2 3 2 
4 2 3 3 3 2 4 2 3 2 4 3 3 2 4 2 
3 2 3 3 4 2 3 2 4 2 3 3 4 2 3 2 
3 3 4 2 3 2 4 2 3 3 4 2 3 2 3 3 
4 2 3 2 4 2 3 3 3 2 4 2 3 3 4 2 
3 2 4 3 3 2 3 2 4 3 3 2 4 2 3 2 
4 3 3 2 3 2 4 3 3 2 4 2 3 3 4 2 
3 2 3 3 4 2 3 3 4 2 3 2 4 3 3 2 
3 2 4 3 3 2 4 2 3 3 4 2 3 2 3 3 
4 2 3 3 4 2 3 2 3 3 4 2 3 2 4 3 
3 2 4 3 3 2 3 2 4 3 3 2 4 3 3 2 
4 2 3 3 3 2 4 3 3 2 4 3 3 2 4 2 
3 3 3 2 4 3 3 2 4 2 3 3 4 2 3 3 
3 2 4 3 3 2 4 3 3 2 4 2 3 3 3 2 
4 3 3 2 4 3 3 2 3 3 4 2 3 3 4 2 
3 3 4 2 3 3 3 2 4 3 3 2 4 3 3 2 
4 3 3 2 3 3 4 2 3 3 4 2 3 3 4 2 
3 3 3 2 4 3 3 2 4 3 3 2 4 3 3 2 
3 3 4 2 3 3 4 3 3 2 4 3 3 2 3 3 
4 2 3 3 4 2 3 3 3 3 4 2 3 3 4 2 
3 3 4 2 3 3 3 3 4 2 3 3 4 2 3 3 
4 3 3 2 3 3 4 2 3 3 4 3 3 2 4 3 
3 3 3 2 4 3 3 2 4 3 3 3 4 2 3 3 
3 3 4 2 3 3 4 3 3 2 4 3 3 3 3 2 
4 3 3 3 4 2 3 3 3 3 4 2 3 3 4 3 
3 3 4 2 3 3 3 3 4 2 3 3 4 3 3 2 
4 3 3 3 3 3 4 2 3 3 4 3 3 3 4 2 
3 3 3 3 4 3 3 2 4 3 3 3 4 3 3 2 
3 3 4 3 3 3 4 3 3 2 4 3 3 3 3 3 
4 3 3 2 4 3 1970 2926 300 MP stroke
3 3 3 3 4 3 3 2 4 3 3 3 4 3 3 3 
3 3 4 2 3 3 4 3 3 3 4 3 3 3 3 3 
4 2 3 3 4 3 3 3 4 3 3 3 3 3 4 3 
3 3 4 2 3 3 4 3 3 3 3 3 4 3 3 3 
4 3 3 3 4 3 3 3 3 3 4 3 3 3 4 3 
3 3 3 2 4 3 3 3 4 3 3 3 4 3 3 3 
3 3 4 3 3 3 4 3 3 3 4 3 3 3 3 4 
4 3 3 3 4 3 3 3 4 3 3 3 3 3 4 3 
3 3 4 3 3 3 4 3 3 3 3 3 4 3 3 4 
4 3 3 3 4 3 3 3 3 3 4 3 3 3 4 4 
3 3 3 3 4 3 3 3 4 3 3 3 4 4 3 3 
3 3 4 3 3 3 4 4 3 3 4 3 3 3 3 3 
4 4 3 3 4 3 3 3 4 4 3 3 3 3 4 3 
3 4 4 3 3 3 4 3 3 4 3 3 4 3 3 4 
4 3 3 3 4 4 3 3 3 3 4 4 3 3 4 3 
3 4 3 3 4 3 3 4 4 3 3 4 4 3 3 3 
3 4 4 3 3 4 4 3 3 4 4 3 3 3 3 4 
4 3 3 4 4 3 3 4 4 3 3 4 3 3 4 4 
3 3 4 4 3 3 4 4 3 3 3 4 4 3 3 4 
4 4 3 3 4 4 3 3 3 4 4 4 3 3 4 4 
3 3 3 4 4 4 3 3 4 4 3 4 4 3 3 4 
3 4 4 3 3 4 4 4 3 4 4 3 3 4 3 4 
4 3 3 4 4 4 3 4 4 4 3 3 3 4 4 4 
3 4 4 4 3 3 4 4 3 4 3 4 4 4 3 4 
4 4 3 4 4 4 3 3 3 4 4 4 3 4 4 4 
3 4 3 4 4 4 3 4 4 4 3 4 4 4 3 4 
3 4 4 4 3 4 4 5 3 4 4 4 3 4 3 4 
4 4 3 4 4 4 3 5 4 4 3 4 3 4 4 4 
3 5 4 4 3 4 4 4 3 5 3 4 4 4 3 5 
4 4 3 4 4 5 3 4 3 4 4 5 3 4 4 5 
3 4 3 4 4 5 3 4 4 5 3 4 4 5 3 4 
3 5 4 5 3 4 4 5 3 4 4 5 3 5 3 4 
4 5 3 5 4 4 3 5 4 5 3 5 3 4 4 5 
3 5 4 5 3 5 4 4 3 5 3 5 4 5 3 5 
4 5 3 5 4 5 3 5 3 5 4 5 3 5 4 5 
3 5 3 6 4 5 3 5 4 5 3 5 4 6 3 5 
3 5 4 5 3 6 4 5 3 6 4 5 3 5 3 6 
4 5 3 6 4 5 946 1810 300 MP stroke
3 6 4 6 3 5 3 6 4 5 3 6 4 6 3 6 
4 5 3 6 3 6 4 6 3 6 4 6 3 6 4 6 
3 6 3 6 4 6 3 6 4 7 3 6 3 6 4 6 
3 7 4 6 3 7 4 6 3 7 3 6 4 7 3 7 
4 6 3 7 4 7 3 7 3 7 4 7 3 7 4 7 
3 7 4 7 3 7 3 8 4 7 3 7 4 8 3 7 
4 8 3 8 3 8 4 7 3 8 4 8 3 8 4 9 
3 8 3 8 4 9 3 8 4 9 3 9 3 8 4 9 
3 10 4 9 3 9 4 10 3 9 3 10 4 10 3 10 
4 10 3 10 4 11 3 11 3 11 4 11 3 11 4 12 
3 12 4 12 3 12 3 13 4 13 3 14 4 14 3 14 
4 15 3 15 3 16 4 17 3 17 4 18 3 20 4 20 
3 22 3 24 4 27 3 30 4 36 3 47 3 112 594 666 104 MP stroke
36 w
gs 2571 3351 731 516 rc
/c9 { 0.000000 1.000000 1.000000 sr} bdef
c9
  18   18 2645 3425 FO
  18   18 2649 3427 FO
  18   18 2652 3429 FO
  18   18 2655 3432 FO
  18   18 2659 3434 FO
  18   18 2662 3436 FO
  18   18 2666 3438 FO
  18   18 2669 3441 FO
  18   18 2672 3443 FO
  18   18 2676 3445 FO
  18   18 2679 3448 FO
  18   18 2683 3450 FO
  18   18 2686 3452 FO
  18   18 2690 3454 FO
  18   18 2693 3457 FO
  18   18 2696 3459 FO
  18   18 2700 3461 FO
  18   18 2703 3464 FO
  18   18 2707 3466 FO
  18   18 2710 3468 FO
  18   18 2714 3470 FO
  18   18 2717 3473 FO
  18   18 2720 3475 FO
  18   18 2724 3477 FO
  18   18 2727 3479 FO
  18   18 2731 3482 FO
  18   18 2734 3484 FO
  18   18 2738 3486 FO
  18   18 2741 3488 FO
  18   18 2744 3491 FO
  18   18 2748 3493 FO
  18   18 2751 3495 FO
  18   18 2755 3497 FO
  18   18 2758 3500 FO
  18   18 2762 3502 FO
  18   18 2765 3504 FO
  18   18 2768 3506 FO
  18   18 2772 3509 FO
  18   18 2775 3511 FO
  18   18 2779 3513 FO
  18   18 2782 3515 FO
  18   18 2786 3518 FO
  18   18 2789 3520 FO
  18   18 2792 3522 FO
  18   18 2796 3524 FO
  18   18 2799 3526 FO
  18   18 2803 3529 FO
  18   18 2806 3531 FO
  18   18 2809 3533 FO
  18   18 2813 3535 FO
  18   18 2816 3537 FO
  18   18 2820 3540 FO
  18   18 2823 3542 FO
  18   18 2827 3544 FO
  18   18 2830 3546 FO
  18   18 2833 3549 FO
  18   18 2837 3551 FO
  18   18 2840 3553 FO
  18   18 2844 3555 FO
  18   18 2847 3557 FO
  18   18 2851 3560 FO
  18   18 2854 3562 FO
  18   18 2857 3564 FO
  18   18 2861 3566 FO
  18   18 2864 3568 FO
  18   18 2868 3570 FO
  18   18 2871 3573 FO
  18   18 2875 3575 FO
  18   18 2878 3577 FO
  18   18 2881 3579 FO
  18   18 2885 3581 FO
  18   18 2888 3584 FO
  18   18 2892 3586 FO
  18   18 2895 3588 FO
  18   18 2899 3590 FO
  18   18 2902 3592 FO
  18   18 2905 3594 FO
  18   18 2909 3597 FO
  18   18 2912 3599 FO
  18   18 2916 3601 FO
  18   18 2919 3603 FO
  18   18 2923 3605 FO
  18   18 2926 3607 FO
  18   18 2929 3610 FO
  18   18 2933 3612 FO
  18   18 2936 3614 FO
  18   18 2940 3616 FO
  18   18 2943 3618 FO
  18   18 2946 3620 FO
  18   18 2950 3623 FO
  18   18 2953 3625 FO
  18   18 2957 3627 FO
  18   18 2960 3629 FO
  18   18 2964 3631 FO
  18   18 2967 3633 FO
  18   18 2970 3635 FO
  18   18 2974 3638 FO
  18   18 2977 3640 FO
  18   18 2981 3642 FO
  18   18 2984 3644 FO
  18   18 2988 3646 FO
  18   18 2991 3648 FO
  18   18 2994 3650 FO
  18   18 2998 3652 FO
  18   18 3001 3655 FO
  18   18 3005 3657 FO
  18   18 3008 3659 FO
  18   18 3012 3661 FO
  18   18 3015 3663 FO
  18   18 3018 3665 FO
  18   18 3022 3667 FO
  18   18 3025 3669 FO
  18   18 3029 3672 FO
  18   18 3032 3674 FO
  18   18 3036 3676 FO
  18   18 3039 3678 FO
  18   18 3042 3680 FO
  18   18 3046 3682 FO
  18   18 3049 3684 FO
  18   18 3053 3686 FO
  18   18 3056 3688 FO
  18   18 3060 3691 FO
  18   18 3063 3693 FO
  18   18 3066 3695 FO
  18   18 3070 3697 FO
  18   18 3073 3699 FO
  18   18 3077 3701 FO
  18   18 3080 3703 FO
  18   18 3083 3705 FO
  18   18 3087 3707 FO
  18   18 3090 3709 FO
  18   18 3094 3711 FO
  18   18 3097 3714 FO
  18   18 3101 3716 FO
  18   18 3104 3718 FO
  18   18 3107 3720 FO
  18   18 3111 3722 FO
  18   18 3114 3724 FO
  18   18 3118 3726 FO
  18   18 3121 3728 FO
  18   18 3125 3730 FO
  18   18 3128 3732 FO
  18   18 3131 3734 FO
  18   18 3135 3736 FO
  18   18 3138 3738 FO
  18   18 3142 3741 FO
  18   18 3145 3743 FO
  18   18 3149 3745 FO
  18   18 3152 3747 FO
  18   18 3155 3749 FO
  18   18 3159 3751 FO
  18   18 3162 3753 FO
  18   18 3166 3755 FO
  18   18 3169 3757 FO
  18   18 3173 3759 FO
  18   18 3176 3761 FO
  18   18 3179 3763 FO
  18   18 3183 3765 FO
  18   18 3186 3767 FO
  18   18 3190 3769 FO
  18   18 3193 3771 FO
  18   18 3197 3773 FO
  18   18 3200 3775 FO
  18   18 3203 3777 FO
  18   18 3207 3780 FO
  18   18 3210 3782 FO
  18   18 3214 3784 FO
  18   18 3217 3786 FO
  18   18 3220 3788 FO
  18   18 3224 3790 FO
  18   18 3227 3792 FO
gr

c9
0 sg
2991 3518 PD
gs 2917 3444 149 149 rc
  18   18 2991 3518 PO
  18   18 2991 3518 FO
gr

gr

36 w
%%IncludeResource: font Helvetica
/Helvetica /WindowsLatin1Encoding 120 FMSR

 577 4274 mt 
( ) s
4003  708 mt 
( ) s
6 w
1 sg
0 291 1854 0 0 -291 2134 998 4 MP
PP
-1854 0 0 291 1854 0 0 -291 2134 998 5 MP stroke
4 w
DO
SO
6 w
2134  707 mt 3988  707 L
2134  998 mt 3988  998 L
3988  998 mt 3988  707 L
2134  998 mt 2134  707 L
2134  998 mt 3988  998 L
2134  998 mt 2134  707 L
2134  707 mt 3988  707 L
2134  998 mt 3988  998 L
3988  998 mt 3988  707 L
2134  998 mt 2134  707 L
0 sg
%%IncludeResource: font Times-Roman
/Times-Roman /WindowsLatin1Encoding 192 FMSR

2602  919 mt 
(Preferred Region) s
gs 2134 707 1855 292 rc
36 w
gs 2312 778 149 149 rc
c9
  18   18 2386  852 FO
gr

c9
6 w
gr

c9
0 sg
3052 3257 mt 
(\(0.7,0.2\)) s

end %%Color Dict

eplot
%%EndObject

epage
end

showpage

%%Trailer
%%EOF
