%!PS-Adobe-3.0 EPSF-3.0
%%Creator: MATLAB, The MathWorks, Inc. Version 7.13.0.564 (R2011b). Operating System: Microsoft Windows XP.
%%Title: D:\DriveG\Sem2-2012\Program\ReferenceMetric-v3\metricfig\zdt4\zdt4-rnsgaii.eps
%%CreationDate: 03/15/2013  01:43:55
%%DocumentNeededFonts: Helvetica
%%+ Times-Roman
%%DocumentProcessColors: Cyan Magenta Yellow Black
%%LanguageLevel: 2
%%Pages: 1
%%BoundingBox:   107   224   487   616
%%EndComments

%%BeginProlog
% MathWorks dictionary
/MathWorks 160 dict begin
% definition operators
/bdef {bind def} bind def
/ldef {load def} bind def
/xdef {exch def} bdef
/xstore {exch store} bdef
% operator abbreviations
/c  /clip ldef
/cc /concat ldef
/cp /closepath ldef
/gr /grestore ldef
/gs /gsave ldef
/mt /moveto ldef
/np /newpath ldef
/cm /currentmatrix ldef
/sm /setmatrix ldef
/rm /rmoveto ldef
/rl /rlineto ldef
/s {show newpath} bdef
/sc {setcmykcolor} bdef
/sr /setrgbcolor ldef
/sg /setgray ldef
/w /setlinewidth ldef
/j /setlinejoin ldef
/cap /setlinecap ldef
/rc {rectclip} bdef
/rf {rectfill} bdef
% page state control
/pgsv () def
/bpage {/pgsv save def} bdef
/epage {pgsv restore} bdef
/bplot /gsave ldef
/eplot {stroke grestore} bdef
% orientation switch
/portraitMode 0 def /landscapeMode 1 def /rotateMode 2 def
% coordinate system mappings
/dpi2point 0 def
% font control
/FontSize 0 def
/FMS {/FontSize xstore findfont [FontSize 0 0 FontSize neg 0 0]
  makefont setfont} bdef
/ISOLatin1Encoding where {pop /WindowsLatin1Encoding 256 array bdef
ISOLatin1Encoding WindowsLatin1Encoding copy pop
/.notdef/.notdef/quotesinglbase/florin/quotedblbase/ellipsis/dagger
/daggerdbl/circumflex/perthousand/Scaron/guilsinglleft/OE/.notdef/.notdef
/.notdef/.notdef/quoteleft/quoteright/quotedblleft/quotedblright/bullet
/endash/emdash/tilde/trademark/scaron/guilsinglright/oe/.notdef/.notdef
/Ydieresis WindowsLatin1Encoding 128 32 getinterval astore pop}
{/WindowsLatin1Encoding StandardEncoding bdef} ifelse
/reencode {exch dup where {pop load} {pop StandardEncoding} ifelse
  exch dup 3 1 roll findfont dup length dict begin
  { 1 index /FID ne {def}{pop pop} ifelse } forall
  /Encoding exch def currentdict end definefont pop} bdef
/isroman {findfont /CharStrings get /Agrave known} bdef
/FMSR {3 1 roll 1 index dup isroman {reencode} {pop pop} ifelse
  exch FMS} bdef
/csm {1 dpi2point div -1 dpi2point div scale neg translate
 dup landscapeMode eq {pop -90 rotate}
  {rotateMode eq {90 rotate} if} ifelse} bdef
% line types: solid, dotted, dashed, dotdash
/SO { [] 0 setdash } bdef
/DO { [.5 dpi2point mul 4 dpi2point mul] 0 setdash } bdef
/DA { [6 dpi2point mul] 0 setdash } bdef
/DD { [.5 dpi2point mul 4 dpi2point mul 6 dpi2point mul 4
  dpi2point mul] 0 setdash } bdef
% macros for lines and objects
/L {lineto stroke} bdef
/MP {3 1 roll moveto 1 sub {rlineto} repeat} bdef
/AP {{rlineto} repeat} bdef
/PDlw -1 def
/W {/PDlw currentlinewidth def setlinewidth} def
/PP {closepath eofill} bdef
/DP {closepath stroke} bdef
/MR {4 -2 roll moveto dup  0 exch rlineto exch 0 rlineto
  neg 0 exch rlineto closepath} bdef
/FR {MR stroke} bdef
/PR {MR fill} bdef
/L1i {{currentfile picstr readhexstring pop} image} bdef
/tMatrix matrix def
/MakeOval {newpath tMatrix currentmatrix pop translate scale
0 0 1 0 360 arc tMatrix setmatrix} bdef
/FO {MakeOval stroke} bdef
/PO {MakeOval fill} bdef
/PD {currentlinewidth 2 div 0 360 arc fill
   PDlw -1 eq not {PDlw w /PDlw -1 def} if} def
/FA {newpath tMatrix currentmatrix pop translate scale
  0 0 1 5 -2 roll arc tMatrix setmatrix stroke} bdef
/PA {newpath tMatrix currentmatrix pop	translate 0 0 moveto scale
  0 0 1 5 -2 roll arc closepath tMatrix setmatrix fill} bdef
/FAn {newpath tMatrix currentmatrix pop translate scale
  0 0 1 5 -2 roll arcn tMatrix setmatrix stroke} bdef
/PAn {newpath tMatrix currentmatrix pop translate 0 0 moveto scale
  0 0 1 5 -2 roll arcn closepath tMatrix setmatrix fill} bdef
/vradius 0 def /hradius 0 def /lry 0 def
/lrx 0 def /uly 0 def /ulx 0 def /rad 0 def
/MRR {/vradius xdef /hradius xdef /lry xdef /lrx xdef /uly xdef
  /ulx xdef newpath tMatrix currentmatrix pop ulx hradius add uly
  vradius add translate hradius vradius scale 0 0 1 180 270 arc 
  tMatrix setmatrix lrx hradius sub uly vradius add translate
  hradius vradius scale 0 0 1 270 360 arc tMatrix setmatrix
  lrx hradius sub lry vradius sub translate hradius vradius scale
  0 0 1 0 90 arc tMatrix setmatrix ulx hradius add lry vradius sub
  translate hradius vradius scale 0 0 1 90 180 arc tMatrix setmatrix
  closepath} bdef
/FRR {MRR stroke } bdef
/PRR {MRR fill } bdef
/MlrRR {/lry xdef /lrx xdef /uly xdef /ulx xdef /rad lry uly sub 2 div def
  newpath tMatrix currentmatrix pop ulx rad add uly rad add translate
  rad rad scale 0 0 1 90 270 arc tMatrix setmatrix lrx rad sub lry rad
  sub translate rad rad scale 0 0 1 270 90 arc tMatrix setmatrix
  closepath} bdef
/FlrRR {MlrRR stroke } bdef
/PlrRR {MlrRR fill } bdef
/MtbRR {/lry xdef /lrx xdef /uly xdef /ulx xdef /rad lrx ulx sub 2 div def
  newpath tMatrix currentmatrix pop ulx rad add uly rad add translate
  rad rad scale 0 0 1 180 360 arc tMatrix setmatrix lrx rad sub lry rad
  sub translate rad rad scale 0 0 1 0 180 arc tMatrix setmatrix
  closepath} bdef
/FtbRR {MtbRR stroke } bdef
/PtbRR {MtbRR fill } bdef
/stri 6 array def /dtri 6 array def
/smat 6 array def /dmat 6 array def
/tmat1 6 array def /tmat2 6 array def /dif 3 array def
/asub {/ind2 exch def /ind1 exch def dup dup
  ind1 get exch ind2 get sub exch } bdef
/tri_to_matrix {
  2 0 asub 3 1 asub 4 0 asub 5 1 asub
  dup 0 get exch 1 get 7 -1 roll astore } bdef
/compute_transform {
  dmat dtri tri_to_matrix tmat1 invertmatrix 
  smat stri tri_to_matrix tmat2 concatmatrix } bdef
/ds {stri astore pop} bdef
/dt {dtri astore pop} bdef
/db {2 copy /cols xdef /rows xdef mul dup 3 mul string
  currentfile 
  3 index 0 eq {/ASCIIHexDecode filter}
  {/ASCII85Decode filter 3 index 2 eq {/RunLengthDecode filter} if }
  ifelse exch readstring pop
  dup 0 3 index getinterval /rbmap xdef
  dup 2 index dup getinterval /gbmap xdef
  1 index dup 2 mul exch getinterval /bbmap xdef pop pop}bdef
/it {gs np dtri aload pop moveto lineto lineto cp c
  cols rows 8 compute_transform 
  rbmap gbmap bbmap true 3 colorimage gr}bdef
/il {newpath moveto lineto stroke}bdef
currentdict end def
%%EndProlog

%%BeginSetup
MathWorks begin

0 cap

end
%%EndSetup

%%Page: 1 1
%%BeginPageSetup
%%PageBoundingBox:   107   224   487   616
MathWorks begin
bpage
%%EndPageSetup

%%BeginObject: obj1
bplot

/dpi2point 12 def
portraitMode 1284 7392 csm

    0     0  4567  4700 rc
86 dict begin %Colortable dictionary
/c0 { 0.000000 0.000000 0.000000 sr} bdef
/c1 { 1.000000 1.000000 1.000000 sr} bdef
/c2 { 0.900000 0.000000 0.000000 sr} bdef
/c3 { 0.000000 0.820000 0.000000 sr} bdef
/c4 { 0.000000 0.000000 0.800000 sr} bdef
/c5 { 0.910000 0.820000 0.320000 sr} bdef
/c6 { 1.000000 0.260000 0.820000 sr} bdef
/c7 { 0.000000 0.820000 0.820000 sr} bdef
c0
1 j
1 sg
   0    0 4568 4701 rf
6 w
0 3525 3425 0 0 -3525 594 4183 4 MP
PP
-3425 0 0 3525 3425 0 0 -3525 594 4183 5 MP stroke
4 w
DO
SO
6 w
0 sg
 594  658 mt 4019  658 L
 594 4183 mt 4019 4183 L
4019 4183 mt 4019  658 L
 594 4183 mt  594  658 L
 594 4183 mt 4019 4183 L
 594 4183 mt  594  658 L
 594 4183 mt  594 4147 L
 594  658 mt  594  693 L
%%IncludeResource: font Times-Roman
/Times-Roman /WindowsLatin1Encoding 144 FMSR

 558 4346 mt 
(0) s
1279 4183 mt 1279 4147 L
1279  658 mt 1279  693 L
1189 4346 mt 
(0.2) s
1964 4183 mt 1964 4147 L
1964  658 mt 1964  693 L
1874 4346 mt 
(0.4) s
2649 4183 mt 2649 4147 L
2649  658 mt 2649  693 L
2559 4346 mt 
(0.6) s
3334 4183 mt 3334 4147 L
3334  658 mt 3334  693 L
3244 4346 mt 
(0.8) s
4019 4183 mt 4019 4147 L
4019  658 mt 4019  693 L
3983 4346 mt 
(1) s
 594 4183 mt  629 4183 L
4019 4183 mt 3983 4183 L
 487 4234 mt 
(0) s
 594 3830 mt  629 3830 L
4019 3830 mt 3983 3830 L
 379 3881 mt 
(0.1) s
 594 3478 mt  629 3478 L
4019 3478 mt 3983 3478 L
 379 3529 mt 
(0.2) s
 594 3125 mt  629 3125 L
4019 3125 mt 3983 3125 L
 379 3176 mt 
(0.3) s
 594 2773 mt  629 2773 L
4019 2773 mt 3983 2773 L
 379 2824 mt 
(0.4) s
 594 2420 mt  629 2420 L
4019 2420 mt 3983 2420 L
 379 2471 mt 
(0.5) s
 594 2067 mt  629 2067 L
4019 2067 mt 3983 2067 L
 379 2118 mt 
(0.6) s
 594 1715 mt  629 1715 L
4019 1715 mt 3983 1715 L
 379 1766 mt 
(0.7) s
 594 1363 mt  629 1363 L
4019 1363 mt 3983 1363 L
 379 1414 mt 
(0.8) s
 594 1010 mt  629 1010 L
4019 1010 mt 3983 1010 L
 379 1061 mt 
(0.9) s
 594  658 mt  629  658 L
4019  658 mt 3983  658 L
 487  709 mt 
(1) s
 594  658 mt 4019  658 L
 594 4183 mt 4019 4183 L
4019 4183 mt 4019  658 L
 594 4183 mt  594  658 L
gs 594 658 3426 3526 rc
gs 2572 3313 729 510 rc
/c8 { 0.000000 1.000000 1.000000 sr} bdef
c8
  36   36 2645 3386 PO
  36   36 2649 3388 PO
  36   36 2652 3390 PO
  36   36 2655 3393 PO
  36   36 2659 3395 PO
  36   36 2662 3397 PO
  36   36 2666 3399 PO
  36   36 2669 3402 PO
  36   36 2672 3404 PO
  36   36 2676 3406 PO
  36   36 2679 3408 PO
  36   36 2683 3411 PO
  36   36 2686 3413 PO
  36   36 2690 3415 PO
  36   36 2693 3417 PO
  36   36 2696 3420 PO
  36   36 2700 3422 PO
  36   36 2703 3424 PO
  36   36 2707 3426 PO
  36   36 2710 3429 PO
  36   36 2714 3431 PO
  36   36 2717 3433 PO
  36   36 2720 3435 PO
  36   36 2724 3438 PO
  36   36 2727 3440 PO
  36   36 2731 3442 PO
  36   36 2734 3444 PO
  36   36 2738 3446 PO
  36   36 2741 3449 PO
  36   36 2744 3451 PO
  36   36 2748 3453 PO
  36   36 2751 3455 PO
  36   36 2755 3458 PO
  36   36 2758 3460 PO
  36   36 2762 3462 PO
  36   36 2765 3464 PO
  36   36 2768 3466 PO
  36   36 2772 3469 PO
  36   36 2775 3471 PO
  36   36 2779 3473 PO
  36   36 2782 3475 PO
  36   36 2786 3478 PO
  36   36 2789 3480 PO
  36   36 2792 3482 PO
  36   36 2796 3484 PO
  36   36 2799 3486 PO
  36   36 2803 3488 PO
  36   36 2806 3491 PO
  36   36 2809 3493 PO
  36   36 2813 3495 PO
  36   36 2816 3497 PO
  36   36 2820 3499 PO
  36   36 2823 3502 PO
  36   36 2827 3504 PO
  36   36 2830 3506 PO
  36   36 2833 3508 PO
  36   36 2837 3510 PO
  36   36 2840 3513 PO
  36   36 2844 3515 PO
  36   36 2847 3517 PO
  36   36 2851 3519 PO
  36   36 2854 3521 PO
  36   36 2857 3523 PO
  36   36 2861 3526 PO
  36   36 2864 3528 PO
  36   36 2868 3530 PO
  36   36 2871 3532 PO
  36   36 2875 3534 PO
  36   36 2878 3536 PO
  36   36 2881 3539 PO
  36   36 2885 3541 PO
  36   36 2888 3543 PO
  36   36 2892 3545 PO
  36   36 2895 3547 PO
  36   36 2899 3549 PO
  36   36 2902 3551 PO
  36   36 2905 3554 PO
  36   36 2909 3556 PO
  36   36 2912 3558 PO
  36   36 2916 3560 PO
  36   36 2919 3562 PO
  36   36 2923 3564 PO
  36   36 2926 3566 PO
  36   36 2929 3569 PO
  36   36 2933 3571 PO
  36   36 2936 3573 PO
  36   36 2940 3575 PO
  36   36 2943 3577 PO
  36   36 2946 3579 PO
  36   36 2950 3581 PO
  36   36 2953 3583 PO
  36   36 2957 3586 PO
  36   36 2960 3588 PO
  36   36 2964 3590 PO
  36   36 2967 3592 PO
  36   36 2970 3594 PO
  36   36 2974 3596 PO
  36   36 2977 3598 PO
  36   36 2981 3600 PO
  36   36 2984 3603 PO
  36   36 2988 3605 PO
  36   36 2991 3607 PO
  36   36 2994 3609 PO
  36   36 2998 3611 PO
  36   36 3001 3613 PO
  36   36 3005 3615 PO
  36   36 3008 3617 PO
  36   36 3012 3619 PO
  36   36 3015 3621 PO
  36   36 3018 3624 PO
  36   36 3022 3626 PO
  36   36 3025 3628 PO
  36   36 3029 3630 PO
  36   36 3032 3632 PO
  36   36 3036 3634 PO
  36   36 3039 3636 PO
  36   36 3042 3638 PO
  36   36 3046 3640 PO
  36   36 3049 3642 PO
  36   36 3053 3644 PO
  36   36 3056 3646 PO
  36   36 3060 3649 PO
  36   36 3063 3651 PO
  36   36 3066 3653 PO
  36   36 3070 3655 PO
  36   36 3073 3657 PO
  36   36 3077 3659 PO
  36   36 3080 3661 PO
  36   36 3083 3663 PO
  36   36 3087 3665 PO
  36   36 3090 3667 PO
  36   36 3094 3669 PO
  36   36 3097 3671 PO
  36   36 3101 3673 PO
  36   36 3104 3675 PO
  36   36 3107 3678 PO
  36   36 3111 3680 PO
  36   36 3114 3682 PO
  36   36 3118 3684 PO
  36   36 3121 3686 PO
  36   36 3125 3688 PO
  36   36 3128 3690 PO
  36   36 3131 3692 PO
  36   36 3135 3694 PO
  36   36 3138 3696 PO
  36   36 3142 3698 PO
  36   36 3145 3700 PO
  36   36 3149 3702 PO
  36   36 3152 3704 PO
  36   36 3155 3706 PO
  36   36 3159 3708 PO
  36   36 3162 3710 PO
  36   36 3166 3712 PO
  36   36 3169 3714 PO
  36   36 3173 3716 PO
  36   36 3176 3718 PO
  36   36 3179 3720 PO
  36   36 3183 3722 PO
  36   36 3186 3724 PO
  36   36 3190 3726 PO
  36   36 3193 3729 PO
  36   36 3197 3731 PO
  36   36 3200 3733 PO
  36   36 3203 3735 PO
  36   36 3207 3737 PO
  36   36 3210 3739 PO
  36   36 3214 3741 PO
  36   36 3217 3743 PO
  36   36 3220 3745 PO
  36   36 3224 3747 PO
  36   36 3227 3749 PO
  36   36 2645 3386 FO
  36   36 2649 3388 FO
  36   36 2652 3390 FO
  36   36 2655 3393 FO
  36   36 2659 3395 FO
  36   36 2662 3397 FO
  36   36 2666 3399 FO
  36   36 2669 3402 FO
  36   36 2672 3404 FO
  36   36 2676 3406 FO
  36   36 2679 3408 FO
  36   36 2683 3411 FO
  36   36 2686 3413 FO
  36   36 2690 3415 FO
  36   36 2693 3417 FO
  36   36 2696 3420 FO
  36   36 2700 3422 FO
  36   36 2703 3424 FO
  36   36 2707 3426 FO
  36   36 2710 3429 FO
  36   36 2714 3431 FO
  36   36 2717 3433 FO
  36   36 2720 3435 FO
  36   36 2724 3438 FO
  36   36 2727 3440 FO
  36   36 2731 3442 FO
  36   36 2734 3444 FO
  36   36 2738 3446 FO
  36   36 2741 3449 FO
  36   36 2744 3451 FO
  36   36 2748 3453 FO
  36   36 2751 3455 FO
  36   36 2755 3458 FO
  36   36 2758 3460 FO
  36   36 2762 3462 FO
  36   36 2765 3464 FO
  36   36 2768 3466 FO
  36   36 2772 3469 FO
  36   36 2775 3471 FO
  36   36 2779 3473 FO
  36   36 2782 3475 FO
  36   36 2786 3478 FO
  36   36 2789 3480 FO
  36   36 2792 3482 FO
  36   36 2796 3484 FO
  36   36 2799 3486 FO
  36   36 2803 3488 FO
  36   36 2806 3491 FO
  36   36 2809 3493 FO
  36   36 2813 3495 FO
  36   36 2816 3497 FO
  36   36 2820 3499 FO
  36   36 2823 3502 FO
  36   36 2827 3504 FO
  36   36 2830 3506 FO
  36   36 2833 3508 FO
  36   36 2837 3510 FO
  36   36 2840 3513 FO
  36   36 2844 3515 FO
  36   36 2847 3517 FO
  36   36 2851 3519 FO
  36   36 2854 3521 FO
  36   36 2857 3523 FO
  36   36 2861 3526 FO
  36   36 2864 3528 FO
  36   36 2868 3530 FO
  36   36 2871 3532 FO
  36   36 2875 3534 FO
  36   36 2878 3536 FO
  36   36 2881 3539 FO
  36   36 2885 3541 FO
  36   36 2888 3543 FO
  36   36 2892 3545 FO
  36   36 2895 3547 FO
  36   36 2899 3549 FO
  36   36 2902 3551 FO
  36   36 2905 3554 FO
  36   36 2909 3556 FO
  36   36 2912 3558 FO
  36   36 2916 3560 FO
  36   36 2919 3562 FO
  36   36 2923 3564 FO
  36   36 2926 3566 FO
  36   36 2929 3569 FO
  36   36 2933 3571 FO
  36   36 2936 3573 FO
  36   36 2940 3575 FO
  36   36 2943 3577 FO
  36   36 2946 3579 FO
  36   36 2950 3581 FO
  36   36 2953 3583 FO
  36   36 2957 3586 FO
  36   36 2960 3588 FO
  36   36 2964 3590 FO
  36   36 2967 3592 FO
  36   36 2970 3594 FO
  36   36 2974 3596 FO
  36   36 2977 3598 FO
  36   36 2981 3600 FO
  36   36 2984 3603 FO
  36   36 2988 3605 FO
  36   36 2991 3607 FO
  36   36 2994 3609 FO
  36   36 2998 3611 FO
  36   36 3001 3613 FO
  36   36 3005 3615 FO
  36   36 3008 3617 FO
  36   36 3012 3619 FO
  36   36 3015 3621 FO
  36   36 3018 3624 FO
  36   36 3022 3626 FO
  36   36 3025 3628 FO
  36   36 3029 3630 FO
  36   36 3032 3632 FO
  36   36 3036 3634 FO
  36   36 3039 3636 FO
  36   36 3042 3638 FO
  36   36 3046 3640 FO
  36   36 3049 3642 FO
  36   36 3053 3644 FO
  36   36 3056 3646 FO
  36   36 3060 3649 FO
  36   36 3063 3651 FO
  36   36 3066 3653 FO
  36   36 3070 3655 FO
  36   36 3073 3657 FO
  36   36 3077 3659 FO
  36   36 3080 3661 FO
  36   36 3083 3663 FO
  36   36 3087 3665 FO
  36   36 3090 3667 FO
  36   36 3094 3669 FO
  36   36 3097 3671 FO
  36   36 3101 3673 FO
  36   36 3104 3675 FO
  36   36 3107 3678 FO
  36   36 3111 3680 FO
  36   36 3114 3682 FO
  36   36 3118 3684 FO
  36   36 3121 3686 FO
  36   36 3125 3688 FO
  36   36 3128 3690 FO
  36   36 3131 3692 FO
  36   36 3135 3694 FO
  36   36 3138 3696 FO
  36   36 3142 3698 FO
  36   36 3145 3700 FO
  36   36 3149 3702 FO
  36   36 3152 3704 FO
  36   36 3155 3706 FO
  36   36 3159 3708 FO
  36   36 3162 3710 FO
  36   36 3166 3712 FO
  36   36 3169 3714 FO
  36   36 3173 3716 FO
  36   36 3176 3718 FO
  36   36 3179 3720 FO
  36   36 3183 3722 FO
  36   36 3186 3724 FO
  36   36 3190 3726 FO
  36   36 3193 3729 FO
  36   36 3197 3731 FO
  36   36 3200 3733 FO
  36   36 3203 3735 FO
  36   36 3207 3737 FO
  36   36 3210 3739 FO
  36   36 3214 3741 FO
  36   36 3217 3743 FO
  36   36 3220 3745 FO
  36   36 3224 3747 FO
  36   36 3227 3749 FO
gr

c8
gr

c8
0 sg
%%IncludeResource: font Helvetica
/Helvetica /WindowsLatin1Encoding 120 FMSR

 577 4226 mt 
( ) s
4003  700 mt 
( ) s
gs 594 658 3426 3526 rc
36 w
gs 2854 3491 212 189 rc
0 j
0 -30 -30 0 0 30 30 0 2913 3550 5 MP
/c9 { 1.000000 0.000000 0.000000 sr} bdef
c9
DP
0 -30 -30 0 0 30 30 0 2920 3554 5 MP
DP
0 -30 -30 0 0 30 30 0 2923 3557 5 MP
DP
0 -30 -30 0 0 30 30 0 2925 3558 5 MP
DP
0 -30 -30 0 0 30 30 0 2928 3559 5 MP
DP
0 -30 -30 0 0 30 30 0 2932 3562 5 MP
DP
0 -30 -30 0 0 30 30 0 2934 3564 5 MP
DP
0 -30 -30 0 0 30 30 0 2935 3564 5 MP
DP
0 -30 -30 0 0 30 30 0 2939 3567 5 MP
DP
0 -30 -30 0 0 30 30 0 2953 3575 5 MP
DP
0 -30 -30 0 0 30 30 0 2957 3577 5 MP
DP
0 -30 -30 0 0 30 30 0 2959 3579 5 MP
DP
0 -30 -30 0 0 30 30 0 2960 3580 5 MP
DP
0 -30 -30 0 0 30 30 0 2961 3580 5 MP
DP
0 -30 -30 0 0 30 30 0 2963 3581 5 MP
DP
0 -30 -30 0 0 30 30 0 2964 3582 5 MP
DP
0 -30 -30 0 0 30 30 0 2965 3583 5 MP
DP
0 -30 -30 0 0 30 30 0 2967 3584 5 MP
DP
0 -30 -30 0 0 30 30 0 2968 3584 5 MP
DP
0 -30 -30 0 0 30 30 0 2969 3585 5 MP
DP
0 -30 -30 0 0 30 30 0 2970 3587 5 MP
DP
0 -30 -30 0 0 30 30 0 2972 3587 5 MP
DP
0 -30 -30 0 0 30 30 0 2973 3587 5 MP
DP
0 -30 -30 0 0 30 30 0 2973 3588 5 MP
DP
0 -30 -30 0 0 30 30 0 2974 3588 5 MP
DP
0 -30 -30 0 0 30 30 0 2974 3589 5 MP
DP
0 -30 -30 0 0 30 30 0 2975 3589 5 MP
DP
0 -30 -30 0 0 30 30 0 2976 3589 5 MP
DP
0 -30 -30 0 0 30 30 0 2976 3590 5 MP
DP
gr

c9
27.6 w
/c10 { 0.000000 0.000000 1.000000 sr} bdef
c10
4 2 3 2 4 2 3 2 4 1 3 2 3 2 4 2 
3 1 4 2 3 2 4 2 3 1 3 2 4 2 3 2 
4 2 3 1 4 2 3 2 3 2 4 1 3 2 4 2 
3 2 4 2 3 1 3 2 4 2 3 2 4 2 3 1 
4 2 3 2 3 2 4 2 3 1 4 2 3 2 3 2 
4 2 3 1 4 2 3 2 4 2 3 2 3 1 4 2 
3 2 4 2 3 2 4 1 3 2 3 2 4 2 3 2 
4 1 3 2 4 2 3 2 3 2 4 2 3 1 4 2 
3 2 4 2 3 2 3 1 4 2 3 2 4 2 3 2 
4 2 3 1 3 2 4 2 3 2 4 2 3 2 3 1 
4 2 3 2 4 2 3 2 4 2 3 1 3 2 4 2 
3 2 4 2 3 2 4 2 3 1 3 2 4 2 3 2 
4 2 3 2 4 2 3 1 3 2 4 2 3 2 4 2 
3 2 4 2 3 1 3 2 4 2 3 2 4 2 3 2 
4 2 3 2 3 1 4 2 3 2 4 2 3 2 3 2 
4 2 3 2 4 1 3 2 4 2 3 2 3 2 4 2 
3 2 4 2 3 1 4 2 3 2 3 2 4 2 3 2 
4 2 3 2 4 2 3 2 3 1 4 2 3 2 4 2 
3 2 4 2 3 2 3 2 4 2 3 2 4 2 3 1 
4 2 3 2 3 2 4 2 3 2 4 2 3 2 3 2 
4 2 3 2 4 2 3 1 4 2 3 2 3 2 4 2 
3 2 4 2 3 2 4 2 3 2 3 2 4 2 3 2 
4 2 3 2 4 2 3 1 3 2 4 2 3 2 4 2 
3 2 4 2 3 2 3 2 4 2 3 2 4 2 3 2 
4 2 3 2 3 2 4 2 3 2 4 2 3 2 3 2 
4 2 3 2 4 2 3 2 4 2 3 1 3 2 4 2 
3 2 4 2 3 2 4 2 3 2 3 2 4 2 3 2 
4 2 3 2 4 2 3 2 3 2 4 2 3 2 4 2 
3 2 4 2 3 2 3 2 4 2 3 2 4 2 3 2 
4 2 3 2 3 2 4 2 3 2 4 2 3 2 3 2 
4 2 3 3 4 2 3 2 4 2 3 2 3 2 4 2 
3 2 4 2 3 2 4 2 3 2 3 2 4 2 3 2 
4 2 3 2 4 2 3 2 3 2 4 2 3 2 4 2 
3 2 4 2 3 3 3 2 4 2 3 2 4 2 3 2 
4 2 3 2 3 2 4 2 3 2 4 2 3 2 3 2 
4 3 3 2 4 2 3 2 4 2 3 2 3 2 4 2 
3 2 4 2 3 2 4 2 3 3 3 2 4 2 3 2 
4 2 3 2 4 2 2994 3609 300 MP stroke
3 2 3 2 4 2 3 3 4 2 3 2 4 2 3 2 
3 2 4 2 3 2 4 3 3 2 4 2 3 2 3 2 
4 2 3 2 4 2 3 3 3 2 4 2 3 2 4 2 
3 2 4 2 3 3 3 2 4 2 3 2 4 2 3 2 
4 2 3 3 3 2 4 2 3 2 4 2 3 2 4 3 
3 2 3 2 4 2 3 2 4 2 3 3 4 2 3 2 
3 2 4 2 3 3 4 2 3 2 4 2 3 2 3 3 
4 2 3 2 4 2 3 2 3 2 4 3 3 2 4 2 
3 2 4 3 3 2 3 2 4 2 3 2 4 3 3 2 
4 2 3 2 3 3 4 2 3 2 4 2 3 2 4 3 
3 2 3 2 4 2 3 3 4 2 3 2 4 2 3 3 
3 2 4 2 3 2 4 3 3 2 4 2 3 2 3 3 
4 2 3 2 4 2 3 3 3 2 4 2 3 3 4 2 
3 2 4 2 3 3 3 2 4 2 3 3 4 2 3 2 
4 2 3 3 3 2 4 2 3 3 4 2 3 2 4 3 
3 2 3 2 4 3 3 2 4 2 3 3 4 2 3 2 
3 3 4 2 3 2 4 3 3 2 4 2 3 3 3 2 
4 2 3 3 4 2 3 2 3 3 4 2 3 2 4 3 
3 2 4 2 3 3 3 2 4 3 3 2 4 2 3 3 
4 2 3 2 3 3 4 2 3 3 4 2 3 2 4 3 
3 2 3 3 4 2 3 2 4 3 3 2 4 3 3 2 
3 2 4 3 3 2 4 3 3 2 4 3 3 2 3 2 
4 3 3 2 4 3 3 2 3 3 4 2 3 2 4 3 
3 2 4 3 3 2 3 3 4 2 3 3 4 2 3 3 
4 2 3 3 3 2 4 3 3 2 4 2 3 3 4 2 
3 3 3 2 4 3 3 2 4 3 3 2 4 3 3 2 
3 3 4 2 3 3 4 3 3 2 4 3 3 2 3 3 
4 2 3 3 4 2 3 3 3 2 4 3 3 2 4 3 
3 3 4 2 3 3 3 2 4 3 3 2 4 3 3 2 
4 3 3 3 3 2 4 3 3 2 4 3 3 3 4 2 
3 3 3 2 4 3 3 3 4 2 3 3 4 2 3 3 
3 3 4 2 3 3 4 2 3 3 4 3 3 2 3 3 
4 3 3 2 4 3 3 3 3 2 4 3 3 3 4 2 
3 3 4 3 3 2 3 3 4 3 3 2 4 3 3 3 
4 2 3 3 3 3 4 2 3 3 4 3 3 3 4 2 
3 3 3 3 4 2 3 3 4 3 3 3 4 2 3 3 
3 3 4 3 3 2 4 3 3 3 4 3 3 2 3 3 
4 3 3 3 4 3 1970 2892 300 MP stroke
3 2 3 3 4 3 3 3 4 2 3 3 4 3 3 3 
3 3 4 3 3 2 4 3 3 3 4 3 3 3 3 2 
4 3 3 3 4 3 3 3 4 3 3 3 3 2 4 3 
3 3 4 3 3 3 4 3 3 3 3 3 4 2 3 3 
4 3 3 3 4 3 3 3 3 3 4 3 3 3 4 3 
3 3 3 2 4 3 3 3 4 3 3 3 4 3 3 3 
3 3 4 3 3 3 4 3 3 3 4 3 3 3 3 3 
4 3 3 3 4 3 3 3 4 3 3 3 3 3 4 3 
3 3 4 3 3 3 4 3 3 3 3 3 4 3 3 4 
4 3 3 3 4 3 3 3 3 3 4 3 3 3 4 3 
3 3 3 3 4 4 3 3 4 3 3 3 4 3 3 3 
3 3 4 4 3 3 4 3 3 3 4 3 3 3 3 4 
4 3 3 3 4 3 3 3 4 4 3 3 3 3 4 3 
3 3 4 4 3 3 4 3 3 3 3 4 4 3 3 3 
4 4 3 3 4 3 3 3 3 4 4 3 3 3 4 4 
3 3 3 3 4 4 3 3 4 3 3 4 4 3 3 3 
3 4 4 3 3 3 4 4 3 3 4 4 3 3 3 3 
4 4 3 3 4 4 3 3 4 4 3 3 3 4 4 3 
3 3 4 4 3 3 4 4 3 3 3 4 4 3 3 4 
4 4 3 3 4 4 3 3 3 4 4 3 3 4 4 3 
3 4 3 4 4 3 3 4 4 3 3 4 4 4 3 3 
3 4 4 4 3 3 4 4 3 4 4 3 3 4 3 4 
4 3 3 4 4 4 3 4 4 3 3 4 3 4 4 4 
3 3 4 4 3 4 4 4 3 4 3 3 4 4 3 4 
4 4 3 4 4 4 3 4 3 3 4 4 3 4 4 4 
3 4 3 4 4 4 3 4 4 4 3 4 4 4 3 4 
3 4 4 4 3 4 4 4 3 4 4 4 3 4 3 4 
4 4 3 4 4 5 3 4 4 4 3 4 3 4 4 4 
3 4 4 5 3 4 4 4 3 4 3 5 4 4 3 4 
4 4 3 5 4 4 3 4 3 5 4 4 3 4 4 5 
3 4 3 4 4 5 3 4 4 5 3 4 4 5 3 4 
3 5 4 4 3 5 4 4 3 5 4 4 3 5 3 5 
4 4 3 5 4 5 3 4 4 5 3 5 3 4 4 5 
3 5 4 5 3 4 4 5 3 5 3 5 4 5 3 5 
4 4 3 5 4 5 3 5 3 5 4 5 3 5 4 5 
3 5 3 5 4 6 3 5 4 5 3 5 4 5 3 5 
3 6 4 5 3 5 4 5 3 6 4 5 3 5 3 6 
4 5 3 6 4 5 946 1789 300 MP stroke
3 6 4 5 3 6 3 5 4 6 3 6 4 5 3 6 
4 6 3 6 3 5 4 6 3 6 4 6 3 6 4 6 
3 6 3 6 4 6 3 6 4 6 3 6 3 6 4 7 
3 6 4 6 3 7 4 6 3 7 3 6 4 7 3 6 
4 7 3 7 4 6 3 7 3 7 4 7 3 7 4 7 
3 7 4 7 3 7 3 7 4 8 3 7 4 7 3 8 
4 7 3 8 3 8 4 7 3 8 4 8 3 8 4 8 
3 8 3 9 4 8 3 9 4 8 3 9 3 8 4 9 
3 9 4 9 3 10 4 9 3 10 3 9 4 10 3 10 
4 10 3 10 4 11 3 10 3 11 4 11 3 11 4 12 
3 12 4 12 3 12 3 13 4 13 3 13 4 14 3 14 
4 14 3 16 3 15 4 17 3 17 4 18 3 19 4 21 
3 21 3 24 4 27 3 29 4 36 3 46 3 111 594 658 104 MP stroke
36 w
gs 2917 3404 149 149 rc
0 sg
  18   18 2991 3478 FO
gr

0 sg
6 w
gr

1 sg
0 540 2034 0 0 -540 1953 1213 4 MP
PP
-2034 0 0 540 2034 0 0 -540 1953 1213 5 MP stroke
4 w
DO
SO
6 w
1953  673 mt 3987  673 L
1953 1213 mt 3987 1213 L
3987 1213 mt 3987  673 L
1953 1213 mt 1953  673 L
1953 1213 mt 3987 1213 L
1953 1213 mt 1953  673 L
1953  673 mt 3987  673 L
1953 1213 mt 3987 1213 L
3987 1213 mt 3987  673 L
1953 1213 mt 1953  673 L
0 sg
%%IncludeResource: font Times-Roman
/Times-Roman /WindowsLatin1Encoding 192 FMSR

2421  885 mt 
(Preferred Region) s
gs 1953 673 2035 541 rc
gs 2132 745 147 147 rc
c8
  36   36 2205  818 PO
  36   36 2205  818 FO
gr

c8
gr

c8
0 sg
2421 1134 mt 
(Obtained Solutions) s
gs 1953 673 2035 541 rc
36 w
gs 2131 993 149 149 rc
0 j
0 -30 -30 0 0 30 30 0 2190 1052 5 MP
c9
DP
gr

c9
6 w
gr

c9
0 sg
3052 3229 mt 
(\(0.7,0.2\)) s

end %%Color Dict

eplot
%%EndObject

epage
end

showpage

%%Trailer
%%EOF
