%!PS-Adobe-3.0 EPSF-3.0
%%Creator: MATLAB, The MathWorks, Inc. Version 7.13.0.564 (R2011b). Operating System: Microsoft Windows XP.
%%Title: D:\DriveG\Sem2-2012\Program\ReferenceMetric-v3\metricfig\zdt4\zdt4-te.eps
%%CreationDate: 03/15/2013  01:43:45
%%DocumentNeededFonts: Helvetica
%%+ Times-Roman
%%DocumentProcessColors: Cyan Magenta Yellow Black
%%LanguageLevel: 2
%%Pages: 1
%%BoundingBox:   109   232   484   608
%%EndComments

%%BeginProlog
% MathWorks dictionary
/MathWorks 160 dict begin
% definition operators
/bdef {bind def} bind def
/ldef {load def} bind def
/xdef {exch def} bdef
/xstore {exch store} bdef
% operator abbreviations
/c  /clip ldef
/cc /concat ldef
/cp /closepath ldef
/gr /grestore ldef
/gs /gsave ldef
/mt /moveto ldef
/np /newpath ldef
/cm /currentmatrix ldef
/sm /setmatrix ldef
/rm /rmoveto ldef
/rl /rlineto ldef
/s {show newpath} bdef
/sc {setcmykcolor} bdef
/sr /setrgbcolor ldef
/sg /setgray ldef
/w /setlinewidth ldef
/j /setlinejoin ldef
/cap /setlinecap ldef
/rc {rectclip} bdef
/rf {rectfill} bdef
% page state control
/pgsv () def
/bpage {/pgsv save def} bdef
/epage {pgsv restore} bdef
/bplot /gsave ldef
/eplot {stroke grestore} bdef
% orientation switch
/portraitMode 0 def /landscapeMode 1 def /rotateMode 2 def
% coordinate system mappings
/dpi2point 0 def
% font control
/FontSize 0 def
/FMS {/FontSize xstore findfont [FontSize 0 0 FontSize neg 0 0]
  makefont setfont} bdef
/ISOLatin1Encoding where {pop /WindowsLatin1Encoding 256 array bdef
ISOLatin1Encoding WindowsLatin1Encoding copy pop
/.notdef/.notdef/quotesinglbase/florin/quotedblbase/ellipsis/dagger
/daggerdbl/circumflex/perthousand/Scaron/guilsinglleft/OE/.notdef/.notdef
/.notdef/.notdef/quoteleft/quoteright/quotedblleft/quotedblright/bullet
/endash/emdash/tilde/trademark/scaron/guilsinglright/oe/.notdef/.notdef
/Ydieresis WindowsLatin1Encoding 128 32 getinterval astore pop}
{/WindowsLatin1Encoding StandardEncoding bdef} ifelse
/reencode {exch dup where {pop load} {pop StandardEncoding} ifelse
  exch dup 3 1 roll findfont dup length dict begin
  { 1 index /FID ne {def}{pop pop} ifelse } forall
  /Encoding exch def currentdict end definefont pop} bdef
/isroman {findfont /CharStrings get /Agrave known} bdef
/FMSR {3 1 roll 1 index dup isroman {reencode} {pop pop} ifelse
  exch FMS} bdef
/csm {1 dpi2point div -1 dpi2point div scale neg translate
 dup landscapeMode eq {pop -90 rotate}
  {rotateMode eq {90 rotate} if} ifelse} bdef
% line types: solid, dotted, dashed, dotdash
/SO { [] 0 setdash } bdef
/DO { [.5 dpi2point mul 4 dpi2point mul] 0 setdash } bdef
/DA { [6 dpi2point mul] 0 setdash } bdef
/DD { [.5 dpi2point mul 4 dpi2point mul 6 dpi2point mul 4
  dpi2point mul] 0 setdash } bdef
% macros for lines and objects
/L {lineto stroke} bdef
/MP {3 1 roll moveto 1 sub {rlineto} repeat} bdef
/AP {{rlineto} repeat} bdef
/PDlw -1 def
/W {/PDlw currentlinewidth def setlinewidth} def
/PP {closepath eofill} bdef
/DP {closepath stroke} bdef
/MR {4 -2 roll moveto dup  0 exch rlineto exch 0 rlineto
  neg 0 exch rlineto closepath} bdef
/FR {MR stroke} bdef
/PR {MR fill} bdef
/L1i {{currentfile picstr readhexstring pop} image} bdef
/tMatrix matrix def
/MakeOval {newpath tMatrix currentmatrix pop translate scale
0 0 1 0 360 arc tMatrix setmatrix} bdef
/FO {MakeOval stroke} bdef
/PO {MakeOval fill} bdef
/PD {currentlinewidth 2 div 0 360 arc fill
   PDlw -1 eq not {PDlw w /PDlw -1 def} if} def
/FA {newpath tMatrix currentmatrix pop translate scale
  0 0 1 5 -2 roll arc tMatrix setmatrix stroke} bdef
/PA {newpath tMatrix currentmatrix pop	translate 0 0 moveto scale
  0 0 1 5 -2 roll arc closepath tMatrix setmatrix fill} bdef
/FAn {newpath tMatrix currentmatrix pop translate scale
  0 0 1 5 -2 roll arcn tMatrix setmatrix stroke} bdef
/PAn {newpath tMatrix currentmatrix pop translate 0 0 moveto scale
  0 0 1 5 -2 roll arcn closepath tMatrix setmatrix fill} bdef
/vradius 0 def /hradius 0 def /lry 0 def
/lrx 0 def /uly 0 def /ulx 0 def /rad 0 def
/MRR {/vradius xdef /hradius xdef /lry xdef /lrx xdef /uly xdef
  /ulx xdef newpath tMatrix currentmatrix pop ulx hradius add uly
  vradius add translate hradius vradius scale 0 0 1 180 270 arc 
  tMatrix setmatrix lrx hradius sub uly vradius add translate
  hradius vradius scale 0 0 1 270 360 arc tMatrix setmatrix
  lrx hradius sub lry vradius sub translate hradius vradius scale
  0 0 1 0 90 arc tMatrix setmatrix ulx hradius add lry vradius sub
  translate hradius vradius scale 0 0 1 90 180 arc tMatrix setmatrix
  closepath} bdef
/FRR {MRR stroke } bdef
/PRR {MRR fill } bdef
/MlrRR {/lry xdef /lrx xdef /uly xdef /ulx xdef /rad lry uly sub 2 div def
  newpath tMatrix currentmatrix pop ulx rad add uly rad add translate
  rad rad scale 0 0 1 90 270 arc tMatrix setmatrix lrx rad sub lry rad
  sub translate rad rad scale 0 0 1 270 90 arc tMatrix setmatrix
  closepath} bdef
/FlrRR {MlrRR stroke } bdef
/PlrRR {MlrRR fill } bdef
/MtbRR {/lry xdef /lrx xdef /uly xdef /ulx xdef /rad lrx ulx sub 2 div def
  newpath tMatrix currentmatrix pop ulx rad add uly rad add translate
  rad rad scale 0 0 1 180 360 arc tMatrix setmatrix lrx rad sub lry rad
  sub translate rad rad scale 0 0 1 0 180 arc tMatrix setmatrix
  closepath} bdef
/FtbRR {MtbRR stroke } bdef
/PtbRR {MtbRR fill } bdef
/stri 6 array def /dtri 6 array def
/smat 6 array def /dmat 6 array def
/tmat1 6 array def /tmat2 6 array def /dif 3 array def
/asub {/ind2 exch def /ind1 exch def dup dup
  ind1 get exch ind2 get sub exch } bdef
/tri_to_matrix {
  2 0 asub 3 1 asub 4 0 asub 5 1 asub
  dup 0 get exch 1 get 7 -1 roll astore } bdef
/compute_transform {
  dmat dtri tri_to_matrix tmat1 invertmatrix 
  smat stri tri_to_matrix tmat2 concatmatrix } bdef
/ds {stri astore pop} bdef
/dt {dtri astore pop} bdef
/db {2 copy /cols xdef /rows xdef mul dup 3 mul string
  currentfile 
  3 index 0 eq {/ASCIIHexDecode filter}
  {/ASCII85Decode filter 3 index 2 eq {/RunLengthDecode filter} if }
  ifelse exch readstring pop
  dup 0 3 index getinterval /rbmap xdef
  dup 2 index dup getinterval /gbmap xdef
  1 index dup 2 mul exch getinterval /bbmap xdef pop pop}bdef
/it {gs np dtri aload pop moveto lineto lineto cp c
  cols rows 8 compute_transform 
  rbmap gbmap bbmap true 3 colorimage gr}bdef
/il {newpath moveto lineto stroke}bdef
currentdict end def
%%EndProlog

%%BeginSetup
MathWorks begin

0 cap

end
%%EndSetup

%%Page: 1 1
%%BeginPageSetup
%%PageBoundingBox:   109   232   484   608
MathWorks begin
bpage
%%EndPageSetup

%%BeginObject: obj1
bplot

/dpi2point 12 def
portraitMode 1308 7296 csm

    0     0  4504  4502 rc
86 dict begin %Colortable dictionary
/c0 { 0.000000 0.000000 0.000000 sr} bdef
/c1 { 1.000000 1.000000 1.000000 sr} bdef
/c2 { 0.900000 0.000000 0.000000 sr} bdef
/c3 { 0.000000 0.820000 0.000000 sr} bdef
/c4 { 0.000000 0.000000 0.800000 sr} bdef
/c5 { 0.910000 0.820000 0.320000 sr} bdef
/c6 { 1.000000 0.260000 0.820000 sr} bdef
/c7 { 0.000000 0.820000 0.820000 sr} bdef
c0
1 j
1 sg
   0    0 4505 4503 rf
6 w
0 3377 3378 0 0 -3377 586 4007 4 MP
PP
-3378 0 0 3377 3378 0 0 -3377 586 4007 5 MP stroke
4 w
DO
SO
6 w
0 sg
 586  630 mt 3964  630 L
 586 4007 mt 3964 4007 L
3964 4007 mt 3964  630 L
 586 4007 mt  586  630 L
 586 4007 mt 3964 4007 L
 586 4007 mt  586  630 L
 586 4007 mt  586 3973 L
 586  630 mt  586  663 L
%%IncludeResource: font Times-Roman
/Times-Roman /WindowsLatin1Encoding 144 FMSR

 550 4170 mt 
(0) s
1261 4007 mt 1261 3973 L
1261  630 mt 1261  663 L
1171 4170 mt 
(0.2) s
1937 4007 mt 1937 3973 L
1937  630 mt 1937  663 L
1847 4170 mt 
(0.4) s
2612 4007 mt 2612 3973 L
2612  630 mt 2612  663 L
2522 4170 mt 
(0.6) s
3288 4007 mt 3288 3973 L
3288  630 mt 3288  663 L
3198 4170 mt 
(0.8) s
3964 4007 mt 3964 3973 L
3964  630 mt 3964  663 L
3928 4170 mt 
(1) s
 586 4007 mt  619 4007 L
3964 4007 mt 3930 4007 L
 479 4058 mt 
(0) s
 586 3669 mt  619 3669 L
3964 3669 mt 3930 3669 L
 371 3720 mt 
(0.1) s
 586 3331 mt  619 3331 L
3964 3331 mt 3930 3331 L
 371 3382 mt 
(0.2) s
 586 2993 mt  619 2993 L
3964 2993 mt 3930 2993 L
 371 3044 mt 
(0.3) s
 586 2656 mt  619 2656 L
3964 2656 mt 3930 2656 L
 371 2707 mt 
(0.4) s
 586 2318 mt  619 2318 L
3964 2318 mt 3930 2318 L
 371 2369 mt 
(0.5) s
 586 1980 mt  619 1980 L
3964 1980 mt 3930 1980 L
 371 2031 mt 
(0.6) s
 586 1643 mt  619 1643 L
3964 1643 mt 3930 1643 L
 371 1694 mt 
(0.7) s
 586 1305 mt  619 1305 L
3964 1305 mt 3930 1305 L
 371 1356 mt 
(0.8) s
 586  967 mt  619  967 L
3964  967 mt 3930  967 L
 371 1018 mt 
(0.9) s
 586  630 mt  619  630 L
3964  630 mt 3930  630 L
 479  681 mt 
(1) s
 586  630 mt 3964  630 L
 586 4007 mt 3964 4007 L
3964 4007 mt 3964  630 L
 586 4007 mt  586  630 L
gs 586 630 3379 3378 rc
gs 2536 3170 721 495 rc
/c8 { 0.000000 1.000000 1.000000 sr} bdef
c8
  36   36 2609 3243 PO
  36   36 2612 3245 PO
  36   36 2616 3247 PO
  36   36 2619 3250 PO
  36   36 2622 3252 PO
  36   36 2626 3254 PO
  36   36 2629 3256 PO
  36   36 2633 3258 PO
  36   36 2636 3261 PO
  36   36 2639 3263 PO
  36   36 2643 3265 PO
  36   36 2646 3267 PO
  36   36 2649 3269 PO
  36   36 2653 3271 PO
  36   36 2656 3273 PO
  36   36 2660 3276 PO
  36   36 2663 3278 PO
  36   36 2666 3280 PO
  36   36 2670 3282 PO
  36   36 2673 3284 PO
  36   36 2676 3286 PO
  36   36 2680 3289 PO
  36   36 2683 3291 PO
  36   36 2687 3293 PO
  36   36 2690 3295 PO
  36   36 2693 3297 PO
  36   36 2697 3299 PO
  36   36 2700 3301 PO
  36   36 2704 3304 PO
  36   36 2707 3306 PO
  36   36 2710 3308 PO
  36   36 2714 3310 PO
  36   36 2717 3312 PO
  36   36 2720 3314 PO
  36   36 2724 3316 PO
  36   36 2727 3318 PO
  36   36 2731 3321 PO
  36   36 2734 3323 PO
  36   36 2737 3325 PO
  36   36 2741 3327 PO
  36   36 2744 3329 PO
  36   36 2747 3331 PO
  36   36 2751 3333 PO
  36   36 2754 3335 PO
  36   36 2758 3337 PO
  36   36 2761 3340 PO
  36   36 2764 3342 PO
  36   36 2768 3344 PO
  36   36 2771 3346 PO
  36   36 2774 3348 PO
  36   36 2778 3350 PO
  36   36 2781 3352 PO
  36   36 2785 3354 PO
  36   36 2788 3356 PO
  36   36 2791 3358 PO
  36   36 2795 3360 PO
  36   36 2798 3363 PO
  36   36 2801 3365 PO
  36   36 2805 3367 PO
  36   36 2808 3369 PO
  36   36 2812 3371 PO
  36   36 2815 3373 PO
  36   36 2818 3375 PO
  36   36 2822 3377 PO
  36   36 2825 3379 PO
  36   36 2828 3381 PO
  36   36 2832 3383 PO
  36   36 2835 3385 PO
  36   36 2839 3387 PO
  36   36 2842 3390 PO
  36   36 2845 3392 PO
  36   36 2849 3394 PO
  36   36 2852 3396 PO
  36   36 2856 3398 PO
  36   36 2859 3400 PO
  36   36 2862 3402 PO
  36   36 2866 3404 PO
  36   36 2869 3406 PO
  36   36 2872 3408 PO
  36   36 2876 3410 PO
  36   36 2879 3412 PO
  36   36 2883 3414 PO
  36   36 2886 3416 PO
  36   36 2889 3418 PO
  36   36 2893 3420 PO
  36   36 2896 3422 PO
  36   36 2899 3424 PO
  36   36 2903 3427 PO
  36   36 2906 3429 PO
  36   36 2910 3431 PO
  36   36 2913 3433 PO
  36   36 2916 3435 PO
  36   36 2920 3437 PO
  36   36 2923 3439 PO
  36   36 2926 3441 PO
  36   36 2930 3443 PO
  36   36 2933 3445 PO
  36   36 2937 3447 PO
  36   36 2940 3449 PO
  36   36 2943 3451 PO
  36   36 2947 3453 PO
  36   36 2950 3455 PO
  36   36 2953 3457 PO
  36   36 2957 3459 PO
  36   36 2960 3461 PO
  36   36 2964 3463 PO
  36   36 2967 3465 PO
  36   36 2970 3467 PO
  36   36 2974 3469 PO
  36   36 2977 3471 PO
  36   36 2981 3473 PO
  36   36 2984 3475 PO
  36   36 2987 3477 PO
  36   36 2991 3479 PO
  36   36 2994 3481 PO
  36   36 2997 3483 PO
  36   36 3001 3485 PO
  36   36 3004 3487 PO
  36   36 3008 3489 PO
  36   36 3011 3491 PO
  36   36 3014 3493 PO
  36   36 3018 3495 PO
  36   36 3021 3497 PO
  36   36 3024 3499 PO
  36   36 3028 3501 PO
  36   36 3031 3503 PO
  36   36 3035 3505 PO
  36   36 3038 3507 PO
  36   36 3041 3509 PO
  36   36 3045 3511 PO
  36   36 3048 3513 PO
  36   36 3051 3515 PO
  36   36 3055 3517 PO
  36   36 3058 3519 PO
  36   36 3062 3521 PO
  36   36 3065 3523 PO
  36   36 3068 3525 PO
  36   36 3072 3527 PO
  36   36 3075 3529 PO
  36   36 3078 3531 PO
  36   36 3082 3533 PO
  36   36 3085 3535 PO
  36   36 3089 3536 PO
  36   36 3092 3538 PO
  36   36 3095 3540 PO
  36   36 3099 3542 PO
  36   36 3102 3544 PO
  36   36 3105 3546 PO
  36   36 3109 3548 PO
  36   36 3112 3550 PO
  36   36 3116 3552 PO
  36   36 3119 3554 PO
  36   36 3122 3556 PO
  36   36 3126 3558 PO
  36   36 3129 3560 PO
  36   36 3133 3562 PO
  36   36 3136 3564 PO
  36   36 3139 3566 PO
  36   36 3143 3568 PO
  36   36 3146 3570 PO
  36   36 3149 3572 PO
  36   36 3153 3574 PO
  36   36 3156 3575 PO
  36   36 3160 3577 PO
  36   36 3163 3579 PO
  36   36 3166 3581 PO
  36   36 3170 3583 PO
  36   36 3173 3585 PO
  36   36 3176 3587 PO
  36   36 3180 3589 PO
  36   36 3183 3591 PO
  36   36 2609 3243 FO
  36   36 2612 3245 FO
  36   36 2616 3247 FO
  36   36 2619 3250 FO
  36   36 2622 3252 FO
  36   36 2626 3254 FO
  36   36 2629 3256 FO
  36   36 2633 3258 FO
  36   36 2636 3261 FO
  36   36 2639 3263 FO
  36   36 2643 3265 FO
  36   36 2646 3267 FO
  36   36 2649 3269 FO
  36   36 2653 3271 FO
  36   36 2656 3273 FO
  36   36 2660 3276 FO
  36   36 2663 3278 FO
  36   36 2666 3280 FO
  36   36 2670 3282 FO
  36   36 2673 3284 FO
  36   36 2676 3286 FO
  36   36 2680 3289 FO
  36   36 2683 3291 FO
  36   36 2687 3293 FO
  36   36 2690 3295 FO
  36   36 2693 3297 FO
  36   36 2697 3299 FO
  36   36 2700 3301 FO
  36   36 2704 3304 FO
  36   36 2707 3306 FO
  36   36 2710 3308 FO
  36   36 2714 3310 FO
  36   36 2717 3312 FO
  36   36 2720 3314 FO
  36   36 2724 3316 FO
  36   36 2727 3318 FO
  36   36 2731 3321 FO
  36   36 2734 3323 FO
  36   36 2737 3325 FO
  36   36 2741 3327 FO
  36   36 2744 3329 FO
  36   36 2747 3331 FO
  36   36 2751 3333 FO
  36   36 2754 3335 FO
  36   36 2758 3337 FO
  36   36 2761 3340 FO
  36   36 2764 3342 FO
  36   36 2768 3344 FO
  36   36 2771 3346 FO
  36   36 2774 3348 FO
  36   36 2778 3350 FO
  36   36 2781 3352 FO
  36   36 2785 3354 FO
  36   36 2788 3356 FO
  36   36 2791 3358 FO
  36   36 2795 3360 FO
  36   36 2798 3363 FO
  36   36 2801 3365 FO
  36   36 2805 3367 FO
  36   36 2808 3369 FO
  36   36 2812 3371 FO
  36   36 2815 3373 FO
  36   36 2818 3375 FO
  36   36 2822 3377 FO
  36   36 2825 3379 FO
  36   36 2828 3381 FO
  36   36 2832 3383 FO
  36   36 2835 3385 FO
  36   36 2839 3387 FO
  36   36 2842 3390 FO
  36   36 2845 3392 FO
  36   36 2849 3394 FO
  36   36 2852 3396 FO
  36   36 2856 3398 FO
  36   36 2859 3400 FO
  36   36 2862 3402 FO
  36   36 2866 3404 FO
  36   36 2869 3406 FO
  36   36 2872 3408 FO
  36   36 2876 3410 FO
  36   36 2879 3412 FO
  36   36 2883 3414 FO
  36   36 2886 3416 FO
  36   36 2889 3418 FO
  36   36 2893 3420 FO
  36   36 2896 3422 FO
  36   36 2899 3424 FO
  36   36 2903 3427 FO
  36   36 2906 3429 FO
  36   36 2910 3431 FO
  36   36 2913 3433 FO
  36   36 2916 3435 FO
  36   36 2920 3437 FO
  36   36 2923 3439 FO
  36   36 2926 3441 FO
  36   36 2930 3443 FO
  36   36 2933 3445 FO
  36   36 2937 3447 FO
  36   36 2940 3449 FO
  36   36 2943 3451 FO
  36   36 2947 3453 FO
  36   36 2950 3455 FO
  36   36 2953 3457 FO
  36   36 2957 3459 FO
  36   36 2960 3461 FO
  36   36 2964 3463 FO
  36   36 2967 3465 FO
  36   36 2970 3467 FO
  36   36 2974 3469 FO
  36   36 2977 3471 FO
  36   36 2981 3473 FO
  36   36 2984 3475 FO
  36   36 2987 3477 FO
  36   36 2991 3479 FO
  36   36 2994 3481 FO
  36   36 2997 3483 FO
  36   36 3001 3485 FO
  36   36 3004 3487 FO
  36   36 3008 3489 FO
  36   36 3011 3491 FO
  36   36 3014 3493 FO
  36   36 3018 3495 FO
  36   36 3021 3497 FO
  36   36 3024 3499 FO
  36   36 3028 3501 FO
  36   36 3031 3503 FO
  36   36 3035 3505 FO
  36   36 3038 3507 FO
  36   36 3041 3509 FO
  36   36 3045 3511 FO
  36   36 3048 3513 FO
  36   36 3051 3515 FO
  36   36 3055 3517 FO
  36   36 3058 3519 FO
  36   36 3062 3521 FO
  36   36 3065 3523 FO
  36   36 3068 3525 FO
  36   36 3072 3527 FO
  36   36 3075 3529 FO
  36   36 3078 3531 FO
  36   36 3082 3533 FO
  36   36 3085 3535 FO
  36   36 3089 3536 FO
  36   36 3092 3538 FO
  36   36 3095 3540 FO
  36   36 3099 3542 FO
  36   36 3102 3544 FO
  36   36 3105 3546 FO
  36   36 3109 3548 FO
  36   36 3112 3550 FO
  36   36 3116 3552 FO
  36   36 3119 3554 FO
  36   36 3122 3556 FO
  36   36 3126 3558 FO
  36   36 3129 3560 FO
  36   36 3133 3562 FO
  36   36 3136 3564 FO
  36   36 3139 3566 FO
  36   36 3143 3568 FO
  36   36 3146 3570 FO
  36   36 3149 3572 FO
  36   36 3153 3574 FO
  36   36 3156 3575 FO
  36   36 3160 3577 FO
  36   36 3163 3579 FO
  36   36 3166 3581 FO
  36   36 3170 3583 FO
  36   36 3173 3585 FO
  36   36 3176 3587 FO
  36   36 3180 3589 FO
  36   36 3183 3591 FO
gr

c8
27.6 w
/c9 { 0.000000 0.000000 1.000000 sr} bdef
c9
4 2 3 2 4 2 3 1 3 2 4 2 3 1 4 2 
3 2 3 1 4 2 3 2 3 2 4 1 3 2 4 2 
3 1 3 2 4 2 3 1 3 2 4 2 3 2 4 1 
3 2 3 2 4 1 3 2 3 2 4 2 3 1 4 2 
3 2 3 1 4 2 3 2 3 2 4 1 3 2 4 2 
3 1 3 2 4 2 3 2 4 1 3 2 3 2 4 2 
3 1 3 2 4 2 3 1 4 2 3 2 3 2 4 1 
3 2 3 2 4 2 3 1 4 2 3 2 3 2 4 1 
3 2 3 2 4 2 3 1 4 2 3 2 3 2 4 1 
3 2 3 2 4 2 3 1 4 2 3 2 3 2 4 1 
3 2 3 2 4 2 3 1 4 2 3 2 3 2 4 2 
3 1 4 2 3 2 3 2 4 1 3 2 3 2 4 2 
3 1 4 2 3 2 3 2 4 2 3 1 3 2 4 2 
3 2 4 1 3 2 3 2 4 2 3 2 3 1 4 2 
3 2 4 2 3 2 3 1 4 2 3 2 3 2 4 2 
3 1 4 2 3 2 3 2 4 2 3 1 4 2 3 2 
3 2 4 2 3 1 3 2 4 2 3 2 4 2 3 2 
3 1 4 2 3 2 3 2 4 2 3 1 4 2 3 2 
3 2 4 2 3 2 3 1 4 2 3 2 4 2 3 2 
3 2 4 1 3 2 3 2 4 2 3 2 4 2 3 1 
3 2 4 2 3 2 3 2 4 2 3 2 4 1 3 2 
3 2 4 2 3 2 4 2 3 1 3 2 4 2 3 2 
3 2 4 2 3 2 4 1 3 2 3 2 4 2 3 2 
3 2 4 2 3 2 4 1 3 2 3 2 4 2 3 2 
3 2 4 2 3 2 4 1 3 2 3 2 4 2 3 2 
3 2 4 2 3 2 4 2 3 1 3 2 4 2 3 2 
4 2 3 2 3 2 4 2 3 2 3 2 4 1 3 2 
4 2 3 2 3 2 4 2 3 2 3 2 4 2 3 2 
4 2 3 2 3 1 4 2 3 2 3 2 4 2 3 2 
4 2 3 2 3 2 4 2 3 2 3 2 4 2 3 1 
4 2 3 2 3 2 4 2 3 2 3 2 4 2 3 2 
4 2 3 2 3 2 4 2 3 2 4 2 3 2 3 2 
4 2 3 2 3 2 4 1 3 2 4 2 3 2 3 2 
4 2 3 2 3 2 4 2 3 2 4 2 3 2 3 2 
4 2 3 2 3 2 4 2 3 2 4 2 3 2 3 2 
4 2 3 2 3 2 4 2 3 2 4 2 3 2 3 2 
4 2 3 2 3 2 4 2 3 2 4 2 3 2 3 2 
4 2 3 2 4 2 2953 3457 300 MP stroke
3 2 3 2 4 2 3 2 3 2 4 2 3 2 4 2 
3 2 3 2 4 2 3 2 3 2 4 2 3 2 4 3 
3 2 3 2 4 2 3 2 3 2 4 2 3 2 4 2 
3 2 3 2 4 2 3 2 3 2 4 2 3 2 4 2 
3 2 3 3 4 2 3 2 4 2 3 2 3 2 4 2 
3 2 3 2 4 2 3 2 4 2 3 2 3 3 4 2 
3 2 3 2 4 2 3 2 4 2 3 2 3 2 4 2 
3 2 3 3 4 2 3 2 4 2 3 2 3 2 4 2 
3 2 3 2 4 3 3 2 4 2 3 2 3 2 4 2 
3 2 3 2 4 3 3 2 4 2 3 2 3 2 4 2 
3 2 4 3 3 2 3 2 4 2 3 2 3 2 4 3 
3 2 4 2 3 2 3 2 4 2 3 2 3 3 4 2 
3 2 4 2 3 2 3 3 4 2 3 2 3 2 4 2 
3 2 4 3 3 2 3 2 4 2 3 2 3 3 4 2 
3 2 4 2 3 2 3 3 4 2 3 2 4 2 3 2 
3 3 4 2 3 2 3 2 4 3 3 2 4 2 3 2 
3 2 4 3 3 2 3 2 4 2 3 3 4 2 3 2 
3 2 4 3 3 2 3 2 4 2 3 3 4 2 3 2 
3 2 4 3 3 2 3 2 4 3 3 2 4 2 3 2 
3 3 4 2 3 2 3 2 4 3 3 2 4 2 3 3 
3 2 4 2 3 3 4 2 3 2 3 2 4 3 3 2 
3 2 4 3 3 2 4 2 3 3 3 2 4 2 3 3 
3 2 4 2 3 3 4 2 3 2 3 3 4 2 3 2 
3 3 4 2 3 2 4 3 3 2 3 2 4 3 3 2 
3 3 4 2 3 2 4 3 3 2 3 2 4 3 3 2 
3 3 4 2 3 2 4 3 3 2 3 3 4 2 3 2 
4 3 3 2 3 3 4 2 3 2 3 3 4 2 3 3 
4 2 3 3 3 2 4 2 3 3 3 2 4 3 3 2 
4 3 3 2 3 3 4 2 3 2 3 3 4 2 3 3 
4 2 3 3 3 2 4 3 3 2 3 3 4 2 3 3 
4 2 3 3 3 2 4 3 3 2 4 3 3 2 3 3 
4 2 3 3 3 2 4 3 3 2 4 3 3 2 3 3 
4 2 3 3 3 2 4 3 3 2 4 3 3 3 3 2 
4 3 3 2 3 3 4 2 3 3 4 2 3 3 3 3 
4 2 3 3 3 2 4 3 3 3 4 2 3 3 3 2 
4 3 3 3 3 2 4 3 3 2 4 3 3 3 3 2 
4 3 3 3 4 2 3 3 3 2 4 3 3 3 3 2 
4 3 3 3 4 2 1943 2771 300 MP stroke
3 3 3 3 4 2 3 3 3 3 4 2 3 3 4 3 
3 2 3 3 4 3 3 3 3 2 4 3 3 3 4 2 
3 3 3 3 4 3 3 2 3 3 4 3 3 3 4 2 
3 3 3 3 4 3 3 2 4 3 3 3 3 3 4 2 
3 3 3 3 4 3 3 2 4 3 3 3 3 3 4 3 
3 2 3 3 4 3 3 3 4 3 3 3 3 2 4 3 
3 3 3 3 4 3 3 3 4 2 3 3 3 3 4 3 
3 3 3 3 4 3 3 3 4 2 3 3 3 3 4 3 
3 3 3 3 4 3 3 3 4 3 3 3 3 3 4 3 
3 3 4 2 3 3 3 3 4 3 3 3 3 3 4 3 
3 3 4 3 3 3 3 3 4 3 3 3 3 3 4 3 
3 3 4 3 3 3 3 3 4 3 3 3 3 3 4 3 
3 3 4 4 3 3 3 3 4 3 3 3 3 3 4 3 
3 3 4 3 3 3 3 3 4 4 3 3 4 3 3 3 
3 3 4 3 3 3 3 4 4 3 3 3 4 3 3 3 
3 3 4 4 3 3 3 3 4 3 3 3 4 4 3 3 
3 3 4 3 3 4 3 3 4 3 3 3 4 4 3 3 
3 3 4 3 3 4 3 3 4 3 3 4 4 3 3 3 
3 4 4 3 3 3 3 4 4 3 3 3 4 4 3 3 
3 3 4 4 3 3 4 4 3 3 3 3 4 4 3 3 
3 4 4 3 3 4 4 3 3 3 3 4 4 3 3 4 
3 3 4 4 3 3 4 4 3 3 3 4 4 4 3 3 
3 4 4 3 3 4 4 3 3 4 3 4 4 3 3 4 
3 3 4 4 3 4 4 3 3 4 3 4 4 3 3 4 
3 4 4 3 3 4 4 4 3 3 3 4 4 4 3 4 
4 3 3 4 3 4 4 4 3 4 3 3 4 4 3 4 
4 4 3 4 3 4 4 3 3 4 3 4 4 4 3 4 
4 4 3 4 3 4 4 4 3 4 3 4 4 4 3 4 
4 4 3 4 3 4 4 4 3 4 3 4 4 4 3 4 
4 4 3 4 3 4 4 5 3 4 4 4 3 4 3 4 
4 4 3 5 3 4 4 4 3 4 4 5 3 4 3 4 
4 5 3 4 3 4 4 5 3 4 4 4 3 5 3 4 
4 5 3 4 3 4 4 5 3 4 4 5 3 4 3 5 
4 5 3 4 3 5 4 4 3 5 4 5 3 4 3 5 
4 5 3 4 3 5 4 5 3 5 4 4 3 5 3 5 
4 5 3 5 4 5 3 4 3 5 4 5 3 5 3 5 
4 5 3 5 4 5 3 5 3 6 4 5 3 5 3 5 
4 5 3 5 4 6 933 1713 300 MP stroke
3 5 3 5 4 6 3 5 3 5 4 6 3 5 4 6 
3 5 3 6 4 5 3 6 3 5 4 6 3 6 4 5 
3 6 3 6 4 6 3 6 4 5 3 6 3 6 4 6 
3 6 3 6 4 7 3 6 4 6 3 6 3 6 4 7 
3 6 3 6 4 7 3 6 4 7 3 7 3 6 4 7 
3 7 3 6 4 7 3 7 4 7 3 7 3 7 4 8 
3 7 3 7 4 7 3 8 4 7 3 8 3 8 4 7 
3 8 3 8 4 8 3 8 4 8 3 9 3 8 4 9 
3 8 4 9 3 9 3 9 4 9 3 9 3 9 4 10 
3 10 4 9 3 10 3 11 4 10 3 11 3 10 4 11 
3 12 4 11 3 12 3 12 4 12 3 13 3 13 4 14 
3 14 4 14 3 16 3 15 4 17 3 17 3 18 4 20 
3 21 4 23 3 25 3 29 4 33 3 45 3 106 586 630 104 MP stroke
36 w
gs 2743 3267 213 188 rc
0 j
0 -30 -30 0 0 30 30 0 2823 3339 5 MP
/c10 { 1.000000 0.000000 0.000000 sr} bdef
c10
DP
0 -30 -30 0 0 30 30 0 2830 3343 5 MP
DP
0 -30 -30 0 0 30 30 0 2826 3341 5 MP
DP
0 -30 -30 0 0 30 30 0 2866 3365 5 MP
DP
0 -30 -30 0 0 30 30 0 2830 3343 5 MP
DP
0 -30 -30 0 0 30 30 0 2802 3326 5 MP
DP
0 -30 -30 0 0 30 30 0 2839 3349 5 MP
DP
0 -30 -30 0 0 30 30 0 2823 3339 5 MP
DP
0 -30 -30 0 0 30 30 0 2839 3349 5 MP
DP
0 -30 -30 0 0 30 30 0 2830 3343 5 MP
DP
0 -30 -30 0 0 30 30 0 2823 3339 5 MP
DP
0 -30 -30 0 0 30 30 0 2866 3365 5 MP
DP
0 -30 -30 0 0 30 30 0 2826 3341 5 MP
DP
0 -30 -30 0 0 30 30 0 2861 3362 5 MP
DP
0 -30 -30 0 0 30 30 0 2830 3343 5 MP
DP
0 -30 -30 0 0 30 30 0 2839 3349 5 MP
DP
0 -30 -30 0 0 30 30 0 2861 3362 5 MP
DP
gr

c10
0 sg
2950 3331 PD
gs 2876 3257 149 149 rc
  18   18 2950 3331 FO
gr

gr

36 w
%%IncludeResource: font Helvetica
/Helvetica /WindowsLatin1Encoding 120 FMSR

 569 4050 mt 
( ) s
3948  672 mt 
( ) s
6 w
1 sg
0 540 2034 0 0 -540 1916 1199 4 MP
PP
-2034 0 0 540 2034 0 0 -540 1916 1199 5 MP stroke
4 w
DO
SO
6 w
1916  659 mt 3950  659 L
1916 1199 mt 3950 1199 L
3950 1199 mt 3950  659 L
1916 1199 mt 1916  659 L
1916 1199 mt 3950 1199 L
1916 1199 mt 1916  659 L
1916  659 mt 3950  659 L
1916 1199 mt 3950 1199 L
3950 1199 mt 3950  659 L
1916 1199 mt 1916  659 L
0 sg
%%IncludeResource: font Times-Roman
/Times-Roman /WindowsLatin1Encoding 192 FMSR

2384  871 mt 
(Preferred Region) s
gs 1916 659 2035 541 rc
gs 2095 731 147 147 rc
c8
  36   36 2168  804 PO
  36   36 2168  804 FO
gr

c8
gr

c8
0 sg
2384 1120 mt 
(Obtained Solutions) s
gs 1916 659 2035 541 rc
36 w
gs 2094 979 149 149 rc
0 j
0 -30 -30 0 0 30 30 0 2153 1038 5 MP
c10
DP
gr

c10
6 w
gr

c10
0 sg
2972 2892 mt 
(\(0.7,0.2\)) s

end %%Color Dict

eplot
%%EndObject

epage
end

showpage

%%Trailer
%%EOF
