%!PS-Adobe-3.0 EPSF-3.0
%%Creator: MATLAB, The MathWorks, Inc. Version 7.13.0.564 (R2011b). Operating System: Microsoft Windows XP.
%%Title: D:\DriveG\Sem2-2012\Program\ReferenceMetric-v3\metricfig\zdt1\zdt1-ws.eps
%%CreationDate: 05/05/2013  14:20:36
%%DocumentNeededFonts: Helvetica
%%+ Times-Roman
%%DocumentProcessColors: Cyan Magenta Yellow Black
%%LanguageLevel: 2
%%Pages: 1
%%BoundingBox:   108   214   484   626
%%EndComments

%%BeginProlog
% MathWorks dictionary
/MathWorks 160 dict begin
% definition operators
/bdef {bind def} bind def
/ldef {load def} bind def
/xdef {exch def} bdef
/xstore {exch store} bdef
% operator abbreviations
/c  /clip ldef
/cc /concat ldef
/cp /closepath ldef
/gr /grestore ldef
/gs /gsave ldef
/mt /moveto ldef
/np /newpath ldef
/cm /currentmatrix ldef
/sm /setmatrix ldef
/rm /rmoveto ldef
/rl /rlineto ldef
/s {show newpath} bdef
/sc {setcmykcolor} bdef
/sr /setrgbcolor ldef
/sg /setgray ldef
/w /setlinewidth ldef
/j /setlinejoin ldef
/cap /setlinecap ldef
/rc {rectclip} bdef
/rf {rectfill} bdef
% page state control
/pgsv () def
/bpage {/pgsv save def} bdef
/epage {pgsv restore} bdef
/bplot /gsave ldef
/eplot {stroke grestore} bdef
% orientation switch
/portraitMode 0 def /landscapeMode 1 def /rotateMode 2 def
% coordinate system mappings
/dpi2point 0 def
% font control
/FontSize 0 def
/FMS {/FontSize xstore findfont [FontSize 0 0 FontSize neg 0 0]
  makefont setfont} bdef
/ISOLatin1Encoding where {pop /WindowsLatin1Encoding 256 array bdef
ISOLatin1Encoding WindowsLatin1Encoding copy pop
/.notdef/.notdef/quotesinglbase/florin/quotedblbase/ellipsis/dagger
/daggerdbl/circumflex/perthousand/Scaron/guilsinglleft/OE/.notdef/.notdef
/.notdef/.notdef/quoteleft/quoteright/quotedblleft/quotedblright/bullet
/endash/emdash/tilde/trademark/scaron/guilsinglright/oe/.notdef/.notdef
/Ydieresis WindowsLatin1Encoding 128 32 getinterval astore pop}
{/WindowsLatin1Encoding StandardEncoding bdef} ifelse
/reencode {exch dup where {pop load} {pop StandardEncoding} ifelse
  exch dup 3 1 roll findfont dup length dict begin
  { 1 index /FID ne {def}{pop pop} ifelse } forall
  /Encoding exch def currentdict end definefont pop} bdef
/isroman {findfont /CharStrings get /Agrave known} bdef
/FMSR {3 1 roll 1 index dup isroman {reencode} {pop pop} ifelse
  exch FMS} bdef
/csm {1 dpi2point div -1 dpi2point div scale neg translate
 dup landscapeMode eq {pop -90 rotate}
  {rotateMode eq {90 rotate} if} ifelse} bdef
% line types: solid, dotted, dashed, dotdash
/SO { [] 0 setdash } bdef
/DO { [.5 dpi2point mul 4 dpi2point mul] 0 setdash } bdef
/DA { [6 dpi2point mul] 0 setdash } bdef
/DD { [.5 dpi2point mul 4 dpi2point mul 6 dpi2point mul 4
  dpi2point mul] 0 setdash } bdef
% macros for lines and objects
/L {lineto stroke} bdef
/MP {3 1 roll moveto 1 sub {rlineto} repeat} bdef
/AP {{rlineto} repeat} bdef
/PDlw -1 def
/W {/PDlw currentlinewidth def setlinewidth} def
/PP {closepath eofill} bdef
/DP {closepath stroke} bdef
/MR {4 -2 roll moveto dup  0 exch rlineto exch 0 rlineto
  neg 0 exch rlineto closepath} bdef
/FR {MR stroke} bdef
/PR {MR fill} bdef
/L1i {{currentfile picstr readhexstring pop} image} bdef
/tMatrix matrix def
/MakeOval {newpath tMatrix currentmatrix pop translate scale
0 0 1 0 360 arc tMatrix setmatrix} bdef
/FO {MakeOval stroke} bdef
/PO {MakeOval fill} bdef
/PD {currentlinewidth 2 div 0 360 arc fill
   PDlw -1 eq not {PDlw w /PDlw -1 def} if} def
/FA {newpath tMatrix currentmatrix pop translate scale
  0 0 1 5 -2 roll arc tMatrix setmatrix stroke} bdef
/PA {newpath tMatrix currentmatrix pop	translate 0 0 moveto scale
  0 0 1 5 -2 roll arc closepath tMatrix setmatrix fill} bdef
/FAn {newpath tMatrix currentmatrix pop translate scale
  0 0 1 5 -2 roll arcn tMatrix setmatrix stroke} bdef
/PAn {newpath tMatrix currentmatrix pop translate 0 0 moveto scale
  0 0 1 5 -2 roll arcn closepath tMatrix setmatrix fill} bdef
/vradius 0 def /hradius 0 def /lry 0 def
/lrx 0 def /uly 0 def /ulx 0 def /rad 0 def
/MRR {/vradius xdef /hradius xdef /lry xdef /lrx xdef /uly xdef
  /ulx xdef newpath tMatrix currentmatrix pop ulx hradius add uly
  vradius add translate hradius vradius scale 0 0 1 180 270 arc 
  tMatrix setmatrix lrx hradius sub uly vradius add translate
  hradius vradius scale 0 0 1 270 360 arc tMatrix setmatrix
  lrx hradius sub lry vradius sub translate hradius vradius scale
  0 0 1 0 90 arc tMatrix setmatrix ulx hradius add lry vradius sub
  translate hradius vradius scale 0 0 1 90 180 arc tMatrix setmatrix
  closepath} bdef
/FRR {MRR stroke } bdef
/PRR {MRR fill } bdef
/MlrRR {/lry xdef /lrx xdef /uly xdef /ulx xdef /rad lry uly sub 2 div def
  newpath tMatrix currentmatrix pop ulx rad add uly rad add translate
  rad rad scale 0 0 1 90 270 arc tMatrix setmatrix lrx rad sub lry rad
  sub translate rad rad scale 0 0 1 270 90 arc tMatrix setmatrix
  closepath} bdef
/FlrRR {MlrRR stroke } bdef
/PlrRR {MlrRR fill } bdef
/MtbRR {/lry xdef /lrx xdef /uly xdef /ulx xdef /rad lrx ulx sub 2 div def
  newpath tMatrix currentmatrix pop ulx rad add uly rad add translate
  rad rad scale 0 0 1 180 360 arc tMatrix setmatrix lrx rad sub lry rad
  sub translate rad rad scale 0 0 1 0 180 arc tMatrix setmatrix
  closepath} bdef
/FtbRR {MtbRR stroke } bdef
/PtbRR {MtbRR fill } bdef
/stri 6 array def /dtri 6 array def
/smat 6 array def /dmat 6 array def
/tmat1 6 array def /tmat2 6 array def /dif 3 array def
/asub {/ind2 exch def /ind1 exch def dup dup
  ind1 get exch ind2 get sub exch } bdef
/tri_to_matrix {
  2 0 asub 3 1 asub 4 0 asub 5 1 asub
  dup 0 get exch 1 get 7 -1 roll astore } bdef
/compute_transform {
  dmat dtri tri_to_matrix tmat1 invertmatrix 
  smat stri tri_to_matrix tmat2 concatmatrix } bdef
/ds {stri astore pop} bdef
/dt {dtri astore pop} bdef
/db {2 copy /cols xdef /rows xdef mul dup 3 mul string
  currentfile 
  3 index 0 eq {/ASCIIHexDecode filter}
  {/ASCII85Decode filter 3 index 2 eq {/RunLengthDecode filter} if }
  ifelse exch readstring pop
  dup 0 3 index getinterval /rbmap xdef
  dup 2 index dup getinterval /gbmap xdef
  1 index dup 2 mul exch getinterval /bbmap xdef pop pop}bdef
/it {gs np dtri aload pop moveto lineto lineto cp c
  cols rows 8 compute_transform 
  rbmap gbmap bbmap true 3 colorimage gr}bdef
/il {newpath moveto lineto stroke}bdef
currentdict end def
%%EndProlog

%%BeginSetup
MathWorks begin

0 cap

end
%%EndSetup

%%Page: 1 1
%%BeginPageSetup
%%PageBoundingBox:   108   214   484   626
MathWorks begin
bpage
%%EndPageSetup

%%BeginObject: obj1
bplot

/dpi2point 12 def
portraitMode 1296 7512 csm

    0     0  4522  4934 rc
87 dict begin %Colortable dictionary
/c0 { 0.000000 0.000000 0.000000 sr} bdef
/c1 { 1.000000 1.000000 1.000000 sr} bdef
/c2 { 0.900000 0.000000 0.000000 sr} bdef
/c3 { 0.000000 0.820000 0.000000 sr} bdef
/c4 { 0.000000 0.000000 0.800000 sr} bdef
/c5 { 0.910000 0.820000 0.320000 sr} bdef
/c6 { 1.000000 0.260000 0.820000 sr} bdef
/c7 { 0.000000 0.820000 0.820000 sr} bdef
c0
1 j
1 sg
   0    0 4523 4935 rf
6 w
0 3701 3391 0 0 -3701 449 4786 4 MP
PP
-3391 0 0 3701 3391 0 0 -3701 449 4786 5 MP stroke
4 w
DO
SO
6 w
0 sg
 449 1085 mt 3840 1085 L
 449 4786 mt 3840 4786 L
3840 4786 mt 3840 1085 L
 449 4786 mt  449 1085 L
 449 4786 mt 3840 4786 L
 449 4786 mt  449 1085 L
 449 4786 mt  449 4748 L
 449 1085 mt  449 1122 L
%%IncludeResource: font Times-Roman
/Times-Roman /WindowsLatin1Encoding 144 FMSR

 413 4949 mt 
(0) s
1127 4786 mt 1127 4748 L
1127 1085 mt 1127 1122 L
1037 4949 mt 
(0.2) s
1805 4786 mt 1805 4748 L
1805 1085 mt 1805 1122 L
1715 4949 mt 
(0.4) s
2483 4786 mt 2483 4748 L
2483 1085 mt 2483 1122 L
2393 4949 mt 
(0.6) s
3161 4786 mt 3161 4748 L
3161 1085 mt 3161 1122 L
3071 4949 mt 
(0.8) s
3840 4786 mt 3840 4748 L
3840 1085 mt 3840 1122 L
3804 4949 mt 
(1) s
 449 4786 mt  486 4786 L
3840 4786 mt 3802 4786 L
 342 4837 mt 
(0) s
 449 4415 mt  486 4415 L
3840 4415 mt 3802 4415 L
 234 4466 mt 
(0.1) s
 449 4045 mt  486 4045 L
3840 4045 mt 3802 4045 L
 234 4096 mt 
(0.2) s
 449 3675 mt  486 3675 L
3840 3675 mt 3802 3675 L
 234 3726 mt 
(0.3) s
 449 3305 mt  486 3305 L
3840 3305 mt 3802 3305 L
 234 3356 mt 
(0.4) s
 449 2935 mt  486 2935 L
3840 2935 mt 3802 2935 L
 234 2986 mt 
(0.5) s
 449 2565 mt  486 2565 L
3840 2565 mt 3802 2565 L
 234 2616 mt 
(0.6) s
 449 2195 mt  486 2195 L
3840 2195 mt 3802 2195 L
 234 2246 mt 
(0.7) s
 449 1825 mt  486 1825 L
3840 1825 mt 3802 1825 L
 234 1876 mt 
(0.8) s
 449 1455 mt  486 1455 L
3840 1455 mt 3802 1455 L
 234 1506 mt 
(0.9) s
 449 1085 mt  486 1085 L
3840 1085 mt 3802 1085 L
 342 1136 mt 
(1) s
 449 1085 mt 3840 1085 L
 449 4786 mt 3840 4786 L
3840 4786 mt 3840 1085 L
 449 4786 mt  449 1085 L
gs 449 1085 3392 3702 rc
27.6 w
/c8 { 0.000000 0.000000 1.000000 sr} bdef
c8
4 2 3 2 4 2 3 2 3 2 4 2 3 1 4 2 
3 2 3 2 4 2 3 2 4 2 3 1 3 2 4 2 
3 2 4 2 3 2 3 2 4 2 3 1 3 2 4 2 
3 2 4 2 3 2 3 2 4 2 3 1 4 2 3 2 
3 2 4 2 3 2 4 2 3 2 3 2 4 1 3 2 
4 2 3 2 3 2 4 2 3 2 3 2 4 2 3 1 
4 2 3 2 3 2 4 2 3 2 4 2 3 2 3 2 
4 2 3 1 4 2 3 2 3 2 4 2 3 2 4 2 
3 2 3 2 4 2 3 2 3 1 4 2 3 2 4 2 
3 2 3 2 4 2 3 2 4 2 3 2 3 2 4 2 
3 2 4 1 3 2 3 2 4 2 3 2 4 2 3 2 
3 2 4 2 3 2 3 2 4 2 3 2 4 2 3 2 
3 2 4 2 3 1 4 2 3 2 3 2 4 2 3 2 
4 2 3 2 3 2 4 2 3 2 4 2 3 2 3 2 
4 2 3 2 3 2 4 2 3 2 4 2 3 2 3 2 
4 2 3 2 4 2 3 2 3 2 4 2 3 1 4 2 
3 2 3 2 4 2 3 2 4 2 3 2 3 2 4 2 
3 2 3 2 4 2 3 2 4 2 3 2 3 2 4 2 
3 2 4 2 3 2 3 2 4 2 3 2 4 2 3 2 
3 2 4 2 3 2 3 2 4 2 3 2 4 2 3 2 
3 2 4 3 3 2 4 2 3 2 3 2 4 2 3 2 
4 2 3 2 3 2 4 2 3 2 4 2 3 2 3 2 
4 2 3 2 3 2 4 2 3 2 4 2 3 2 3 2 
4 2 3 2 4 2 3 2 3 3 4 2 3 2 4 2 
3 2 3 2 4 2 3 2 4 2 3 2 3 2 4 2 
3 2 3 2 4 2 3 3 4 2 3 2 3 2 4 2 
3 2 4 2 3 2 3 2 4 2 3 2 4 2 3 2 
3 3 4 2 3 2 4 2 3 2 3 2 4 2 3 2 
3 2 4 2 3 3 4 2 3 2 3 2 4 2 3 2 
4 2 3 2 3 2 4 3 3 2 4 2 3 2 3 2 
4 2 3 2 4 2 3 3 3 2 4 2 3 2 3 2 
4 2 3 2 4 2 3 3 3 2 4 2 3 2 4 2 
3 2 3 2 4 3 3 2 4 2 3 2 3 2 4 2 
3 3 4 2 3 2 3 2 4 2 3 2 3 3 4 2 
3 2 4 2 3 2 3 2 4 3 3 2 4 2 3 2 
3 2 4 2 3 3 4 2 3 2 3 2 4 2 3 3 
3 2 4 2 3 2 4 2 3 3 3 2 4 2 3 2 
4 2 3 3 3 2 2826 4183 300 MP stroke
4 2 3 2 4 2 3 3 3 2 4 2 3 2 4 3 
3 2 3 2 4 2 3 2 3 3 4 2 3 2 4 2 
3 3 3 2 4 2 3 2 4 3 3 2 3 2 4 2 
3 3 4 2 3 2 3 2 4 3 3 2 4 2 3 2 
3 3 4 2 3 2 3 2 4 3 3 2 4 2 3 3 
3 2 4 2 3 2 4 3 3 2 3 2 4 2 3 3 
4 2 3 2 3 3 4 2 3 2 4 3 3 2 3 2 
4 2 3 3 3 2 4 2 3 3 4 2 3 2 3 3 
4 2 3 2 4 3 3 2 3 2 4 3 3 2 4 2 
3 3 3 2 4 2 3 3 4 2 3 2 3 3 4 2 
3 2 3 3 4 2 3 2 4 3 3 2 3 2 4 3 
3 2 4 3 3 2 3 2 4 3 3 2 4 2 3 3 
3 2 4 3 3 2 4 2 3 3 3 2 4 2 3 3 
3 2 4 3 3 2 4 2 3 3 3 2 4 3 3 2 
4 3 3 2 3 2 4 3 3 2 4 3 3 2 3 2 
4 3 3 2 4 3 3 2 3 3 4 2 3 3 3 2 
4 2 3 3 4 2 3 3 3 2 4 3 3 2 4 3 
3 2 3 3 4 2 3 2 4 3 3 2 3 3 4 2 
3 3 3 2 4 3 3 2 4 3 3 2 3 3 4 2 
3 3 4 2 3 3 3 2 4 3 3 2 4 3 3 2 
3 3 4 2 3 3 4 2 3 3 3 2 4 3 3 3 
3 2 4 3 3 2 4 3 3 2 3 3 4 2 3 3 
4 2 3 3 3 3 4 2 3 3 4 2 3 3 3 2 
4 3 3 3 4 2 3 3 3 2 4 3 3 2 3 3 
4 3 3 2 4 3 3 2 3 3 4 3 3 2 4 3 
3 2 3 3 4 3 3 2 4 3 3 3 3 2 4 3 
3 3 4 2 3 3 3 2 4 3 3 3 3 2 4 3 
3 3 4 2 3 3 3 3 4 2 3 3 4 3 3 2 
3 3 4 3 3 2 4 3 3 3 3 3 4 2 3 3 
4 3 3 2 3 3 4 3 3 2 3 3 4 3 3 3 
4 2 3 3 3 3 4 3 3 2 4 3 3 3 3 3 
4 2 3 3 4 3 3 3 3 2 4 3 3 3 4 3 
3 2 3 3 4 3 3 3 3 3 4 2 3 3 4 3 
3 3 3 3 4 2 3 3 4 3 3 3 3 3 4 2 
3 3 4 3 3 3 3 3 4 3 3 2 3 3 4 3 
3 3 4 3 3 3 3 3 4 2 3 3 4 3 3 3 
3 3 4 3 3 3 4 3 3 2 3 3 4 3 3 3 
4 3 3 3 3 3 1812 3431 300 MP stroke
4 3 3 3 3 3 4 3 3 3 4 3 3 2 3 3 
4 3 3 3 4 3 3 3 3 3 4 3 3 3 4 3 
3 3 3 3 4 3 3 3 4 3 3 3 3 3 4 3 
3 3 3 3 4 3 3 3 4 3 3 3 3 3 4 3 
3 3 4 3 3 3 3 3 4 4 3 3 4 3 3 3 
3 3 4 3 3 3 4 3 3 3 3 3 4 3 3 3 
3 4 4 3 3 3 4 3 3 3 3 3 4 3 3 4 
4 3 3 3 3 3 4 3 3 3 4 3 3 4 3 3 
4 3 3 3 4 3 3 4 3 3 4 3 3 3 3 3 
4 4 3 3 4 3 3 3 3 4 4 3 3 3 4 3 
3 4 3 3 4 3 3 3 4 4 3 3 3 3 4 4 
3 3 4 3 3 4 3 3 4 3 3 4 3 3 4 3 
3 4 4 3 3 3 3 4 4 3 3 3 4 4 3 3 
3 4 4 3 3 3 4 4 3 3 3 4 4 3 3 3 
4 4 3 3 3 4 4 3 3 4 3 3 4 4 3 3 
4 4 3 3 3 4 4 3 3 4 4 3 3 4 3 3 
4 4 3 3 4 4 3 3 3 4 4 4 3 3 3 4 
4 3 3 4 4 3 3 4 3 4 4 3 3 4 4 4 
3 3 3 4 4 4 3 3 4 4 3 4 3 3 4 4 
3 4 4 3 3 4 3 4 4 4 3 3 3 4 4 4 
3 4 4 3 3 4 3 4 4 4 3 4 4 3 3 4 
3 4 4 4 3 4 4 4 3 3 3 4 4 4 3 4 
4 4 3 4 3 4 4 4 3 4 3 4 4 4 3 3 
4 4 3 4 3 4 4 4 3 4 4 4 3 4 3 4 
4 5 3 4 4 4 3 4 3 4 4 4 3 4 4 4 
3 4 3 4 4 5 3 4 3 4 4 4 3 4 4 4 
3 5 3 4 4 4 3 4 4 5 3 4 3 4 4 4 
3 5 4 4 3 4 3 5 4 4 3 4 4 5 3 4 
3 4 4 5 3 4 3 5 4 4 3 5 4 4 3 5 
3 4 4 5 3 4 4 5 3 4 3 5 4 4 3 5 
4 4 3 5 3 5 4 4 3 5 4 5 3 4 3 5 
4 5 3 5 3 4 4 5 3 5 4 5 3 5 3 4 
4 5 3 5 4 5 3 5 3 5 4 5 3 5 4 5 
3 5 3 5 4 5 3 5 3 5 4 5 3 5 4 5 
3 5 3 5 4 6 3 5 4 5 3 5 3 6 4 5 
3 5 4 5 3 6 3 5 4 6 3 5 4 5 3 6 
3 5 4 6 3 5 3 6 4 6 3 5 4 6 3 6 
3 5 4 6 3 6 798 2272 300 MP stroke
4 5 3 6 3 6 4 6 3 6 4 6 3 6 3 6 
4 6 3 6 4 6 3 6 3 6 4 6 3 7 3 6 
4 6 3 6 4 7 3 6 3 7 4 6 3 7 4 6 
3 7 3 7 4 6 3 7 4 7 3 7 3 6 4 7 
3 7 4 7 3 7 3 8 4 7 3 7 3 7 4 8 
3 7 4 7 3 8 3 8 4 7 3 8 4 8 3 8 
3 7 4 8 3 9 4 8 3 8 3 8 4 9 3 8 
4 9 3 8 3 9 4 9 3 9 3 9 4 9 3 10 
4 9 3 10 3 9 4 10 3 10 4 10 3 10 3 11 
4 10 3 11 4 11 3 11 3 12 4 11 3 12 4 12 
3 13 3 12 4 13 3 13 3 14 4 14 3 14 4 15 
3 16 3 16 4 16 3 17 4 18 3 19 3 20 4 22 
3 23 4 25 3 27 3 32 4 37 3 48 3 117 449 1085 104 MP stroke
36 w
gr

36 w
c8
/c9 { 0.000000 1.000000 1.000000 sr} bdef
c9
  18   18 2480 3949 FO
  18   18 2483 3951 FO
  18   18 2486 3954 FO
  18   18 2490 3956 FO
  18   18 2493 3958 FO
  18   18 2497 3961 FO
  18   18 2500 3963 FO
  18   18 2503 3966 FO
  18   18 2507 3968 FO
  18   18 2510 3970 FO
  18   18 2514 3973 FO
  18   18 2517 3975 FO
  18   18 2520 3977 FO
  18   18 2524 3980 FO
  18   18 2527 3982 FO
  18   18 2531 3985 FO
  18   18 2534 3987 FO
  18   18 2537 3989 FO
  18   18 2541 3992 FO
  18   18 2544 3994 FO
  18   18 2548 3996 FO
  18   18 2551 3999 FO
  18   18 2554 4001 FO
  18   18 2558 4003 FO
  18   18 2561 4006 FO
  18   18 2564 4008 FO
  18   18 2568 4010 FO
  18   18 2571 4013 FO
  18   18 2575 4015 FO
  18   18 2578 4017 FO
  18   18 2581 4020 FO
  18   18 2585 4022 FO
  18   18 2588 4024 FO
  18   18 2592 4027 FO
  18   18 2595 4029 FO
  18   18 2598 4031 FO
  18   18 2602 4034 FO
  18   18 2605 4036 FO
  18   18 2609 4038 FO
  18   18 2612 4041 FO
  18   18 2615 4043 FO
  18   18 2619 4045 FO
  18   18 2622 4048 FO
  18   18 2626 4050 FO
  18   18 2629 4052 FO
  18   18 2632 4055 FO
  18   18 2636 4057 FO
  18   18 2639 4059 FO
  18   18 2642 4061 FO
  18   18 2646 4064 FO
  18   18 2649 4066 FO
  18   18 2653 4068 FO
  18   18 2656 4071 FO
  18   18 2659 4073 FO
  18   18 2663 4075 FO
  18   18 2666 4078 FO
  18   18 2670 4080 FO
  18   18 2673 4082 FO
  18   18 2676 4084 FO
  18   18 2680 4087 FO
  18   18 2683 4089 FO
  18   18 2687 4091 FO
  18   18 2690 4093 FO
  18   18 2693 4096 FO
  18   18 2697 4098 FO
  18   18 2700 4100 FO
  18   18 2704 4103 FO
  18   18 2707 4105 FO
  18   18 2710 4107 FO
  18   18 2714 4109 FO
  18   18 2717 4112 FO
  18   18 2720 4114 FO
  18   18 2724 4116 FO
  18   18 2727 4118 FO
  18   18 2731 4121 FO
  18   18 2734 4123 FO
  18   18 2737 4125 FO
  18   18 2741 4127 FO
  18   18 2744 4130 FO
  18   18 2748 4132 FO
  18   18 2751 4134 FO
  18   18 2754 4136 FO
  18   18 2758 4139 FO
  18   18 2761 4141 FO
  18   18 2765 4143 FO
  18   18 2768 4145 FO
  18   18 2771 4148 FO
  18   18 2775 4150 FO
  18   18 2778 4152 FO
  18   18 2782 4154 FO
  18   18 2785 4157 FO
  18   18 2788 4159 FO
  18   18 2792 4161 FO
  18   18 2795 4163 FO
  18   18 2798 4165 FO
  18   18 2802 4168 FO
  18   18 2805 4170 FO
  18   18 2809 4172 FO
  18   18 2812 4174 FO
  18   18 2815 4177 FO
  18   18 2819 4179 FO
  18   18 2822 4181 FO
  18   18 2826 4183 FO
  18   18 2829 4185 FO
  18   18 2832 4188 FO
  18   18 2836 4190 FO
  18   18 2839 4192 FO
  18   18 2843 4194 FO
  18   18 2846 4196 FO
  18   18 2849 4199 FO
  18   18 2853 4201 FO
  18   18 2856 4203 FO
  18   18 2860 4205 FO
  18   18 2863 4207 FO
  18   18 2866 4210 FO
  18   18 2870 4212 FO
  18   18 2873 4214 FO
  18   18 2876 4216 FO
  18   18 2880 4218 FO
  18   18 2883 4221 FO
  18   18 2887 4223 FO
  18   18 2890 4225 FO
  18   18 2893 4227 FO
  18   18 2897 4229 FO
  18   18 2900 4231 FO
  18   18 2904 4234 FO
  18   18 2907 4236 FO
  18   18 2910 4238 FO
  18   18 2914 4240 FO
  18   18 2917 4242 FO
  18   18 2921 4244 FO
  18   18 2924 4247 FO
  18   18 2927 4249 FO
  18   18 2931 4251 FO
  18   18 2934 4253 FO
  18   18 2937 4255 FO
  18   18 2941 4257 FO
  18   18 2944 4260 FO
  18   18 2948 4262 FO
  18   18 2951 4264 FO
  18   18 2954 4266 FO
  18   18 2958 4268 FO
  18   18 2961 4270 FO
  18   18 2965 4273 FO
  18   18 2968 4275 FO
  18   18 2971 4277 FO
  18   18 2975 4279 FO
  18   18 2978 4281 FO
  18   18 2982 4283 FO
  18   18 2985 4285 FO
  18   18 2988 4288 FO
  18   18 2992 4290 FO
  18   18 2995 4292 FO
  18   18 2999 4294 FO
  18   18 3002 4296 FO
  18   18 3005 4298 FO
  18   18 3009 4300 FO
  18   18 3012 4302 FO
  18   18 3015 4305 FO
  18   18 3019 4307 FO
  18   18 3022 4309 FO
  18   18 3026 4311 FO
  18   18 3029 4313 FO
  18   18 3032 4315 FO
  18   18 3036 4317 FO
  18   18 3039 4319 FO
  18   18 3043 4322 FO
  18   18 3046 4324 FO
  18   18 3049 4326 FO
  18   18 3053 4328 FO
  18   18 3056 4330 FO
gs 449 1085 3392 3702 rc
gr

0 j
0 -30 -30 0 0 30 30 0 2693 4091 5 MP
/c10 { 1.000000 0.000000 0.000000 sr} bdef
c10
gs
PP
gr
DP
0 -30 -30 0 0 30 30 0 2903 4228 5 MP
gs
PP
gr
DP
0 -30 -30 0 0 30 30 0 2706 4100 5 MP
gs
PP
gr
DP
0 -30 -30 0 0 30 30 0 2741 4122 5 MP
gs
PP
gr
DP
0 -30 -30 0 0 30 30 0 2558 3999 5 MP
gs
PP
gr
DP
0 -30 -30 0 0 30 30 0 2480 3945 5 MP
gs
PP
gr
DP
0 -30 -30 0 0 30 30 0 2635 4051 5 MP
gs
PP
gr
DP
0 -30 -30 0 0 30 30 0 2456 3928 5 MP
gs
PP
gr
DP
0 -30 -30 0 0 30 30 0 2635 4051 5 MP
gs
PP
gr
DP
0 -30 -30 0 0 30 30 0 2988 4282 5 MP
gs
PP
gr
DP
0 -30 -30 0 0 30 30 0 2480 3945 5 MP
gs
PP
gr
DP
0 -30 -30 0 0 30 30 0 2587 4019 5 MP
gs
PP
gr
DP
0 -30 -30 0 0 30 30 0 2693 4091 5 MP
gs
PP
gr
DP
0 -30 -30 0 0 30 30 0 2988 4282 5 MP
gs
PP
gr
DP
0 -30 -30 0 0 30 30 0 2456 3928 5 MP
gs
PP
gr
DP
0 -30 -30 0 0 30 30 0 2903 4228 5 MP
gs
PP
gr
DP
0 -30 -30 0 0 30 30 0 2480 3945 5 MP
gs
PP
gr
DP
0 -30 -30 0 0 30 30 0 2558 3999 5 MP
gs
PP
gr
DP
0 -30 -30 0 0 30 30 0 2706 4100 5 MP
gs
PP
gr
DP
0 -30 -30 0 0 30 30 0 2500 3959 5 MP
gs
PP
gr
DP
0 -30 -30 0 0 30 30 0 2780 4148 5 MP
gs
PP
gr
DP
0 -30 -30 0 0 30 30 0 2988 4282 5 MP
gs
PP
gr
DP
0 -30 -30 0 0 30 30 0 2587 4019 5 MP
gs
PP
gr
DP
0 -30 -30 0 0 30 30 0 2780 4148 5 MP
gs
PP
gr
DP
0 -30 -30 0 0 30 30 0 2927 4243 5 MP
gs
PP
gr
DP
0 -30 -30 0 0 30 30 0 2780 4148 5 MP
gs
PP
gr
DP
0 -30 -30 0 0 30 30 0 2587 4019 5 MP
gs
PP
gr
DP
0 -30 -30 0 0 30 30 0 2558 3999 5 MP
gs
PP
gr
DP
0 -30 -30 0 0 30 30 0 2751 4129 5 MP
gs
PP
gr
DP
0 -30 -30 0 0 30 30 0 2988 4282 5 MP
gs
PP
gr
DP
0 -30 -30 0 0 30 30 0 2706 4100 5 MP
gs
PP
gr
DP
0 -30 -30 0 0 30 30 0 2488 3950 5 MP
gs
PP
gr
DP
0 -30 -30 0 0 30 30 0 2480 3945 5 MP
gs
PP
gr
DP
0 -30 -30 0 0 30 30 0 2558 3999 5 MP
gs
PP
gr
DP
0 -30 -30 0 0 30 30 0 2780 4148 5 MP
gs
PP
gr
DP
0 -30 -30 0 0 30 30 0 2587 4019 5 MP
gs
PP
gr
DP
0 -30 -30 0 0 30 30 0 2941 4252 5 MP
gs
PP
gr
DP
0 -30 -30 0 0 30 30 0 2693 4091 5 MP
gs
PP
gr
DP
gs 449 1085 3392 3702 rc
gr

0 sg
  18   18 2822 4045 FO
gs 449 1085 3392 3702 rc
gr

%%IncludeResource: font Helvetica
/Helvetica /WindowsLatin1Encoding 120 FMSR

 429 4842 mt 
( ) s
3821 1140 mt 
( ) s
6 w
1 sg
0 540 2034 0 0 -540 1647 1756 4 MP
PP
-2034 0 0 540 2034 0 0 -540 1647 1756 5 MP stroke
4 w
DO
SO
6 w
1647 1216 mt 3681 1216 L
1647 1756 mt 3681 1756 L
3681 1756 mt 3681 1216 L
1647 1756 mt 1647 1216 L
1647 1756 mt 3681 1756 L
1647 1756 mt 1647 1216 L
1647 1216 mt 3681 1216 L
1647 1756 mt 3681 1756 L
3681 1756 mt 3681 1216 L
1647 1756 mt 1647 1216 L
0 sg
%%IncludeResource: font Times-Roman
/Times-Roman /WindowsLatin1Encoding 192 FMSR

2115 1428 mt 
(Preferred Region) s
gs 1647 1216 2035 541 rc
36 w
gs 1825 1287 149 149 rc
c9
  18   18 1899 1361 FO
gr

c9
gr

36 w
c9
0 sg
2115 1677 mt 
(Obtained Solutions) s
gs 1647 1216 2035 541 rc
gs 1825 1536 149 149 rc
0 -30 -30 0 0 30 30 0 1884 1595 5 MP
c10
gs
PP
gr
DP
gr

c10
6 w
gr

6 w
c10
0 sg
2964 3305 mt 
(\(0.7,0.2\)) s

end %%Color Dict

eplot
%%EndObject

epage
end

showpage

%%Trailer
%%EOF
