%!PS-Adobe-3.0 EPSF-3.0
%%Creator: MATLAB, The MathWorks, Inc. Version 7.14.0.739 (R2012a). Operating System: Microsoft Windows 7.
%%Title: F:\Sem2-2015\Rsearch\DrawPlots\selectedplots\scatterplot\dtlz1-Te-2-a.eps
%%CreationDate: 12/10/2016  17:48:22
%%DocumentNeededFonts: Helvetica
%%DocumentProcessColors: Cyan Magenta Yellow Black
%%LanguageLevel: 2
%%Pages: 1
%%BoundingBox:    52   261   558   531
%%EndComments

%%BeginProlog
% MathWorks dictionary
/MathWorks 160 dict begin
% definition operators
/bdef {bind def} bind def
/ldef {load def} bind def
/xdef {exch def} bdef
/xstore {exch store} bdef
% operator abbreviations
/c  /clip ldef
/cc /concat ldef
/cp /closepath ldef
/gr /grestore ldef
/gs /gsave ldef
/mt /moveto ldef
/np /newpath ldef
/cm /currentmatrix ldef
/sm /setmatrix ldef
/rm /rmoveto ldef
/rl /rlineto ldef
/s {show newpath} bdef
/sc {setcmykcolor} bdef
/sr /setrgbcolor ldef
/sg /setgray ldef
/w /setlinewidth ldef
/j /setlinejoin ldef
/cap /setlinecap ldef
/rc {rectclip} bdef
/rf {rectfill} bdef
% page state control
/pgsv () def
/bpage {/pgsv save def} bdef
/epage {pgsv restore} bdef
/bplot /gsave ldef
/eplot {stroke grestore} bdef
% orientation switch
/portraitMode 0 def /landscapeMode 1 def /rotateMode 2 def
% coordinate system mappings
/dpi2point 0 def
% font control
/FontSize 0 def
/FMS {/FontSize xstore findfont [FontSize 0 0 FontSize neg 0 0]
  makefont setfont} bdef
/ISOLatin1Encoding where {pop /WindowsLatin1Encoding 256 array bdef
ISOLatin1Encoding WindowsLatin1Encoding copy pop
/.notdef/.notdef/quotesinglbase/florin/quotedblbase/ellipsis/dagger
/daggerdbl/circumflex/perthousand/Scaron/guilsinglleft/OE/.notdef/.notdef
/.notdef/.notdef/quoteleft/quoteright/quotedblleft/quotedblright/bullet
/endash/emdash/tilde/trademark/scaron/guilsinglright/oe/.notdef/.notdef
/Ydieresis WindowsLatin1Encoding 128 32 getinterval astore pop}
{/WindowsLatin1Encoding StandardEncoding bdef} ifelse
/reencode {exch dup where {pop load} {pop StandardEncoding} ifelse
  exch dup 3 1 roll findfont dup length dict begin
  { 1 index /FID ne {def}{pop pop} ifelse } forall
  /Encoding exch def currentdict end definefont pop} bdef
/isroman {findfont /CharStrings get /Agrave known} bdef
/FMSR {3 1 roll 1 index dup isroman {reencode} {pop pop} ifelse
  exch FMS} bdef
/csm {1 dpi2point div -1 dpi2point div scale neg translate
 dup landscapeMode eq {pop -90 rotate}
  {rotateMode eq {90 rotate} if} ifelse} bdef
% line types: solid, dotted, dashed, dotdash
/SO { [] 0 setdash } bdef
/DO { [.5 dpi2point mul 4 dpi2point mul] 0 setdash } bdef
/DA { [6 dpi2point mul] 0 setdash } bdef
/DD { [.5 dpi2point mul 4 dpi2point mul 6 dpi2point mul 4
  dpi2point mul] 0 setdash } bdef
% macros for lines and objects
/L {lineto stroke} bdef
/MP {3 1 roll moveto 1 sub {rlineto} repeat} bdef
/AP {{rlineto} repeat} bdef
/PDlw -1 def
/W {/PDlw currentlinewidth def setlinewidth} def
/PP {closepath eofill} bdef
/DP {closepath stroke} bdef
/MR {4 -2 roll moveto dup  0 exch rlineto exch 0 rlineto
  neg 0 exch rlineto closepath} bdef
/FR {MR stroke} bdef
/PR {MR fill} bdef
/L1i {{currentfile picstr readhexstring pop} image} bdef
/tMatrix matrix def
/MakeOval {newpath tMatrix currentmatrix pop translate scale
0 0 1 0 360 arc tMatrix setmatrix} bdef
/FO {MakeOval stroke} bdef
/PO {MakeOval fill} bdef
/PD {currentlinewidth 2 div 0 360 arc fill
   PDlw -1 eq not {PDlw w /PDlw -1 def} if} def
/FA {newpath tMatrix currentmatrix pop translate scale
  0 0 1 5 -2 roll arc tMatrix setmatrix stroke} bdef
/PA {newpath tMatrix currentmatrix pop	translate 0 0 moveto scale
  0 0 1 5 -2 roll arc closepath tMatrix setmatrix fill} bdef
/FAn {newpath tMatrix currentmatrix pop translate scale
  0 0 1 5 -2 roll arcn tMatrix setmatrix stroke} bdef
/PAn {newpath tMatrix currentmatrix pop translate 0 0 moveto scale
  0 0 1 5 -2 roll arcn closepath tMatrix setmatrix fill} bdef
/vradius 0 def /hradius 0 def /lry 0 def
/lrx 0 def /uly 0 def /ulx 0 def /rad 0 def
/MRR {/vradius xdef /hradius xdef /lry xdef /lrx xdef /uly xdef
  /ulx xdef newpath tMatrix currentmatrix pop ulx hradius add uly
  vradius add translate hradius vradius scale 0 0 1 180 270 arc 
  tMatrix setmatrix lrx hradius sub uly vradius add translate
  hradius vradius scale 0 0 1 270 360 arc tMatrix setmatrix
  lrx hradius sub lry vradius sub translate hradius vradius scale
  0 0 1 0 90 arc tMatrix setmatrix ulx hradius add lry vradius sub
  translate hradius vradius scale 0 0 1 90 180 arc tMatrix setmatrix
  closepath} bdef
/FRR {MRR stroke } bdef
/PRR {MRR fill } bdef
/MlrRR {/lry xdef /lrx xdef /uly xdef /ulx xdef /rad lry uly sub 2 div def
  newpath tMatrix currentmatrix pop ulx rad add uly rad add translate
  rad rad scale 0 0 1 90 270 arc tMatrix setmatrix lrx rad sub lry rad
  sub translate rad rad scale 0 0 1 270 90 arc tMatrix setmatrix
  closepath} bdef
/FlrRR {MlrRR stroke } bdef
/PlrRR {MlrRR fill } bdef
/MtbRR {/lry xdef /lrx xdef /uly xdef /ulx xdef /rad lrx ulx sub 2 div def
  newpath tMatrix currentmatrix pop ulx rad add uly rad add translate
  rad rad scale 0 0 1 180 360 arc tMatrix setmatrix lrx rad sub lry rad
  sub translate rad rad scale 0 0 1 0 180 arc tMatrix setmatrix
  closepath} bdef
/FtbRR {MtbRR stroke } bdef
/PtbRR {MtbRR fill } bdef
/stri 6 array def /dtri 6 array def
/smat 6 array def /dmat 6 array def
/tmat1 6 array def /tmat2 6 array def /dif 3 array def
/asub {/ind2 exch def /ind1 exch def dup dup
  ind1 get exch ind2 get sub exch } bdef
/tri_to_matrix {
  2 0 asub 3 1 asub 4 0 asub 5 1 asub
  dup 0 get exch 1 get 7 -1 roll astore } bdef
/compute_transform {
  dmat dtri tri_to_matrix tmat1 invertmatrix 
  smat stri tri_to_matrix tmat2 concatmatrix } bdef
/ds {stri astore pop} bdef
/dt {dtri astore pop} bdef
/db {2 copy /cols xdef /rows xdef mul dup 3 mul string
  currentfile 
  3 index 0 eq {/ASCIIHexDecode filter}
  {/ASCII85Decode filter 3 index 2 eq {/RunLengthDecode filter} if }
  ifelse exch readstring pop
  dup 0 3 index getinterval /rbmap xdef
  dup 2 index dup getinterval /gbmap xdef
  1 index dup 2 mul exch getinterval /bbmap xdef pop pop}bdef
/it {gs np dtri aload pop moveto lineto lineto cp c
  cols rows 8 compute_transform 
  rbmap gbmap bbmap true 3 colorimage gr}bdef
/il {newpath moveto lineto stroke}bdef
currentdict end def
%%EndProlog

%%BeginSetup
MathWorks begin

0 cap

end
%%EndSetup

%%Page: 1 1
%%BeginPageSetup
%%PageBoundingBox:    52   261   558   531
MathWorks begin
bpage
%%EndPageSetup

%%BeginObject: obj1
bplot

/dpi2point 12 def
portraitMode 0624 6372 csm

    0     0  6075  3240 rc
85 dict begin %Colortable dictionary
/c0 { 0.000000 0.000000 0.000000 sr} bdef
/c1 { 1.000000 1.000000 1.000000 sr} bdef
/c2 { 0.900000 0.000000 0.000000 sr} bdef
/c3 { 0.000000 0.820000 0.000000 sr} bdef
/c4 { 0.000000 0.000000 0.800000 sr} bdef
/c5 { 0.910000 0.820000 0.320000 sr} bdef
/c6 { 1.000000 0.260000 0.820000 sr} bdef
/c7 { 0.000000 0.820000 0.820000 sr} bdef
c0
1 j
1 sg
   0    0 6076 3241 rf
6 w
-2189 407 2518 354 2190 -407 789 2530 4 MP
PP
-2519 -354 -2189 407 2518 354 2190 -407 789 2530 5 MP stroke
0 1880 2190 -406 0 -1881 789 2530 4 MP
PP
-2190 407 0 1880 2190 -406 0 -1881 789 2530 5 MP stroke
0 1881 2518 353 0 -1880 2979 2123 4 MP
PP
-2518 -354 0 1881 2518 353 0 -1880 2979 2123 5 MP stroke
4 w
DO
SO
6 w
0 sg
 789 2530 mt 3308 2884 L
3308 2884 mt 5497 2477 L
 789 2530 mt  789  649 L
 789 2530 mt  727 2541 L
%%IncludeResource: font Helvetica
/Helvetica /WindowsLatin1Encoding 120 FMSR

 627 2659 mt 
(0) s
1629 2648 mt 1567 2659 L
1367 2777 mt 
(0.5) s
2469 2766 mt 2406 2777 L
2306 2895 mt 
(1) s
3308 2884 mt 3246 2895 L
3046 3012 mt 
(1.5) s
3308 2884 mt 3371 2892 L
3405 3008 mt 
(0) s
3746 2802 mt 3809 2811 L
3843 2927 mt 
(0.2) s
4184 2721 mt 4247 2730 L
4281 2845 mt 
(0.4) s
4622 2639 mt 4685 2648 L
4719 2764 mt 
(0.6) s
5060 2558 mt 5123 2567 L
5157 2683 mt 
(0.8) s
5497 2477 mt 5560 2485 L
5595 2601 mt 
(1) s
 789 2530 mt  727 2521 L
 626 2560 mt 
(0) s
 789 2154 mt  727 2145 L
 526 2184 mt 
(0.2) s
 789 1778 mt  727 1769 L
 526 1808 mt 
(0.4) s
 789 1402 mt  727 1393 L
 526 1432 mt 
(0.6) s
 789 1025 mt  727 1017 L
 526 1056 mt 
(0.8) s
 789  649 mt  727  641 L
 626  680 mt 
(1) s
gs 789 242 4709 2643 rc
1 sg
168 211 219 148 789 649 3 MP
PP
/c8 { 0.500000 0.000000 0.000000 sr} bdef
c8
 789  649 mt 1008  797 L
/c9 { 0.937500 0.000000 0.000000 sr} bdef
c9
1008  797 mt 1176 1008 L
1 sg
219 147 168 212 789 649 3 MP
PP
c8
 789  649 mt  957  861 L
c9
 957  861 mt 1176 1008 L
1 sg
168 212 219 147 957 861 3 MP
PP
c9
 957  861 mt 1176 1008 L
/c10 { 1.000000 0.375000 0.000000 sr} bdef
c10
1176 1008 mt 1344 1220 L
1 sg
219 147 168 212 957 861 3 MP
PP
c9
 957  861 mt 1125 1073 L
c10
1125 1073 mt 1344 1220 L
1 sg
219 148 168 211 1008 797 3 MP
PP
c9
1008  797 mt 1176 1008 L
c10
1176 1008 mt 1395 1156 L
1 sg
168 212 219 147 1008 797 3 MP
PP
c9
1008  797 mt 1227  944 L
c10
1227  944 mt 1395 1156 L
1 sg
219 148 168 211 1125 1073 3 MP
PP
c10
1125 1073 mt 1293 1284 L
/c11 { 1.000000 0.812500 0.000000 sr} bdef
c11
1293 1284 mt 1512 1432 L
1 sg
168 212 219 147 1125 1073 3 MP
PP
c10
1125 1073 mt 1344 1220 L
c11
1344 1220 mt 1512 1432 L
1 sg
168 211 219 148 1176 1008 3 MP
PP
c10
1176 1008 mt 1395 1156 L
c11
1395 1156 mt 1563 1367 L
1 sg
219 147 168 212 1176 1008 3 MP
PP
c10
1176 1008 mt 1344 1220 L
c11
1344 1220 mt 1563 1367 L
1 sg
168 212 219 147 1227 944 3 MP
PP
c10
1227  944 mt 1446 1091 L
c11
1446 1091 mt 1614 1303 L
1 sg
219 147 168 212 1227 944 3 MP
PP
c10
1227  944 mt 1395 1156 L
c11
1395 1156 mt 1614 1303 L
1 sg
168 211 219 148 1293 1284 3 MP
PP
c11
1293 1284 mt 1512 1432 L
/c12 { 0.750000 1.000000 0.250000 sr} bdef
c12
1512 1432 mt 1680 1643 L
1 sg
219 147 168 212 1293 1284 3 MP
PP
c11
1293 1284 mt 1461 1496 L
c12
1461 1496 mt 1680 1643 L
1 sg
168 212 219 147 1344 1220 3 MP
PP
c11
1344 1220 mt 1563 1367 L
c12
1563 1367 mt 1731 1579 L
1 sg
219 147 168 212 1344 1220 3 MP
PP
c11
1344 1220 mt 1512 1432 L
c12
1512 1432 mt 1731 1579 L
1 sg
168 212 219 147 1395 1156 3 MP
PP
c11
1395 1156 mt 1614 1303 L
c12
1614 1303 mt 1782 1515 L
1 sg
219 148 168 211 1395 1156 3 MP
PP
c11
1395 1156 mt 1563 1367 L
c12
1563 1367 mt 1782 1515 L
1 sg
219 147 168 212 1446 1091 3 MP
PP
c11
1446 1091 mt 1614 1303 L
c12
1614 1303 mt 1833 1450 L
1 sg
168 211 219 148 1446 1091 3 MP
PP
c11
1446 1091 mt 1665 1239 L
c12
1665 1239 mt 1833 1450 L
1 sg
219 147 168 212 1461 1496 3 MP
PP
c12
1461 1496 mt 1629 1708 L
/c13 { 0.312500 1.000000 0.687500 sr} bdef
c13
1629 1708 mt 1848 1855 L
1 sg
168 212 219 147 1461 1496 3 MP
PP
c12
1461 1496 mt 1680 1643 L
c13
1680 1643 mt 1848 1855 L
1 sg
219 148 168 211 1512 1432 3 MP
PP
c12
1512 1432 mt 1680 1643 L
c13
1680 1643 mt 1899 1791 L
1 sg
168 212 219 147 1512 1432 3 MP
PP
c12
1512 1432 mt 1731 1579 L
c13
1731 1579 mt 1899 1791 L
1 sg
219 147 168 212 1563 1367 3 MP
PP
c12
1563 1367 mt 1731 1579 L
c13
1731 1579 mt 1950 1726 L
1 sg
168 211 219 148 1563 1367 3 MP
PP
c12
1563 1367 mt 1782 1515 L
c13
1782 1515 mt 1950 1726 L
1 sg
219 147 168 212 1614 1303 3 MP
PP
c12
1614 1303 mt 1782 1515 L
c13
1782 1515 mt 2001 1662 L
1 sg
168 212 219 147 1614 1303 3 MP
PP
c12
1614 1303 mt 1833 1450 L
c13
1833 1450 mt 2001 1662 L
1 sg
168 211 219 147 1629 1708 3 MP
PP
c13
1629 1708 mt 1848 1855 L
/c14 { 0.000000 0.875000 1.000000 sr} bdef
c14
1848 1855 mt 2016 2066 L
1 sg
219 147 168 211 1629 1708 3 MP
PP
c13
1629 1708 mt 1797 1919 L
c14
1797 1919 mt 2016 2066 L
1 sg
168 212 219 147 1665 1239 3 MP
PP
c12
1665 1239 mt 1884 1386 L
c13
1884 1386 mt 2052 1598 L
1 sg
219 148 168 211 1665 1239 3 MP
PP
c12
1665 1239 mt 1833 1450 L
c13
1833 1450 mt 2052 1598 L
1 sg
168 211 219 148 1680 1643 3 MP
PP
c13
1680 1643 mt 1899 1791 L
c14
1899 1791 mt 2067 2002 L
1 sg
219 147 168 212 1680 1643 3 MP
PP
c13
1680 1643 mt 1848 1855 L
c14
1848 1855 mt 2067 2002 L
1 sg
219 147 168 212 1731 1579 3 MP
PP
c13
1731 1579 mt 1899 1791 L
c14
1899 1791 mt 2118 1938 L
1 sg
168 212 219 147 1731 1579 3 MP
PP
c13
1731 1579 mt 1950 1726 L
c14
1950 1726 mt 2118 1938 L
1 sg
219 148 168 211 1782 1515 3 MP
PP
c13
1782 1515 mt 1950 1726 L
c14
1950 1726 mt 2169 1874 L
1 sg
168 212 219 147 1782 1515 3 MP
PP
c13
1782 1515 mt 2001 1662 L
c14
2001 1662 mt 2169 1874 L
1 sg
168 212 219 147 1797 1919 3 MP
PP
c14
1797 1919 mt 2016 2066 L
/c15 { 0.000000 0.437500 1.000000 sr} bdef
c15
2016 2066 mt 2184 2278 L
1 sg
219 147 168 212 1797 1919 3 MP
PP
c14
1797 1919 mt 1965 2131 L
c15
1965 2131 mt 2184 2278 L
1 sg
168 211 219 148 1833 1450 3 MP
PP
c13
1833 1450 mt 2052 1598 L
c14
2052 1598 mt 2220 1809 L
1 sg
219 147 168 212 1833 1450 3 MP
PP
c13
1833 1450 mt 2001 1662 L
c14
2001 1662 mt 2220 1809 L
1 sg
219 148 168 211 1848 1855 3 MP
PP
c14
1848 1855 mt 2016 2066 L
c15
2016 2066 mt 2235 2214 L
1 sg
168 212 219 147 1848 1855 3 MP
PP
c14
1848 1855 mt 2067 2002 L
c15
2067 2002 mt 2235 2214 L
1 sg
168 212 219 147 1884 1386 3 MP
PP
c13
1884 1386 mt 2103 1533 L
c14
2103 1533 mt 2271 1745 L
1 sg
219 147 168 212 1884 1386 3 MP
PP
c13
1884 1386 mt 2052 1598 L
c14
2052 1598 mt 2271 1745 L
1 sg
168 212 219 147 1899 1791 3 MP
PP
c14
1899 1791 mt 2118 1938 L
c15
2118 1938 mt 2286 2150 L
1 sg
219 148 168 211 1899 1791 3 MP
PP
c14
1899 1791 mt 2067 2002 L
c15
2067 2002 mt 2286 2150 L
1 sg
219 147 168 212 1950 1726 3 MP
PP
c14
1950 1726 mt 2118 1938 L
c15
2118 1938 mt 2337 2085 L
1 sg
168 211 219 148 1950 1726 3 MP
PP
c14
1950 1726 mt 2169 1874 L
c15
2169 1874 mt 2337 2085 L
1 sg
168 212 219 147 1965 2131 3 MP
PP
c15
1965 2131 mt 2184 2278 L
/c16 { 0.000000 0.000000 1.000000 sr} bdef
c16
2184 2278 mt 2352 2490 L
1 sg
219 148 168 211 1965 2131 3 MP
PP
c15
1965 2131 mt 2133 2342 L
c16
2133 2342 mt 2352 2490 L
1 sg
168 212 219 147 2001 1662 3 MP
PP
c14
2001 1662 mt 2220 1809 L
c15
2220 1809 mt 2388 2021 L
1 sg
219 147 168 212 2001 1662 3 MP
PP
c14
2001 1662 mt 2169 1874 L
c15
2169 1874 mt 2388 2021 L
1 sg
219 147 168 212 2016 2066 3 MP
PP
c15
2016 2066 mt 2184 2278 L
c16
2184 2278 mt 2403 2425 L
1 sg
168 211 219 148 2016 2066 3 MP
PP
c15
2016 2066 mt 2235 2214 L
c16
2235 2214 mt 2403 2425 L
1 sg
168 212 219 147 2052 1598 3 MP
PP
c14
2052 1598 mt 2271 1745 L
c15
2271 1745 mt 2439 1957 L
1 sg
219 148 168 211 2052 1598 3 MP
PP
c14
2052 1598 mt 2220 1809 L
c15
2220 1809 mt 2439 1957 L
1 sg
219 147 168 212 2067 2002 3 MP
PP
c15
2067 2002 mt 2235 2214 L
c16
2235 2214 mt 2454 2361 L
1 sg
168 211 219 148 2067 2002 3 MP
PP
c15
2067 2002 mt 2286 2150 L
c16
2286 2150 mt 2454 2361 L
1 sg
219 147 168 212 2103 1533 3 MP
PP
c14
2103 1533 mt 2271 1745 L
c15
2271 1745 mt 2490 1892 L
1 sg
168 211 219 148 2103 1533 3 MP
PP
c14
2103 1533 mt 2322 1681 L
c15
2322 1681 mt 2490 1892 L
1 sg
168 212 219 147 2118 1938 3 MP
PP
c15
2118 1938 mt 2337 2085 L
c16
2337 2085 mt 2505 2297 L
1 sg
219 147 168 212 2118 1938 3 MP
PP
c15
2118 1938 mt 2286 2150 L
c16
2286 2150 mt 2505 2297 L
1 sg
168 212 219 147 2169 1874 3 MP
PP
c15
2169 1874 mt 2388 2021 L
c16
2388 2021 mt 2556 2233 L
1 sg
219 148 168 211 2169 1874 3 MP
PP
c15
2169 1874 mt 2337 2085 L
c16
2337 2085 mt 2556 2233 L
1 sg
168 211 219 148 2220 1809 3 MP
PP
c15
2220 1809 mt 2439 1957 L
c16
2439 1957 mt 2607 2168 L
1 sg
219 147 168 212 2220 1809 3 MP
PP
c15
2220 1809 mt 2388 2021 L
c16
2388 2021 mt 2607 2168 L
1 sg
168 212 219 147 2271 1745 3 MP
PP
c15
2271 1745 mt 2490 1892 L
c16
2490 1892 mt 2658 2104 L
1 sg
219 147 168 212 2271 1745 3 MP
PP
c15
2271 1745 mt 2439 1957 L
c16
2439 1957 mt 2658 2104 L
1 sg
219 148 168 211 2322 1681 3 MP
PP
c15
2322 1681 mt 2490 1892 L
c16
2490 1892 mt 2709 2040 L
1 sg
168 212 219 147 2322 1681 3 MP
PP
c15
2322 1681 mt 2541 1828 L
c16
2541 1828 mt 2709 2040 L
0 j
gr

c16
  36   36 1985 2000 FO
gs 789 242 4709 2643 rc
gr

  36   36 1673 1383 FO
gs 789 242 4709 2643 rc
gr

  36   36 2327 2509 FO
gs 789 242 4709 2643 rc
gr

  36   36 1231 1099 FO
gs 789 242 4709 2643 rc
gr

  36   36 2480 2528 FO
gs 789 242 4709 2643 rc
gr

  36   36 2127 2123 FO
gs 789 242 4709 2643 rc
gr

  36   36 1608 1488 FO
gs 789 242 4709 2643 rc
gr

  36   36 2008 1869 FO
gs 789 242 4709 2643 rc
gr

  36   36 1212  963 FO
gs 789 242 4709 2643 rc
gr

  36   36 2673 2005 FO
gs 789 242 4709 2643 rc
gr

  36   36 2302 2478 FO
gs 789 242 4709 2643 rc
gr

  36   36 2644 1968 FO
gs 789 242 4709 2643 rc
gr

  36   36 2292 2106 FO
gs 789 242 4709 2643 rc
gr

  36   36 2185 2212 FO
gs 789 242 4709 2643 rc
gr

  36   36 2189 2039 FO
gs 789 242 4709 2643 rc
gr

  36   36 2253 2091 FO
gs 789 242 4709 2643 rc
gr

  36   36  971  791 FO
gs 789 242 4709 2643 rc
gr

  36   36 1910 1770 FO
gs 789 242 4709 2643 rc
gr

  36   36 1503 1260 FO
gs 789 242 4709 2643 rc
gr

  36   36 2426 2707 FO
gs 789 242 4709 2643 rc
gr

  36   36 1481 1270 FO
gs 789 242 4709 2643 rc
gr

  36   36  920  762 FO
gs 789 242 4709 2643 rc
gr

  36   36 1707 1449 FO
gs 789 242 4709 2643 rc
gr

  36   36 2457 2634 FO
gs 789 242 4709 2643 rc
gr

  36   36 1841 1550 FO
gs 789 242 4709 2643 rc
gr

  36   36 1867 1653 FO
gs 789 242 4709 2643 rc
gr

  36   36 2181 2056 FO
gs 789 242 4709 2643 rc
gr

  36   36 2221 2391 FO
gs 789 242 4709 2643 rc
gr

  36   36 1897 1726 FO
gs 789 242 4709 2643 rc
gr

  36   36 2701 2040 FO
gs 789 242 4709 2643 rc
gr

  36   36 2396 2279 FO
gs 789 242 4709 2643 rc
gr

  36   36 1757 1467 FO
gs 789 242 4709 2643 rc
gr

  36   36 2159 2200 FO
gs 789 242 4709 2643 rc
gr

  36   36 1231 1132 FO
gs 789 242 4709 2643 rc
gr

  36   36 2695 2012 FO
gs 789 242 4709 2643 rc
gr

  36   36 1544 1339 FO
gs 789 242 4709 2643 rc
gr

  36   36 1818 1645 FO
gs 789 242 4709 2643 rc
gr

  36   36 2791 2061 FO
gs 789 242 4709 2643 rc
gr

  36   36 2289 1880 FO
gs 789 242 4709 2643 rc
gr

  36   36 2205 2092 FO
gs 789 242 4709 2643 rc
gr

  36   36 2041 1712 FO
gs 789 242 4709 2643 rc
gr

  36   36 2373 2448 FO
gs 789 242 4709 2643 rc
gr

  36   36 2685 2045 FO
gs 789 242 4709 2643 rc
gr

  36   36 2705 2035 FO
gs 789 242 4709 2643 rc
gr

  36   36 1996 1843 FO
gs 789 242 4709 2643 rc
gr

  36   36 1808 1689 FO
gs 789 242 4709 2643 rc
gr

  36   36 1089  958 FO
gs 789 242 4709 2643 rc
gr

  36   36 2574 2018 FO
gs 789 242 4709 2643 rc
gr

  36   36 1115  898 FO
gs 789 242 4709 2643 rc
gr

  36   36 2466 2184 FO
gs 789 242 4709 2643 rc
gr

  36   36 2965 2121 FO
gs 789 242 4709 2643 rc
gr

  36   36 1635 1403 FO
gs 789 242 4709 2643 rc
gr

  36   36 2320 1870 FO
gs 789 242 4709 2643 rc
gr

  36   36 1692 1448 FO
gs 789 242 4709 2643 rc
gr

  36   36 1603 1552 FO
gs 789 242 4709 2643 rc
gr

  36   36 2133 1786 FO
gs 789 242 4709 2643 rc
gr

  36   36 2169 1998 FO
gs 789 242 4709 2643 rc
gr

  36   36 2000 1905 FO
gs 789 242 4709 2643 rc
gr

  36   36 2082 1959 FO
gs 789 242 4709 2643 rc
gr

  36   36 2227 2215 FO
gs 789 242 4709 2643 rc
gr

  36   36 1815 1563 FO
gs 789 242 4709 2643 rc
gr

  36   36 1828 1596 FO
gs 789 242 4709 2643 rc
gr

  36   36 2223 2361 FO
gs 789 242 4709 2643 rc
gr

  36   36 2125 1857 FO
gs 789 242 4709 2643 rc
gr

  36   36 2374 1905 FO
gs 789 242 4709 2643 rc
gr

  36   36 2099 1956 FO
gs 789 242 4709 2643 rc
gr

  36   36 2262 2340 FO
gs 789 242 4709 2643 rc
gr

  36   36  983  846 FO
gs 789 242 4709 2643 rc
gr

  36   36 2408 2091 FO
gs 789 242 4709 2643 rc
gr

  36   36 1785 1529 FO
gs 789 242 4709 2643 rc
gr

  36   36 2330 2320 FO
gs 789 242 4709 2643 rc
gr

  36   36 2457 1841 FO
gs 789 242 4709 2643 rc
gr

  36   36 2191 2109 FO
gs 789 242 4709 2643 rc
gr

  36   36 2460 2721 FO
gs 789 242 4709 2643 rc
gr

  36   36 2212 1906 FO
gs 789 242 4709 2643 rc
gr

  36   36 1858 1708 FO
gs 789 242 4709 2643 rc
gr

  36   36 2383 2182 FO
gs 789 242 4709 2643 rc
gr

  36   36  792  651 FO
gs 789 242 4709 2643 rc
gr

  36   36 2193 1849 FO
gs 789 242 4709 2643 rc
gr

  36   36 1858 1601 FO
gs 789 242 4709 2643 rc
gr

  36   36 2306 2043 FO
gs 789 242 4709 2643 rc
gr

  36   36 1727 1566 FO
gs 789 242 4709 2643 rc
gr

  36   36 1816 1527 FO
gs 789 242 4709 2643 rc
gr

  36   36 2088 1778 FO
gs 789 242 4709 2643 rc
gr

  36   36 2136 2187 FO
gs 789 242 4709 2643 rc
gr

  36   36 2056 1736 FO
gs 789 242 4709 2643 rc
gr

  36   36 2265 1827 FO
gs 789 242 4709 2643 rc
gr

  36   36 1389 1240 FO
gs 789 242 4709 2643 rc
gr

  36   36 1640 1568 FO
gs 789 242 4709 2643 rc
gr

  36   36 2777 2049 FO
gs 789 242 4709 2643 rc
gr

  36   36 2446 2704 FO
gs 789 242 4709 2643 rc
gr

  36   36 2263 1965 FO
gs 789 242 4709 2643 rc
gr

  36   36 2783 2082 FO
gs 789 242 4709 2643 rc
gr

  36   36 2093 2002 FO
gs 789 242 4709 2643 rc
gr

  36   36 2230 2274 FO
gs 789 242 4709 2643 rc
gr

  36   36 2235 1907 FO
gs 789 242 4709 2643 rc
gr

  36   36  965  808 FO
gs 789 242 4709 2643 rc
gr

  36   36 2389 2030 FO
gs 789 242 4709 2643 rc
gr

  36   36 1449 1303 FO
gs 789 242 4709 2643 rc
gr

  36   36 1909 1697 FO
gs 789 242 4709 2643 rc
gr

  36   36 1249 1056 FO
gs 789 242 4709 2643 rc
gr

  36   36 1592 1606 FO
gs 789 242 4709 2643 rc
gr

  36   36 2435 2126 FO
gs 789 242 4709 2643 rc
gr

  36   36 1604 1325 FO
gs 789 242 4709 2643 rc
gr

  36   36 2240 1819 FO
gs 789 242 4709 2643 rc
gr

  36   36 1944 1852 FO
gs 789 242 4709 2643 rc
gr

  36   36 2157 2088 FO
gs 789 242 4709 2643 rc
gr

  36   36 2458 2193 FO
gs 789 242 4709 2643 rc
gr

  36   36 1591 1377 FO
gs 789 242 4709 2643 rc
gr

  36   36 2096 1827 FO
gs 789 242 4709 2643 rc
gr

  36   36 1682 1429 FO
gs 789 242 4709 2643 rc
gr

  36   36 2253 2287 FO
gs 789 242 4709 2643 rc
gr

  36   36 1921 1666 FO
gs 789 242 4709 2643 rc
gr

  36   36 2252 2277 FO
gs 789 242 4709 2643 rc
gr

  36   36 2791 2040 FO
gs 789 242 4709 2643 rc
gr

  36   36 2349 2305 FO
gs 789 242 4709 2643 rc
gr

  36   36 2248 2189 FO
gs 789 242 4709 2643 rc
gr

  36   36 2346 2103 FO
gs 789 242 4709 2643 rc
gr

  36   36 2717 2353 FO
gs 789 242 4709 2643 rc
gr

  36   36 2085 1795 FO
gs 789 242 4709 2643 rc
gr

  36   36 2254 1969 FO
gs 789 242 4709 2643 rc
gr

  36   36 1798 1749 FO
gs 789 242 4709 2643 rc
gr

  36   36 2232 2005 FO
gs 789 242 4709 2643 rc
gr

  36   36 1702 1583 FO
gs 789 242 4709 2643 rc
gr

  36   36 2408 2093 FO
gs 789 242 4709 2643 rc
gr

  36   36 2351 1745 FO
gs 789 242 4709 2643 rc
gr

  36   36 2291 2314 FO
gs 789 242 4709 2643 rc
gr

  36   36 1829 1681 FO
gs 789 242 4709 2643 rc
gr

  36   36 2027 2152 FO
gs 789 242 4709 2643 rc
gr

  36   36 1165 1033 FO
gs 789 242 4709 2643 rc
gr

  36   36 2270 2302 FO
gs 789 242 4709 2643 rc
gr

  36   36 2189 1805 FO
gs 789 242 4709 2643 rc
gr

  36   36 2168 1993 FO
gs 789 242 4709 2643 rc
gr

  36   36 2403 1947 FO
gs 789 242 4709 2643 rc
gr

  36   36 2831 2082 FO
gs 789 242 4709 2643 rc
gr

  36   36 1700 1549 FO
gs 789 242 4709 2643 rc
gr

  36   36 2790 2125 FO
gs 789 242 4709 2643 rc
gr

  36   36 2143 1733 FO
gs 789 242 4709 2643 rc
gr

  36   36 2217 2221 FO
gs 789 242 4709 2643 rc
gr

  36   36 1773 1409 FO
gs 789 242 4709 2643 rc
gr

  36   36 2209 1950 FO
gs 789 242 4709 2643 rc
gr

  36   36 2234 1942 FO
gs 789 242 4709 2643 rc
gr

  36   36 1984 2014 FO
gs 789 242 4709 2643 rc
gr

  36   36 2826 2066 FO
gs 789 242 4709 2643 rc
gr

  36   36 1708 1479 FO
gs 789 242 4709 2643 rc
gr

  36   36 1024  913 FO
gs 789 242 4709 2643 rc
gr

  36   36 2177 1863 FO
gs 789 242 4709 2643 rc
gr

  36   36 2124 1872 FO
gs 789 242 4709 2643 rc
gr

  36   36 2348 2249 FO
gs 789 242 4709 2643 rc
gr

  36   36 2011 1521 FO
gs 789 242 4709 2643 rc
gr

  36   36 2346 2538 FO
gs 789 242 4709 2643 rc
gr

  36   36 1130 1041 FO
gs 789 242 4709 2643 rc
gr

  36   36 2103 1956 FO
gs 789 242 4709 2643 rc
gr

  36   36 1212 1018 FO
gs 789 242 4709 2643 rc
gr

  36   36 2398 2078 FO
gs 789 242 4709 2643 rc
gr

  36   36 2669 2022 FO
gs 789 242 4709 2643 rc
gr

  36   36 2298 2204 FO
gs 789 242 4709 2643 rc
gr

  36   36 2163 2039 FO
gs 789 242 4709 2643 rc
gr

  36   36 1843 1728 FO
gs 789 242 4709 2643 rc
gr

  36   36 2335 2451 FO
gs 789 242 4709 2643 rc
gr

  36   36 2086 1820 FO
gs 789 242 4709 2643 rc
gr

  36   36 1424 1279 FO
gs 789 242 4709 2643 rc
gr

  36   36 1600 1341 FO
gs 789 242 4709 2643 rc
gr

  36   36 2028 1759 FO
gs 789 242 4709 2643 rc
gr

  36   36 2146 1833 FO
gs 789 242 4709 2643 rc
gr

  36   36 2374 2028 FO
gs 789 242 4709 2643 rc
gr

  36   36 2452 1935 FO
gs 789 242 4709 2643 rc
gr

  36   36 2154 1961 FO
gs 789 242 4709 2643 rc
gr

  36   36 1713 1545 FO
gs 789 242 4709 2643 rc
gr

  36   36 2177 2263 FO
gs 789 242 4709 2643 rc
gr

  36   36 1508 1170 FO
gs 789 242 4709 2643 rc
gr

  36   36 2067 1854 FO
gs 789 242 4709 2643 rc
gr

  36   36 2095 1831 FO
gs 789 242 4709 2643 rc
gr

  36   36 1514 1320 FO
gs 789 242 4709 2643 rc
gr

  36   36 2342 2313 FO
gs 789 242 4709 2643 rc
gr

  36   36 2454 2725 FO
gs 789 242 4709 2643 rc
gr

  36   36 1474 1263 FO
gs 789 242 4709 2643 rc
gr

  36   36 1441 1220 FO
gs 789 242 4709 2643 rc
gr

  36   36 2718 2066 FO
gs 789 242 4709 2643 rc
gr

  36   36 2175 1939 FO
gs 789 242 4709 2643 rc
gr

  36   36 2972 2120 FO
gs 789 242 4709 2643 rc
gr

  36   36 2027 1910 FO
gs 789 242 4709 2643 rc
gr

  36   36 2323 1881 FO
gs 789 242 4709 2643 rc
gr

  36   36 2504 2432 FO
gs 789 242 4709 2643 rc
gr

  36   36 2830 2212 FO
gs 789 242 4709 2643 rc
gr

  36   36 2284 1857 FO
gs 789 242 4709 2643 rc
gr

  36   36 2382 2389 FO
gs 789 242 4709 2643 rc
gr

  36   36 2200 1897 FO
gs 789 242 4709 2643 rc
gr

  36   36 2222 1825 FO
gs 789 242 4709 2643 rc
gr

  36   36 2532 1944 FO
gs 789 242 4709 2643 rc
gr

  36   36 2453 2728 FO
gs 789 242 4709 2643 rc
gr

  36   36 1853 1606 FO
gs 789 242 4709 2643 rc
gr

  36   36 2980 2123 FO
gs 789 242 4709 2643 rc
gr

  36   36 1267 1135 FO
gs 789 242 4709 2643 rc
gr

  36   36 2406 2098 FO
gs 789 242 4709 2643 rc
gr

  36   36 2408 1896 FO
gs 789 242 4709 2643 rc
gr

  36   36 2799 2120 FO
gs 789 242 4709 2643 rc
gr

  36   36 2359 1924 FO
gs 789 242 4709 2643 rc
gr

  36   36 1896 1680 FO
gs 789 242 4709 2643 rc
gr

  36   36 2497 2223 FO
gs 789 242 4709 2643 rc
gr

  36   36 1591 1288 FO
gs 789 242 4709 2643 rc
gr

  36   36 1597 1631 FO
gs 789 242 4709 2643 rc
gr

  36   36 2168 2057 FO
gs 789 242 4709 2643 rc
gr

  36   36 1103  903 FO
gs 789 242 4709 2643 rc
gr

  36   36 1813 1788 FO
gs 789 242 4709 2643 rc
gr

  36   36 1184 1116 FO
gs 789 242 4709 2643 rc
gr

  36   36 2481 2336 FO
gs 789 242 4709 2643 rc
gr

  36   36 2096 1854 FO
gs 789 242 4709 2643 rc
gr

  36   36 2508 2392 FO
gs 789 242 4709 2643 rc
gr

  36   36 2327 2273 FO
gs 789 242 4709 2643 rc
gr

  36   36 1906 1759 FO
gs 789 242 4709 2643 rc
gr

  36   36 2886 2167 FO
gs 789 242 4709 2643 rc
gr

  36   36 2157 2130 FO
gs 789 242 4709 2643 rc
gr

  36   36 1909 1578 FO
gs 789 242 4709 2643 rc
gr

  36   36 1954 1685 FO
gs 789 242 4709 2643 rc
gr

  36   36 1109  893 FO
gs 789 242 4709 2643 rc
gr

  36   36 2309 2048 FO
gs 789 242 4709 2643 rc
gr

  36   36 2061 1989 FO
gs 789 242 4709 2643 rc
gr

  36   36 2138 1807 FO
gs 789 242 4709 2643 rc
gr

  36   36 2119 1844 FO
gs 789 242 4709 2643 rc
gr

  36   36 2176 1879 FO
gs 789 242 4709 2643 rc
gr

  36   36 2189 1736 FO
gs 789 242 4709 2643 rc
gr

  36   36 2207 2297 FO
gs 789 242 4709 2643 rc
gr

  36   36 2904 2101 FO
gs 789 242 4709 2643 rc
gr

  36   36  996  828 FO
gs 789 242 4709 2643 rc
gr

  36   36 2110 1586 FO
gs 789 242 4709 2643 rc
gr

  36   36 1347 1155 FO
gs 789 242 4709 2643 rc
gr

  36   36 2134 2049 FO
gs 789 242 4709 2643 rc
gr

  36   36 2035 2007 FO
gs 789 242 4709 2643 rc
gr

  36   36 2773 2138 FO
gs 789 242 4709 2643 rc
gr

  36   36  823  680 FO
gs 789 242 4709 2643 rc
gr

  36   36 2263 2442 FO
gs 789 242 4709 2643 rc
gr

  36   36 2874 2113 FO
gs 789 242 4709 2643 rc
gr

  36   36 2098 1762 FO
gs 789 242 4709 2643 rc
gr

  36   36 2041 1823 FO
gs 789 242 4709 2643 rc
gr

  36   36 2004 1824 FO
gs 789 242 4709 2643 rc
gr

  36   36 2323 2095 FO
gs 789 242 4709 2643 rc
gr

  36   36 1998 1779 FO
gs 789 242 4709 2643 rc
gr

  36   36 2905 2098 FO
gs 789 242 4709 2643 rc
gr

  36   36 1412 1231 FO
gs 789 242 4709 2643 rc
gr

  36   36 2308 2439 FO
gs 789 242 4709 2643 rc
gr

  36   36 2469 2758 FO
gs 789 242 4709 2643 rc
gr

  36   36 2162 1862 FO
gs 789 242 4709 2643 rc
gr

  36   36 2234 2279 FO
gs 789 242 4709 2643 rc
gr

  36   36 2395 2459 FO
gs 789 242 4709 2643 rc
gr

  36   36 2179 1781 FO
gs 789 242 4709 2643 rc
gr

  36   36 2729 2008 FO
gs 789 242 4709 2643 rc
gr

  36   36 2599 2077 FO
gs 789 242 4709 2643 rc
gr

  36   36 2707 2045 FO
gs 789 242 4709 2643 rc
gr

  36   36 1382 1232 FO
gs 789 242 4709 2643 rc
gr

  36   36 1398 1197 FO
gs 789 242 4709 2643 rc
gr

  36   36 2085 1859 FO
gs 789 242 4709 2643 rc
gr

  36   36 1789 1740 FO
gs 789 242 4709 2643 rc
gr

  36   36 2581 1964 FO
gs 789 242 4709 2643 rc
gr

  36   36 1731 1487 FO
gs 789 242 4709 2643 rc
gr

  36   36 1839 1585 FO
gs 789 242 4709 2643 rc
gr

  36   36 1605 1389 FO
gs 789 242 4709 2643 rc
gr

  36   36 2216 1862 FO
gs 789 242 4709 2643 rc
gr

  36   36 2301 2415 FO
gs 789 242 4709 2643 rc
gr

  36   36 2023 1760 FO
gs 789 242 4709 2643 rc
gr

  36   36 2223 2311 FO
gs 789 242 4709 2643 rc
gr

  36   36 2149 1712 FO
gs 789 242 4709 2643 rc
gr

  36   36 2623 2078 FO
gs 789 242 4709 2643 rc
gr

  36   36 2207 2206 FO
gs 789 242 4709 2643 rc
gr

  36   36 2167 1890 FO
gs 789 242 4709 2643 rc
gr

  36   36 2135 2132 FO
gs 789 242 4709 2643 rc
gr

  36   36 2304 1908 FO
gs 789 242 4709 2643 rc
gr

  36   36 2437 2493 FO
gs 789 242 4709 2643 rc
gr

  36   36 2460 1936 FO
gs 789 242 4709 2643 rc
gr

  36   36 2365 2290 FO
gs 789 242 4709 2643 rc
gr

  36   36 2124 1787 FO
gs 789 242 4709 2643 rc
gr

  36   36 1628 1534 FO
gs 789 242 4709 2643 rc
gr

  36   36 1843 1674 FO
gs 789 242 4709 2643 rc
gr

  36   36 1877 1642 FO
gs 789 242 4709 2643 rc
gr

  36   36 2426 1994 FO
gs 789 242 4709 2643 rc
gr

  36   36 2200 2206 FO
gs 789 242 4709 2643 rc
gr

  36   36 1484 1259 FO
gs 789 242 4709 2643 rc
gr

  36   36 2185 1890 FO
gs 789 242 4709 2643 rc
gr

  36   36 1405 1192 FO
gs 789 242 4709 2643 rc
gr

  36   36 2136 1925 FO
gs 789 242 4709 2643 rc
gr

  36   36 2300 2213 FO
gs 789 242 4709 2643 rc
gr

  36   36 1842 1494 FO
gs 789 242 4709 2643 rc
gr

  36   36 1796 1622 FO
gs 789 242 4709 2643 rc
gr

  36   36 2447 2169 FO
gs 789 242 4709 2643 rc
gr

  36   36 1808 1593 FO
gs 789 242 4709 2643 rc
gr

  36   36 2308 2083 FO
gs 789 242 4709 2643 rc
gr

  36   36 2385 1897 FO
gs 789 242 4709 2643 rc
gr

  36   36 1893 1678 FO
gs 789 242 4709 2643 rc
gr

  36   36 1897 1870 FO
gs 789 242 4709 2643 rc
gr

  36   36 2980 2123 FO
gs 789 242 4709 2643 rc
gr

  36   36 2864 2083 FO
gs 789 242 4709 2643 rc
gr

  36   36 2198 2295 FO
gs 789 242 4709 2643 rc
gr

  36   36 1710 1462 FO
gs 789 242 4709 2643 rc
gr

  36   36 2463 2730 FO
gs 789 242 4709 2643 rc
gr

  36   36  820  678 FO
gs 789 242 4709 2643 rc
gr

  36   36 2464 2026 FO
gs 789 242 4709 2643 rc
gr

  36   36 2022 1584 FO
gs 789 242 4709 2643 rc
gr

  36   36 2438 2510 FO
gs 789 242 4709 2643 rc
gr

  36   36 1862 1635 FO
gs 789 242 4709 2643 rc
gr

  36   36 2321 2205 FO
gs 789 242 4709 2643 rc
gr

  36   36 1826 1543 FO
gs 789 242 4709 2643 rc
gr

  36   36 2619 2003 FO
gs 789 242 4709 2643 rc
gr

  36   36 1799 1533 FO
gs 789 242 4709 2643 rc
gr

  36   36  956  821 FO
gs 789 242 4709 2643 rc
gr

  36   36 2103 1862 FO
gs 789 242 4709 2643 rc
gr

  36   36 2496 2563 FO
gs 789 242 4709 2643 rc
gr

  36   36 2072 1938 FO
gs 789 242 4709 2643 rc
gr

  36   36 2389 2419 FO
gs 789 242 4709 2643 rc
gr

  36   36 2790 2071 FO
gs 789 242 4709 2643 rc
gr

  36   36 2561 1985 FO
gs 789 242 4709 2643 rc
gr

  36   36 2267 1909 FO
gs 789 242 4709 2643 rc
gr

  36   36 1753 1694 FO
gs 789 242 4709 2643 rc
gr

  36   36 1929 1514 FO
gs 789 242 4709 2643 rc
gr

  36   36 2302 2387 FO
gs 789 242 4709 2643 rc
gr

  36   36 2739 2120 FO
gs 789 242 4709 2643 rc
gr

  36   36 2135 2021 FO
gs 789 242 4709 2643 rc
gr

  36   36 2840 2080 FO
gs 789 242 4709 2643 rc
gr

  36   36 2329 2500 FO
gs 789 242 4709 2643 rc
gr

  36   36 2625 2108 FO
gs 789 242 4709 2643 rc
gr

  36   36 2491 1896 FO
gs 789 242 4709 2643 rc
gr

  36   36 2424 2595 FO
gs 789 242 4709 2643 rc
gr

  36   36 2519 2409 FO
gs 789 242 4709 2643 rc
gr

  36   36 1958 1727 FO
gs 789 242 4709 2643 rc
gr

  36   36 1432 1287 FO
gs 789 242 4709 2643 rc
gr

  36   36 2029 1853 FO
gs 789 242 4709 2643 rc
gr

  36   36 2370 2105 FO
gs 789 242 4709 2643 rc
gr

  36   36 1698 1557 FO
gs 789 242 4709 2643 rc
gr

  36   36 1101  961 FO
gs 789 242 4709 2643 rc
gr

  36   36 1784 1457 FO
gs 789 242 4709 2643 rc
gr

  36   36 2728 2014 FO
gs 789 242 4709 2643 rc
gr

  36   36 1967 1766 FO
gs 789 242 4709 2643 rc
gr

  36   36 2178 1792 FO
gs 789 242 4709 2643 rc
gr

  36   36 2215 1887 FO
gs 789 242 4709 2643 rc
gr

  36   36 2460 2041 FO
gs 789 242 4709 2643 rc
gr

  36   36 2493 2262 FO
gs 789 242 4709 2643 rc
gr

  36   36 1865 1620 FO
gs 789 242 4709 2643 rc
gr

  36   36 2008 1668 FO
gs 789 242 4709 2643 rc
gr

  36   36 2368 2120 FO
gs 789 242 4709 2643 rc
gr

  36   36 2511 2019 FO
gs 789 242 4709 2643 rc
gr

  36   36 1827 1632 FO
gs 789 242 4709 2643 rc
gr

  36   36 1534 1440 FO
gs 789 242 4709 2643 rc
gr

  36   36 2206 2027 FO
gs 789 242 4709 2643 rc
gr

  36   36 1598 1613 FO
gs 789 242 4709 2643 rc
gr

  36   36 2139 1870 FO
gs 789 242 4709 2643 rc
gr

  36   36 1687 1337 FO
gs 789 242 4709 2643 rc
gr

  36   36 1667 1502 FO
gs 789 242 4709 2643 rc
gr

  36   36 2206 2006 FO
gs 789 242 4709 2643 rc
gr

  36   36 2721 2030 FO
gs 789 242 4709 2643 rc
gr

  36   36 2738 2059 FO
gs 789 242 4709 2643 rc
gr

  36   36 1863 1622 FO
gs 789 242 4709 2643 rc
gr

  36   36 2013 1798 FO
gs 789 242 4709 2643 rc
gr

  36   36 2066 1832 FO
gs 789 242 4709 2643 rc
gr

  36   36 2531 2485 FO
gs 789 242 4709 2643 rc
gr

  36   36 2288 1950 FO
gs 789 242 4709 2643 rc
gr

  36   36 2239 1992 FO
gs 789 242 4709 2643 rc
gr

  36   36 2394 2304 FO
gs 789 242 4709 2643 rc
gr

  36   36 1085  927 FO
gs 789 242 4709 2643 rc
gr

  36   36 1499 1448 FO
gs 789 242 4709 2643 rc
gr

  36   36 2742 2001 FO
gs 789 242 4709 2643 rc
gr

  36   36 2080 1737 FO
gs 789 242 4709 2643 rc
gr

  36   36 2004 1788 FO
gs 789 242 4709 2643 rc
gr

  36   36  991  817 FO
gs 789 242 4709 2643 rc
gr

  36   36 2014 1941 FO
gs 789 242 4709 2643 rc
gr

  36   36 2265 2037 FO
gs 789 242 4709 2643 rc
gr

  36   36 2268 2042 FO
gs 789 242 4709 2643 rc
gr

  36   36 1912 1670 FO
gs 789 242 4709 2643 rc
gr

  36   36 2235 2121 FO
gs 789 242 4709 2643 rc
gr

  36   36 2468 2031 FO
gs 789 242 4709 2643 rc
gr

  36   36 2273 2124 FO
gs 789 242 4709 2643 rc
gr

  36   36 2923 2105 FO
gs 789 242 4709 2643 rc
gr

  36   36 1907 1627 FO
gs 789 242 4709 2643 rc
gr

  36   36 2286 1899 FO
gs 789 242 4709 2643 rc
gr

  36   36 2300 2166 FO
gs 789 242 4709 2643 rc
gr

  36   36 2289 2252 FO
gs 789 242 4709 2643 rc
gr

  36   36 2391 1898 FO
gs 789 242 4709 2643 rc
gr

  36   36 2146 2085 FO
gs 789 242 4709 2643 rc
gr

  36   36 1344 1151 FO
gs 789 242 4709 2643 rc
gr

  36   36  883  737 FO
gs 789 242 4709 2643 rc
gr

  36   36 2344 2466 FO
gs 789 242 4709 2643 rc
gr

  36   36 2182 2323 FO
gs 789 242 4709 2643 rc
gr

  36   36 2940 2116 FO
gs 789 242 4709 2643 rc
gr

  36   36  792  651 FO
gs 789 242 4709 2643 rc
gr

  36   36 2559 1970 FO
gs 789 242 4709 2643 rc
gr

  36   36 2950 2117 FO
gs 789 242 4709 2643 rc
gr

  36   36 2532 1965 FO
gs 789 242 4709 2643 rc
gr

  36   36 2150 2117 FO
gs 789 242 4709 2643 rc
gr

  36   36 2388 2131 FO
gs 789 242 4709 2643 rc
gr

  36   36 1449 1266 FO
gs 789 242 4709 2643 rc
gr

  36   36 2059 1713 FO
gs 789 242 4709 2643 rc
gr

  36   36 1556 1329 FO
gs 789 242 4709 2643 rc
gr

  36   36 2011 1715 FO
gs 789 242 4709 2643 rc
gr

  36   36 2327 1895 FO
gs 789 242 4709 2643 rc
gr

  36   36 2430 2527 FO
gs 789 242 4709 2643 rc
gr

  36   36 2045 1740 FO
gs 789 242 4709 2643 rc
gr

  36   36 2185 2267 FO
gs 789 242 4709 2643 rc
gr

  36   36 2289 2142 FO
gs 789 242 4709 2643 rc
gr

  36   36 2190 2179 FO
gs 789 242 4709 2643 rc
gr

  36   36 2144 1732 FO
gs 789 242 4709 2643 rc
gr

  36   36 2338 1968 FO
gs 789 242 4709 2643 rc
gr

  36   36 2448 2418 FO
gs 789 242 4709 2643 rc
gr

  36   36 2117 1775 FO
gs 789 242 4709 2643 rc
gr

  36   36 2231 2219 FO
gs 789 242 4709 2643 rc
gr

  36   36 2190 2304 FO
gs 789 242 4709 2643 rc
gr

  36   36 2315 2403 FO
gs 789 242 4709 2643 rc
gr

  36   36 2093 2121 FO
gs 789 242 4709 2643 rc
gr

  36   36 1831 1594 FO
gs 789 242 4709 2643 rc
gr

  36   36 2204 2007 FO
gs 789 242 4709 2643 rc
gr

  36   36 2294 1901 FO
gs 789 242 4709 2643 rc
gr

  36   36 2458 2735 FO
gs 789 242 4709 2643 rc
gr

  36   36 2355 1978 FO
gs 789 242 4709 2643 rc
gr

  36   36 1409 1268 FO
gs 789 242 4709 2643 rc
gr

  36   36 1998 1700 FO
gs 789 242 4709 2643 rc
gr

  36   36 2126 1947 FO
gs 789 242 4709 2643 rc
gr

  36   36 1983 1650 FO
gs 789 242 4709 2643 rc
gr

  36   36 2090 1842 FO
gs 789 242 4709 2643 rc
gr

  36   36 1846 1795 FO
gs 789 242 4709 2643 rc
gr

  36   36 2828 2058 FO
gs 789 242 4709 2643 rc
gr

  36   36 2111 1910 FO
gs 789 242 4709 2643 rc
gr

  36   36 2286 1856 FO
gs 789 242 4709 2643 rc
gr

  36   36 2276 2272 FO
gs 789 242 4709 2643 rc
gr

  36   36 2146 1680 FO
gs 789 242 4709 2643 rc
gr

  36   36 2262 2144 FO
gs 789 242 4709 2643 rc
gr

  36   36 2859 2105 FO
gs 789 242 4709 2643 rc
gr

  36   36 1960 1703 FO
gs 789 242 4709 2643 rc
gr

  36   36 2783 2021 FO
gs 789 242 4709 2643 rc
gr

  36   36 1329 1140 FO
gs 789 242 4709 2643 rc
gr

  36   36 1089  931 FO
gs 789 242 4709 2643 rc
gr

  36   36 2169 1935 FO
gs 789 242 4709 2643 rc
gr

  36   36 1692 1550 FO
gs 789 242 4709 2643 rc
gr

  36   36 1888 1604 FO
gs 789 242 4709 2643 rc
gr

  36   36 2469 2766 FO
gs 789 242 4709 2643 rc
gr

  36   36 2745 1997 FO
gs 789 242 4709 2643 rc
gr

  36   36 1452 1200 FO
gs 789 242 4709 2643 rc
gr

  36   36 1949 1973 FO
gs 789 242 4709 2643 rc
gr

  36   36 2386 2027 FO
gs 789 242 4709 2643 rc
gr

  36   36 2308 1951 FO
gs 789 242 4709 2643 rc
gr

  36   36 2062 1801 FO
gs 789 242 4709 2643 rc
gr

  36   36 2197 1888 FO
gs 789 242 4709 2643 rc
gr

  36   36 2884 2118 FO
gs 789 242 4709 2643 rc
gr

  36   36 1980 1857 FO
gs 789 242 4709 2643 rc
gr

  36   36 2307 1980 FO
gs 789 242 4709 2643 rc
gr

  36   36 1861 1691 FO
gs 789 242 4709 2643 rc
gr

  36   36 2345 2593 FO
gs 789 242 4709 2643 rc
gr

  36   36 2364 2154 FO
gs 789 242 4709 2643 rc
gr

  36   36 2126 2076 FO
gs 789 242 4709 2643 rc
gr

  36   36 2490 2106 FO
gs 789 242 4709 2643 rc
gr

  36   36 2364 2169 FO
gs 789 242 4709 2643 rc
gr

  36   36 2422 1891 FO
gs 789 242 4709 2643 rc
gr

  36   36 2890 2078 FO
gs 789 242 4709 2643 rc
gr

  36   36 2521 2288 FO
gs 789 242 4709 2643 rc
gr

  36   36 1389 1324 FO
gs 789 242 4709 2643 rc
gr

  36   36 2302 1903 FO
gs 789 242 4709 2643 rc
gr

  36   36 2195 2174 FO
gs 789 242 4709 2643 rc
gr

  36   36 1802 1533 FO
gs 789 242 4709 2643 rc
gr

  36   36 2604 2269 FO
gs 789 242 4709 2643 rc
gr

  36   36 1915 1660 FO
gs 789 242 4709 2643 rc
gr

  36   36 1410 1318 FO
gs 789 242 4709 2643 rc
gr

  36   36 2477 2700 FO
gs 789 242 4709 2643 rc
gr

  36   36 1850 1571 FO
gs 789 242 4709 2643 rc
gr

  36   36 2728 2072 FO
gs 789 242 4709 2643 rc
gr

  36   36 2413 2459 FO
gs 789 242 4709 2643 rc
gr

  36   36 2597 2023 FO
gs 789 242 4709 2643 rc
gr

  36   36 1039  876 FO
gs 789 242 4709 2643 rc
gr

  36   36 2343 2250 FO
gs 789 242 4709 2643 rc
gr

  36   36 2288 2372 FO
gs 789 242 4709 2643 rc
gr

  36   36 1692 1468 FO
gs 789 242 4709 2643 rc
gr

  36   36 1891 1652 FO
gs 789 242 4709 2643 rc
gr

  36   36 2346 2005 FO
gs 789 242 4709 2643 rc
gr

  36   36 1076  911 FO
gs 789 242 4709 2643 rc
gr

  36   36 2010 1835 FO
gs 789 242 4709 2643 rc
gr

  36   36 2286 2151 FO
gs 789 242 4709 2643 rc
gr

  36   36 2402 2519 FO
gs 789 242 4709 2643 rc
gr

  36   36 2074 1841 FO
gs 789 242 4709 2643 rc
gr

  36   36 2163 1949 FO
gs 789 242 4709 2643 rc
gr

  36   36 1649 1649 FO
gs 789 242 4709 2643 rc
gr

  36   36 1692 1481 FO
gs 789 242 4709 2643 rc
gr

  36   36 1317 1129 FO
gs 789 242 4709 2643 rc
gr

  36   36 1261 1096 FO
gs 789 242 4709 2643 rc
gr

  36   36 2111 2014 FO
gs 789 242 4709 2643 rc
gr

  36   36 1809 1669 FO
gs 789 242 4709 2643 rc
gr

  36   36 1233 1095 FO
gs 789 242 4709 2643 rc
gr

  36   36 2015 1845 FO
gs 789 242 4709 2643 rc
gr

  36   36 2161 1745 FO
gs 789 242 4709 2643 rc
gr

  36   36 2272 1953 FO
gs 789 242 4709 2643 rc
gr

  36   36 2262 2383 FO
gs 789 242 4709 2643 rc
gr

  36   36 2786 2059 FO
gs 789 242 4709 2643 rc
gr

  36   36 2599 2077 FO
gs 789 242 4709 2643 rc
gr

  36   36 1985 1720 FO
gs 789 242 4709 2643 rc
gr

  36   36 2121 1934 FO
gs 789 242 4709 2643 rc
gr

  36   36 2461 1983 FO
gs 789 242 4709 2643 rc
gr

  36   36 2218 1912 FO
gs 789 242 4709 2643 rc
gr

  36   36 1648 1429 FO
gs 789 242 4709 2643 rc
gr

  36   36 2463 1988 FO
gs 789 242 4709 2643 rc
gr

  36   36 1512 1334 FO
gs 789 242 4709 2643 rc
gr

  36   36 2614 2211 FO
gs 789 242 4709 2643 rc
gr

  36   36 2413 2184 FO
gs 789 242 4709 2643 rc
gr

  36   36 1789 1675 FO
gs 789 242 4709 2643 rc
gr

  36   36 1991 1778 FO
gs 789 242 4709 2643 rc
gr

  36   36 2099 1924 FO
gs 789 242 4709 2643 rc
gr

  36   36 2257 2225 FO
gs 789 242 4709 2643 rc
gr

  36   36 2755 2037 FO
gs 789 242 4709 2643 rc
gr

  36   36 2185 2086 FO
gs 789 242 4709 2643 rc
gr

  36   36 2027 1844 FO
gs 789 242 4709 2643 rc
gr

  36   36 2152 1921 FO
gs 789 242 4709 2643 rc
gr

  36   36 2442 2604 FO
gs 789 242 4709 2643 rc
gr

  36   36 2087 1899 FO
gs 789 242 4709 2643 rc
gr

  36   36 2121 1859 FO
gs 789 242 4709 2643 rc
gr

  36   36 2619 1959 FO
gs 789 242 4709 2643 rc
gr

  36   36 2786 2146 FO
gs 789 242 4709 2643 rc
gr

  36   36 1995 1924 FO
gs 789 242 4709 2643 rc
gr

  36   36 1063  901 FO
gs 789 242 4709 2643 rc
gr

  36   36 2291 2333 FO
gs 789 242 4709 2643 rc
gr

  36   36 1353 1233 FO
gs 789 242 4709 2643 rc
gr

  36   36 1981 1837 FO
gs 789 242 4709 2643 rc
gr

  36   36 2189 1762 FO
gs 789 242 4709 2643 rc
gr

  36   36 2492 2172 FO
gs 789 242 4709 2643 rc
gr

  36   36 2301 2067 FO
gs 789 242 4709 2643 rc
gr

  36   36 2262 2167 FO
gs 789 242 4709 2643 rc
gr

  36   36 2246 2058 FO
gs 789 242 4709 2643 rc
gr

  36   36 2553 1965 FO
gs 789 242 4709 2643 rc
gr

  36   36 1814 1529 FO
gs 789 242 4709 2643 rc
gr

  36   36 1705 1639 FO
gs 789 242 4709 2643 rc
gr

  36   36 2213 2212 FO
gs 789 242 4709 2643 rc
gr

  36   36 2431 2641 FO
gs 789 242 4709 2643 rc
gr

  36   36 2204 1843 FO
gs 789 242 4709 2643 rc
gr

  36   36 2664 2170 FO
gs 789 242 4709 2643 rc
gr

  36   36 1757 1483 FO
gs 789 242 4709 2643 rc
gr

  36   36 2114 1809 FO
gs 789 242 4709 2643 rc
gr

  36   36 2740 2312 FO
gs 789 242 4709 2643 rc
gr

  36   36 2116 2010 FO
gs 789 242 4709 2643 rc
gr

  36   36 1082  878 FO
gs 789 242 4709 2643 rc
gr

  36   36 2127 1937 FO
gs 789 242 4709 2643 rc
gr

  36   36 1510 1264 FO
gs 789 242 4709 2643 rc
gr

  36   36 2066 1743 FO
gs 789 242 4709 2643 rc
gr

  36   36 2971 2117 FO
gs 789 242 4709 2643 rc
gr

  36   36 2233 1960 FO
gs 789 242 4709 2643 rc
gr

  36   36 2344 2466 FO
gs 789 242 4709 2643 rc
gr

  36   36 2891 2084 FO
gs 789 242 4709 2643 rc
gr

  36   36 2018 1624 FO
gs 789 242 4709 2643 rc
gr

  36   36 2360 2533 FO
gs 789 242 4709 2643 rc
gr

  36   36 1394 1201 FO
gs 789 242 4709 2643 rc
gr

  36   36 1004  855 FO
gs 789 242 4709 2643 rc
gr

  36   36 2252 2276 FO
gs 789 242 4709 2643 rc
gr

  36   36 2106 1606 FO
gs 789 242 4709 2643 rc
gr

  36   36 2536 2222 FO
gs 789 242 4709 2643 rc
gr

  36   36 2100 2062 FO
gs 789 242 4709 2643 rc
gr

  36   36 1999 1935 FO
gs 789 242 4709 2643 rc
gr

  36   36 2901 2100 FO
gs 789 242 4709 2643 rc
gr

  36   36 2487 2169 FO
gs 789 242 4709 2643 rc
gr

  36   36 1473 1296 FO
gs 789 242 4709 2643 rc
gr

  36   36 1792 1612 FO
gs 789 242 4709 2643 rc
gr

  36   36 1527 1342 FO
gs 789 242 4709 2643 rc
gr

  36   36 1384 1227 FO
gs 789 242 4709 2643 rc
gr

  36   36 1378 1191 FO
gs 789 242 4709 2643 rc
gr

  36   36  879  713 FO
gs 789 242 4709 2643 rc
gr

  36   36 2071 1922 FO
gs 789 242 4709 2643 rc
gr

  36   36 1088  921 FO
gs 789 242 4709 2643 rc
gr

  36   36 2539 1950 FO
gs 789 242 4709 2643 rc
gr

  36   36 2192 1752 FO
gs 789 242 4709 2643 rc
gr

  36   36 1737 1502 FO
gs 789 242 4709 2643 rc
gr

  36   36 2354 1924 FO
gs 789 242 4709 2643 rc
gr

  36   36 2020 1903 FO
gs 789 242 4709 2643 rc
gr

  36   36 1765 1416 FO
gs 789 242 4709 2643 rc
gr

  36   36 2434 2552 FO
gs 789 242 4709 2643 rc
gr

  36   36 2351 1987 FO
gs 789 242 4709 2643 rc
gr

  36   36 2689 2057 FO
gs 789 242 4709 2643 rc
gr

  36   36 2159 2081 FO
gs 789 242 4709 2643 rc
gr

  36   36  816  667 FO
gs 789 242 4709 2643 rc
gr

  36   36 2141 2302 FO
gs 789 242 4709 2643 rc
gr

  36   36 1505 1413 FO
gs 789 242 4709 2643 rc
gr

  36   36 1950 1834 FO
gs 789 242 4709 2643 rc
gr

  36   36 2136 1976 FO
gs 789 242 4709 2643 rc
gr

  36   36 1885 1685 FO
gs 789 242 4709 2643 rc
gr

  36   36 1032  893 FO
gs 789 242 4709 2643 rc
gr

  36   36 2284 1893 FO
gs 789 242 4709 2643 rc
gr

  36   36 1866 1504 FO
gs 789 242 4709 2643 rc
gr

  36   36 2463 1960 FO
gs 789 242 4709 2643 rc
gr

  36   36 2155 2013 FO
gs 789 242 4709 2643 rc
gr

  36   36 1852 1727 FO
gs 789 242 4709 2643 rc
gr

  36   36 2152 2115 FO
gs 789 242 4709 2643 rc
gr

  36   36 1999 1725 FO
gs 789 242 4709 2643 rc
gr

  36   36 2244 1957 FO
gs 789 242 4709 2643 rc
gr

  36   36 1810 1522 FO
gs 789 242 4709 2643 rc
gr

  36   36 1907 1417 FO
gs 789 242 4709 2643 rc
gr

  36   36 2191 1752 FO
gs 789 242 4709 2643 rc
gr

  36   36 2433 2068 FO
gs 789 242 4709 2643 rc
gr

  36   36 2303 2256 FO
gs 789 242 4709 2643 rc
gr

  36   36 2914 2094 FO
gs 789 242 4709 2643 rc
gr

  36   36 2186 1885 FO
gs 789 242 4709 2643 rc
gr

  36   36 1724 1710 FO
gs 789 242 4709 2643 rc
gr

  36   36 2204 2126 FO
gs 789 242 4709 2643 rc
gr

  36   36 1573 1542 FO
gs 789 242 4709 2643 rc
gr

  36   36  913  763 FO
gs 789 242 4709 2643 rc
gr

  36   36 2426 2664 FO
gs 789 242 4709 2643 rc
gr

  36   36 2464 1954 FO
gs 789 242 4709 2643 rc
gr

  36   36 1592 1333 FO
gs 789 242 4709 2643 rc
gr

  36   36 2760 2014 FO
gs 789 242 4709 2643 rc
gr

  36   36  846  702 FO
gs 789 242 4709 2643 rc
gr

  36   36 2132 2146 FO
gs 789 242 4709 2643 rc
gr

  36   36 1871 1677 FO
gs 789 242 4709 2643 rc
gr

  36   36 2559 1970 FO
gs 789 242 4709 2643 rc
gr

  36   36 2060 1712 FO
gs 789 242 4709 2643 rc
gr

  36   36 1816 1587 FO
gs 789 242 4709 2643 rc
gr

  36   36 2623 2098 FO
gs 789 242 4709 2643 rc
gr

  36   36 1927 1713 FO
gs 789 242 4709 2643 rc
gr

  36   36 2003 1591 FO
gs 789 242 4709 2643 rc
gr

  36   36 2407 2441 FO
gs 789 242 4709 2643 rc
gr

  36   36 2818 2107 FO
gs 789 242 4709 2643 rc
gr

  36   36 2458 2262 FO
gs 789 242 4709 2643 rc
gr

  36   36 2035 1804 FO
gs 789 242 4709 2643 rc
gr

  36   36 2135 2154 FO
gs 789 242 4709 2643 rc
gr

  36   36 2171 1914 FO
gs 789 242 4709 2643 rc
gr

  36   36 1024  913 FO
gs 789 242 4709 2643 rc
gr

  36   36 2010 1718 FO
gs 789 242 4709 2643 rc
gr

  36   36 2691 2208 FO
gs 789 242 4709 2643 rc
gr

  36   36 2279 2079 FO
gs 789 242 4709 2643 rc
gr

  36   36 1789 1531 FO
gs 789 242 4709 2643 rc
gr

  36   36 2422 2116 FO
gs 789 242 4709 2643 rc
gr

  36   36 2413 2470 FO
gs 789 242 4709 2643 rc
gr

  36   36 1846 1759 FO
gs 789 242 4709 2643 rc
gr

  36   36 2213 1819 FO
gs 789 242 4709 2643 rc
gr

  36   36 2328 1816 FO
gs 789 242 4709 2643 rc
gr

  36   36 2491 2110 FO
gs 789 242 4709 2643 rc
gr

  36   36 2254 1671 FO
gs 789 242 4709 2643 rc
gr

  36   36 2423 2635 FO
gs 789 242 4709 2643 rc
gr

  36   36 1780 1685 FO
gs 789 242 4709 2643 rc
gr

  36   36 2496 2010 FO
gs 789 242 4709 2643 rc
gr

  36   36 1169 1050 FO
gs 789 242 4709 2643 rc
gr

  36   36  923  772 FO
gs 789 242 4709 2643 rc
gr

  36   36 1915 1472 FO
gs 789 242 4709 2643 rc
gr

  36   36 2369 2546 FO
gs 789 242 4709 2643 rc
gr

  36   36 2326 2242 FO
gs 789 242 4709 2643 rc
gr

  36   36 2739 1995 FO
gs 789 242 4709 2643 rc
gr

  36   36 2456 2677 FO
gs 789 242 4709 2643 rc
gr

  36   36 2287 2178 FO
gs 789 242 4709 2643 rc
gr

  36   36 2355 1957 FO
gs 789 242 4709 2643 rc
gr

  36   36 2197 1939 FO
gs 789 242 4709 2643 rc
gr

  36   36 2199 2161 FO
gs 789 242 4709 2643 rc
gr

  36   36 1341 1108 FO
gs 789 242 4709 2643 rc
gr

  36   36 1985 1730 FO
gs 789 242 4709 2643 rc
gr

  36   36 2325 2264 FO
gs 789 242 4709 2643 rc
gr

  36   36 2233 1938 FO
gs 789 242 4709 2643 rc
gr

  36   36 2286 2424 FO
gs 789 242 4709 2643 rc
gr

  36   36 2155 1895 FO
gs 789 242 4709 2643 rc
gr

  36   36 2834 2104 FO
gs 789 242 4709 2643 rc
gr

  36   36 2428 1829 FO
gs 789 242 4709 2643 rc
gr

  36   36 1651 1400 FO
gs 789 242 4709 2643 rc
gr

  36   36 1165  969 FO
gs 789 242 4709 2643 rc
gr

  36   36 1888 1716 FO
gs 789 242 4709 2643 rc
gr

  36   36 1042  859 FO
gs 789 242 4709 2643 rc
gr

  36   36 2438 2390 FO
gs 789 242 4709 2643 rc
gr

  36   36 2156 1924 FO
gs 789 242 4709 2643 rc
gr

  36   36 1441 1235 FO
gs 789 242 4709 2643 rc
gr

  36   36 1437 1287 FO
gs 789 242 4709 2643 rc
gr

  36   36 2590 2080 FO
gs 789 242 4709 2643 rc
gr

  36   36 2312 2336 FO
gs 789 242 4709 2643 rc
gr

  36   36 1906 1501 FO
gs 789 242 4709 2643 rc
gr

  36   36 2487 2619 FO
gs 789 242 4709 2643 rc
gr

  36   36 2592 2157 FO
gs 789 242 4709 2643 rc
gr

  36   36 2807 2015 FO
gs 789 242 4709 2643 rc
gr

  36   36 1687 1460 FO
gs 789 242 4709 2643 rc
gr

  36   36 2154 2069 FO
gs 789 242 4709 2643 rc
gr

  36   36 2369 2545 FO
gs 789 242 4709 2643 rc
gr

  36   36 2271 2098 FO
gs 789 242 4709 2643 rc
gr

  36   36 2352 2001 FO
gs 789 242 4709 2643 rc
gr

  36   36 1806 1609 FO
gs 789 242 4709 2643 rc
gr

  36   36 2499 2714 FO
gs 789 242 4709 2643 rc
gr

  36   36 1769 1605 FO
gs 789 242 4709 2643 rc
gr

  36   36 2258 1971 FO
gs 789 242 4709 2643 rc
gr

  36   36 2050 1871 FO
gs 789 242 4709 2643 rc
gr

  36   36 2758 2057 FO
gs 789 242 4709 2643 rc
gr

  36   36 2783 2055 FO
gs 789 242 4709 2643 rc
gr

  36   36 2477 2323 FO
gs 789 242 4709 2643 rc
gr

  36   36 1931 1614 FO
gs 789 242 4709 2643 rc
gr

  36   36 2167 2293 FO
gs 789 242 4709 2643 rc
gr

  36   36 1504 1138 FO
gs 789 242 4709 2643 rc
gr

  36   36 1873 1677 FO
gs 789 242 4709 2643 rc
gr

  36   36 1780 1585 FO
gs 789 242 4709 2643 rc
gr

  36   36 1713 1474 FO
gs 789 242 4709 2643 rc
gr

  36   36 1805 1525 FO
gs 789 242 4709 2643 rc
gr

  36   36 1727 1566 FO
gs 789 242 4709 2643 rc
gr

  36   36 1026  863 FO
gs 789 242 4709 2643 rc
gr

  36   36 2549 1999 FO
gs 789 242 4709 2643 rc
gr

  36   36 2361 1943 FO
gs 789 242 4709 2643 rc
gr

  36   36 2625 2151 FO
gs 789 242 4709 2643 rc
gr

  36   36 1230 1095 FO
gs 789 242 4709 2643 rc
gr

  36   36 2459 1849 FO
gs 789 242 4709 2643 rc
gr

  36   36 2508 2438 FO
gs 789 242 4709 2643 rc
gr

  36   36 1924 1807 FO
gs 789 242 4709 2643 rc
gr

  36   36 2641 2020 FO
gs 789 242 4709 2643 rc
gr

  36   36 1976 2046 FO
gs 789 242 4709 2643 rc
gr

  36   36 2344 1942 FO
gs 789 242 4709 2643 rc
gr

  36   36 2664 2121 FO
gs 789 242 4709 2643 rc
gr

  36   36 2077 1847 FO
gs 789 242 4709 2643 rc
gr

  36   36 2470 2761 FO
gs 789 242 4709 2643 rc
gr

  36   36 2466 2714 FO
gs 789 242 4709 2643 rc
gr

  36   36 2468 2500 FO
gs 789 242 4709 2643 rc
gr

  36   36 2575 1937 FO
gs 789 242 4709 2643 rc
gr

  36   36 1947 1833 FO
gs 789 242 4709 2643 rc
gr

  36   36 2768 2108 FO
gs 789 242 4709 2643 rc
gr


end %%Color Dict

eplot
%%EndObject

epage
end

showpage

%%Trailer
%%EOF
