%!PS-Adobe-3.0 EPSF-3.0
%%Creator: MATLAB, The MathWorks, Inc. Version 7.13.0.564 (R2011b). Operating System: Microsoft Windows XP.
%%Title: D:\DriveG\Sem2-2012\Program\ReferenceMetric-v3\metricfig\zdt2\zdt2-rnsgaii.eps
%%CreationDate: 05/05/2013  13:51:44
%%DocumentNeededFonts: Helvetica
%%+ Times-Roman
%%DocumentProcessColors: Cyan Magenta Yellow Black
%%LanguageLevel: 2
%%Pages: 1
%%BoundingBox:   107   222   487   619
%%EndComments

%%BeginProlog
% MathWorks dictionary
/MathWorks 160 dict begin
% definition operators
/bdef {bind def} bind def
/ldef {load def} bind def
/xdef {exch def} bdef
/xstore {exch store} bdef
% operator abbreviations
/c  /clip ldef
/cc /concat ldef
/cp /closepath ldef
/gr /grestore ldef
/gs /gsave ldef
/mt /moveto ldef
/np /newpath ldef
/cm /currentmatrix ldef
/sm /setmatrix ldef
/rm /rmoveto ldef
/rl /rlineto ldef
/s {show newpath} bdef
/sc {setcmykcolor} bdef
/sr /setrgbcolor ldef
/sg /setgray ldef
/w /setlinewidth ldef
/j /setlinejoin ldef
/cap /setlinecap ldef
/rc {rectclip} bdef
/rf {rectfill} bdef
% page state control
/pgsv () def
/bpage {/pgsv save def} bdef
/epage {pgsv restore} bdef
/bplot /gsave ldef
/eplot {stroke grestore} bdef
% orientation switch
/portraitMode 0 def /landscapeMode 1 def /rotateMode 2 def
% coordinate system mappings
/dpi2point 0 def
% font control
/FontSize 0 def
/FMS {/FontSize xstore findfont [FontSize 0 0 FontSize neg 0 0]
  makefont setfont} bdef
/ISOLatin1Encoding where {pop /WindowsLatin1Encoding 256 array bdef
ISOLatin1Encoding WindowsLatin1Encoding copy pop
/.notdef/.notdef/quotesinglbase/florin/quotedblbase/ellipsis/dagger
/daggerdbl/circumflex/perthousand/Scaron/guilsinglleft/OE/.notdef/.notdef
/.notdef/.notdef/quoteleft/quoteright/quotedblleft/quotedblright/bullet
/endash/emdash/tilde/trademark/scaron/guilsinglright/oe/.notdef/.notdef
/Ydieresis WindowsLatin1Encoding 128 32 getinterval astore pop}
{/WindowsLatin1Encoding StandardEncoding bdef} ifelse
/reencode {exch dup where {pop load} {pop StandardEncoding} ifelse
  exch dup 3 1 roll findfont dup length dict begin
  { 1 index /FID ne {def}{pop pop} ifelse } forall
  /Encoding exch def currentdict end definefont pop} bdef
/isroman {findfont /CharStrings get /Agrave known} bdef
/FMSR {3 1 roll 1 index dup isroman {reencode} {pop pop} ifelse
  exch FMS} bdef
/csm {1 dpi2point div -1 dpi2point div scale neg translate
 dup landscapeMode eq {pop -90 rotate}
  {rotateMode eq {90 rotate} if} ifelse} bdef
% line types: solid, dotted, dashed, dotdash
/SO { [] 0 setdash } bdef
/DO { [.5 dpi2point mul 4 dpi2point mul] 0 setdash } bdef
/DA { [6 dpi2point mul] 0 setdash } bdef
/DD { [.5 dpi2point mul 4 dpi2point mul 6 dpi2point mul 4
  dpi2point mul] 0 setdash } bdef
% macros for lines and objects
/L {lineto stroke} bdef
/MP {3 1 roll moveto 1 sub {rlineto} repeat} bdef
/AP {{rlineto} repeat} bdef
/PDlw -1 def
/W {/PDlw currentlinewidth def setlinewidth} def
/PP {closepath eofill} bdef
/DP {closepath stroke} bdef
/MR {4 -2 roll moveto dup  0 exch rlineto exch 0 rlineto
  neg 0 exch rlineto closepath} bdef
/FR {MR stroke} bdef
/PR {MR fill} bdef
/L1i {{currentfile picstr readhexstring pop} image} bdef
/tMatrix matrix def
/MakeOval {newpath tMatrix currentmatrix pop translate scale
0 0 1 0 360 arc tMatrix setmatrix} bdef
/FO {MakeOval stroke} bdef
/PO {MakeOval fill} bdef
/PD {currentlinewidth 2 div 0 360 arc fill
   PDlw -1 eq not {PDlw w /PDlw -1 def} if} def
/FA {newpath tMatrix currentmatrix pop translate scale
  0 0 1 5 -2 roll arc tMatrix setmatrix stroke} bdef
/PA {newpath tMatrix currentmatrix pop	translate 0 0 moveto scale
  0 0 1 5 -2 roll arc closepath tMatrix setmatrix fill} bdef
/FAn {newpath tMatrix currentmatrix pop translate scale
  0 0 1 5 -2 roll arcn tMatrix setmatrix stroke} bdef
/PAn {newpath tMatrix currentmatrix pop translate 0 0 moveto scale
  0 0 1 5 -2 roll arcn closepath tMatrix setmatrix fill} bdef
/vradius 0 def /hradius 0 def /lry 0 def
/lrx 0 def /uly 0 def /ulx 0 def /rad 0 def
/MRR {/vradius xdef /hradius xdef /lry xdef /lrx xdef /uly xdef
  /ulx xdef newpath tMatrix currentmatrix pop ulx hradius add uly
  vradius add translate hradius vradius scale 0 0 1 180 270 arc 
  tMatrix setmatrix lrx hradius sub uly vradius add translate
  hradius vradius scale 0 0 1 270 360 arc tMatrix setmatrix
  lrx hradius sub lry vradius sub translate hradius vradius scale
  0 0 1 0 90 arc tMatrix setmatrix ulx hradius add lry vradius sub
  translate hradius vradius scale 0 0 1 90 180 arc tMatrix setmatrix
  closepath} bdef
/FRR {MRR stroke } bdef
/PRR {MRR fill } bdef
/MlrRR {/lry xdef /lrx xdef /uly xdef /ulx xdef /rad lry uly sub 2 div def
  newpath tMatrix currentmatrix pop ulx rad add uly rad add translate
  rad rad scale 0 0 1 90 270 arc tMatrix setmatrix lrx rad sub lry rad
  sub translate rad rad scale 0 0 1 270 90 arc tMatrix setmatrix
  closepath} bdef
/FlrRR {MlrRR stroke } bdef
/PlrRR {MlrRR fill } bdef
/MtbRR {/lry xdef /lrx xdef /uly xdef /ulx xdef /rad lrx ulx sub 2 div def
  newpath tMatrix currentmatrix pop ulx rad add uly rad add translate
  rad rad scale 0 0 1 180 360 arc tMatrix setmatrix lrx rad sub lry rad
  sub translate rad rad scale 0 0 1 0 180 arc tMatrix setmatrix
  closepath} bdef
/FtbRR {MtbRR stroke } bdef
/PtbRR {MtbRR fill } bdef
/stri 6 array def /dtri 6 array def
/smat 6 array def /dmat 6 array def
/tmat1 6 array def /tmat2 6 array def /dif 3 array def
/asub {/ind2 exch def /ind1 exch def dup dup
  ind1 get exch ind2 get sub exch } bdef
/tri_to_matrix {
  2 0 asub 3 1 asub 4 0 asub 5 1 asub
  dup 0 get exch 1 get 7 -1 roll astore } bdef
/compute_transform {
  dmat dtri tri_to_matrix tmat1 invertmatrix 
  smat stri tri_to_matrix tmat2 concatmatrix } bdef
/ds {stri astore pop} bdef
/dt {dtri astore pop} bdef
/db {2 copy /cols xdef /rows xdef mul dup 3 mul string
  currentfile 
  3 index 0 eq {/ASCIIHexDecode filter}
  {/ASCII85Decode filter 3 index 2 eq {/RunLengthDecode filter} if }
  ifelse exch readstring pop
  dup 0 3 index getinterval /rbmap xdef
  dup 2 index dup getinterval /gbmap xdef
  1 index dup 2 mul exch getinterval /bbmap xdef pop pop}bdef
/it {gs np dtri aload pop moveto lineto lineto cp c
  cols rows 8 compute_transform 
  rbmap gbmap bbmap true 3 colorimage gr}bdef
/il {newpath moveto lineto stroke}bdef
currentdict end def
%%EndProlog

%%BeginSetup
MathWorks begin

0 cap

end
%%EndSetup

%%Page: 1 1
%%BeginPageSetup
%%PageBoundingBox:   107   222   487   619
MathWorks begin
bpage
%%EndPageSetup

%%BeginObject: obj1
bplot

/dpi2point 12 def
portraitMode 1284 7428 csm

    0     0  4567  4754 rc
86 dict begin %Colortable dictionary
/c0 { 0.000000 0.000000 0.000000 sr} bdef
/c1 { 1.000000 1.000000 1.000000 sr} bdef
/c2 { 0.900000 0.000000 0.000000 sr} bdef
/c3 { 0.000000 0.820000 0.000000 sr} bdef
/c4 { 0.000000 0.000000 0.800000 sr} bdef
/c5 { 0.910000 0.820000 0.320000 sr} bdef
/c6 { 1.000000 0.260000 0.820000 sr} bdef
/c7 { 0.000000 0.820000 0.820000 sr} bdef
c0
1 j
1 sg
   0    0 4568 4755 rf
6 w
0 3566 3426 0 0 -3566 598 4479 4 MP
PP
-3426 0 0 3566 3426 0 0 -3566 598 4479 5 MP stroke
4 w
DO
SO
6 w
0 sg
 598  913 mt 4024  913 L
 598 4479 mt 4024 4479 L
4024 4479 mt 4024  913 L
 598 4479 mt  598  913 L
 598 4479 mt 4024 4479 L
 598 4479 mt  598  913 L
 598 4479 mt  598 4443 L
 598  913 mt  598  948 L
%%IncludeResource: font Times-Roman
/Times-Roman /WindowsLatin1Encoding 144 FMSR

 562 4642 mt 
(0) s
1283 4479 mt 1283 4443 L
1283  913 mt 1283  948 L
1193 4642 mt 
(0.2) s
1968 4479 mt 1968 4443 L
1968  913 mt 1968  948 L
1878 4642 mt 
(0.4) s
2653 4479 mt 2653 4443 L
2653  913 mt 2653  948 L
2563 4642 mt 
(0.6) s
3338 4479 mt 3338 4443 L
3338  913 mt 3338  948 L
3248 4642 mt 
(0.8) s
4024 4479 mt 4024 4443 L
4024  913 mt 4024  948 L
3988 4642 mt 
(1) s
 598 4479 mt  633 4479 L
4024 4479 mt 3988 4479 L
 491 4530 mt 
(0) s
 598 4122 mt  633 4122 L
4024 4122 mt 3988 4122 L
 383 4173 mt 
(0.1) s
 598 3765 mt  633 3765 L
4024 3765 mt 3988 3765 L
 383 3816 mt 
(0.2) s
 598 3409 mt  633 3409 L
4024 3409 mt 3988 3409 L
 383 3460 mt 
(0.3) s
 598 3052 mt  633 3052 L
4024 3052 mt 3988 3052 L
 383 3103 mt 
(0.4) s
 598 2696 mt  633 2696 L
4024 2696 mt 3988 2696 L
 383 2747 mt 
(0.5) s
 598 2339 mt  633 2339 L
4024 2339 mt 3988 2339 L
 383 2390 mt 
(0.6) s
 598 1982 mt  633 1982 L
4024 1982 mt 3988 1982 L
 383 2033 mt 
(0.7) s
 598 1626 mt  633 1626 L
4024 1626 mt 3988 1626 L
 383 1677 mt 
(0.8) s
 598 1269 mt  633 1269 L
4024 1269 mt 3988 1269 L
 383 1320 mt 
(0.9) s
 598  913 mt  633  913 L
4024  913 mt 3988  913 L
 491  964 mt 
(1) s
 598  913 mt 4024  913 L
 598 4479 mt 4024 4479 L
4024 4479 mt 4024  913 L
 598 4479 mt  598  913 L
gs 598 913 3427 3567 rc
27.6 w
/c8 { 0.000000 0.000000 1.000000 sr} bdef
c8
1 1 0 1 1 1 0 1 1 1 0 1 1 1 0 1 
1 1 0 1 1 1 0 2 2 2 0 2 1 1 0 1 
1 1 0 1 1 1 0 1 1 1 0 1 1 1 0 1 
1 1 0 1 1 1 0 1 1 1 0 1 1 1 0 1 
1 1 0 1 1 1 0 2 2 2 0 2 1 1 0 1 
1 1 0 1 1 1 0 1 1 1 0 1 2 2 0 2 
1 1 0 1 1 1 0 1 1 1 0 1 1 1 0 1 
1 1 0 1 1 1 0 2 2 2 0 2 1 1 0 1 
1 1 1 1 0 1 1 1 0 2 2 2 0 2 1 1 
0 1 1 1 0 1 1 1 0 1 1 1 0 1 1 1 
0 1 1 1 0 2 2 2 0 2 2 2 0 1 1 1 
0 1 1 1 0 1 1 1 0 2 2 2 0 2 1 1 
0 1 1 1 0 1 1 1 0 1 1 1 0 1 1 1 
0 1 1 1 1 1 0 2 1 1 0 1 1 1 0 1 
1 1 0 1 1 1 0 1 1 1 0 1 1 1 0 1 
1 1 0 1 1 1 0 2 2 2 0 2 2 2 0 1 
1 1 0 1 1 1 0 1 1 1 0 1 1 1 0 2 
2 2 0 2 1 1 0 1 1 1 0 1 1 1 0 1 
1 1 0 1 1 1 0 1 1 1 0 1 2 2 0 2 
1 1 0 1 1 1 0 1 1 1 0 1 1 1 0 1 
1 1 0 1 1 1 0 1 1 1 0 1 1 1 0 1 
1 1 0 2 2 2 0 1 1 1 0 1 1 1 0 1 
1 1 0 1 1 1 0 1 1 1 0 1 1 1 0 1 
1 1 0 1 1 1 0 2 2 2 0 2 2 2 0 1 
1 1 0 1 1 1 0 1 1 1 0 1 1 1 0 1 
1 1 0 2 2 2 0 2 2 2 0 2 1 1 0 1 
1 1 0 1 1 1 1 1 0 1 1 1 0 1 1 1 
0 2 2 2 0 2 2 2 0 2 2 2 0 2 1 1 
0 1 1 1 0 1 1 1 1 1 0 1 1 1 0 1 
1 1 0 1 1 1 0 2 2 2 0 2 2 2 0 2 
2 2 0 2 1 1 0 1 1 1 1 1 0 1 1 1 
0 1 1 1 0 1 1 1 0 1 1 1 0 1 1 1 
0 2 2 2 0 2 2 2 0 2 2 2 0 2 2 2 
0 1 1 1 0 1 1 1 0 1 1 1 0 1 1 1 
0 1 1 1 0 1 1 1 0 1 1 1 0 1 1 1 
0 1 1 1 0 1 1 1 0 2 2 2 0 1 1 1 
0 1 1 1 0 1 1 1 0 1 1 1 0 1 1 1 
0 1 1 1 0 1 3844 4114 300 MP stroke
1 1 0 1 1 1 0 1 1 1 0 1 1 1 0 1 
1 1 0 1 2 2 0 2 2 2 0 2 2 2 0 2 
2 2 0 2 2 2 0 2 2 2 0 2 2 2 0 1 
1 1 0 1 1 1 0 1 1 1 0 1 1 1 0 1 
1 1 0 1 1 1 0 1 1 1 0 1 1 1 0 1 
1 1 0 1 1 1 0 1 1 1 1 1 0 2 2 2 
0 2 2 2 0 2 2 2 0 2 2 2 0 2 2 2 
0 2 2 2 0 1 1 1 0 1 1 1 0 1 1 1 
0 1 1 1 0 1 1 1 0 1 1 1 0 1 1 1 
0 1 1 1 0 1 1 1 0 1 1 1 0 1 1 1 
0 1 1 1 1 1 0 1 1 1 0 1 1 1 0 1 
1 1 0 1 1 1 0 1 1 1 0 1 1 1 0 1 
1 1 0 1 1 1 0 1 1 1 0 1 1 1 0 1 
1 1 1 1 0 2 2 2 0 1 1 1 0 1 1 1 
0 1 1 1 0 1 1 1 0 1 1 1 0 1 1 1 
0 1 1 1 0 1 1 1 0 1 1 1 1 1 0 2 
2 2 0 2 2 2 0 2 2 2 0 1 1 1 0 1 
1 1 0 1 1 1 0 1 1 1 0 1 1 1 0 1 
1 1 0 1 2 2 0 2 2 2 0 2 2 2 0 1 
1 1 0 1 1 1 0 1 1 1 0 1 1 1 0 1 
1 1 0 1 1 1 0 1 2 2 0 2 2 2 0 1 
1 1 0 1 1 1 0 1 1 1 0 1 1 1 0 1 
1 1 0 1 1 1 0 1 1 1 0 1 1 1 1 1 
0 1 1 1 0 1 1 1 0 1 1 1 0 1 1 1 
0 1 1 1 0 1 1 1 0 1 1 1 0 1 1 1 
0 1 1 1 0 1 1 1 0 1 1 1 0 1 2 2 
0 1 1 1 0 1 1 1 0 1 1 1 0 1 1 1 
0 1 1 1 0 1 2 2 0 2 2 2 0 2 2 2 
1 1 0 2 2 2 0 2 2 2 0 2 2 2 0 1 
1 1 0 1 1 1 0 1 1 1 0 1 1 1 0 1 
1 1 1 1 0 1 1 1 0 1 1 1 0 1 1 1 
0 1 1 1 0 1 1 1 0 1 1 1 0 1 1 1 
1 1 0 2 2 2 0 2 2 2 0 1 2 2 0 2 
2 2 0 2 2 2 0 1 1 1 0 1 1 1 0 1 
1 1 0 1 1 1 0 1 1 1 0 1 1 1 1 1 
0 1 1 1 0 1 1 1 0 1 1 1 0 1 1 1 
1 1 0 2 2 2 0 2 2 2 0 1 1 1 0 1 
1 1 0 1 2 2 3652 3748 300 MP stroke
0 1 1 1 0 1 1 1 0 1 1 1 0 1 1 1 
0 1 1 1 0 1 1 1 0 1 2 2 0 2 2 2 
0 1 1 1 1 1 0 2 2 2 0 1 1 1 0 1 
1 1 0 1 1 1 0 1 1 1 0 1 1 1 0 1 
2 2 0 2 2 2 0 1 2 2 0 2 2 2 0 1 
1 1 0 1 1 1 0 1 1 1 0 1 1 1 0 1 
1 1 1 1 0 2 2 2 0 1 2 2 0 2 2 2 
0 1 1 1 0 1 1 1 0 1 1 1 0 1 1 1 
0 1 1 1 0 1 2 2 0 2 2 2 1 1 0 2 
2 2 0 1 1 1 0 1 1 1 0 1 1 1 0 1 
1 1 0 1 2 2 0 2 2 2 0 1 1 1 0 1 
2 2 0 1 1 1 0 1 1 1 0 1 1 1 0 1 
2 2 0 2 2 2 0 1 1 1 0 1 1 1 0 1 
1 1 1 1 0 1 1 1 0 1 1 1 0 1 2 2 
0 2 2 2 0 1 1 1 0 1 1 1 0 1 1 1 
0 1 1 1 0 1 2 2 0 1 2 2 0 2 2 2 
0 1 1 1 0 1 1 1 0 1 1 1 1 1 0 2 
2 2 0 1 1 1 0 1 1 1 1 1 0 1 1 1 
0 1 1 1 0 1 1 1 1 1 0 2 2 2 0 1 
1 1 0 1 1 1 0 1 1 1 1 1 0 2 2 2 
1 1 0 2 2 2 0 1 1 1 0 1 1 1 0 1 
1 1 1 1 0 2 2 2 0 1 1 1 0 1 1 1 
1 1 0 1 1 1 0 1 1 1 1 1 0 2 2 2 
0 1 1 1 0 1 1 1 0 1 1 1 1 1 0 2 
2 2 0 1 1 1 1 1 0 1 1 1 0 1 1 1 
0 1 1 1 1 1 0 2 2 2 0 1 1 1 0 1 
1 1 1 1 0 2 2 2 1 1 0 2 2 2 0 1 
1 1 0 1 1 1 1 1 0 2 2 2 0 1 1 1 
0 1 1 1 0 1 2 2 1 1 0 2 2 2 0 1 
1 1 0 1 1 1 0 1 1 1 1 1 0 2 2 2 
0 1 1 1 0 1 1 1 0 1 2 2 1 1 0 2 
2 2 0 1 1 1 0 1 1 1 1 1 0 2 2 2 
0 1 1 1 0 1 1 1 0 1 2 2 0 1 2 2 
0 1 1 1 0 1 1 1 1 1 0 2 2 2 0 1 
1 1 0 1 1 1 1 1 0 2 2 2 0 1 2 2 
0 1 1 1 0 1 1 1 0 1 2 2 0 1 1 1 
0 1 1 1 1 1 0 2 2 2 0 1 1 1 0 1 
1 1 1 1 0 1 3443 3372 300 MP stroke
1 1 0 1 2 2 0 1 1 1 0 1 1 1 1 1 
0 2 2 2 0 1 1 1 0 1 2 2 1 1 0 2 
2 2 0 1 1 1 0 1 1 1 0 1 2 2 0 1 
1 1 0 1 1 1 1 1 0 2 2 2 1 1 0 1 
1 1 0 1 1 1 0 1 2 2 0 1 1 1 0 1 
1 1 1 1 0 2 2 2 0 1 1 1 0 1 2 2 
0 1 2 2 0 1 1 1 0 1 1 1 0 1 2 2 
0 1 1 1 0 1 1 1 0 1 2 2 0 1 1 1 
0 1 1 1 1 1 1 1 0 2 2 2 0 1 1 1 
1 1 0 2 2 2 0 1 1 1 1 1 0 2 2 2 
1 1 0 1 1 1 0 1 1 1 0 1 2 2 0 1 
1 1 1 1 0 2 2 2 0 1 1 1 1 1 0 2 
2 2 1 1 0 1 1 1 0 1 1 1 0 1 2 2 
0 1 1 1 1 1 0 2 2 2 0 1 1 1 0 1 
2 2 0 1 2 2 0 1 1 1 1 1 0 2 2 2 
0 1 1 1 0 1 2 2 0 1 1 1 0 1 2 2 
0 1 2 2 0 1 1 1 1 1 0 2 2 2 0 1 
1 1 0 1 2 2 0 1 1 1 1 1 0 2 2 2 
1 1 0 1 1 1 1 1 0 2 2 2 1 1 0 2 
2 2 0 1 1 1 0 1 2 2 0 1 1 1 1 1 
0 1 1 1 0 1 2 2 0 1 1 1 0 1 2 2 
0 1 1 1 1 1 0 2 2 2 0 1 2 2 0 1 
2 2 0 1 1 1 1 1 0 2 2 2 1 1 0 2 
2 2 0 1 1 1 0 1 2 2 1 1 0 1 1 1 
1 1 0 2 2 2 1 1 0 2 2 2 1 1 0 2 
2 2 0 1 1 1 1 1 0 1 2 2 0 1 1 1 
0 1 2 2 0 1 1 1 0 1 2 2 0 1 1 1 
0 1 2 2 0 1 2 2 0 1 1 1 0 1 2 2 
0 1 1 1 0 1 2 2 0 1 1 1 0 1 2 2 
0 1 2 2 0 1 2 2 0 1 1 1 0 1 2 2 
0 1 1 1 0 1 2 2 0 1 1 1 0 1 2 2 
0 1 1 1 1 1 0 1 2 2 0 1 1 1 0 1 
2 2 0 1 1 1 0 1 2 2 1 1 0 2 2 2 
1 1 0 1 1 1 0 1 2 2 1 1 0 2 2 2 
0 1 2 2 0 1 1 1 0 1 2 2 0 1 1 1 
1 1 0 1 2 2 0 1 1 1 0 1 2 2 1 1 
0 2 2 2 0 1 2 2 0 1 1 1 1 1 0 1 
2 2 0 1 1 1 3206 2980 300 MP stroke
0 1 2 2 0 1 1 1 0 1 2 2 0 1 2 2 
0 1 1 1 1 1 0 1 2 2 0 1 1 1 0 1 
2 2 1 1 0 2 2 2 0 1 2 2 0 1 1 1 
1 1 0 1 2 2 1 1 0 2 2 2 0 1 2 2 
0 1 1 1 0 1 2 2 0 1 2 2 0 1 2 2 
0 1 2 2 1 1 0 2 2 2 0 1 2 2 0 1 
1 1 0 1 2 2 1 1 0 1 2 2 0 1 1 1 
0 1 2 2 0 1 2 2 0 1 1 1 0 1 2 2 
1 1 0 1 2 2 0 1 1 1 0 1 2 2 0 1 
2 2 0 1 1 1 0 1 2 2 0 1 2 2 0 1 
2 2 0 1 2 2 0 1 2 2 1 1 0 2 2 2 
0 1 2 2 0 1 2 2 1 1 0 1 1 1 0 1 
2 2 0 1 2 2 0 1 2 2 0 1 1 1 0 1 
2 2 1 1 0 1 2 2 1 1 0 2 2 2 0 1 
2 2 0 1 2 2 0 1 2 2 0 1 1 1 1 1 
0 1 2 2 0 1 2 2 0 1 2 2 0 1 1 1 
0 1 2 2 0 1 2 2 1 1 0 1 2 2 1 1 
0 2 2 2 0 1 2 2 0 1 2 2 0 1 2 2 
1 1 0 1 2 2 0 1 1 1 0 1 2 2 0 1 
2 2 0 1 2 2 0 1 2 2 0 1 2 2 1 1 
0 1 1 1 0 1 2 2 0 1 2 2 0 1 2 2 
0 1 2 2 0 1 2 2 1 1 0 1 2 2 1 1 
0 2 2 2 0 1 2 2 0 1 2 2 0 1 2 2 
1 1 0 1 2 2 0 1 2 2 0 1 2 2 0 1 
2 2 0 1 2 2 0 1 2 2 1 1 0 1 2 2 
0 1 1 1 0 1 2 2 0 1 2 2 0 1 2 2 
0 1 2 2 1 1 0 1 2 2 0 1 2 2 0 1 
2 2 0 1 2 2 0 1 2 2 1 1 0 1 2 2 
0 1 2 2 0 1 2 2 0 1 2 2 0 1 2 2 
0 1 2 2 1 1 0 1 2 2 0 1 2 2 0 1 
2 2 0 1 2 2 0 1 2 2 0 1 2 2 1 0 
-1 0 2 2 0 1 2 2 0 1 2 2 0 1 2 2 
0 1 2 2 0 1 2 2 1 1 0 1 2 2 0 1 
2 2 0 1 2 2 0 1 2 2 0 1 2 2 1 1 
1 1 0 1 2 2 0 1 2 2 0 1 2 2 0 1 
2 2 0 1 2 2 0 1 2 2 1 1 1 1 0 1 
2 2 0 1 2 2 0 1 2 2 0 1 2 2 0 1 
2 2 1 1 1 1 2925 2559 300 MP stroke
0 1 2 2 0 1 2 2 0 1 2 2 0 1 2 2 
0 1 2 2 1 1 1 1 0 1 2 2 0 1 2 2 
0 1 2 2 1 1 0 1 2 2 0 1 2 2 1 1 
0 1 2 2 0 1 2 2 1 1 0 1 2 2 0 1 
2 2 0 1 2 2 1 0 -1 0 2 2 0 1 2 2 
0 1 2 2 0 1 2 2 1 1 0 1 2 2 0 1 
2 2 1 1 1 1 0 1 2 2 0 1 2 2 0 1 
2 2 1 1 0 1 2 2 1 1 0 1 2 2 1 1 
0 1 2 2 0 1 2 2 1 1 0 1 2 2 0 1 
2 2 1 1 1 1 0 1 2 2 0 1 2 2 1 1 
0 1 2 2 0 1 2 2 1 1 1 1 0 1 2 2 
0 1 2 2 1 1 0 1 2 2 0 1 2 2 1 1 
0 1 2 2 1 1 1 1 0 1 2 2 0 1 2 2 
1 1 0 1 2 2 0 1 2 2 1 1 1 1 0 1 
2 2 1 1 0 1 2 2 0 1 2 2 1 1 0 1 
2 2 1 1 1 1 0 1 2 2 0 1 2 2 1 1 
0 1 2 2 1 1 0 1 2 2 1 1 1 1 0 1 
2 2 0 1 2 2 1 1 0 1 2 2 1 1 0 1 
2 2 1 1 1 1 0 1 2 2 1 1 0 1 2 2 
0 1 2 2 1 1 0 1 2 2 1 1 0 1 2 2 
1 1 1 1 0 1 2 2 1 1 0 1 2 2 1 1 
0 1 2 2 1 1 1 1 0 1 2 2 1 1 0 1 
2 2 1 1 0 1 2 2 1 1 0 1 2 2 1 1 
1 1 0 1 2 2 1 1 0 1 2 2 1 1 0 1 
2 2 1 1 0 1 2 2 1 1 1 1 0 1 2 2 
1 1 0 1 2 2 1 1 1 1 0 1 2 2 1 1 
1 1 0 1 2 2 1 1 0 1 2 2 1 1 0 1 
2 2 1 1 0 1 2 2 1 1 1 1 1 1 0 1 
2 2 1 1 0 1 2 2 1 1 0 1 2 2 1 1 
1 1 1 1 0 1 2 2 1 1 0 1 2 2 1 1 
0 1 2 2 1 1 1 1 0 1 2 2 1 1 1 1 
1 1 0 1 2 2 1 1 0 1 2 2 1 1 0 1 
2 2 1 1 1 1 1 1 0 1 2 2 1 1 1 1 
0 1 2 2 1 1 0 1 2 2 1 1 1 1 1 1 
0 1 2 2 1 1 1 1 0 1 2 2 1 1 0 1 
2 2 1 1 1 1 1 1 0 1 2 2 1 1 1 1 
0 1 2 2 1 1 1 1 0 1 2 2 1 1 1 1 
1 1 0 1 2 2 2627 2164 300 MP stroke
1 1 1 1 0 1 2 2 1 1 1 1 0 1 2 2 
1 1 1 1 1 1 0 1 2 2 1 1 1 1 0 1 
2 2 1 1 1 1 0 1 2 2 1 1 1 1 1 1 
0 1 2 2 1 1 1 1 0 1 2 2 1 1 1 1 
1 1 1 1 0 1 2 2 1 1 1 1 0 1 2 2 
1 1 1 1 0 1 2 2 1 1 1 1 1 1 1 1 
0 1 2 2 1 1 1 1 0 1 2 2 1 1 1 1 
1 1 1 1 1 1 0 1 2 2 1 1 1 1 0 1 
2 2 1 1 1 1 0 1 2 2 1 1 1 1 1 1 
1 1 1 1 0 1 2 2 1 1 1 1 0 1 2 2 
1 1 1 1 1 1 1 1 1 1 0 1 2 2 1 1 
1 1 0 1 2 2 1 1 1 1 1 1 1 1 1 1 
0 1 2 2 1 1 1 1 1 1 0 1 2 2 1 1 
1 1 1 1 1 1 1 1 0 1 2 2 1 1 1 1 
1 1 0 1 2 2 1 1 1 1 1 1 1 1 1 1 
0 1 2 2 1 1 1 1 1 1 1 1 0 1 2 2 
1 1 1 1 1 1 1 1 1 1 0 1 2 2 1 1 
1 1 1 1 1 1 0 1 2 2 1 1 1 1 1 1 
1 1 1 1 0 1 2 2 1 1 1 1 1 1 1 1 
0 1 2 2 1 1 1 1 1 1 1 1 1 1 1 1 
0 1 2 2 1 1 1 1 1 1 1 1 0 1 2 2 
1 1 1 0 -1 0 2 2 1 1 1 1 1 1 1 1 
0 1 2 2 1 1 1 1 1 1 1 1 1 1 1 1 
1 1 0 1 2 2 1 1 1 1 1 1 1 1 1 1 
0 1 2 2 1 0 -1 0 2 2 1 1 1 1 1 1 
1 1 1 1 0 1 2 2 1 1 1 1 1 1 1 1 
1 1 1 1 1 1 1 1 0 1 2 2 1 1 1 1 
1 1 1 1 1 1 1 1 1 1 1 1 1 1 0 1 
2 2 1 1 1 1 1 1 1 1 1 1 1 1 1 1 
1 1 1 1 0 1 2 2 1 1 1 1 1 1 1 1 
1 1 1 1 0 1 2 2 1 1 1 0 -1 0 2 2 
1 1 1 1 1 1 1 1 1 1 1 1 1 1 0 1 
2 2 1 1 1 0 -1 0 2 2 1 1 1 1 1 1 
1 1 1 1 1 1 1 1 1 1 0 1 2 2 1 0 
1 1 0 1 2 2 1 1 1 1 1 1 1 1 1 1 
1 1 1 1 1 1 1 1 1 1 1 1 1 1 0 1 
2 2 1 1 1 1 1 1 1 1 1 1 1 1 1 1 
1 1 1 1 1 1 2332 1827 300 MP stroke
1 1 1 1 1 1 1 1 0 1 2 2 1 1 1 1 
1 1 1 0 -1 0 2 2 1 1 1 1 1 1 1 1 
1 1 1 1 1 1 1 1 1 1 1 1 1 1 1 1 
1 1 1 1 1 1 1 1 1 1 0 1 2 2 1 1 
1 1 1 1 1 1 1 0 -1 0 2 2 1 1 1 1 
1 1 1 1 1 1 1 1 1 1 1 1 1 1 1 1 
1 1 1 1 1 1 1 1 1 1 1 1 1 1 1 1 
1 1 1 1 1 1 1 1 1 1 1 1 1 1 1 1 
1 1 1 1 1 1 1 1 1 1 0 1 2 2 1 1 
1 1 1 0 1 1 1 1 1 1 1 1 0 1 2 2 
1 1 1 1 1 1 1 1 1 1 1 0 1 1 1 1 
1 1 0 1 2 2 1 1 1 1 1 1 1 1 1 1 
1 1 1 0 1 1 1 1 1 1 1 1 1 1 0 1 
2 2 1 1 1 1 1 1 1 1 1 1 1 0 1 1 
1 1 1 1 1 1 1 1 1 1 1 1 1 1 1 1 
1 1 1 1 1 1 1 1 1 1 1 1 1 1 1 1 
1 1 1 1 1 1 1 1 1 1 1 1 1 1 1 1 
1 1 1 1 1 1 1 1 1 1 1 1 1 1 1 1 
1 1 1 1 1 1 1 0 1 1 1 1 1 1 1 1 
1 1 1 1 1 1 1 1 1 1 1 1 1 1 1 1 
1 1 1 1 1 1 1 1 1 1 1 1 1 1 1 1 
1 1 1 1 1 1 1 0 1 1 1 1 1 1 1 1 
1 1 1 1 1 1 1 1 1 1 1 1 1 1 1 1 
1 1 1 1 1 1 1 1 1 1 1 1 1 1 1 0 
1 1 1 1 1 1 1 1 1 1 1 1 1 1 1 1 
1 1 1 1 1 1 1 1 1 1 1 1 1 1 1 1 
1 0 1 1 1 1 1 1 1 1 1 1 1 1 1 1 
1 1 1 1 1 1 1 1 1 1 1 0 1 1 1 1 
1 1 1 1 1 1 1 1 1 1 1 1 1 1 1 1 
1 1 1 0 1 1 1 1 1 1 1 1 1 1 1 1 
1 1 1 1 1 1 1 1 1 0 1 1 1 1 1 1 
1 1 1 1 1 1 1 1 1 1 1 1 1 0 1 1 
1 1 1 1 1 1 1 1 1 1 1 1 1 1 1 0 
1 1 1 1 1 1 1 1 1 1 1 1 1 1 1 0 
1 1 1 1 1 1 1 1 1 1 1 1 1 1 1 1 
1 1 1 1 1 0 1 1 1 1 1 1 1 1 1 1 
1 1 1 1 1 0 1 1 1 1 1 1 1 1 1 1 
1 1 1 0 1 1 2035 1541 300 MP stroke
1 1 1 1 1 1 1 1 1 1 1 1 1 1 1 1 
1 0 1 1 1 1 1 1 1 1 1 1 1 0 1 1 
1 1 1 1 1 1 1 1 1 0 1 1 1 1 1 1 
1 1 1 1 1 1 1 1 1 1 1 0 1 1 1 1 
1 1 1 1 1 1 1 0 1 1 1 1 1 1 1 1 
1 1 1 1 1 1 1 0 1 1 1 1 1 1 1 1 
1 0 1 1 1 1 1 1 1 1 1 1 1 1 1 0 
1 1 1 1 1 1 1 1 1 1 1 0 1 1 1 1 
1 1 1 1 1 1 1 1 1 0 1 1 1 1 1 1 
1 0 1 1 1 1 1 1 1 1 1 1 1 1 1 0 
1 1 1 1 1 1 1 1 1 0 1 1 1 1 1 1 
1 1 1 1 1 0 1 1 1 1 1 1 1 1 1 0 
1 1 1 1 1 1 1 1 1 1 1 0 1 1 1 1 
1 1 1 1 1 1 1 0 1 1 1 1 1 1 1 0 
1 1 1 1 1 1 1 1 1 1 1 0 1 1 1 1 
1 1 1 0 1 1 1 1 1 1 1 1 1 0 1 1 
1 1 1 1 1 1 1 0 1 1 1 1 1 1 1 1 
1 0 1 1 1 1 1 1 1 1 1 0 1 1 1 1 
1 1 1 0 1 1 1 1 1 1 1 1 1 0 1 1 
1 1 1 1 1 1 1 0 1 1 1 1 1 1 1 0 
1 1 1 1 1 1 1 1 1 0 1 1 1 1 1 1 
1 0 1 1 1 1 1 1 1 0 1 1 1 1 1 1 
1 1 1 0 1 1 1 1 1 0 1 1 1 1 1 1 
1 1 1 0 1 1 1 1 1 1 1 0 1 1 1 1 
1 1 1 0 1 1 1 1 1 1 1 0 1 1 1 1 
1 1 1 1 1 0 1 1 1 1 1 0 1 1 1 1 
1 1 1 0 1 1 1 1 1 1 1 1 1 0 1 1 
1 1 1 0 1 1 1 1 1 1 1 0 1 1 1 1 
1 1 1 0 1 1 1 1 1 1 1 0 1 1 1 1 
1 0 1 1 1 1 1 1 1 0 1 1 1 1 1 1 
1 0 1 1 1 1 1 0 1 1 1 1 1 1 1 0 
1 1 1 1 1 1 1 0 1 1 1 1 1 0 1 1 
1 1 1 1 1 0 1 1 1 1 1 0 1 1 1 1 
1 1 1 0 1 1 1 1 1 0 1 1 1 1 1 1 
1 0 1 1 1 1 1 0 1 1 1 1 1 1 1 0 
1 1 1 1 1 0 1 1 1 1 1 0 1 1 1 1 
1 1 1 0 1 1 1 0 1 1 1 1 1 1 1 0 
1 1 1 1 1 0 1736 1307 300 MP stroke
1 1 1 1 1 1 1 0 1 1 1 1 1 0 1 1 
1 1 1 0 1 1 1 1 1 0 1 1 1 1 1 1 
1 0 1 1 1 0 1 1 1 1 1 1 1 0 1 1 
1 1 1 0 1 1 1 1 1 0 1 1 1 1 1 0 
1 1 1 1 1 0 1 1 1 1 1 0 1 1 1 1 
1 0 1 1 1 1 1 0 1 1 1 1 1 0 1 1 
1 1 1 0 1 1 1 1 1 0 1 1 1 1 1 0 
1 1 1 1 1 0 1 1 1 1 1 0 1 1 1 1 
1 0 1 1 1 0 1 1 1 1 1 0 1 1 1 1 
1 0 1 1 1 1 1 0 1 1 1 1 1 0 1 1 
1 0 1 1 1 1 1 0 1 1 1 1 1 0 1 1 
1 1 1 0 1 1 1 0 1 1 1 1 1 0 1 1 
1 1 1 0 1 1 1 1 1 0 1 1 1 1 1 0 
1 1 1 0 1 1 1 1 1 0 1 1 1 1 1 0 
1 1 1 0 1 1 1 1 1 0 1 1 1 0 1 1 
1 1 1 0 1 1 1 1 1 0 1 1 1 1 1 0 
1 1 1 0 1 1 1 0 1 1 1 1 1 0 1 1 
1 1 1 0 1 1 1 0 1 1 1 1 1 0 1 1 
1 0 1 1 1 1 1 0 1 1 1 0 1 1 1 1 
1 0 1 1 1 0 1 1 1 1 1 0 1 1 1 0 
1 1 1 1 1 0 1 1 1 0 1 1 1 0 1 1 
1 1 1 0 1 1 1 1 1 0 1 1 1 0 1 1 
1 1 1 0 1 1 1 0 1 1 1 0 1 1 1 1 
1 0 1 1 1 0 1 1 1 0 1 1 1 0 1 1 
1 1 1 0 1 1 1 0 1 1 1 1 1 0 1 1 
1 0 1 1 1 0 1 1 1 1 1 0 1 1 1 0 
1 1 1 0 1 1 1 1 1 0 1 1 1 0 1 1 
1 0 1 1 1 0 1 1 1 1 1 0 1 1 1 0 
1 1 1 0 1 1 1 0 1 1 1 1 1 0 1 1 
1 0 1 1 1 0 1 1 1 0 1 1 1 1 1 0 
1 1 1 0 1 1 1 0 1 1 1 0 1 1 1 0 
1 1 1 1 1 0 1 0 1 1 1 1 1 0 1 1 
1 0 1 1 1 0 1 1 1 0 1 1 1 1 1 0 
1 0 1 1 1 1 1 0 1 1 1 0 1 1 1 0 
1 1 1 0 1 1 1 0 1 1 1 0 1 1 1 0 
1 1 1 0 1 1 1 1 1 0 1 1 1 0 1 1 
1 0 1 1 1 0 1 1 1 0 1 1 1 0 1 1 
1 0 1 1 1 0 1437 1127 300 MP stroke
1 1 1 0 1 1 1 0 1 1 1 0 1 1 1 0 
1 1 1 0 1 1 1 0 1 1 1 0 1 1 1 0 
1 1 1 0 1 1 1 0 1 1 1 0 1 1 1 0 
1 1 1 0 1 1 1 0 1 1 1 0 1 1 1 0 
1 1 1 0 1 1 1 0 1 1 1 0 1 1 1 0 
1 1 1 0 1 1 1 0 1 1 1 0 1 1 1 0 
1 1 1 0 1 1 1 0 1 0 1 1 1 0 1 1 
1 0 1 1 1 0 1 1 1 0 1 1 1 0 1 1 
1 0 1 1 1 0 1 0 1 1 1 0 1 1 1 0 
1 1 1 0 1 1 1 0 1 1 1 0 1 1 1 0 
1 1 1 0 1 0 1 1 1 0 1 1 1 0 1 1 
1 0 1 1 1 0 1 1 1 0 1 0 1 1 1 0 
1 1 1 0 1 1 1 0 1 1 1 0 1 1 1 0 
1 0 1 1 1 0 1 1 1 0 1 1 1 0 1 1 
1 0 1 0 1 1 1 0 1 1 1 0 1 1 1 0 
1 1 1 0 1 0 1 1 1 0 1 1 1 0 1 1 
1 0 1 0 1 1 1 0 1 1 1 0 1 1 1 0 
1 0 1 1 1 0 1 1 1 0 1 1 1 0 1 0 
1 1 1 0 1 1 1 0 1 1 1 0 1 0 1 1 
1 0 1 1 1 0 1 0 1 1 1 0 1 1 1 0 
1 1 1 0 1 0 1 1 1 0 1 1 1 0 1 0 
1 1 1 0 1 1 1 0 1 0 1 1 1 0 1 1 
1 0 1 0 1 1 1 0 1 1 1 0 1 0 1 1 
1 0 1 1 1 0 1 0 1 1 1 0 1 1 1 0 
1 0 1 1 1 0 1 1 1 0 1 0 1 1 1 0 
1 0 1 1 1 0 1 1 1 0 1 0 1 1 1 0 
1 1 1 0 1 0 1 1 1 0 1 0 1 1 1 0 
1 1 1 0 1 0 1 1 1 0 1 1 1 0 1 0 
1 1 1 0 1 0 1 1 1 0 1 1 1 0 1 0 
1 1 1 0 1 0 1 1 1 0 1 0 1 1 1 0 
1 1 1 0 1 0 1 1 1 0 1 0 1 1 1 0 
1 0 1 1 1 0 1 0 1 1 1 0 1 1 1 0 
1 0 1 1 1 0 1 0 1 1 1 0 1 0 1 1 
1 0 1 0 1 1 1 0 1 1 1 0 1 0 1 1 
1 0 1 0 1 1 1 0 1 0 1 1 1 0 1 0 
1 1 1 0 1 0 1 1 1 0 1 0 1 1 1 0 
1 0 1 1 1 0 1 0 1 1 1 0 1 0 1 1 
1 0 1 0 1 1 1138 1001 300 MP stroke
1 0 1 0 1 1 1 0 1 0 1 1 1 0 1 0 
1 1 1 0 1 0 1 0 1 1 1 0 1 0 1 1 
1 0 1 0 1 1 1 0 1 0 1 1 1 0 1 0 
1 1 1 0 1 0 1 1 1 0 1 0 1 1 1 0 
1 0 1 0 1 1 1 0 1 0 1 1 1 0 1 0 
1 1 1 0 1 0 1 1 1 0 1 0 1 0 1 1 
1 0 1 0 1 1 1 0 1 0 1 0 1 1 1 0 
1 0 1 1 1 0 1 0 1 1 1 0 1 0 1 0 
1 1 1 0 1 0 1 1 1 0 1 0 1 0 1 1 
1 0 1 0 1 1 1 0 1 0 1 0 1 1 1 0 
1 0 1 1 1 0 1 0 1 0 1 1 1 0 1 0 
1 0 1 1 1 0 1 0 1 1 1 0 1 0 1 0 
1 1 1 0 1 0 1 0 1 1 1 0 1 0 1 1 
1 0 1 0 1 0 1 1 1 0 1 0 1 0 1 1 
1 0 1 0 1 0 1 1 1 0 1 0 1 0 1 1 
1 0 1 0 1 0 1 1 1 0 1 0 1 0 1 1 
1 0 1 0 1 0 1 1 1 0 1 0 1 0 1 1 
1 0 1 0 1 0 1 1 1 0 1 0 1 0 1 1 
1 0 1 0 1 0 1 1 1 0 1 0 1 0 1 1 
1 0 1 0 1 0 1 1 1 0 1 0 1 0 1 0 
1 1 1 0 1 0 1 0 1 1 1 0 1 0 1 0 
1 1 1 0 1 0 1 0 1 0 1 1 1 0 1 0 
1 0 1 1 1 0 1 0 1 0 1 0 1 1 1 0 
1 0 1 0 1 0 1 1 1 0 1 0 1 0 1 1 
1 0 1 0 1 0 1 0 1 1 1 0 1 0 1 0 
1 0 1 1 1 0 1 0 1 0 1 0 1 1 1 0 
1 0 1 0 1 0 1 1 1 0 1 0 1 0 1 0 
1 1 1 0 1 0 1 0 1 0 1 1 1 0 1 0 
1 0 1 0 1 1 1 0 1 0 1 0 1 0 1 1 
1 0 1 0 1 0 1 0 1 0 1 1 1 0 1 0 
1 0 1 0 1 1 1 0 1 0 1 0 1 0 1 0 
1 1 1 0 1 0 1 0 1 0 1 1 1 0 1 0 
1 0 1 0 1 0 1 1 1 0 1 0 1 0 1 0 
1 0 1 1 1 0 1 0 1 0 1 0 1 0 1 1 
1 0 1 0 1 0 1 0 1 0 1 1 1 0 1 0 
1 0 1 0 1 0 1 0 1 1 1 0 1 0 1 0 
1 0 1 0 1 1 1 0 1 0 1 0 1 0 1 0 
1 0 1 1 1 0 839 930 300 MP stroke
1 0 1 0 1 0 1 0 1 0 1 1 1 0 1 0 
1 0 1 0 1 0 1 0 1 1 1 0 1 0 1 0 
1 0 1 0 1 0 1 1 1 0 1 0 1 0 1 0 
1 0 1 0 1 0 1 1 1 0 1 0 1 0 1 0 
1 0 1 0 1 0 1 1 1 0 1 0 1 0 1 0 
1 0 1 0 1 1 1 0 1 0 1 0 1 0 1 0 
1 0 1 0 1 0 1 1 1 0 1 0 1 0 1 0 
1 0 1 0 1 0 1 0 1 1 1 0 1 0 1 0 
1 0 1 0 1 0 1 0 1 0 1 1 1 0 1 0 
1 0 1 0 1 0 1 0 1 0 1 0 1 0 1 1 
1 0 1 0 1 0 1 0 1 0 1 0 1 0 1 0 
1 0 1 1 1 0 1 0 1 0 1 0 1 0 1 0 
1 0 1 0 1 0 1 0 1 0 1 1 1 0 1 0 
1 0 1 0 1 0 1 0 1 0 1 0 1 0 1 0 
1 0 1 1 1 0 1 0 1 0 1 0 1 0 1 0 
1 0 1 0 1 0 1 0 1 0 1 0 1 0 1 1 
1 0 1 0 1 0 1 0 1 0 1 0 1 0 1 0 
1 0 1 0 1 0 1 0 1 0 1 0 1 1 1 0 
1 0 1 0 1 0 1 0 1 0 1 0 1 0 1 0 
1 0 1 0 1 0 1 0 1 0 1 0 1 0 1 0 
1 1 1 0 1 0 1 0 1 0 1 0 1 0 1 0 
1 0 1 0 1 0 1 0 1 0 1 0 1 0 1 0 
1 0 1 0 1 0 1 0 1 0 1 0 1 0 1 0 
1 1 1 0 1 0 1 0 1 0 1 0 1 0 1 0 
1 0 1 0 1 0 1 0 1 0 1 0 1 0 1 0 
1 0 1 0 1 0 1 0 1 0 1 0 1 0 1 0 
1 0 1 0 1 0 1 0 1 0 1 0 1 0 1 0 
1 0 1 0 1 0 1 0 1 0 1 0 1 0 1 0 
1 0 1 0 1 0 1 0 1 0 1 0 1 0 1 0 
1 0 1 0 1 0 1 0 1 0 1 0 1 0 1 0 
1 0 598 913 242 MP stroke
36 w
gr

36 w
c8
/c9 { 0.000000 1.000000 1.000000 sr} bdef
c9
  18   18 3314 3155 FO
  18   18 3315 3156 FO
  18   18 3315 3157 FO
  18   18 3316 3157 FO
  18   18 3316 3158 FO
  18   18 3317 3159 FO
  18   18 3317 3160 FO
  18   18 3318 3161 FO
  18   18 3318 3162 FO
  18   18 3319 3162 FO
  18   18 3319 3163 FO
  18   18 3320 3164 FO
  18   18 3320 3165 FO
  18   18 3321 3166 FO
  18   18 3322 3167 FO
  18   18 3322 3168 FO
  18   18 3323 3169 FO
  18   18 3323 3170 FO
  18   18 3324 3170 FO
  18   18 3324 3171 FO
  18   18 3325 3172 FO
  18   18 3325 3173 FO
  18   18 3326 3174 FO
  18   18 3326 3175 FO
  18   18 3327 3175 FO
  18   18 3327 3176 FO
  18   18 3327 3177 FO
  18   18 3328 3177 FO
  18   18 3328 3178 FO
  18   18 3329 3179 FO
  18   18 3329 3180 FO
  18   18 3330 3180 FO
  18   18 3330 3181 FO
  18   18 3330 3182 FO
  18   18 3331 3182 FO
  18   18 3331 3183 FO
  18   18 3332 3184 FO
  18   18 3332 3185 FO
  18   18 3333 3186 FO
  18   18 3334 3187 FO
  18   18 3334 3188 FO
  18   18 3335 3188 FO
  18   18 3335 3189 FO
  18   18 3335 3190 FO
  18   18 3336 3190 FO
  18   18 3336 3191 FO
  18   18 3337 3192 FO
  18   18 3337 3193 FO
  18   18 3338 3194 FO
  18   18 3338 3195 FO
  18   18 3339 3195 FO
  18   18 3339 3196 FO
  18   18 3340 3197 FO
  18   18 3340 3198 FO
  18   18 3341 3199 FO
  18   18 3341 3200 FO
  18   18 3342 3200 FO
  18   18 3342 3201 FO
  18   18 3342 3202 FO
  18   18 3343 3202 FO
  18   18 3343 3203 FO
  18   18 3344 3204 FO
  18   18 3344 3205 FO
  18   18 3345 3206 FO
  18   18 3345 3207 FO
  18   18 3346 3207 FO
  18   18 3346 3208 FO
  18   18 3347 3208 FO
  18   18 3347 3209 FO
  18   18 3347 3210 FO
  18   18 3348 3210 FO
  18   18 3348 3211 FO
  18   18 3349 3212 FO
  18   18 3349 3213 FO
  18   18 3350 3214 FO
  18   18 3350 3215 FO
  18   18 3351 3215 FO
  18   18 3351 3216 FO
  18   18 3352 3217 FO
  18   18 3352 3218 FO
  18   18 3353 3219 FO
  18   18 3353 3220 FO
  18   18 3354 3220 FO
  18   18 3354 3221 FO
  18   18 3354 3222 FO
  18   18 3355 3222 FO
  18   18 3355 3223 FO
  18   18 3356 3224 FO
  18   18 3356 3225 FO
  18   18 3357 3226 FO
  18   18 3357 3227 FO
  18   18 3358 3227 FO
  18   18 3358 3228 FO
  18   18 3359 3229 FO
  18   18 3359 3230 FO
  18   18 3360 3230 FO
  18   18 3360 3231 FO
  18   18 3361 3232 FO
  18   18 3361 3233 FO
  18   18 3362 3234 FO
  18   18 3362 3235 FO
  18   18 3363 3235 FO
  18   18 3363 3236 FO
  18   18 3363 3237 FO
  18   18 3364 3237 FO
  18   18 3364 3238 FO
  18   18 3365 3239 FO
  18   18 3365 3240 FO
  18   18 3366 3241 FO
  18   18 3366 3242 FO
  18   18 3367 3242 FO
  18   18 3367 3243 FO
  18   18 3368 3244 FO
  18   18 3368 3245 FO
  18   18 3369 3246 FO
  18   18 3369 3247 FO
  18   18 3370 3248 FO
  18   18 3371 3249 FO
  18   18 3371 3250 FO
  18   18 3372 3250 FO
  18   18 3372 3251 FO
  18   18 3372 3252 FO
  18   18 3373 3252 FO
  18   18 3373 3253 FO
  18   18 3374 3254 FO
  18   18 3374 3255 FO
  18   18 3375 3256 FO
  18   18 3375 3257 FO
  18   18 3376 3257 FO
  18   18 3376 3258 FO
  18   18 3376 3259 FO
  18   18 3377 3259 FO
  18   18 3377 3260 FO
  18   18 3378 3261 FO
  18   18 3378 3262 FO
  18   18 3379 3263 FO
  18   18 3379 3264 FO
  18   18 3380 3264 FO
  18   18 3380 3265 FO
  18   18 3381 3266 FO
  18   18 3381 3267 FO
  18   18 3382 3268 FO
  18   18 3382 3269 FO
  18   18 3383 3270 FO
  18   18 3384 3271 FO
  18   18 3384 3272 FO
  18   18 3385 3272 FO
  18   18 3385 3273 FO
  18   18 3385 3274 FO
  18   18 3386 3274 FO
  18   18 3386 3275 FO
  18   18 3387 3276 FO
  18   18 3387 3277 FO
  18   18 3388 3278 FO
  18   18 3388 3279 FO
  18   18 3389 3279 FO
  18   18 3389 3280 FO
  18   18 3389 3281 FO
  18   18 3390 3281 FO
  18   18 3390 3282 FO
  18   18 3391 3283 FO
  18   18 3391 3284 FO
  18   18 3392 3285 FO
  18   18 3392 3286 FO
  18   18 3393 3286 FO
  18   18 3393 3287 FO
  18   18 3393 3288 FO
  18   18 3394 3288 FO
  18   18 3394 3289 FO
  18   18 3395 3290 FO
  18   18 3396 3291 FO
  18   18 3396 3292 FO
  18   18 3397 3293 FO
  18   18 3397 3294 FO
  18   18 3398 3295 FO
  18   18 3398 3296 FO
  18   18 3399 3296 FO
  18   18 3399 3297 FO
  18   18 3400 3298 FO
  18   18 3400 3299 FO
  18   18 3401 3300 FO
  18   18 3401 3301 FO
  18   18 3402 3302 FO
  18   18 3402 3303 FO
  18   18 3403 3303 FO
  18   18 3403 3304 FO
  18   18 3404 3305 FO
  18   18 3404 3306 FO
  18   18 3405 3307 FO
  18   18 3405 3308 FO
  18   18 3406 3309 FO
  18   18 3406 3310 FO
  18   18 3407 3310 FO
  18   18 3407 3311 FO
  18   18 3408 3311 FO
  18   18 3408 3312 FO
  18   18 3408 3313 FO
  18   18 3409 3313 FO
  18   18 3409 3314 FO
  18   18 3410 3315 FO
  18   18 3410 3316 FO
  18   18 3411 3317 FO
  18   18 3411 3318 FO
  18   18 3412 3318 FO
  18   18 3412 3319 FO
  18   18 3412 3320 FO
  18   18 3413 3320 FO
  18   18 3413 3321 FO
  18   18 3414 3322 FO
  18   18 3414 3323 FO
  18   18 3415 3324 FO
  18   18 3415 3325 FO
  18   18 3416 3326 FO
  18   18 3416 3327 FO
  18   18 3417 3327 FO
  18   18 3417 3328 FO
  18   18 3418 3329 FO
  18   18 3418 3330 FO
  18   18 3419 3331 FO
  18   18 3419 3332 FO
  18   18 3420 3333 FO
  18   18 3421 3334 FO
  18   18 3421 3335 FO
  18   18 3422 3335 FO
  18   18 3422 3336 FO
  18   18 3422 3337 FO
  18   18 3423 3337 FO
  18   18 3423 3338 FO
  18   18 3424 3339 FO
  18   18 3424 3340 FO
  18   18 3425 3341 FO
  18   18 3425 3342 FO
  18   18 3426 3343 FO
  18   18 3426 3344 FO
  18   18 3427 3344 FO
  18   18 3427 3345 FO
  18   18 3428 3346 FO
  18   18 3428 3347 FO
  18   18 3429 3348 FO
  18   18 3429 3349 FO
  18   18 3430 3350 FO
  18   18 3430 3351 FO
  18   18 3431 3351 FO
  18   18 3431 3352 FO
  18   18 3431 3353 FO
  18   18 3432 3353 FO
  18   18 3432 3354 FO
  18   18 3433 3354 FO
  18   18 3433 3355 FO
  18   18 3433 3356 FO
  18   18 3434 3356 FO
  18   18 3434 3357 FO
  18   18 3435 3358 FO
  18   18 3435 3359 FO
  18   18 3436 3360 FO
  18   18 3436 3361 FO
  18   18 3437 3361 FO
  18   18 3437 3362 FO
  18   18 3437 3363 FO
  18   18 3438 3363 FO
  18   18 3438 3364 FO
  18   18 3439 3365 FO
  18   18 3439 3366 FO
  18   18 3440 3367 FO
  18   18 3440 3368 FO
  18   18 3441 3369 FO
  18   18 3441 3370 FO
  18   18 3442 3370 FO
  18   18 3442 3371 FO
  18   18 3443 3372 FO
  18   18 3443 3373 FO
  18   18 3444 3374 FO
  18   18 3445 3375 FO
  18   18 3445 3376 FO
  18   18 3446 3377 FO
  18   18 3446 3378 FO
  18   18 3447 3379 FO
  18   18 3447 3380 FO
  18   18 3448 3380 FO
  18   18 3448 3381 FO
  18   18 3448 3382 FO
  18   18 3449 3382 FO
  18   18 3449 3383 FO
  18   18 3450 3384 FO
  18   18 3450 3385 FO
  18   18 3451 3386 FO
  18   18 3451 3387 FO
  18   18 3452 3388 FO
  18   18 3452 3389 FO
  18   18 3453 3389 FO
  18   18 3453 3390 FO
  18   18 3454 3391 FO
  18   18 3454 3392 FO
  18   18 3455 3393 FO
  18   18 3455 3394 FO
  18   18 3456 3395 FO
  18   18 3456 3396 FO
  18   18 3457 3396 FO
  18   18 3457 3397 FO
  18   18 3458 3398 FO
  18   18 3458 3399 FO
  18   18 3459 3399 FO
  18   18 3459 3400 FO
  18   18 3459 3401 FO
  18   18 3460 3401 FO
  18   18 3460 3402 FO
  18   18 3461 3403 FO
  18   18 3461 3404 FO
  18   18 3462 3405 FO
  18   18 3462 3406 FO
  18   18 3463 3407 FO
  18   18 3463 3408 FO
  18   18 3464 3408 FO
  18   18 3464 3409 FO
  18   18 3464 3410 FO
  18   18 3465 3410 FO
  18   18 3465 3411 FO
  18   18 3466 3412 FO
  18   18 3466 3413 FO
  18   18 3467 3414 FO
  18   18 3467 3415 FO
  18   18 3468 3416 FO
  18   18 3468 3417 FO
  18   18 3469 3417 FO
  18   18 3469 3418 FO
  18   18 3470 3418 FO
  18   18 3470 3419 FO
  18   18 3470 3420 FO
  18   18 3471 3420 FO
  18   18 3471 3421 FO
  18   18 3472 3422 FO
  18   18 3472 3423 FO
  18   18 3473 3424 FO
  18   18 3473 3425 FO
  18   18 3474 3426 FO
  18   18 3474 3427 FO
  18   18 3475 3427 FO
  18   18 3475 3428 FO
  18   18 3475 3429 FO
  18   18 3476 3429 FO
  18   18 3476 3430 FO
  18   18 3477 3431 FO
  18   18 3477 3432 FO
  18   18 3478 3433 FO
  18   18 3478 3434 FO
  18   18 3479 3435 FO
  18   18 3479 3436 FO
  18   18 3480 3436 FO
  18   18 3480 3437 FO
  18   18 3480 3438 FO
  18   18 3481 3438 FO
  18   18 3481 3439 FO
  18   18 3482 3439 FO
  18   18 3482 3440 FO
  18   18 3482 3441 FO
  18   18 3483 3441 FO
  18   18 3483 3442 FO
  18   18 3484 3443 FO
  18   18 3484 3444 FO
  18   18 3485 3445 FO
  18   18 3485 3446 FO
  18   18 3486 3447 FO
  18   18 3486 3448 FO
  18   18 3487 3448 FO
  18   18 3487 3449 FO
  18   18 3487 3450 FO
  18   18 3488 3450 FO
  18   18 3488 3451 FO
  18   18 3489 3452 FO
  18   18 3489 3453 FO
  18   18 3490 3454 FO
  18   18 3490 3455 FO
  18   18 3491 3456 FO
  18   18 3491 3457 FO
  18   18 3492 3458 FO
  18   18 3492 3459 FO
  18   18 3493 3459 FO
  18   18 3493 3460 FO
  18   18 3493 3461 FO
  18   18 3494 3461 FO
  18   18 3494 3462 FO
  18   18 3495 3462 FO
  18   18 3495 3463 FO
  18   18 3495 3464 FO
  18   18 3496 3464 FO
  18   18 3496 3465 FO
  18   18 3497 3466 FO
  18   18 3497 3467 FO
  18   18 3498 3468 FO
  18   18 3498 3469 FO
  18   18 3499 3470 FO
  18   18 3499 3471 FO
  18   18 3500 3471 FO
  18   18 3500 3472 FO
  18   18 3500 3473 FO
  18   18 3501 3473 FO
  18   18 3501 3474 FO
  18   18 3502 3475 FO
  18   18 3502 3476 FO
  18   18 3503 3477 FO
  18   18 3503 3478 FO
  18   18 3504 3479 FO
  18   18 3504 3480 FO
  18   18 3505 3480 FO
  18   18 3505 3481 FO
  18   18 3505 3482 FO
  18   18 3506 3482 FO
  18   18 3506 3483 FO
  18   18 3507 3483 FO
  18   18 3507 3484 FO
  18   18 3507 3485 FO
  18   18 3508 3485 FO
  18   18 3508 3486 FO
  18   18 3508 3487 FO
  18   18 3509 3487 FO
  18   18 3509 3488 FO
  18   18 3510 3489 FO
  18   18 3510 3490 FO
  18   18 3511 3491 FO
  18   18 3511 3492 FO
  18   18 3512 3493 FO
  18   18 3512 3494 FO
  18   18 3513 3494 FO
  18   18 3513 3495 FO
  18   18 3513 3496 FO
  18   18 3514 3496 FO
  18   18 3514 3497 FO
  18   18 3515 3498 FO
  18   18 3515 3499 FO
  18   18 3516 3500 FO
  18   18 3516 3501 FO
  18   18 3517 3502 FO
  18   18 3517 3503 FO
  18   18 3518 3504 FO
  18   18 3519 3505 FO
  18   18 3519 3506 FO
  18   18 3520 3507 FO
  18   18 3520 3508 FO
  18   18 3521 3508 FO
  18   18 3521 3509 FO
  18   18 3521 3510 FO
  18   18 3522 3510 FO
  18   18 3522 3511 FO
  18   18 3523 3512 FO
  18   18 3523 3513 FO
  18   18 3524 3514 FO
  18   18 3524 3515 FO
  18   18 3525 3516 FO
  18   18 3525 3517 FO
  18   18 3526 3518 FO
  18   18 3526 3519 FO
  18   18 3527 3519 FO
  18   18 3527 3520 FO
  18   18 3527 3521 FO
  18   18 3528 3521 FO
  18   18 3528 3522 FO
  18   18 3529 3523 FO
  18   18 3529 3524 FO
  18   18 3530 3525 FO
  18   18 3530 3526 FO
  18   18 3531 3527 FO
  18   18 3532 3528 FO
  18   18 3532 3529 FO
  18   18 3533 3530 FO
  18   18 3533 3531 FO
  18   18 3534 3532 FO
  18   18 3534 3533 FO
  18   18 3535 3533 FO
  18   18 3535 3534 FO
  18   18 3535 3535 FO
  18   18 3536 3535 FO
  18   18 3536 3536 FO
  18   18 3537 3537 FO
  18   18 3537 3538 FO
  18   18 3538 3539 FO
  18   18 3538 3540 FO
  18   18 3539 3541 FO
  18   18 3539 3542 FO
  18   18 3540 3543 FO
  18   18 3540 3544 FO
  18   18 3541 3544 FO
  18   18 3541 3545 FO
  18   18 3541 3546 FO
  18   18 3542 3546 FO
  18   18 3542 3547 FO
  18   18 3543 3548 FO
  18   18 3543 3549 FO
  18   18 3544 3549 FO
  18   18 3544 3550 FO
  18   18 3544 3551 FO
  18   18 3545 3551 FO
  18   18 3545 3552 FO
  18   18 3546 3553 FO
  18   18 3546 3554 FO
  18   18 3547 3555 FO
  18   18 3547 3556 FO
  18   18 3548 3557 FO
  18   18 3548 3558 FO
  18   18 3549 3559 FO
  18   18 3549 3560 FO
  18   18 3550 3560 FO
  18   18 3550 3561 FO
  18   18 3550 3562 FO
  18   18 3551 3562 FO
  18   18 3551 3563 FO
  18   18 3552 3564 FO
  18   18 3552 3565 FO
  18   18 3553 3566 FO
  18   18 3553 3567 FO
  18   18 3554 3568 FO
  18   18 3554 3569 FO
  18   18 3555 3570 FO
  18   18 3556 3571 FO
  18   18 3556 3572 FO
  18   18 3557 3573 FO
  18   18 3557 3574 FO
  18   18 3558 3575 FO
  18   18 3558 3576 FO
  18   18 3559 3576 FO
  18   18 3559 3577 FO
  18   18 3559 3578 FO
  18   18 3560 3578 FO
  18   18 3560 3579 FO
  18   18 3561 3580 FO
  18   18 3561 3581 FO
  18   18 3562 3582 FO
  18   18 3562 3583 FO
  18   18 3563 3584 FO
  18   18 3563 3585 FO
  18   18 3564 3586 FO
  18   18 3564 3587 FO
  18   18 3565 3587 FO
  18   18 3565 3588 FO
  18   18 3565 3589 FO
  18   18 3566 3589 FO
  18   18 3566 3590 FO
  18   18 3566 3591 FO
  18   18 3567 3591 FO
  18   18 3567 3592 FO
  18   18 3568 3593 FO
  18   18 3568 3594 FO
  18   18 3569 3594 FO
  18   18 3569 3595 FO
  18   18 3570 3596 FO
  18   18 3570 3597 FO
  18   18 3571 3598 FO
  18   18 3571 3599 FO
  18   18 3572 3600 FO
  18   18 3572 3601 FO
  18   18 3573 3602 FO
  18   18 3573 3603 FO
  18   18 3574 3604 FO
  18   18 3574 3605 FO
  18   18 3575 3605 FO
  18   18 3575 3606 FO
  18   18 3575 3607 FO
  18   18 3576 3607 FO
  18   18 3576 3608 FO
  18   18 3576 3609 FO
  18   18 3577 3609 FO
  18   18 3577 3610 FO
  18   18 3578 3611 FO
  18   18 3578 3612 FO
  18   18 3579 3613 FO
  18   18 3579 3614 FO
  18   18 3580 3615 FO
  18   18 3581 3616 FO
  18   18 3581 3617 FO
  18   18 3582 3618 FO
  18   18 3582 3619 FO
  18   18 3583 3620 FO
  18   18 3583 3621 FO
  18   18 3584 3622 FO
  18   18 3584 3623 FO
  18   18 3585 3623 FO
  18   18 3585 3624 FO
  18   18 3585 3625 FO
  18   18 3586 3625 FO
  18   18 3586 3626 FO
  18   18 3586 3627 FO
  18   18 3587 3627 FO
  18   18 3587 3628 FO
  18   18 3588 3629 FO
  18   18 3588 3630 FO
  18   18 3589 3631 FO
  18   18 3589 3632 FO
  18   18 3590 3633 FO
  18   18 3590 3634 FO
  18   18 3591 3635 FO
  18   18 3591 3636 FO
  18   18 3592 3636 FO
  18   18 3592 3637 FO
  18   18 3593 3638 FO
  18   18 3593 3639 FO
  18   18 3594 3640 FO
  18   18 3594 3641 FO
  18   18 3595 3641 FO
  18   18 3595 3642 FO
  18   18 3595 3643 FO
  18   18 3596 3643 FO
  18   18 3596 3644 FO
  18   18 3596 3645 FO
  18   18 3597 3645 FO
  18   18 3597 3646 FO
  18   18 3598 3647 FO
  18   18 3598 3648 FO
  18   18 3599 3649 FO
  18   18 3599 3650 FO
  18   18 3600 3651 FO
  18   18 3600 3652 FO
  18   18 3601 3653 FO
  18   18 3601 3654 FO
  18   18 3602 3655 FO
  18   18 3602 3656 FO
  18   18 3603 3656 FO
  18   18 3603 3657 FO
  18   18 3603 3658 FO
  18   18 3604 3658 FO
  18   18 3604 3659 FO
  18   18 3605 3660 FO
  18   18 3605 3661 FO
  18   18 3606 3661 FO
  18   18 3606 3662 FO
  18   18 3606 3663 FO
  18   18 3607 3663 FO
  18   18 3607 3664 FO
  18   18 3607 3665 FO
  18   18 3608 3665 FO
  18   18 3608 3666 FO
  18   18 3609 3667 FO
  18   18 3609 3668 FO
  18   18 3610 3669 FO
  18   18 3610 3670 FO
  18   18 3611 3671 FO
  18   18 3611 3672 FO
  18   18 3612 3673 FO
  18   18 3612 3674 FO
  18   18 3613 3675 FO
  18   18 3613 3676 FO
  18   18 3614 3677 FO
  18   18 3614 3678 FO
  18   18 3615 3678 FO
  18   18 3615 3679 FO
  18   18 3615 3680 FO
  18   18 3616 3680 FO
  18   18 3616 3681 FO
  18   18 3616 3682 FO
  18   18 3617 3682 FO
  18   18 3617 3683 FO
  18   18 3618 3683 FO
  18   18 3618 3684 FO
  18   18 3618 3685 FO
  18   18 3619 3685 FO
  18   18 3619 3686 FO
  18   18 3619 3687 FO
  18   18 3620 3687 FO
  18   18 3620 3688 FO
  18   18 3621 3689 FO
  18   18 3621 3690 FO
  18   18 3622 3691 FO
  18   18 3622 3692 FO
  18   18 3623 3693 FO
  18   18 3623 3694 FO
  18   18 3624 3695 FO
  18   18 3624 3696 FO
  18   18 3625 3697 FO
  18   18 3625 3698 FO
  18   18 3626 3699 FO
  18   18 3626 3700 FO
  18   18 3627 3700 FO
  18   18 3627 3701 FO
  18   18 3627 3702 FO
  18   18 3628 3702 FO
  18   18 3628 3703 FO
  18   18 3628 3704 FO
  18   18 3629 3704 FO
  18   18 3629 3705 FO
  18   18 3630 3705 FO
  18   18 3630 3706 FO
  18   18 3630 3707 FO
  18   18 3631 3707 FO
  18   18 3631 3708 FO
  18   18 3631 3709 FO
  18   18 3632 3709 FO
  18   18 3632 3710 FO
  18   18 3632 3711 FO
  18   18 3633 3711 FO
  18   18 3633 3712 FO
  18   18 3634 3713 FO
  18   18 3634 3714 FO
  18   18 3635 3715 FO
  18   18 3635 3716 FO
  18   18 3636 3717 FO
  18   18 3636 3718 FO
  18   18 3637 3719 FO
  18   18 3637 3720 FO
  18   18 3638 3721 FO
  18   18 3638 3722 FO
  18   18 3639 3723 FO
  18   18 3639 3724 FO
  18   18 3640 3724 FO
  18   18 3640 3725 FO
  18   18 3640 3726 FO
  18   18 3641 3726 FO
  18   18 3641 3727 FO
  18   18 3642 3728 FO
  18   18 3642 3729 FO
  18   18 3643 3730 FO
  18   18 3643 3731 FO
  18   18 3644 3731 FO
  18   18 3644 3732 FO
  18   18 3644 3733 FO
  18   18 3645 3733 FO
  18   18 3645 3734 FO
  18   18 3645 3735 FO
  18   18 3646 3735 FO
  18   18 3646 3736 FO
  18   18 3647 3737 FO
  18   18 3647 3738 FO
  18   18 3648 3739 FO
  18   18 3648 3740 FO
  18   18 3649 3741 FO
  18   18 3649 3742 FO
  18   18 3650 3743 FO
  18   18 3650 3744 FO
  18   18 3651 3745 FO
  18   18 3651 3746 FO
  18   18 3652 3747 FO
  18   18 3652 3748 FO
  18   18 3653 3749 FO
  18   18 3653 3750 FO
  18   18 3654 3750 FO
  18   18 3654 3751 FO
  18   18 3655 3752 FO
  18   18 3655 3753 FO
  18   18 3656 3754 FO
  18   18 3656 3755 FO
  18   18 3657 3756 FO
  18   18 3657 3757 FO
  18   18 3658 3757 FO
  18   18 3658 3758 FO
  18   18 3658 3759 FO
  18   18 3659 3759 FO
  18   18 3659 3760 FO
  18   18 3659 3761 FO
  18   18 3660 3761 FO
  18   18 3660 3762 FO
  18   18 3660 3763 FO
  18   18 3661 3763 FO
  18   18 3661 3764 FO
  18   18 3662 3765 FO
  18   18 3662 3766 FO
  18   18 3663 3767 FO
gs 598 913 3427 3567 rc
gr

0 j
0 -30 -30 0 0 30 30 0 3299 3139 5 MP
/c10 { 1.000000 0.000000 0.000000 sr} bdef
c10
gs
PP
gr
DP
0 -30 -30 0 0 30 30 0 3300 3140 5 MP
gs
PP
gr
DP
0 -30 -30 0 0 30 30 0 3300 3142 5 MP
gs
PP
gr
DP
0 -30 -30 0 0 30 30 0 3302 3144 5 MP
gs
PP
gr
DP
0 -30 -30 0 0 30 30 0 3302 3145 5 MP
gs
PP
gr
DP
0 -30 -30 0 0 30 30 0 3303 3146 5 MP
gs
PP
gr
DP
0 -30 -30 0 0 30 30 0 3304 3148 5 MP
gs
PP
gr
DP
0 -30 -30 0 0 30 30 0 3305 3150 5 MP
gs
PP
gr
DP
0 -30 -30 0 0 30 30 0 3306 3151 5 MP
gs
PP
gr
DP
0 -30 -30 0 0 30 30 0 3307 3152 5 MP
gs
PP
gr
DP
0 -30 -30 0 0 30 30 0 3308 3155 5 MP
gs
PP
gr
DP
0 -30 -30 0 0 30 30 0 3309 3156 5 MP
gs
PP
gr
DP
0 -30 -30 0 0 30 30 0 3310 3158 5 MP
gs
PP
gr
DP
0 -30 -30 0 0 30 30 0 3311 3159 5 MP
gs
PP
gr
DP
gs 598 913 3427 3567 rc
gr

0 sg
  18   18 2996 3765 PO
  18   18 2996 3765 FO
gs 598 913 3427 3567 rc
gr

%%IncludeResource: font Helvetica
/Helvetica /WindowsLatin1Encoding 120 FMSR

 581 4522 mt 
( ) s
4008  955 mt 
( ) s
6 w
1 sg
0 504 1962 0 0 -504 1986 1434 4 MP
PP
-1962 0 0 504 1962 0 0 -504 1986 1434 5 MP stroke
4 w
DO
SO
6 w
1986  930 mt 3948  930 L
1986 1434 mt 3948 1434 L
3948 1434 mt 3948  930 L
1986 1434 mt 1986  930 L
1986 1434 mt 3948 1434 L
1986 1434 mt 1986  930 L
1986  930 mt 3948  930 L
1986 1434 mt 3948 1434 L
3948 1434 mt 3948  930 L
1986 1434 mt 1986  930 L
0 sg
%%IncludeResource: font Times-Roman
/Times-Roman /WindowsLatin1Encoding 180 FMSR

2454 1128 mt 
(Preferred Region) s
gs 1986 930 1963 505 rc
36 w
gs 2164 992 149 149 rc
c9
  18   18 2238 1066 FO
gr

c9
gr

36 w
c9
0 sg
2454 1359 mt 
(Obtained Solutions) s
gs 1986 930 1963 505 rc
gs 2164 1223 149 149 rc
0 -30 -30 0 0 30 30 0 2223 1282 5 MP
c10
gs
PP
gr
DP
gr

c10
6 w
gr

6 w
c10
0 sg
%%IncludeResource: font Times-Roman
/Times-Roman /WindowsLatin1Encoding 192 FMSR

2329 4107 mt 
(\( 0.7 , 0.2 \)) s

end %%Color Dict

eplot
%%EndObject

epage
end

showpage

%%Trailer
%%EOF
