%!PS-Adobe-3.0 EPSF-3.0
%%Creator: MATLAB, The MathWorks, Inc. Version 7.13.0.564 (R2011b). Operating System: Microsoft Windows XP.
%%Title: D:\DriveG\Sem2-2012\Program\ReferenceMetric-v3\metricfig\zdt2\zdt2-ws.eps
%%CreationDate: 03/15/2013  01:10:12
%%DocumentNeededFonts: Helvetica
%%+ Times-Roman
%%DocumentProcessColors: Cyan Magenta Yellow Black
%%LanguageLevel: 2
%%Pages: 1
%%BoundingBox:   108   215   487   626
%%EndComments

%%BeginProlog
% MathWorks dictionary
/MathWorks 160 dict begin
% definition operators
/bdef {bind def} bind def
/ldef {load def} bind def
/xdef {exch def} bdef
/xstore {exch store} bdef
% operator abbreviations
/c  /clip ldef
/cc /concat ldef
/cp /closepath ldef
/gr /grestore ldef
/gs /gsave ldef
/mt /moveto ldef
/np /newpath ldef
/cm /currentmatrix ldef
/sm /setmatrix ldef
/rm /rmoveto ldef
/rl /rlineto ldef
/s {show newpath} bdef
/sc {setcmykcolor} bdef
/sr /setrgbcolor ldef
/sg /setgray ldef
/w /setlinewidth ldef
/j /setlinejoin ldef
/cap /setlinecap ldef
/rc {rectclip} bdef
/rf {rectfill} bdef
% page state control
/pgsv () def
/bpage {/pgsv save def} bdef
/epage {pgsv restore} bdef
/bplot /gsave ldef
/eplot {stroke grestore} bdef
% orientation switch
/portraitMode 0 def /landscapeMode 1 def /rotateMode 2 def
% coordinate system mappings
/dpi2point 0 def
% font control
/FontSize 0 def
/FMS {/FontSize xstore findfont [FontSize 0 0 FontSize neg 0 0]
  makefont setfont} bdef
/ISOLatin1Encoding where {pop /WindowsLatin1Encoding 256 array bdef
ISOLatin1Encoding WindowsLatin1Encoding copy pop
/.notdef/.notdef/quotesinglbase/florin/quotedblbase/ellipsis/dagger
/daggerdbl/circumflex/perthousand/Scaron/guilsinglleft/OE/.notdef/.notdef
/.notdef/.notdef/quoteleft/quoteright/quotedblleft/quotedblright/bullet
/endash/emdash/tilde/trademark/scaron/guilsinglright/oe/.notdef/.notdef
/Ydieresis WindowsLatin1Encoding 128 32 getinterval astore pop}
{/WindowsLatin1Encoding StandardEncoding bdef} ifelse
/reencode {exch dup where {pop load} {pop StandardEncoding} ifelse
  exch dup 3 1 roll findfont dup length dict begin
  { 1 index /FID ne {def}{pop pop} ifelse } forall
  /Encoding exch def currentdict end definefont pop} bdef
/isroman {findfont /CharStrings get /Agrave known} bdef
/FMSR {3 1 roll 1 index dup isroman {reencode} {pop pop} ifelse
  exch FMS} bdef
/csm {1 dpi2point div -1 dpi2point div scale neg translate
 dup landscapeMode eq {pop -90 rotate}
  {rotateMode eq {90 rotate} if} ifelse} bdef
% line types: solid, dotted, dashed, dotdash
/SO { [] 0 setdash } bdef
/DO { [.5 dpi2point mul 4 dpi2point mul] 0 setdash } bdef
/DA { [6 dpi2point mul] 0 setdash } bdef
/DD { [.5 dpi2point mul 4 dpi2point mul 6 dpi2point mul 4
  dpi2point mul] 0 setdash } bdef
% macros for lines and objects
/L {lineto stroke} bdef
/MP {3 1 roll moveto 1 sub {rlineto} repeat} bdef
/AP {{rlineto} repeat} bdef
/PDlw -1 def
/W {/PDlw currentlinewidth def setlinewidth} def
/PP {closepath eofill} bdef
/DP {closepath stroke} bdef
/MR {4 -2 roll moveto dup  0 exch rlineto exch 0 rlineto
  neg 0 exch rlineto closepath} bdef
/FR {MR stroke} bdef
/PR {MR fill} bdef
/L1i {{currentfile picstr readhexstring pop} image} bdef
/tMatrix matrix def
/MakeOval {newpath tMatrix currentmatrix pop translate scale
0 0 1 0 360 arc tMatrix setmatrix} bdef
/FO {MakeOval stroke} bdef
/PO {MakeOval fill} bdef
/PD {currentlinewidth 2 div 0 360 arc fill
   PDlw -1 eq not {PDlw w /PDlw -1 def} if} def
/FA {newpath tMatrix currentmatrix pop translate scale
  0 0 1 5 -2 roll arc tMatrix setmatrix stroke} bdef
/PA {newpath tMatrix currentmatrix pop	translate 0 0 moveto scale
  0 0 1 5 -2 roll arc closepath tMatrix setmatrix fill} bdef
/FAn {newpath tMatrix currentmatrix pop translate scale
  0 0 1 5 -2 roll arcn tMatrix setmatrix stroke} bdef
/PAn {newpath tMatrix currentmatrix pop translate 0 0 moveto scale
  0 0 1 5 -2 roll arcn closepath tMatrix setmatrix fill} bdef
/vradius 0 def /hradius 0 def /lry 0 def
/lrx 0 def /uly 0 def /ulx 0 def /rad 0 def
/MRR {/vradius xdef /hradius xdef /lry xdef /lrx xdef /uly xdef
  /ulx xdef newpath tMatrix currentmatrix pop ulx hradius add uly
  vradius add translate hradius vradius scale 0 0 1 180 270 arc 
  tMatrix setmatrix lrx hradius sub uly vradius add translate
  hradius vradius scale 0 0 1 270 360 arc tMatrix setmatrix
  lrx hradius sub lry vradius sub translate hradius vradius scale
  0 0 1 0 90 arc tMatrix setmatrix ulx hradius add lry vradius sub
  translate hradius vradius scale 0 0 1 90 180 arc tMatrix setmatrix
  closepath} bdef
/FRR {MRR stroke } bdef
/PRR {MRR fill } bdef
/MlrRR {/lry xdef /lrx xdef /uly xdef /ulx xdef /rad lry uly sub 2 div def
  newpath tMatrix currentmatrix pop ulx rad add uly rad add translate
  rad rad scale 0 0 1 90 270 arc tMatrix setmatrix lrx rad sub lry rad
  sub translate rad rad scale 0 0 1 270 90 arc tMatrix setmatrix
  closepath} bdef
/FlrRR {MlrRR stroke } bdef
/PlrRR {MlrRR fill } bdef
/MtbRR {/lry xdef /lrx xdef /uly xdef /ulx xdef /rad lrx ulx sub 2 div def
  newpath tMatrix currentmatrix pop ulx rad add uly rad add translate
  rad rad scale 0 0 1 180 360 arc tMatrix setmatrix lrx rad sub lry rad
  sub translate rad rad scale 0 0 1 0 180 arc tMatrix setmatrix
  closepath} bdef
/FtbRR {MtbRR stroke } bdef
/PtbRR {MtbRR fill } bdef
/stri 6 array def /dtri 6 array def
/smat 6 array def /dmat 6 array def
/tmat1 6 array def /tmat2 6 array def /dif 3 array def
/asub {/ind2 exch def /ind1 exch def dup dup
  ind1 get exch ind2 get sub exch } bdef
/tri_to_matrix {
  2 0 asub 3 1 asub 4 0 asub 5 1 asub
  dup 0 get exch 1 get 7 -1 roll astore } bdef
/compute_transform {
  dmat dtri tri_to_matrix tmat1 invertmatrix 
  smat stri tri_to_matrix tmat2 concatmatrix } bdef
/ds {stri astore pop} bdef
/dt {dtri astore pop} bdef
/db {2 copy /cols xdef /rows xdef mul dup 3 mul string
  currentfile 
  3 index 0 eq {/ASCIIHexDecode filter}
  {/ASCII85Decode filter 3 index 2 eq {/RunLengthDecode filter} if }
  ifelse exch readstring pop
  dup 0 3 index getinterval /rbmap xdef
  dup 2 index dup getinterval /gbmap xdef
  1 index dup 2 mul exch getinterval /bbmap xdef pop pop}bdef
/it {gs np dtri aload pop moveto lineto lineto cp c
  cols rows 8 compute_transform 
  rbmap gbmap bbmap true 3 colorimage gr}bdef
/il {newpath moveto lineto stroke}bdef
currentdict end def
%%EndProlog

%%BeginSetup
MathWorks begin

0 cap

end
%%EndSetup

%%Page: 1 1
%%BeginPageSetup
%%PageBoundingBox:   108   215   487   626
MathWorks begin
bpage
%%EndPageSetup

%%BeginObject: obj1
bplot

/dpi2point 12 def
portraitMode 1296 7512 csm

    0     0  4549  4925 rc
86 dict begin %Colortable dictionary
/c0 { 0.000000 0.000000 0.000000 sr} bdef
/c1 { 1.000000 1.000000 1.000000 sr} bdef
/c2 { 0.900000 0.000000 0.000000 sr} bdef
/c3 { 0.000000 0.820000 0.000000 sr} bdef
/c4 { 0.000000 0.000000 0.800000 sr} bdef
/c5 { 0.910000 0.820000 0.320000 sr} bdef
/c6 { 1.000000 0.260000 0.820000 sr} bdef
/c7 { 0.000000 0.820000 0.820000 sr} bdef
c0
1 j
1 sg
   0    0 4550 4926 rf
6 w
0 3693 3412 0 0 -3693 591 4383 4 MP
PP
-3412 0 0 3693 3412 0 0 -3693 591 4383 5 MP stroke
4 w
DO
SO
6 w
0 sg
 591  690 mt 4003  690 L
 591 4383 mt 4003 4383 L
4003 4383 mt 4003  690 L
 591 4383 mt  591  690 L
 591 4383 mt 4003 4383 L
 591 4383 mt  591  690 L
 591 4383 mt  591 4346 L
 591  690 mt  591  726 L
%%IncludeResource: font Times-Roman
/Times-Roman /WindowsLatin1Encoding 144 FMSR

 555 4546 mt 
(0) s
1273 4383 mt 1273 4346 L
1273  690 mt 1273  726 L
1183 4546 mt 
(0.2) s
1955 4383 mt 1955 4346 L
1955  690 mt 1955  726 L
1865 4546 mt 
(0.4) s
2638 4383 mt 2638 4346 L
2638  690 mt 2638  726 L
2548 4546 mt 
(0.6) s
3320 4383 mt 3320 4346 L
3320  690 mt 3320  726 L
3230 4546 mt 
(0.8) s
4003 4383 mt 4003 4346 L
4003  690 mt 4003  726 L
3967 4546 mt 
(1) s
 591 4383 mt  627 4383 L
4003 4383 mt 3966 4383 L
 484 4434 mt 
(0) s
 591 4013 mt  627 4013 L
4003 4013 mt 3966 4013 L
 376 4064 mt 
(0.1) s
 591 3644 mt  627 3644 L
4003 3644 mt 3966 3644 L
 376 3695 mt 
(0.2) s
 591 3275 mt  627 3275 L
4003 3275 mt 3966 3275 L
 376 3326 mt 
(0.3) s
 591 2905 mt  627 2905 L
4003 2905 mt 3966 2905 L
 376 2956 mt 
(0.4) s
 591 2536 mt  627 2536 L
4003 2536 mt 3966 2536 L
 376 2587 mt 
(0.5) s
 591 2167 mt  627 2167 L
4003 2167 mt 3966 2167 L
 376 2218 mt 
(0.6) s
 591 1797 mt  627 1797 L
4003 1797 mt 3966 1797 L
 376 1848 mt 
(0.7) s
 591 1428 mt  627 1428 L
4003 1428 mt 3966 1428 L
 376 1479 mt 
(0.8) s
 591 1059 mt  627 1059 L
4003 1059 mt 3966 1059 L
 376 1110 mt 
(0.9) s
 591  690 mt  627  690 L
4003  690 mt 3966  690 L
 484  741 mt 
(1) s
 591  690 mt 4003  690 L
 591 4383 mt 4003 4383 L
4003 4383 mt 4003  690 L
 591 4383 mt  591  690 L
gs 591 690 3413 3694 rc
27.6 w
/c8 { 0.000000 0.000000 1.000000 sr} bdef
c8
1 1 0 1 1 1 0 1 1 1 0 1 1 1 0 1 
1 1 0 2 1 1 0 1 1 1 0 1 1 1 0 1 
1 1 0 1 1 1 0 2 1 1 0 1 1 1 0 1 
1 1 0 1 1 1 0 2 2 2 0 1 1 1 0 1 
1 1 0 2 1 1 0 1 1 1 0 1 1 1 0 1 
1 1 0 1 1 1 0 2 1 1 0 1 1 1 0 1 
1 1 0 1 1 1 0 1 1 1 0 2 1 1 1 1 
0 1 1 1 0 1 1 1 0 2 1 1 0 1 1 1 
0 1 1 1 0 1 1 1 0 1 1 1 0 2 1 1 
0 1 1 1 0 1 1 1 0 1 1 1 0 1 1 1 
0 2 1 1 0 1 1 1 1 1 0 1 1 1 0 2 
1 1 0 1 1 1 0 1 1 1 0 1 1 1 0 2 
2 2 0 2 1 1 0 1 1 1 0 1 1 1 0 1 
1 1 0 1 1 1 0 2 1 1 1 1 0 1 1 1 
0 1 1 1 0 2 1 1 0 1 1 1 0 1 1 1 
0 1 1 1 0 2 2 2 0 2 1 1 0 1 1 1 
0 1 1 1 0 1 1 1 0 1 1 1 0 2 2 2 
0 1 1 1 0 1 1 1 0 1 1 1 0 2 1 1 
0 1 1 1 0 1 1 1 0 1 1 1 0 1 1 1 
0 1 1 1 0 2 1 1 0 1 1 1 0 1 1 1 
0 1 1 1 1 1 0 2 1 1 0 1 1 1 0 1 
1 1 0 1 1 1 0 2 2 2 0 2 1 1 0 1 
1 1 0 1 1 1 0 1 1 1 0 1 1 1 0 2 
2 2 0 2 1 1 1 1 0 1 1 1 0 2 2 2 
0 2 1 1 0 1 1 1 0 1 1 1 0 1 1 1 
0 2 2 2 0 2 1 1 0 1 1 1 0 1 1 1 
0 1 1 1 0 1 2 2 0 2 1 1 0 1 1 1 
0 1 1 1 0 1 1 1 0 1 1 1 0 2 2 2 
0 2 1 1 0 1 1 1 0 1 1 1 0 1 1 1 
0 1 1 1 0 2 2 2 0 1 1 1 0 1 1 1 
0 1 1 1 0 1 1 1 0 2 2 2 0 2 1 1 
0 1 1 1 0 1 1 1 0 1 1 1 0 1 1 1 
0 1 1 1 0 2 2 2 0 1 1 1 0 1 1 1 
0 1 1 1 0 1 1 1 0 2 2 2 0 2 1 1 
0 1 1 1 0 1 1 1 0 1 1 1 0 1 1 1 
0 1 1 1 0 1 1 1 0 2 2 2 0 1 1 1 
0 1 1 1 0 1 1 1 0 1 1 1 0 2 2 2 
0 2 1 1 0 1 3835 4028 300 MP stroke
1 1 0 1 1 1 0 1 1 1 0 1 1 1 0 1 
1 1 0 1 1 1 0 1 1 1 0 1 1 1 0 1 
1 1 0 1 1 1 0 1 1 1 0 1 1 1 0 1 
1 1 0 1 1 1 0 2 2 2 0 2 1 1 0 1 
1 1 0 1 1 1 0 1 1 1 1 1 0 2 2 2 
0 2 1 1 0 1 1 1 0 1 1 1 0 1 1 1 
0 1 1 1 0 1 1 1 0 1 1 1 0 1 1 1 
0 1 1 1 0 2 2 2 0 2 1 1 1 1 0 1 
1 1 0 1 1 1 0 1 1 1 0 2 2 2 0 2 
2 2 0 2 1 1 0 1 1 1 0 1 1 1 0 1 
1 1 0 1 1 1 0 1 1 1 1 1 0 2 2 2 
0 2 1 1 0 1 1 1 0 1 1 1 0 1 1 1 
0 1 1 1 0 1 1 1 0 1 1 1 0 1 1 1 
0 1 1 1 0 1 1 1 0 1 1 1 0 2 2 2 
0 1 1 1 0 1 1 1 0 1 1 1 0 1 1 1 
0 1 1 1 0 1 1 1 0 1 1 1 0 1 1 1 
0 2 2 2 0 2 2 2 0 2 2 2 0 1 1 1 
0 1 1 1 0 1 1 1 0 1 1 1 0 1 1 1 
0 1 1 1 0 2 2 2 0 2 2 2 0 2 2 2 
0 2 1 1 0 1 1 1 1 1 0 1 1 1 0 1 
1 1 0 1 1 1 0 1 1 1 0 1 1 1 0 1 
1 1 0 2 2 2 0 2 2 2 0 2 2 2 0 2 
2 2 0 1 1 1 0 1 1 1 0 1 1 1 0 1 
1 1 0 1 1 1 0 1 1 1 0 1 1 1 0 1 
1 1 0 1 1 1 0 1 1 1 0 1 1 1 0 2 
2 2 0 2 2 2 0 1 1 1 0 1 1 1 0 1 
1 1 0 1 1 1 0 1 1 1 0 1 1 1 0 1 
1 1 0 1 1 1 0 1 1 1 0 1 1 1 0 1 
1 1 0 1 1 1 0 1 1 1 0 1 2 2 0 2 
2 2 0 2 2 2 0 2 2 2 0 2 2 2 0 2 
2 2 0 2 2 2 0 2 2 2 0 1 1 1 0 1 
1 1 0 1 1 1 0 1 1 1 0 1 1 1 0 1 
1 1 0 1 1 1 0 1 1 1 0 1 1 1 0 1 
1 1 0 1 1 1 0 1 1 1 0 1 1 1 0 1 
2 2 0 2 2 2 0 2 2 2 0 2 2 2 0 2 
2 2 0 1 1 1 0 1 1 1 0 1 1 1 0 1 
1 1 0 1 2 2 0 2 2 2 0 2 2 2 0 2 
2 2 0 2 2 2 3646 3652 300 MP stroke
0 2 2 2 0 2 2 2 0 2 2 2 0 1 1 1 
0 1 1 1 0 1 1 1 1 1 0 2 2 2 0 2 
2 2 0 2 2 2 0 2 2 2 0 2 2 2 0 1 
1 1 0 1 1 1 0 1 1 1 1 1 0 2 2 2 
0 2 2 2 0 2 2 2 0 2 2 2 0 2 2 2 
0 1 2 2 0 2 2 2 0 2 2 2 0 2 2 2 
0 1 1 1 0 1 1 1 0 1 1 1 0 1 1 1 
0 1 1 1 0 1 1 1 0 1 2 2 0 1 1 1 
0 1 1 1 0 1 1 1 0 1 1 1 0 1 1 1 
0 1 1 1 0 1 1 1 0 1 1 1 0 1 1 1 
0 1 1 1 0 1 1 1 0 1 1 1 0 1 2 2 
0 1 1 1 0 1 1 1 0 1 1 1 0 1 1 1 
1 1 0 2 2 2 0 2 2 2 0 2 2 2 0 1 
1 1 0 1 1 1 1 1 0 2 2 2 0 1 1 1 
0 1 1 1 0 1 1 1 0 1 1 1 0 1 1 1 
0 1 1 1 0 1 1 1 0 1 1 1 1 1 0 2 
2 2 0 2 2 2 0 1 2 2 0 2 2 2 0 2 
2 2 0 1 1 1 0 1 1 1 0 1 1 1 0 1 
1 1 0 1 1 1 0 1 1 1 0 1 2 2 0 1 
1 1 0 1 1 1 0 1 1 1 1 1 0 2 2 2 
0 2 2 2 0 1 1 1 0 1 1 1 0 1 1 1 
0 1 1 1 0 1 1 1 0 1 1 1 1 1 0 1 
1 1 0 1 1 1 0 1 1 1 0 1 2 2 0 2 
2 2 0 1 1 1 0 1 1 1 0 1 1 1 0 1 
1 1 0 1 1 1 0 1 1 1 1 1 0 1 1 1 
0 1 1 1 1 1 0 2 2 2 0 2 2 2 0 1 
1 1 0 1 1 1 0 1 1 1 0 1 1 1 0 1 
2 2 0 2 2 2 0 1 2 2 0 2 2 2 0 1 
1 1 0 1 1 1 0 1 1 1 0 1 1 1 0 1 
2 2 0 2 2 2 0 1 1 1 0 1 2 2 0 1 
1 1 0 1 1 1 0 1 1 1 0 1 1 1 0 1 
2 2 0 2 2 2 0 1 1 1 0 1 1 1 0 1 
1 1 0 1 1 1 1 1 0 1 1 1 0 1 1 1 
0 1 2 2 0 2 2 2 0 1 1 1 0 1 1 1 
0 1 1 1 0 1 2 2 0 2 2 2 0 1 1 1 
0 1 2 2 0 1 1 1 0 1 1 1 0 1 1 1 
0 1 2 2 0 2 2 2 0 1 1 1 0 1 1 1 
0 1 1 1 0 1 3441 3266 300 MP stroke
2 2 0 1 2 2 0 2 2 2 0 1 1 1 0 1 
1 1 0 1 1 1 0 1 2 2 0 2 2 2 0 1 
1 1 0 1 1 1 1 1 0 2 2 2 1 1 0 2 
2 2 0 1 1 1 0 1 1 1 0 1 1 1 1 1 
0 2 2 2 0 1 1 1 0 1 1 1 0 1 1 1 
0 1 2 2 0 1 2 2 0 2 2 2 0 1 1 1 
0 1 1 1 1 1 0 2 2 2 0 1 1 1 0 1 
1 1 0 1 1 1 0 1 2 2 1 1 0 2 2 2 
0 1 1 1 0 1 1 1 0 1 1 1 1 1 0 2 
2 2 0 1 1 1 0 1 1 1 1 1 0 2 2 2 
0 1 2 2 0 1 1 1 0 1 1 1 1 1 0 2 
2 2 0 1 1 1 0 1 1 1 0 1 1 1 1 1 
0 2 2 2 0 1 1 1 0 1 1 1 1 1 0 1 
1 1 1 1 0 2 2 2 0 1 1 1 0 1 1 1 
1 1 0 2 2 2 0 1 1 1 0 1 1 1 0 1 
2 2 1 1 0 2 2 2 0 1 1 1 1 1 0 2 
2 2 0 1 1 1 0 1 1 1 1 1 0 2 2 2 
0 1 1 1 0 1 1 1 0 1 2 2 1 1 0 2 
2 2 0 1 1 1 1 1 0 2 2 2 0 1 1 1 
0 1 1 1 1 1 0 2 2 2 0 1 1 1 1 1 
0 1 1 1 1 1 0 2 2 2 0 1 1 1 1 1 
0 2 2 2 0 1 1 1 0 1 1 1 0 1 2 2 
0 1 1 1 1 1 0 1 1 1 0 1 1 1 0 1 
2 2 0 1 1 1 0 1 1 1 1 1 0 2 2 2 
0 1 1 1 1 1 0 2 2 2 0 1 1 1 1 1 
0 1 1 1 1 1 0 2 2 2 0 1 1 1 1 1 
0 2 2 2 0 1 1 1 1 1 0 2 2 2 0 1 
1 1 1 1 0 1 1 1 0 1 2 2 0 1 1 1 
1 1 0 2 2 2 0 1 1 1 1 1 0 2 2 2 
0 1 1 1 0 1 2 2 0 1 2 2 0 1 1 1 
0 1 1 1 0 1 2 2 0 1 1 1 1 1 0 2 
2 2 0 1 1 1 1 1 0 2 2 2 1 1 0 1 
1 1 1 1 0 2 2 2 0 1 1 1 0 1 2 2 
0 1 1 1 0 1 1 1 0 1 2 2 0 1 1 1 
0 1 2 2 0 1 2 2 0 1 1 1 1 1 0 2 
2 2 0 1 1 1 0 1 2 2 0 1 1 1 1 1 
0 2 2 2 0 1 1 1 1 1 1 1 0 2 2 2 
1 1 0 2 2 2 3215 2875 300 MP stroke
0 1 1 1 0 1 2 2 0 1 1 1 1 1 0 2 
2 2 0 1 1 1 1 1 0 1 2 2 0 1 1 1 
1 1 0 2 2 2 0 1 1 1 0 1 2 2 0 1 
1 1 0 1 2 2 0 1 1 1 1 1 1 1 0 2 
2 2 0 1 1 1 0 1 2 2 0 1 1 1 0 1 
2 2 0 1 1 1 0 1 2 2 0 1 1 1 0 1 
2 2 0 1 2 2 0 1 1 1 0 1 2 2 0 1 
1 1 0 1 2 2 0 1 1 1 0 1 2 2 0 1 
1 1 1 1 1 1 0 2 2 2 1 1 0 2 2 2 
1 1 0 2 2 2 1 1 0 2 2 2 1 1 0 2 
2 2 1 1 0 1 1 1 0 1 2 2 1 1 0 2 
2 2 1 1 0 2 2 2 1 1 0 2 2 2 1 1 
1 1 0 2 2 2 1 1 0 2 2 2 0 1 2 2 
0 1 1 1 0 1 2 2 0 1 1 1 0 1 2 2 
1 1 0 1 1 1 0 1 2 2 0 1 1 1 0 1 
2 2 1 1 0 2 2 2 0 1 2 2 0 1 1 1 
0 1 2 2 1 1 0 1 1 1 0 1 2 2 0 1 
1 1 0 1 2 2 1 1 0 2 2 2 0 1 2 2 
0 1 1 1 1 1 0 1 2 2 0 1 1 1 0 1 
2 2 0 1 2 2 0 1 1 1 0 1 2 2 0 1 
1 1 0 1 2 2 0 1 2 2 0 1 2 2 0 1 
2 2 1 1 0 2 2 2 0 1 2 2 0 1 1 1 
0 1 2 2 0 1 2 2 0 1 2 2 0 1 2 2 
1 1 0 2 2 2 0 1 2 2 1 1 0 2 2 2 
0 1 2 2 0 1 2 2 0 1 2 2 0 1 2 2 
1 1 0 2 2 2 0 1 2 2 0 1 2 2 0 1 
1 1 1 1 0 1 2 2 0 1 2 2 0 1 1 1 
0 1 2 2 0 1 2 2 0 1 1 1 0 1 2 2 
0 1 2 2 1 1 1 1 0 2 2 2 0 1 2 2 
0 1 2 2 1 1 0 2 2 2 0 1 2 2 0 1 
2 2 1 1 0 1 1 1 0 1 2 2 0 1 2 2 
0 1 2 2 1 1 0 2 2 2 0 1 2 2 0 1 
2 2 1 1 0 1 2 2 0 1 1 1 0 1 2 2 
0 1 2 2 0 1 2 2 0 1 2 2 0 1 1 1 
1 1 0 1 2 2 0 1 2 2 0 1 2 2 0 1 
2 2 0 1 2 2 0 1 1 1 0 1 2 2 1 1 
0 1 2 2 0 1 2 2 0 1 2 2 0 1 2 2 
1 1 0 2 2 2 2951 2457 300 MP stroke
0 1 2 2 0 1 2 2 1 1 0 1 2 2 0 1 
2 2 0 1 2 2 0 1 2 2 0 1 2 2 0 1 
1 1 0 1 2 2 1 1 0 1 2 2 0 1 2 2 
0 1 2 2 0 1 2 2 0 1 2 2 0 1 2 2 
0 1 2 2 1 1 0 1 2 2 0 1 2 2 0 1 
2 2 0 1 2 2 0 1 2 2 0 1 2 2 1 1 
0 1 2 2 0 1 2 2 0 1 2 2 0 1 2 2 
0 1 2 2 0 1 2 2 0 1 2 2 1 1 0 1 
2 2 0 1 2 2 0 1 2 2 0 1 2 2 0 1 
2 2 0 1 2 2 0 1 2 2 1 1 0 1 2 2 
0 1 2 2 0 1 2 2 0 1 2 2 1 1 0 1 
2 2 0 1 2 2 1 1 0 1 2 2 0 1 2 2 
0 1 2 2 0 1 2 2 0 1 2 2 0 1 2 2 
1 1 1 1 0 1 2 2 0 1 2 2 0 1 2 2 
0 1 2 2 0 1 2 2 0 1 2 2 1 1 0 1 
2 2 1 1 0 1 2 2 0 1 2 2 0 1 2 2 
1 1 0 1 2 2 0 1 2 2 0 1 2 2 1 1 
0 1 2 2 1 1 0 1 2 2 0 1 2 2 0 1 
2 2 0 1 2 2 1 1 1 1 0 1 2 2 0 1 
2 2 0 1 2 2 1 1 0 1 2 2 0 1 2 2 
0 1 2 2 1 1 1 1 0 1 2 2 0 1 2 2 
1 1 0 1 2 2 0 1 2 2 0 1 2 2 1 1 
0 1 2 2 1 1 0 1 2 2 1 1 0 1 2 2 
0 1 2 2 0 1 2 2 1 1 0 1 2 2 0 1 
2 2 1 1 1 1 0 1 2 2 0 1 2 2 1 1 
0 1 2 2 0 1 2 2 1 1 0 1 2 2 1 1 
1 1 0 1 2 2 0 1 2 2 1 1 0 1 2 2 
0 1 2 2 1 1 0 1 2 2 1 1 0 1 2 2 
1 1 0 1 2 2 1 1 0 1 2 2 0 1 2 2 
1 1 0 1 2 2 1 1 1 1 0 1 2 2 0 1 
2 2 1 1 0 1 2 2 1 1 0 1 2 2 0 1 
2 2 1 1 1 1 0 1 2 2 1 1 0 1 2 2 
1 1 0 1 2 2 0 1 2 2 1 1 0 1 2 2 
1 1 1 1 0 1 2 2 1 1 0 1 2 2 1 1 
0 1 2 2 1 1 0 1 2 2 0 1 2 2 1 1 
1 1 1 1 0 1 2 2 0 1 2 2 1 1 0 1 
2 2 1 1 0 1 2 2 1 1 1 1 0 1 2 2 
1 1 0 1 2 2 2653 2039 300 MP stroke
1 1 0 1 2 2 1 1 0 1 2 2 1 1 0 1 
2 2 1 1 1 1 1 1 0 1 2 2 1 1 0 1 
2 2 1 1 0 1 2 2 1 1 0 1 2 2 1 1 
1 1 0 1 2 2 1 1 0 1 2 2 1 1 0 1 
2 2 1 1 1 1 0 1 2 2 1 1 1 1 0 1 
2 2 1 1 0 1 2 2 1 1 1 1 0 1 2 2 
1 1 0 1 2 2 1 1 1 1 1 1 0 1 2 2 
1 1 0 1 2 2 1 1 0 1 2 2 1 1 0 1 
2 2 1 1 1 1 1 1 0 1 2 2 1 1 1 1 
0 1 2 2 1 1 0 1 2 2 1 1 1 1 0 1 
2 2 1 1 1 1 1 1 0 1 2 2 1 1 0 1 
2 2 1 1 1 1 0 1 2 2 1 1 0 1 2 2 
1 0 -1 0 2 2 1 1 0 1 2 2 1 1 1 1 
0 1 2 2 1 1 1 1 0 1 2 2 1 1 1 1 
1 1 0 1 2 2 1 1 1 1 0 1 2 2 1 1 
1 1 0 1 2 2 1 1 1 1 1 1 0 1 2 2 
1 1 1 1 0 1 2 2 1 1 1 1 0 1 2 2 
1 1 1 1 0 1 2 2 1 1 1 1 1 1 1 1 
0 1 2 2 1 1 1 1 0 1 2 2 1 1 1 1 
0 1 2 2 1 1 1 1 1 1 1 1 0 1 2 2 
1 1 1 1 0 1 2 2 1 1 1 1 0 1 2 2 
1 1 1 1 1 1 1 1 1 1 0 1 2 2 1 1 
1 1 0 1 2 2 1 1 1 1 1 1 0 1 2 2 
1 1 1 1 1 1 1 1 0 1 2 2 1 1 1 1 
1 1 0 1 2 2 1 1 1 1 1 1 1 1 0 1 
2 2 1 1 1 1 1 1 0 1 2 2 1 1 1 1 
1 1 0 1 2 2 1 1 1 1 1 1 1 1 1 1 
0 1 2 2 1 1 1 1 1 1 0 1 2 2 1 1 
1 1 1 1 1 1 1 1 0 1 2 2 1 1 1 1 
1 1 0 1 2 2 1 1 1 1 1 1 1 1 0 1 
2 2 1 1 1 1 1 1 1 1 1 1 0 1 2 2 
1 1 1 1 1 1 1 1 0 1 2 2 1 1 1 1 
1 1 1 1 1 1 1 1 0 1 2 2 1 1 1 1 
1 1 1 1 0 1 2 2 1 1 1 1 1 1 1 1 
1 1 1 1 1 1 0 1 2 2 1 1 1 1 1 1 
1 1 0 1 2 2 1 1 1 1 1 1 1 1 1 1 
1 1 1 1 0 1 2 2 1 1 1 1 1 1 1 1 
1 1 0 1 2 2 2355 1677 300 MP stroke
1 1 1 1 1 1 1 1 1 1 1 1 1 1 0 1 
2 2 1 1 1 1 1 1 1 1 1 1 1 1 1 1 
1 1 0 1 2 2 1 1 1 1 1 1 1 1 1 1 
1 1 0 1 2 2 1 1 1 1 1 1 1 1 1 1 
1 1 1 1 1 1 1 1 0 1 2 2 1 1 1 1 
1 1 1 1 1 1 1 1 1 1 1 1 1 1 0 1 
2 2 1 1 1 1 1 1 1 1 1 1 1 1 1 1 
0 1 2 2 1 1 1 0 0 1 2 2 1 1 1 1 
1 1 1 1 1 1 1 1 1 1 1 1 0 1 2 2 
1 1 1 0 -1 0 2 2 1 1 1 1 1 1 1 1 
1 1 1 1 1 1 1 1 1 1 0 1 2 2 1 1 
1 0 0 1 2 2 1 1 1 1 1 1 1 1 1 1 
1 1 1 1 1 1 1 1 1 1 0 1 2 2 1 0 
1 1 0 1 2 2 1 1 1 1 1 1 1 1 1 1 
1 1 1 1 1 1 1 1 1 1 1 1 1 1 1 1 
1 1 1 1 1 1 1 1 0 1 2 2 1 1 1 1 
1 1 1 1 1 1 1 1 1 1 1 1 1 1 1 1 
1 1 1 1 1 1 1 1 1 1 1 1 1 1 1 1 
1 1 1 1 1 1 1 1 1 1 1 1 1 1 1 1 
1 1 1 1 1 1 0 1 2 2 1 1 1 1 1 1 
1 1 1 0 1 1 1 1 0 1 2 2 1 1 1 1 
1 1 1 1 1 1 1 1 1 1 1 1 1 1 1 1 
1 1 1 1 1 1 1 1 1 1 1 1 1 1 1 1 
1 1 1 1 1 1 1 1 1 1 1 1 1 1 1 1 
1 1 1 1 1 1 1 1 1 1 1 1 1 1 1 1 
1 1 1 1 1 1 1 1 1 1 1 1 1 1 1 1 
1 1 1 1 1 1 1 1 1 1 1 1 1 1 1 1 
1 1 1 1 1 1 1 0 1 1 1 1 1 1 1 1 
1 1 1 1 1 1 1 1 1 1 1 1 1 1 1 1 
1 1 1 1 1 1 1 1 1 1 1 1 1 1 1 1 
1 1 1 1 1 1 1 1 1 1 1 1 1 1 1 1 
1 1 1 0 1 1 1 1 1 1 1 1 1 1 1 1 
1 1 1 1 1 1 1 1 1 1 1 1 1 1 1 1 
1 1 1 1 1 1 1 1 1 1 1 1 1 1 1 1 
1 1 1 1 1 1 1 1 1 0 1 1 1 1 1 1 
1 1 1 1 1 1 1 1 1 1 1 1 1 1 1 1 
1 1 1 1 1 1 1 0 1 1 1 1 1 1 1 1 
1 1 1 1 1 1 2057 1372 300 MP stroke
1 1 1 1 1 1 1 1 1 1 1 1 1 0 1 1 
1 1 1 1 1 1 1 1 1 1 1 1 1 1 1 1 
1 1 1 1 1 1 1 1 1 1 1 0 1 1 1 1 
1 1 1 1 1 1 1 1 1 1 1 1 1 1 1 1 
1 0 1 1 1 1 1 1 1 1 1 1 1 1 1 1 
1 1 1 0 1 1 1 1 1 1 1 1 1 1 1 1 
1 1 1 1 1 0 1 1 1 1 1 1 1 1 1 1 
1 1 1 1 1 1 1 1 1 1 1 1 1 0 1 1 
1 1 1 1 1 1 1 1 1 1 1 1 1 0 1 1 
1 1 1 1 1 1 1 1 1 1 1 1 1 1 1 0 
1 1 1 1 1 1 1 1 1 1 1 1 1 1 1 0 
1 1 1 1 1 1 1 1 1 1 1 1 1 0 1 1 
1 1 1 1 1 1 1 1 1 1 1 1 1 1 1 0 
1 1 1 1 1 1 1 1 1 1 1 0 1 1 1 1 
1 1 1 1 1 1 1 1 1 1 1 0 1 1 1 1 
1 1 1 1 1 1 1 0 1 1 1 1 1 1 1 1 
1 1 1 1 1 0 1 1 1 1 1 1 1 1 1 1 
1 0 1 1 1 1 1 1 1 1 1 1 1 1 1 0 
1 1 1 1 1 1 1 1 1 1 1 1 1 0 1 1 
1 1 1 1 1 1 1 0 1 1 1 1 1 1 1 1 
1 1 1 0 1 1 1 1 1 1 1 1 1 0 1 1 
1 1 1 1 1 1 1 1 1 0 1 1 1 1 1 1 
1 1 1 1 1 1 1 0 1 1 1 1 1 1 1 0 
1 1 1 1 1 1 1 1 1 1 1 0 1 1 1 1 
1 1 1 1 1 0 1 1 1 1 1 1 1 1 1 0 
1 1 1 1 1 1 1 1 1 0 1 1 1 1 1 1 
1 1 1 0 1 1 1 1 1 1 1 1 1 0 1 1 
1 1 1 1 1 1 1 0 1 1 1 1 1 1 1 0 
1 1 1 1 1 1 1 1 1 0 1 1 1 1 1 1 
1 1 1 0 1 1 1 1 1 1 1 1 1 0 1 1 
1 1 1 1 1 0 1 1 1 1 1 1 1 1 1 0 
1 1 1 1 1 1 1 0 1 1 1 1 1 1 1 0 
1 1 1 1 1 1 1 0 1 1 1 1 1 1 1 1 
1 0 1 1 1 1 1 0 1 1 1 1 1 1 1 1 
1 0 1 1 1 1 1 1 1 0 1 1 1 1 1 1 
1 1 1 0 1 1 1 1 1 0 1 1 1 1 1 1 
1 0 1 1 1 1 1 1 1 0 1 1 1 1 1 1 
1 0 1 1 1 1 1758 1122 300 MP stroke
1 1 1 0 1 1 1 1 1 1 1 0 1 1 1 1 
1 1 1 0 1 1 1 1 1 0 1 1 1 1 1 1 
1 0 1 1 1 1 1 1 1 0 1 1 1 1 1 1 
1 0 1 1 1 1 1 0 1 1 1 1 1 0 1 1 
1 1 1 1 1 0 1 1 1 1 1 1 1 0 1 1 
1 1 1 0 1 1 1 1 1 1 1 0 1 1 1 1 
1 0 1 1 1 1 1 1 1 0 1 1 1 1 1 0 
1 1 1 1 1 0 1 1 1 1 1 1 1 0 1 1 
1 1 1 0 1 1 1 1 1 1 1 0 1 1 1 0 
1 1 1 1 1 1 1 0 1 1 1 1 1 0 1 1 
1 1 1 1 1 0 1 1 1 0 1 1 1 1 1 1 
1 0 1 1 1 1 1 0 1 1 1 1 1 0 1 1 
1 1 1 1 1 0 1 1 1 0 1 1 1 1 1 0 
1 1 1 1 1 1 1 0 1 1 1 1 1 0 1 1 
1 0 1 1 1 1 1 0 1 1 1 1 1 1 1 0 
1 1 1 1 1 0 1 1 1 1 1 0 1 1 1 0 
1 1 1 1 1 0 1 1 1 1 1 0 1 1 1 1 
1 0 1 1 1 1 1 0 1 1 1 1 1 0 1 1 
1 1 1 0 1 1 1 1 1 0 1 1 1 1 1 0 
1 1 1 1 1 0 1 1 1 0 1 1 1 1 1 0 
1 1 1 1 1 0 1 1 1 1 1 0 1 1 1 0 
1 1 1 1 1 0 1 1 1 0 1 1 1 1 1 0 
1 1 1 1 1 0 1 1 1 1 1 0 1 1 1 1 
1 0 1 1 1 0 1 1 1 1 1 0 1 1 1 0 
1 1 1 1 1 0 1 1 1 1 1 0 1 1 1 0 
1 1 1 1 1 0 1 1 1 0 1 1 1 1 1 0 
1 1 1 1 1 0 1 1 1 0 1 1 1 0 1 1 
1 1 1 0 1 1 1 1 1 0 1 1 1 0 1 1 
1 1 1 0 1 1 1 0 1 1 1 0 1 1 1 1 
1 0 1 1 1 0 1 1 1 1 1 0 1 1 1 0 
1 1 1 1 1 0 1 1 1 0 1 1 1 0 1 1 
1 1 1 0 1 1 1 0 1 1 1 1 1 0 1 1 
1 0 1 1 1 0 1 1 1 1 1 0 1 1 1 0 
1 1 1 1 1 0 1 1 1 0 1 1 1 0 1 1 
1 0 1 1 1 1 1 0 1 1 1 0 1 1 1 0 
1 1 1 1 1 0 1 1 1 0 1 1 1 0 1 1 
1 0 1 1 1 1 1 0 1 1 1 0 1 1 1 0 
1 1 1 1 1 0 1459 929 300 MP stroke
1 1 1 0 1 1 1 0 1 1 1 0 1 1 1 0 
1 1 1 1 1 0 1 1 1 0 1 1 1 0 1 1 
1 0 1 1 1 0 1 1 1 0 1 1 1 1 1 0 
1 1 1 0 1 1 1 0 1 1 1 0 1 1 1 0 
1 1 1 0 1 1 1 0 1 1 1 1 1 0 1 1 
1 0 1 1 1 0 1 1 1 0 1 1 1 0 1 1 
1 0 1 1 1 0 1 1 1 0 1 1 1 0 1 1 
1 0 1 1 1 1 1 0 1 0 1 1 1 0 1 1 
1 1 1 0 1 1 1 0 1 1 1 0 1 1 1 0 
1 1 1 0 1 1 1 0 1 1 1 0 1 1 1 0 
1 1 1 0 1 1 1 0 1 1 1 0 1 1 1 0 
1 1 1 0 1 1 1 0 1 1 1 0 1 1 1 0 
1 1 1 0 1 1 1 0 1 1 1 0 1 0 1 1 
1 0 1 1 1 0 1 1 1 0 1 1 1 0 1 1 
1 0 1 1 1 0 1 1 1 0 1 1 1 0 1 1 
1 0 1 1 1 0 1 1 1 0 1 0 1 1 1 0 
1 1 1 0 1 1 1 0 1 1 1 0 1 1 1 0 
1 1 1 0 1 1 1 0 1 0 1 1 1 0 1 1 
1 0 1 1 1 0 1 1 1 0 1 1 1 0 1 0 
1 1 1 0 1 1 1 0 1 1 1 0 1 1 1 0 
1 0 1 1 1 0 1 1 1 0 1 1 1 0 1 1 
1 0 1 1 1 0 1 1 1 0 1 0 1 1 1 0 
1 1 1 0 1 1 1 0 1 0 1 1 1 0 1 1 
1 0 1 1 1 0 1 1 1 0 1 0 1 1 1 0 
1 1 1 0 1 0 1 1 1 0 1 1 1 0 1 1 
1 0 1 0 1 1 1 0 1 1 1 0 1 1 1 0 
1 0 1 1 1 0 1 1 1 0 1 1 1 0 1 0 
1 1 1 0 1 0 1 1 1 0 1 1 1 0 1 1 
1 0 1 0 1 1 1 0 1 1 1 0 1 0 1 1 
1 0 1 1 1 0 1 0 1 1 1 0 1 1 1 0 
1 0 1 1 1 0 1 1 1 0 1 1 1 0 1 0 
1 1 1 0 1 0 1 1 1 0 1 1 1 0 1 0 
1 1 1 0 1 1 1 0 1 0 1 1 1 0 1 0 
1 1 1 0 1 1 1 0 1 0 1 1 1 0 1 1 
1 0 1 0 1 1 1 0 1 0 1 1 1 0 1 0 
1 1 1 0 1 1 1 0 1 0 1 1 1 0 1 1 
1 0 1 0 1 1 1 0 1 0 1 1 1 0 1 0 
1 1 1 0 1 1 1160 792 300 MP stroke
1 0 1 0 1 1 1 0 1 0 1 1 1 0 1 0 
1 1 1 0 1 0 1 1 1 0 1 1 1 0 1 0 
1 1 1 0 1 0 1 1 1 0 1 0 1 1 1 0 
1 0 1 1 1 0 1 0 1 1 1 0 1 0 1 1 
1 0 1 0 1 1 1 0 1 0 1 1 1 0 1 0 
1 1 1 0 1 0 1 1 1 0 1 0 1 1 1 0 
1 1 1 0 1 0 1 0 1 1 1 0 1 0 1 1 
1 0 1 0 1 1 1 0 1 0 1 1 1 0 1 0 
1 1 1 0 1 0 1 1 1 0 1 0 1 1 1 0 
1 0 1 1 1 0 1 0 1 0 1 1 1 0 1 0 
1 1 1 0 1 0 1 1 1 0 1 0 1 1 1 0 
1 0 1 0 1 1 1 0 1 0 1 1 1 0 1 0 
1 1 1 0 1 0 1 0 1 1 1 0 1 0 1 1 
1 0 1 0 1 1 1 0 1 0 1 0 1 1 1 0 
1 0 1 1 1 0 1 0 1 0 1 1 1 0 1 0 
1 1 1 0 1 0 1 0 1 1 1 0 1 0 1 1 
1 0 1 0 1 0 1 1 1 0 1 0 1 1 1 0 
1 0 1 0 1 1 1 0 1 0 1 0 1 1 1 0 
1 0 1 1 1 0 1 0 1 0 1 1 1 0 1 0 
1 0 1 1 1 0 1 0 1 0 1 1 1 0 1 0 
1 0 1 1 1 0 1 0 1 1 1 0 1 0 1 0 
1 1 1 0 1 0 1 0 1 1 1 0 1 0 1 0 
1 1 1 0 1 0 1 0 1 1 1 0 1 0 1 0 
1 1 1 0 1 0 1 0 1 1 1 0 1 0 1 0 
1 0 1 1 1 0 1 0 1 0 1 1 1 0 1 0 
1 0 1 1 1 0 1 0 1 0 1 1 1 0 1 0 
1 0 1 0 1 1 1 0 1 0 1 0 1 1 1 0 
1 0 1 0 1 0 1 1 1 0 1 0 1 0 1 1 
1 0 1 0 1 0 1 0 1 1 1 0 1 0 1 0 
1 1 1 0 1 0 1 0 1 0 1 1 1 0 1 0 
1 0 1 0 1 1 1 0 1 0 1 0 1 0 1 1 
1 0 1 0 1 0 1 0 1 1 1 0 1 0 1 0 
1 0 1 1 1 0 1 0 1 0 1 0 1 1 1 0 
1 0 1 0 1 0 1 1 1 0 1 0 1 0 1 0 
1 1 1 0 1 0 1 0 1 0 1 1 1 0 1 0 
1 0 1 0 1 0 1 1 1 0 1 0 1 0 1 0 
1 0 1 1 1 0 1 0 1 0 1 0 1 1 1 0 
1 0 1 0 1 0 861 713 300 MP stroke
1 0 1 1 1 0 1 0 1 0 1 0 1 0 1 1 
1 0 1 0 1 0 1 0 1 0 1 1 1 0 1 0 
1 0 1 0 1 0 1 1 1 0 1 0 1 0 1 0 
1 0 1 0 1 1 1 0 1 0 1 0 1 0 1 0 
1 1 1 0 1 0 1 0 1 0 1 0 1 0 1 1 
1 0 1 0 1 0 1 0 1 0 1 0 1 1 1 0 
1 0 1 0 1 0 1 0 1 0 1 1 1 0 1 0 
1 0 1 0 1 0 1 0 1 1 1 0 1 0 1 0 
1 0 1 0 1 0 1 0 1 1 1 0 1 0 1 0 
1 0 1 0 1 0 1 0 1 1 1 0 1 0 1 0 
1 0 1 0 1 0 1 0 1 1 1 0 1 0 1 0 
1 0 1 0 1 0 1 0 1 0 1 1 1 0 1 0 
1 0 1 0 1 0 1 0 1 0 1 0 1 1 1 0 
1 0 1 0 1 0 1 0 1 0 1 0 1 0 1 0 
1 1 1 0 1 0 1 0 1 0 1 0 1 0 1 0 
1 0 1 0 1 1 1 0 1 0 1 0 1 0 1 0 
1 0 1 0 1 0 1 0 1 0 1 1 1 0 1 0 
1 0 1 0 1 0 1 0 1 0 1 0 1 0 1 0 
1 0 1 1 1 0 1 0 1 0 1 0 1 0 1 0 
1 0 1 0 1 0 1 0 1 0 1 0 1 1 1 0 
1 0 1 0 1 0 1 0 1 0 1 0 1 0 1 0 
1 0 1 0 1 0 1 0 1 0 1 1 1 0 1 0 
1 0 1 0 1 0 1 0 1 0 1 0 1 0 1 0 
1 0 1 0 1 0 1 0 1 0 1 0 1 0 1 1 
1 0 1 0 1 0 1 0 1 0 1 0 1 0 1 0 
1 0 1 0 1 0 1 0 1 0 1 0 1 0 1 0 
1 0 1 0 1 0 1 0 1 0 1 0 1 1 1 0 
1 0 1 0 1 0 1 0 1 0 1 0 1 0 1 0 
1 0 1 0 1 0 1 0 1 0 1 0 1 0 1 0 
1 0 1 0 1 0 1 0 1 0 1 0 1 0 1 0 
1 0 1 0 1 0 1 0 1 0 1 0 1 0 1 0 
1 0 1 0 1 0 1 0 1 0 1 0 1 0 1 0 
1 0 1 0 1 0 1 0 1 0 1 0 1 0 1 0 
1 0 1 0 1 0 1 0 1 0 1 0 591 690 271 MP stroke
36 w
gs 3222 2938 496 783 rc
/c9 { 0.000000 1.000000 1.000000 sr} bdef
c9
  18   18 3296 3012 FO
  18   18 3297 3012 FO
  18   18 3297 3013 FO
  18   18 3297 3014 FO
  18   18 3298 3014 FO
  18   18 3298 3015 FO
  18   18 3299 3016 FO
  18   18 3299 3017 FO
  18   18 3300 3018 FO
  18   18 3300 3019 FO
  18   18 3301 3019 FO
  18   18 3301 3020 FO
  18   18 3301 3021 FO
  18   18 3302 3021 FO
  18   18 3302 3022 FO
  18   18 3303 3023 FO
  18   18 3303 3024 FO
  18   18 3304 3025 FO
  18   18 3304 3026 FO
  18   18 3305 3027 FO
  18   18 3305 3028 FO
  18   18 3306 3028 FO
  18   18 3306 3029 FO
  18   18 3307 3030 FO
  18   18 3307 3031 FO
  18   18 3308 3032 FO
  18   18 3308 3033 FO
  18   18 3309 3034 FO
  18   18 3310 3035 FO
  18   18 3310 3036 FO
  18   18 3311 3037 FO
  18   18 3311 3038 FO
  18   18 3312 3038 FO
  18   18 3312 3039 FO
  18   18 3313 3040 FO
  18   18 3313 3041 FO
  18   18 3314 3042 FO
  18   18 3314 3043 FO
  18   18 3315 3044 FO
  18   18 3315 3045 FO
  18   18 3316 3045 FO
  18   18 3316 3046 FO
  18   18 3316 3047 FO
  18   18 3317 3047 FO
  18   18 3317 3048 FO
  18   18 3318 3049 FO
  18   18 3318 3050 FO
  18   18 3319 3051 FO
  18   18 3319 3052 FO
  18   18 3320 3052 FO
  18   18 3320 3053 FO
  18   18 3320 3054 FO
  18   18 3321 3054 FO
  18   18 3321 3055 FO
  18   18 3322 3056 FO
  18   18 3322 3057 FO
  18   18 3323 3058 FO
  18   18 3324 3059 FO
  18   18 3324 3060 FO
  18   18 3325 3061 FO
  18   18 3325 3062 FO
  18   18 3326 3062 FO
  18   18 3326 3063 FO
  18   18 3326 3064 FO
  18   18 3327 3064 FO
  18   18 3327 3065 FO
  18   18 3328 3066 FO
  18   18 3328 3067 FO
  18   18 3329 3068 FO
  18   18 3329 3069 FO
  18   18 3330 3070 FO
  18   18 3330 3071 FO
  18   18 3331 3071 FO
  18   18 3331 3072 FO
  18   18 3331 3073 FO
  18   18 3332 3073 FO
  18   18 3332 3074 FO
  18   18 3333 3075 FO
  18   18 3333 3076 FO
  18   18 3334 3077 FO
  18   18 3334 3078 FO
  18   18 3335 3078 FO
  18   18 3335 3079 FO
  18   18 3335 3080 FO
  18   18 3336 3080 FO
  18   18 3336 3081 FO
  18   18 3337 3082 FO
  18   18 3337 3083 FO
  18   18 3338 3083 FO
  18   18 3338 3084 FO
  18   18 3339 3085 FO
  18   18 3339 3086 FO
  18   18 3340 3087 FO
  18   18 3340 3088 FO
  18   18 3341 3089 FO
  18   18 3341 3090 FO
  18   18 3342 3090 FO
  18   18 3342 3091 FO
  18   18 3342 3092 FO
  18   18 3343 3092 FO
  18   18 3343 3093 FO
  18   18 3344 3094 FO
  18   18 3344 3095 FO
  18   18 3345 3096 FO
  18   18 3345 3097 FO
  18   18 3346 3098 FO
  18   18 3346 3099 FO
  18   18 3347 3099 FO
  18   18 3347 3100 FO
  18   18 3347 3101 FO
  18   18 3348 3101 FO
  18   18 3348 3102 FO
  18   18 3349 3103 FO
  18   18 3349 3104 FO
  18   18 3350 3105 FO
  18   18 3350 3106 FO
  18   18 3351 3106 FO
  18   18 3351 3107 FO
  18   18 3351 3108 FO
  18   18 3352 3108 FO
  18   18 3352 3109 FO
  18   18 3353 3109 FO
  18   18 3353 3110 FO
  18   18 3353 3111 FO
  18   18 3354 3111 FO
  18   18 3354 3112 FO
  18   18 3355 3113 FO
  18   18 3355 3114 FO
  18   18 3356 3115 FO
  18   18 3356 3116 FO
  18   18 3357 3117 FO
  18   18 3357 3118 FO
  18   18 3358 3118 FO
  18   18 3358 3119 FO
  18   18 3358 3120 FO
  18   18 3359 3120 FO
  18   18 3359 3121 FO
  18   18 3360 3122 FO
  18   18 3360 3123 FO
  18   18 3361 3124 FO
  18   18 3361 3125 FO
  18   18 3362 3126 FO
  18   18 3362 3127 FO
  18   18 3363 3127 FO
  18   18 3363 3128 FO
  18   18 3363 3129 FO
  18   18 3364 3129 FO
  18   18 3364 3130 FO
  18   18 3365 3131 FO
  18   18 3365 3132 FO
  18   18 3366 3133 FO
  18   18 3367 3134 FO
  18   18 3367 3135 FO
  18   18 3368 3136 FO
  18   18 3368 3137 FO
  18   18 3369 3138 FO
  18   18 3369 3139 FO
  18   18 3370 3139 FO
  18   18 3370 3140 FO
  18   18 3370 3141 FO
  18   18 3371 3141 FO
  18   18 3371 3142 FO
  18   18 3372 3143 FO
  18   18 3372 3144 FO
  18   18 3373 3145 FO
  18   18 3373 3146 FO
  18   18 3374 3147 FO
  18   18 3374 3148 FO
  18   18 3375 3149 FO
  18   18 3375 3150 FO
  18   18 3376 3150 FO
  18   18 3376 3151 FO
  18   18 3376 3152 FO
  18   18 3377 3152 FO
  18   18 3377 3153 FO
  18   18 3378 3154 FO
  18   18 3378 3155 FO
  18   18 3379 3156 FO
  18   18 3379 3157 FO
  18   18 3380 3158 FO
  18   18 3380 3159 FO
  18   18 3381 3159 FO
  18   18 3381 3160 FO
  18   18 3382 3161 FO
  18   18 3382 3162 FO
  18   18 3383 3162 FO
  18   18 3383 3163 FO
  18   18 3383 3164 FO
  18   18 3384 3164 FO
  18   18 3384 3165 FO
  18   18 3385 3166 FO
  18   18 3385 3167 FO
  18   18 3386 3168 FO
  18   18 3386 3169 FO
  18   18 3387 3170 FO
  18   18 3387 3171 FO
  18   18 3388 3171 FO
  18   18 3388 3172 FO
  18   18 3388 3173 FO
  18   18 3389 3173 FO
  18   18 3389 3174 FO
  18   18 3390 3175 FO
  18   18 3390 3176 FO
  18   18 3391 3177 FO
  18   18 3391 3178 FO
  18   18 3392 3179 FO
  18   18 3392 3180 FO
  18   18 3393 3181 FO
  18   18 3393 3182 FO
  18   18 3394 3182 FO
  18   18 3394 3183 FO
  18   18 3394 3184 FO
  18   18 3395 3184 FO
  18   18 3395 3185 FO
  18   18 3396 3185 FO
  18   18 3396 3186 FO
  18   18 3396 3187 FO
  18   18 3397 3187 FO
  18   18 3397 3188 FO
  18   18 3398 3189 FO
  18   18 3398 3190 FO
  18   18 3399 3191 FO
  18   18 3399 3192 FO
  18   18 3400 3193 FO
  18   18 3400 3194 FO
  18   18 3401 3195 FO
  18   18 3401 3196 FO
  18   18 3402 3196 FO
  18   18 3402 3197 FO
  18   18 3402 3198 FO
  18   18 3403 3198 FO
  18   18 3403 3199 FO
  18   18 3404 3200 FO
  18   18 3404 3201 FO
  18   18 3405 3202 FO
  18   18 3405 3203 FO
  18   18 3406 3204 FO
  18   18 3406 3205 FO
  18   18 3407 3205 FO
  18   18 3407 3206 FO
  18   18 3407 3207 FO
  18   18 3408 3207 FO
  18   18 3408 3208 FO
  18   18 3408 3209 FO
  18   18 3409 3209 FO
  18   18 3409 3210 FO
  18   18 3410 3211 FO
  18   18 3410 3212 FO
  18   18 3411 3212 FO
  18   18 3411 3213 FO
  18   18 3412 3214 FO
  18   18 3412 3215 FO
  18   18 3413 3216 FO
  18   18 3413 3217 FO
  18   18 3414 3218 FO
  18   18 3414 3219 FO
  18   18 3415 3220 FO
  18   18 3415 3221 FO
  18   18 3416 3221 FO
  18   18 3416 3222 FO
  18   18 3416 3223 FO
  18   18 3417 3223 FO
  18   18 3417 3224 FO
  18   18 3418 3225 FO
  18   18 3418 3226 FO
  18   18 3419 3227 FO
  18   18 3419 3228 FO
  18   18 3420 3229 FO
  18   18 3420 3230 FO
  18   18 3421 3231 FO
  18   18 3421 3232 FO
  18   18 3422 3232 FO
  18   18 3422 3233 FO
  18   18 3422 3234 FO
  18   18 3423 3234 FO
  18   18 3423 3235 FO
  18   18 3424 3236 FO
  18   18 3424 3237 FO
  18   18 3425 3237 FO
  18   18 3425 3238 FO
  18   18 3425 3239 FO
  18   18 3426 3239 FO
  18   18 3426 3240 FO
  18   18 3427 3241 FO
  18   18 3427 3242 FO
  18   18 3428 3243 FO
  18   18 3428 3244 FO
  18   18 3429 3245 FO
  18   18 3429 3246 FO
  18   18 3430 3246 FO
  18   18 3430 3247 FO
  18   18 3430 3248 FO
  18   18 3431 3248 FO
  18   18 3431 3249 FO
  18   18 3431 3250 FO
  18   18 3432 3250 FO
  18   18 3432 3251 FO
  18   18 3433 3252 FO
  18   18 3433 3253 FO
  18   18 3434 3254 FO
  18   18 3434 3255 FO
  18   18 3435 3256 FO
  18   18 3435 3257 FO
  18   18 3436 3258 FO
  18   18 3436 3259 FO
  18   18 3437 3259 FO
  18   18 3437 3260 FO
  18   18 3437 3261 FO
  18   18 3438 3261 FO
  18   18 3438 3262 FO
  18   18 3438 3263 FO
  18   18 3439 3263 FO
  18   18 3439 3264 FO
  18   18 3440 3264 FO
  18   18 3440 3265 FO
  18   18 3440 3266 FO
  18   18 3441 3266 FO
  18   18 3441 3267 FO
  18   18 3442 3268 FO
  18   18 3442 3269 FO
  18   18 3443 3270 FO
  18   18 3443 3271 FO
  18   18 3444 3272 FO
  18   18 3444 3273 FO
  18   18 3445 3274 FO
  18   18 3445 3275 FO
  18   18 3446 3275 FO
  18   18 3446 3276 FO
  18   18 3446 3277 FO
  18   18 3447 3277 FO
  18   18 3447 3278 FO
  18   18 3447 3279 FO
  18   18 3448 3279 FO
  18   18 3448 3280 FO
  18   18 3449 3281 FO
  18   18 3449 3282 FO
  18   18 3450 3283 FO
  18   18 3450 3284 FO
  18   18 3451 3285 FO
  18   18 3451 3286 FO
  18   18 3452 3287 FO
  18   18 3452 3288 FO
  18   18 3453 3288 FO
  18   18 3453 3289 FO
  18   18 3454 3290 FO
  18   18 3454 3291 FO
  18   18 3455 3292 FO
  18   18 3455 3293 FO
  18   18 3456 3293 FO
  18   18 3456 3294 FO
  18   18 3456 3295 FO
  18   18 3457 3295 FO
  18   18 3457 3296 FO
  18   18 3457 3297 FO
  18   18 3458 3297 FO
  18   18 3458 3298 FO
  18   18 3459 3299 FO
  18   18 3459 3300 FO
  18   18 3460 3301 FO
  18   18 3460 3302 FO
  18   18 3461 3303 FO
  18   18 3461 3304 FO
  18   18 3462 3305 FO
  18   18 3462 3306 FO
  18   18 3463 3306 FO
  18   18 3463 3307 FO
  18   18 3463 3308 FO
  18   18 3464 3308 FO
  18   18 3464 3309 FO
  18   18 3464 3310 FO
  18   18 3465 3310 FO
  18   18 3465 3311 FO
  18   18 3466 3312 FO
  18   18 3466 3313 FO
  18   18 3467 3314 FO
  18   18 3467 3315 FO
  18   18 3468 3316 FO
  18   18 3469 3317 FO
  18   18 3469 3318 FO
  18   18 3470 3319 FO
  18   18 3470 3320 FO
  18   18 3471 3321 FO
  18   18 3471 3322 FO
  18   18 3472 3323 FO
  18   18 3472 3324 FO
  18   18 3473 3325 FO
  18   18 3473 3326 FO
  18   18 3474 3326 FO
  18   18 3474 3327 FO
  18   18 3474 3328 FO
  18   18 3475 3328 FO
  18   18 3475 3329 FO
  18   18 3475 3330 FO
  18   18 3476 3330 FO
  18   18 3476 3331 FO
  18   18 3477 3332 FO
  18   18 3477 3333 FO
  18   18 3478 3334 FO
  18   18 3478 3335 FO
  18   18 3479 3336 FO
  18   18 3479 3337 FO
  18   18 3480 3338 FO
  18   18 3480 3339 FO
  18   18 3481 3340 FO
  18   18 3481 3341 FO
  18   18 3482 3341 FO
  18   18 3482 3342 FO
  18   18 3483 3343 FO
  18   18 3483 3344 FO
  18   18 3484 3345 FO
  18   18 3484 3346 FO
  18   18 3485 3346 FO
  18   18 3485 3347 FO
  18   18 3485 3348 FO
  18   18 3486 3348 FO
  18   18 3486 3349 FO
  18   18 3486 3350 FO
  18   18 3487 3350 FO
  18   18 3487 3351 FO
  18   18 3488 3352 FO
  18   18 3488 3353 FO
  18   18 3489 3354 FO
  18   18 3489 3355 FO
  18   18 3490 3356 FO
  18   18 3490 3357 FO
  18   18 3491 3358 FO
  18   18 3491 3359 FO
  18   18 3492 3360 FO
  18   18 3492 3361 FO
  18   18 3493 3361 FO
  18   18 3493 3362 FO
  18   18 3493 3363 FO
  18   18 3494 3363 FO
  18   18 3494 3364 FO
  18   18 3494 3365 FO
  18   18 3495 3365 FO
  18   18 3495 3366 FO
  18   18 3496 3367 FO
  18   18 3496 3368 FO
  18   18 3497 3368 FO
  18   18 3497 3369 FO
  18   18 3497 3370 FO
  18   18 3498 3370 FO
  18   18 3498 3371 FO
  18   18 3498 3372 FO
  18   18 3499 3372 FO
  18   18 3499 3373 FO
  18   18 3500 3374 FO
  18   18 3500 3375 FO
  18   18 3501 3376 FO
  18   18 3501 3377 FO
  18   18 3502 3378 FO
  18   18 3502 3379 FO
  18   18 3503 3380 FO
  18   18 3503 3381 FO
  18   18 3504 3382 FO
  18   18 3504 3383 FO
  18   18 3505 3383 FO
  18   18 3505 3384 FO
  18   18 3505 3385 FO
  18   18 3506 3385 FO
  18   18 3506 3386 FO
  18   18 3506 3387 FO
  18   18 3507 3387 FO
  18   18 3507 3388 FO
  18   18 3507 3389 FO
  18   18 3508 3389 FO
  18   18 3508 3390 FO
  18   18 3509 3391 FO
  18   18 3509 3392 FO
  18   18 3510 3393 FO
  18   18 3510 3394 FO
  18   18 3511 3395 FO
  18   18 3512 3396 FO
  18   18 3512 3397 FO
  18   18 3513 3398 FO
  18   18 3513 3399 FO
  18   18 3514 3400 FO
  18   18 3514 3401 FO
  18   18 3515 3402 FO
  18   18 3515 3403 FO
  18   18 3516 3404 FO
  18   18 3516 3405 FO
  18   18 3517 3406 FO
  18   18 3517 3407 FO
  18   18 3518 3408 FO
  18   18 3518 3409 FO
  18   18 3519 3409 FO
  18   18 3519 3410 FO
  18   18 3519 3411 FO
  18   18 3520 3411 FO
  18   18 3520 3412 FO
  18   18 3520 3413 FO
  18   18 3521 3413 FO
  18   18 3521 3414 FO
  18   18 3522 3415 FO
  18   18 3522 3416 FO
  18   18 3523 3417 FO
  18   18 3523 3418 FO
  18   18 3524 3419 FO
  18   18 3524 3420 FO
  18   18 3525 3421 FO
  18   18 3526 3422 FO
  18   18 3526 3423 FO
  18   18 3527 3424 FO
  18   18 3527 3425 FO
  18   18 3528 3426 FO
  18   18 3528 3427 FO
  18   18 3529 3428 FO
  18   18 3529 3429 FO
  18   18 3530 3430 FO
  18   18 3530 3431 FO
  18   18 3531 3432 FO
  18   18 3531 3433 FO
  18   18 3532 3434 FO
  18   18 3532 3435 FO
  18   18 3533 3435 FO
  18   18 3533 3436 FO
  18   18 3533 3437 FO
  18   18 3534 3437 FO
  18   18 3534 3438 FO
  18   18 3534 3439 FO
  18   18 3535 3439 FO
  18   18 3535 3440 FO
  18   18 3535 3441 FO
  18   18 3536 3441 FO
  18   18 3536 3442 FO
  18   18 3537 3443 FO
  18   18 3537 3444 FO
  18   18 3538 3445 FO
  18   18 3538 3446 FO
  18   18 3539 3447 FO
  18   18 3539 3448 FO
  18   18 3540 3449 FO
  18   18 3540 3450 FO
  18   18 3541 3450 FO
  18   18 3541 3451 FO
  18   18 3542 3452 FO
  18   18 3542 3453 FO
  18   18 3543 3454 FO
  18   18 3543 3455 FO
  18   18 3544 3456 FO
  18   18 3544 3457 FO
  18   18 3545 3458 FO
  18   18 3545 3459 FO
  18   18 3546 3460 FO
  18   18 3546 3461 FO
  18   18 3547 3462 FO
  18   18 3547 3463 FO
  18   18 3548 3464 FO
  18   18 3548 3465 FO
  18   18 3549 3465 FO
  18   18 3549 3466 FO
  18   18 3549 3467 FO
  18   18 3550 3467 FO
  18   18 3550 3468 FO
  18   18 3550 3469 FO
  18   18 3551 3469 FO
  18   18 3551 3470 FO
  18   18 3551 3471 FO
  18   18 3552 3471 FO
  18   18 3552 3472 FO
  18   18 3552 3473 FO
  18   18 3553 3473 FO
  18   18 3553 3474 FO
  18   18 3554 3475 FO
  18   18 3554 3476 FO
  18   18 3555 3476 FO
  18   18 3555 3477 FO
  18   18 3555 3478 FO
  18   18 3556 3478 FO
  18   18 3556 3479 FO
  18   18 3556 3480 FO
  18   18 3557 3480 FO
  18   18 3557 3481 FO
  18   18 3557 3482 FO
  18   18 3558 3482 FO
  18   18 3558 3483 FO
  18   18 3559 3484 FO
  18   18 3559 3485 FO
  18   18 3560 3486 FO
  18   18 3560 3487 FO
  18   18 3561 3488 FO
  18   18 3561 3489 FO
  18   18 3562 3490 FO
  18   18 3562 3491 FO
  18   18 3563 3492 FO
  18   18 3563 3493 FO
  18   18 3564 3494 FO
  18   18 3564 3495 FO
  18   18 3565 3496 FO
  18   18 3565 3497 FO
  18   18 3566 3498 FO
  18   18 3566 3499 FO
  18   18 3567 3500 FO
  18   18 3567 3501 FO
  18   18 3568 3501 FO
  18   18 3568 3502 FO
  18   18 3568 3503 FO
  18   18 3569 3503 FO
  18   18 3569 3504 FO
  18   18 3570 3505 FO
  18   18 3570 3506 FO
  18   18 3571 3507 FO
  18   18 3571 3508 FO
  18   18 3572 3509 FO
  18   18 3572 3510 FO
  18   18 3573 3510 FO
  18   18 3573 3511 FO
  18   18 3573 3512 FO
  18   18 3574 3512 FO
  18   18 3574 3513 FO
  18   18 3574 3514 FO
  18   18 3575 3514 FO
  18   18 3575 3515 FO
  18   18 3575 3516 FO
  18   18 3576 3516 FO
  18   18 3576 3517 FO
  18   18 3576 3518 FO
  18   18 3577 3518 FO
  18   18 3577 3519 FO
  18   18 3577 3520 FO
  18   18 3578 3520 FO
  18   18 3578 3521 FO
  18   18 3579 3522 FO
  18   18 3579 3523 FO
  18   18 3580 3524 FO
  18   18 3580 3525 FO
  18   18 3581 3526 FO
  18   18 3581 3527 FO
  18   18 3582 3528 FO
  18   18 3582 3529 FO
  18   18 3583 3530 FO
  18   18 3583 3531 FO
  18   18 3584 3531 FO
  18   18 3584 3532 FO
  18   18 3585 3533 FO
  18   18 3585 3534 FO
  18   18 3586 3535 FO
  18   18 3586 3536 FO
  18   18 3587 3537 FO
  18   18 3587 3538 FO
  18   18 3588 3539 FO
  18   18 3588 3540 FO
  18   18 3589 3541 FO
  18   18 3589 3542 FO
  18   18 3590 3543 FO
  18   18 3590 3544 FO
  18   18 3591 3545 FO
  18   18 3591 3546 FO
  18   18 3592 3547 FO
  18   18 3592 3548 FO
  18   18 3593 3549 FO
  18   18 3593 3550 FO
  18   18 3594 3551 FO
  18   18 3594 3552 FO
  18   18 3595 3553 FO
  18   18 3595 3554 FO
  18   18 3596 3555 FO
  18   18 3596 3556 FO
  18   18 3597 3557 FO
  18   18 3597 3558 FO
  18   18 3598 3558 FO
  18   18 3598 3559 FO
  18   18 3599 3560 FO
  18   18 3599 3561 FO
  18   18 3600 3562 FO
  18   18 3600 3563 FO
  18   18 3601 3564 FO
  18   18 3601 3565 FO
  18   18 3602 3566 FO
  18   18 3602 3567 FO
  18   18 3603 3568 FO
  18   18 3603 3569 FO
  18   18 3604 3570 FO
  18   18 3604 3571 FO
  18   18 3605 3572 FO
  18   18 3605 3573 FO
  18   18 3606 3573 FO
  18   18 3606 3574 FO
  18   18 3606 3575 FO
  18   18 3607 3575 FO
  18   18 3607 3576 FO
  18   18 3607 3577 FO
  18   18 3608 3577 FO
  18   18 3608 3578 FO
  18   18 3608 3579 FO
  18   18 3609 3579 FO
  18   18 3609 3580 FO
  18   18 3609 3581 FO
  18   18 3610 3581 FO
  18   18 3610 3582 FO
  18   18 3610 3583 FO
  18   18 3611 3583 FO
  18   18 3611 3584 FO
  18   18 3611 3585 FO
  18   18 3612 3585 FO
  18   18 3612 3586 FO
  18   18 3613 3587 FO
  18   18 3613 3588 FO
  18   18 3614 3588 FO
  18   18 3614 3589 FO
  18   18 3614 3590 FO
  18   18 3615 3590 FO
  18   18 3615 3591 FO
  18   18 3615 3592 FO
  18   18 3616 3592 FO
  18   18 3616 3593 FO
  18   18 3616 3594 FO
  18   18 3617 3594 FO
  18   18 3617 3595 FO
  18   18 3617 3596 FO
  18   18 3618 3596 FO
  18   18 3618 3597 FO
  18   18 3618 3598 FO
  18   18 3619 3598 FO
  18   18 3619 3599 FO
  18   18 3619 3600 FO
  18   18 3620 3600 FO
  18   18 3620 3601 FO
  18   18 3620 3602 FO
  18   18 3621 3602 FO
  18   18 3621 3603 FO
  18   18 3621 3604 FO
  18   18 3622 3604 FO
  18   18 3622 3605 FO
  18   18 3622 3606 FO
  18   18 3623 3606 FO
  18   18 3623 3607 FO
  18   18 3624 3608 FO
  18   18 3624 3609 FO
  18   18 3625 3610 FO
  18   18 3625 3611 FO
  18   18 3626 3612 FO
  18   18 3626 3613 FO
  18   18 3627 3614 FO
  18   18 3627 3615 FO
  18   18 3628 3615 FO
  18   18 3628 3616 FO
  18   18 3628 3617 FO
  18   18 3629 3617 FO
  18   18 3629 3618 FO
  18   18 3629 3619 FO
  18   18 3630 3619 FO
  18   18 3630 3620 FO
  18   18 3630 3621 FO
  18   18 3631 3621 FO
  18   18 3631 3622 FO
  18   18 3631 3623 FO
  18   18 3632 3623 FO
  18   18 3632 3624 FO
  18   18 3632 3625 FO
  18   18 3633 3625 FO
  18   18 3633 3626 FO
  18   18 3633 3627 FO
  18   18 3634 3627 FO
  18   18 3634 3628 FO
  18   18 3634 3629 FO
  18   18 3635 3629 FO
  18   18 3635 3630 FO
  18   18 3635 3631 FO
  18   18 3636 3631 FO
  18   18 3636 3632 FO
  18   18 3636 3633 FO
  18   18 3637 3633 FO
  18   18 3637 3634 FO
  18   18 3638 3635 FO
  18   18 3638 3636 FO
  18   18 3639 3637 FO
  18   18 3639 3638 FO
  18   18 3640 3639 FO
  18   18 3640 3640 FO
  18   18 3641 3641 FO
  18   18 3641 3642 FO
  18   18 3642 3642 FO
  18   18 3642 3643 FO
  18   18 3642 3644 FO
  18   18 3643 3644 FO
  18   18 3643 3645 FO
  18   18 3643 3646 FO
gr

c9
gs 2905 3570 149 149 rc
0 sg
  18   18 2979 3644 PO
  18   18 2979 3644 FO
gr

0 sg
gr

36 w
%%IncludeResource: font Helvetica
/Helvetica /WindowsLatin1Encoding 120 FMSR

 574 4426 mt 
( ) s
3987  732 mt 
( ) s
6 w
1 sg
0 297 1854 0 0 -297 2117 1042 4 MP
PP
-1854 0 0 297 1854 0 0 -297 2117 1042 5 MP stroke
4 w
DO
SO
6 w
2117  745 mt 3971  745 L
2117 1042 mt 3971 1042 L
3971 1042 mt 3971  745 L
2117 1042 mt 2117  745 L
2117 1042 mt 3971 1042 L
2117 1042 mt 2117  745 L
2117  745 mt 3971  745 L
2117 1042 mt 3971 1042 L
3971 1042 mt 3971  745 L
2117 1042 mt 2117  745 L
0 sg
%%IncludeResource: font Times-Roman
/Times-Roman /WindowsLatin1Encoding 192 FMSR

2585  957 mt 
(Preferred Region) s
gs 2117 745 1855 298 rc
36 w
gs 2295 816 149 149 rc
c9
  18   18 2369  890 FO
gr

c9
6 w
gr

c9
0 sg
2330 3964 mt 
(\( 0.7, 0.2 \)) s

end %%Color Dict

eplot
%%EndObject

epage
end

showpage

%%Trailer
%%EOF
