%!PS-Adobe-3.0 EPSF-3.0
%%Creator: MATLAB, The MathWorks, Inc. Version 7.13.0.564 (R2011b). Operating System: Microsoft Windows XP.
%%Title: D:\DriveG\Sem2-2012\Program\ReferenceMetric-v3\metricfig\zdt2\zdt2-te.eps
%%CreationDate: 03/15/2013  01:52:34
%%DocumentNeededFonts: Helvetica
%%+ Times-Roman
%%DocumentProcessColors: Cyan Magenta Yellow Black
%%LanguageLevel: 2
%%Pages: 1
%%BoundingBox:   108   215   487   626
%%EndComments

%%BeginProlog
% MathWorks dictionary
/MathWorks 160 dict begin
% definition operators
/bdef {bind def} bind def
/ldef {load def} bind def
/xdef {exch def} bdef
/xstore {exch store} bdef
% operator abbreviations
/c  /clip ldef
/cc /concat ldef
/cp /closepath ldef
/gr /grestore ldef
/gs /gsave ldef
/mt /moveto ldef
/np /newpath ldef
/cm /currentmatrix ldef
/sm /setmatrix ldef
/rm /rmoveto ldef
/rl /rlineto ldef
/s {show newpath} bdef
/sc {setcmykcolor} bdef
/sr /setrgbcolor ldef
/sg /setgray ldef
/w /setlinewidth ldef
/j /setlinejoin ldef
/cap /setlinecap ldef
/rc {rectclip} bdef
/rf {rectfill} bdef
% page state control
/pgsv () def
/bpage {/pgsv save def} bdef
/epage {pgsv restore} bdef
/bplot /gsave ldef
/eplot {stroke grestore} bdef
% orientation switch
/portraitMode 0 def /landscapeMode 1 def /rotateMode 2 def
% coordinate system mappings
/dpi2point 0 def
% font control
/FontSize 0 def
/FMS {/FontSize xstore findfont [FontSize 0 0 FontSize neg 0 0]
  makefont setfont} bdef
/ISOLatin1Encoding where {pop /WindowsLatin1Encoding 256 array bdef
ISOLatin1Encoding WindowsLatin1Encoding copy pop
/.notdef/.notdef/quotesinglbase/florin/quotedblbase/ellipsis/dagger
/daggerdbl/circumflex/perthousand/Scaron/guilsinglleft/OE/.notdef/.notdef
/.notdef/.notdef/quoteleft/quoteright/quotedblleft/quotedblright/bullet
/endash/emdash/tilde/trademark/scaron/guilsinglright/oe/.notdef/.notdef
/Ydieresis WindowsLatin1Encoding 128 32 getinterval astore pop}
{/WindowsLatin1Encoding StandardEncoding bdef} ifelse
/reencode {exch dup where {pop load} {pop StandardEncoding} ifelse
  exch dup 3 1 roll findfont dup length dict begin
  { 1 index /FID ne {def}{pop pop} ifelse } forall
  /Encoding exch def currentdict end definefont pop} bdef
/isroman {findfont /CharStrings get /Agrave known} bdef
/FMSR {3 1 roll 1 index dup isroman {reencode} {pop pop} ifelse
  exch FMS} bdef
/csm {1 dpi2point div -1 dpi2point div scale neg translate
 dup landscapeMode eq {pop -90 rotate}
  {rotateMode eq {90 rotate} if} ifelse} bdef
% line types: solid, dotted, dashed, dotdash
/SO { [] 0 setdash } bdef
/DO { [.5 dpi2point mul 4 dpi2point mul] 0 setdash } bdef
/DA { [6 dpi2point mul] 0 setdash } bdef
/DD { [.5 dpi2point mul 4 dpi2point mul 6 dpi2point mul 4
  dpi2point mul] 0 setdash } bdef
% macros for lines and objects
/L {lineto stroke} bdef
/MP {3 1 roll moveto 1 sub {rlineto} repeat} bdef
/AP {{rlineto} repeat} bdef
/PDlw -1 def
/W {/PDlw currentlinewidth def setlinewidth} def
/PP {closepath eofill} bdef
/DP {closepath stroke} bdef
/MR {4 -2 roll moveto dup  0 exch rlineto exch 0 rlineto
  neg 0 exch rlineto closepath} bdef
/FR {MR stroke} bdef
/PR {MR fill} bdef
/L1i {{currentfile picstr readhexstring pop} image} bdef
/tMatrix matrix def
/MakeOval {newpath tMatrix currentmatrix pop translate scale
0 0 1 0 360 arc tMatrix setmatrix} bdef
/FO {MakeOval stroke} bdef
/PO {MakeOval fill} bdef
/PD {currentlinewidth 2 div 0 360 arc fill
   PDlw -1 eq not {PDlw w /PDlw -1 def} if} def
/FA {newpath tMatrix currentmatrix pop translate scale
  0 0 1 5 -2 roll arc tMatrix setmatrix stroke} bdef
/PA {newpath tMatrix currentmatrix pop	translate 0 0 moveto scale
  0 0 1 5 -2 roll arc closepath tMatrix setmatrix fill} bdef
/FAn {newpath tMatrix currentmatrix pop translate scale
  0 0 1 5 -2 roll arcn tMatrix setmatrix stroke} bdef
/PAn {newpath tMatrix currentmatrix pop translate 0 0 moveto scale
  0 0 1 5 -2 roll arcn closepath tMatrix setmatrix fill} bdef
/vradius 0 def /hradius 0 def /lry 0 def
/lrx 0 def /uly 0 def /ulx 0 def /rad 0 def
/MRR {/vradius xdef /hradius xdef /lry xdef /lrx xdef /uly xdef
  /ulx xdef newpath tMatrix currentmatrix pop ulx hradius add uly
  vradius add translate hradius vradius scale 0 0 1 180 270 arc 
  tMatrix setmatrix lrx hradius sub uly vradius add translate
  hradius vradius scale 0 0 1 270 360 arc tMatrix setmatrix
  lrx hradius sub lry vradius sub translate hradius vradius scale
  0 0 1 0 90 arc tMatrix setmatrix ulx hradius add lry vradius sub
  translate hradius vradius scale 0 0 1 90 180 arc tMatrix setmatrix
  closepath} bdef
/FRR {MRR stroke } bdef
/PRR {MRR fill } bdef
/MlrRR {/lry xdef /lrx xdef /uly xdef /ulx xdef /rad lry uly sub 2 div def
  newpath tMatrix currentmatrix pop ulx rad add uly rad add translate
  rad rad scale 0 0 1 90 270 arc tMatrix setmatrix lrx rad sub lry rad
  sub translate rad rad scale 0 0 1 270 90 arc tMatrix setmatrix
  closepath} bdef
/FlrRR {MlrRR stroke } bdef
/PlrRR {MlrRR fill } bdef
/MtbRR {/lry xdef /lrx xdef /uly xdef /ulx xdef /rad lrx ulx sub 2 div def
  newpath tMatrix currentmatrix pop ulx rad add uly rad add translate
  rad rad scale 0 0 1 180 360 arc tMatrix setmatrix lrx rad sub lry rad
  sub translate rad rad scale 0 0 1 0 180 arc tMatrix setmatrix
  closepath} bdef
/FtbRR {MtbRR stroke } bdef
/PtbRR {MtbRR fill } bdef
/stri 6 array def /dtri 6 array def
/smat 6 array def /dmat 6 array def
/tmat1 6 array def /tmat2 6 array def /dif 3 array def
/asub {/ind2 exch def /ind1 exch def dup dup
  ind1 get exch ind2 get sub exch } bdef
/tri_to_matrix {
  2 0 asub 3 1 asub 4 0 asub 5 1 asub
  dup 0 get exch 1 get 7 -1 roll astore } bdef
/compute_transform {
  dmat dtri tri_to_matrix tmat1 invertmatrix 
  smat stri tri_to_matrix tmat2 concatmatrix } bdef
/ds {stri astore pop} bdef
/dt {dtri astore pop} bdef
/db {2 copy /cols xdef /rows xdef mul dup 3 mul string
  currentfile 
  3 index 0 eq {/ASCIIHexDecode filter}
  {/ASCII85Decode filter 3 index 2 eq {/RunLengthDecode filter} if }
  ifelse exch readstring pop
  dup 0 3 index getinterval /rbmap xdef
  dup 2 index dup getinterval /gbmap xdef
  1 index dup 2 mul exch getinterval /bbmap xdef pop pop}bdef
/it {gs np dtri aload pop moveto lineto lineto cp c
  cols rows 8 compute_transform 
  rbmap gbmap bbmap true 3 colorimage gr}bdef
/il {newpath moveto lineto stroke}bdef
currentdict end def
%%EndProlog

%%BeginSetup
MathWorks begin

0 cap

end
%%EndSetup

%%Page: 1 1
%%BeginPageSetup
%%PageBoundingBox:   108   215   487   626
MathWorks begin
bpage
%%EndPageSetup

%%BeginObject: obj1
bplot

/dpi2point 12 def
portraitMode 1296 7512 csm

    0     0  4549  4925 rc
86 dict begin %Colortable dictionary
/c0 { 0.000000 0.000000 0.000000 sr} bdef
/c1 { 1.000000 1.000000 1.000000 sr} bdef
/c2 { 0.900000 0.000000 0.000000 sr} bdef
/c3 { 0.000000 0.820000 0.000000 sr} bdef
/c4 { 0.000000 0.000000 0.800000 sr} bdef
/c5 { 0.910000 0.820000 0.320000 sr} bdef
/c6 { 1.000000 0.260000 0.820000 sr} bdef
/c7 { 0.000000 0.820000 0.820000 sr} bdef
c0
1 j
1 sg
   0    0 4550 4926 rf
6 w
0 3694 3412 0 0 -3694 596 4640 4 MP
PP
-3412 0 0 3694 3412 0 0 -3694 596 4640 5 MP stroke
4 w
DO
SO
6 w
0 sg
 596  946 mt 4008  946 L
 596 4640 mt 4008 4640 L
4008 4640 mt 4008  946 L
 596 4640 mt  596  946 L
 596 4640 mt 4008 4640 L
 596 4640 mt  596  946 L
 596 4640 mt  596 4603 L
 596  946 mt  596  982 L
%%IncludeResource: font Times-Roman
/Times-Roman /WindowsLatin1Encoding 144 FMSR

 560 4803 mt 
(0) s
1278 4640 mt 1278 4603 L
1278  946 mt 1278  982 L
1188 4803 mt 
(0.2) s
1960 4640 mt 1960 4603 L
1960  946 mt 1960  982 L
1870 4803 mt 
(0.4) s
2643 4640 mt 2643 4603 L
2643  946 mt 2643  982 L
2553 4803 mt 
(0.6) s
3325 4640 mt 3325 4603 L
3325  946 mt 3325  982 L
3235 4803 mt 
(0.8) s
4008 4640 mt 4008 4603 L
4008  946 mt 4008  982 L
3972 4803 mt 
(1) s
 596 4640 mt  632 4640 L
4008 4640 mt 3971 4640 L
 489 4691 mt 
(0) s
 596 4270 mt  632 4270 L
4008 4270 mt 3971 4270 L
 381 4321 mt 
(0.1) s
 596 3901 mt  632 3901 L
4008 3901 mt 3971 3901 L
 381 3952 mt 
(0.2) s
 596 3531 mt  632 3531 L
4008 3531 mt 3971 3531 L
 381 3582 mt 
(0.3) s
 596 3162 mt  632 3162 L
4008 3162 mt 3971 3162 L
 381 3213 mt 
(0.4) s
 596 2793 mt  632 2793 L
4008 2793 mt 3971 2793 L
 381 2844 mt 
(0.5) s
 596 2423 mt  632 2423 L
4008 2423 mt 3971 2423 L
 381 2474 mt 
(0.6) s
 596 2054 mt  632 2054 L
4008 2054 mt 3971 2054 L
 381 2105 mt 
(0.7) s
 596 1684 mt  632 1684 L
4008 1684 mt 3971 1684 L
 381 1735 mt 
(0.8) s
 596 1315 mt  632 1315 L
4008 1315 mt 3971 1315 L
 381 1366 mt 
(0.9) s
 596  946 mt  632  946 L
4008  946 mt 3971  946 L
 489  997 mt 
(1) s
 596  946 mt 4008  946 L
 596 4640 mt 4008 4640 L
4008 4640 mt 4008  946 L
 596 4640 mt  596  946 L
gs 596 946 3413 3695 rc
27.6 w
/c8 { 0.000000 0.000000 1.000000 sr} bdef
c8
1 1 0 1 1 1 0 1 1 1 0 1 1 1 0 1 
1 1 0 2 1 1 0 1 1 1 0 1 1 1 0 1 
1 1 0 1 1 1 0 2 1 1 0 1 1 1 0 1 
1 1 0 1 1 1 0 2 2 2 0 1 1 1 0 1 
1 1 0 2 1 1 0 1 1 1 0 1 1 1 0 1 
1 1 0 1 1 1 0 2 1 1 0 1 1 1 0 1 
1 1 0 1 1 1 0 1 1 1 0 2 1 1 1 1 
0 1 1 1 0 1 1 1 0 2 1 1 0 1 1 1 
0 1 1 1 0 1 1 1 0 1 1 1 0 2 1 1 
0 1 1 1 0 1 1 1 0 1 1 1 0 1 1 1 
0 2 1 1 0 1 1 1 1 1 0 1 1 1 0 2 
1 1 0 1 1 1 0 1 1 1 0 1 1 1 0 2 
2 2 0 2 1 1 0 1 1 1 0 1 1 1 0 1 
1 1 0 1 1 1 0 2 1 1 1 1 0 1 1 1 
0 1 1 1 0 2 1 1 0 1 1 1 0 1 1 1 
0 1 1 1 0 2 2 2 0 2 1 1 0 1 1 1 
0 1 1 1 0 1 1 1 0 1 1 1 0 2 2 2 
0 1 1 1 0 2 2 2 0 2 1 1 0 1 1 1 
0 1 1 1 0 1 1 1 0 2 2 2 0 2 1 1 
0 1 1 1 0 1 1 1 0 1 1 1 1 1 0 2 
1 1 0 1 1 1 0 1 1 1 0 1 1 1 0 2 
2 2 0 2 1 1 0 1 1 1 0 1 1 1 0 1 
1 1 0 1 1 1 0 1 1 1 0 2 1 1 0 1 
1 1 1 1 0 2 2 2 0 2 1 1 0 1 1 1 
0 1 1 1 0 1 1 1 0 1 1 1 0 2 2 2 
0 2 1 1 0 1 1 1 0 1 1 1 0 1 1 1 
1 1 0 2 1 1 0 1 1 1 0 1 1 1 0 1 
1 1 0 1 1 1 0 2 2 2 0 2 1 1 0 1 
1 1 0 1 1 1 0 1 1 1 0 1 1 1 0 1 
1 1 0 2 2 2 0 1 1 1 0 1 1 1 0 1 
1 1 0 2 2 2 0 2 1 1 0 1 1 1 0 1 
1 1 0 1 1 1 0 1 1 1 0 1 1 1 0 1 
1 1 0 2 2 2 0 1 1 1 0 1 1 1 0 1 
1 1 0 2 2 2 0 2 1 1 0 1 1 1 0 1 
1 1 0 1 1 1 0 1 1 1 0 1 1 1 0 2 
2 2 0 2 2 2 0 1 1 1 0 1 1 1 0 1 
1 1 0 2 2 2 0 2 1 1 0 1 1 1 0 1 
1 1 0 1 1 1 3838 4282 300 MP stroke
0 1 1 1 0 1 1 1 0 1 1 1 0 2 2 2 
0 1 1 1 0 1 1 1 0 1 1 1 0 1 1 1 
0 1 1 1 0 1 1 1 0 2 2 2 0 2 1 1 
0 1 1 1 0 1 1 1 0 1 1 1 0 1 1 1 
0 1 2 2 0 2 1 1 0 1 1 1 0 1 1 1 
0 1 1 1 0 1 1 1 0 1 1 1 0 1 1 1 
0 1 1 1 0 1 1 1 0 2 2 2 0 2 1 1 
0 1 1 1 1 1 0 1 1 1 0 1 1 1 0 1 
1 1 0 2 2 2 0 2 1 1 0 1 1 1 0 1 
1 1 0 1 1 1 0 1 1 1 0 1 1 1 0 1 
1 1 0 1 1 1 1 1 0 2 1 1 0 1 1 1 
0 1 1 1 0 1 1 1 0 1 1 1 0 1 1 1 
0 1 1 1 0 1 1 1 0 1 1 1 0 1 1 1 
0 1 1 1 0 2 2 2 0 2 2 2 0 1 1 1 
0 1 1 1 0 1 1 1 0 1 1 1 0 1 1 1 
0 1 1 1 0 1 1 1 0 2 2 2 0 2 2 2 
0 2 1 1 0 1 1 1 1 1 0 1 1 1 0 1 
1 1 0 1 1 1 0 2 2 2 0 2 2 2 0 2 
2 2 0 2 1 1 0 1 1 1 0 1 1 1 0 1 
1 1 0 1 1 1 1 1 0 1 1 1 0 1 1 1 
0 2 2 2 0 2 2 2 0 2 2 2 0 2 2 2 
0 2 1 1 0 1 1 1 0 1 1 1 1 1 0 1 
1 1 0 1 1 1 0 1 1 1 0 1 1 1 0 1 
1 1 0 2 2 2 0 2 2 2 0 2 2 2 0 2 
2 2 0 2 2 2 0 1 1 1 0 1 1 1 0 1 
1 1 0 1 1 1 0 1 1 1 0 1 1 1 0 1 
1 1 0 1 1 1 0 1 1 1 0 1 1 1 0 1 
1 1 0 1 1 1 0 1 1 1 0 1 2 2 0 2 
2 2 0 2 1 1 0 1 1 1 0 1 1 1 0 1 
1 1 0 1 1 1 0 1 1 1 0 1 1 1 0 1 
1 1 0 1 1 1 0 1 1 1 0 1 1 1 1 1 
0 1 1 1 0 1 1 1 0 1 1 1 0 1 1 1 
0 1 1 1 0 1 1 1 0 1 1 1 0 1 1 1 
0 1 1 1 0 1 1 1 0 1 1 1 0 1 1 1 
0 1 1 1 1 1 0 2 2 2 0 2 2 2 0 2 
2 2 0 2 2 2 0 2 2 2 0 2 2 2 0 2 
2 2 0 1 1 1 0 1 1 1 0 1 1 1 0 1 
1 1 0 1 1 1 3655 3916 300 MP stroke
0 1 1 1 0 1 1 1 0 1 1 1 0 1 1 1 
0 1 1 1 0 1 1 1 0 1 2 2 0 2 2 2 
0 1 1 1 0 1 1 1 0 1 1 1 0 1 1 1 
0 1 1 1 0 1 1 1 0 1 1 1 0 1 1 1 
0 1 1 1 0 1 1 1 0 1 1 1 0 1 1 1 
0 1 2 2 0 1 1 1 0 1 1 1 0 1 1 1 
0 1 1 1 0 1 1 1 0 1 1 1 0 1 1 1 
0 1 1 1 0 1 1 1 0 1 2 2 0 2 2 2 
0 2 2 2 0 1 1 1 0 1 1 1 0 1 1 1 
0 1 2 2 0 2 2 2 0 2 2 2 0 2 2 2 
0 2 2 2 1 1 0 2 2 2 0 2 2 2 0 2 
2 2 0 1 1 1 0 1 1 1 0 1 1 1 0 1 
1 1 0 1 1 1 0 1 1 1 0 1 1 1 0 1 
1 1 1 1 0 1 1 1 0 1 1 1 0 1 1 1 
0 1 1 1 0 1 1 1 0 1 1 1 0 1 1 1 
0 1 1 1 1 1 0 2 2 2 0 2 2 2 1 1 
0 2 2 2 0 2 2 2 0 2 2 2 0 1 1 1 
0 1 1 1 0 1 1 1 0 1 1 1 0 1 1 1 
0 1 1 1 0 1 1 1 0 1 1 1 1 1 0 1 
1 1 0 1 1 1 0 1 1 1 0 1 2 2 0 2 
2 2 0 2 2 2 0 1 1 1 0 1 1 1 0 1 
1 1 0 1 1 1 1 1 0 1 1 1 0 1 1 1 
0 1 1 1 0 1 1 1 0 1 1 1 0 1 1 1 
1 1 0 2 2 2 0 2 2 2 0 1 1 1 0 1 
1 1 0 1 1 1 1 1 0 1 1 1 0 1 1 1 
0 1 1 1 0 1 1 1 0 1 1 1 1 1 0 2 
2 2 0 2 2 2 0 1 1 1 0 1 1 1 0 1 
1 1 1 1 0 1 1 1 0 1 1 1 0 1 1 1 
0 1 1 1 0 1 1 1 0 1 2 2 0 2 2 2 
0 1 1 1 0 1 1 1 0 1 1 1 0 1 1 1 
0 1 1 1 1 1 0 1 1 1 0 1 1 1 0 1 
2 2 0 2 2 2 0 1 1 1 0 1 1 1 0 1 
1 1 0 1 1 1 0 1 1 1 1 1 0 2 2 2 
0 1 2 2 0 2 2 2 0 1 1 1 0 1 1 1 
0 1 1 1 0 1 1 1 0 1 2 2 0 2 2 2 
0 1 1 1 1 1 0 1 1 1 0 1 1 1 0 1 
1 1 0 1 1 1 0 1 2 2 0 2 2 2 0 1 
1 1 0 1 1 1 3462 3553 300 MP stroke
0 1 1 1 1 1 0 2 2 2 0 1 2 2 0 2 
2 2 0 1 1 1 0 1 1 1 0 1 1 1 0 1 
2 2 0 2 2 2 0 1 1 1 0 1 1 1 0 1 
1 1 1 1 0 1 1 1 0 1 2 2 0 2 2 2 
0 1 1 1 0 1 1 1 0 1 1 1 1 1 0 2 
2 2 0 1 1 1 0 1 1 1 0 1 1 1 1 1 
0 1 1 1 0 1 1 1 1 1 0 2 2 2 0 1 
1 1 0 1 1 1 0 1 1 1 1 1 0 2 2 2 
0 1 1 1 0 1 1 1 1 1 0 1 1 1 0 1 
1 1 1 1 0 2 2 2 0 1 1 1 0 1 1 1 
0 1 1 1 1 1 0 2 2 2 0 1 1 1 0 1 
1 1 0 1 1 1 1 1 0 1 1 1 1 1 0 2 
2 2 0 1 1 1 0 1 1 1 1 1 0 2 2 2 
0 1 1 1 0 1 1 1 0 1 1 1 0 1 2 2 
1 1 0 2 2 2 0 1 1 1 0 1 1 1 1 1 
0 2 2 2 0 1 1 1 0 1 1 1 1 1 0 2 
2 2 0 1 1 1 1 1 0 1 1 1 0 1 1 1 
1 1 0 2 2 2 0 1 1 1 0 1 1 1 1 1 
0 2 2 2 0 1 1 1 0 1 1 1 0 1 2 2 
1 1 0 2 2 2 0 1 1 1 0 1 1 1 1 1 
0 2 2 2 0 1 1 1 0 1 1 1 1 1 0 2 
2 2 0 1 1 1 1 1 0 1 1 1 1 1 0 2 
2 2 0 1 1 1 0 1 1 1 1 1 0 2 2 2 
0 1 1 1 1 1 0 2 2 2 0 1 2 2 0 1 
1 1 0 1 1 1 0 1 2 2 0 1 1 1 0 1 
1 1 1 1 0 2 2 2 0 1 1 1 0 1 2 2 
1 1 0 2 2 2 0 1 1 1 1 1 0 2 2 2 
0 1 1 1 1 1 0 2 2 2 0 1 1 1 0 1 
1 1 0 1 2 2 0 1 2 2 0 1 1 1 1 1 
0 2 2 2 0 1 1 1 1 1 0 2 2 2 0 1 
1 1 1 1 0 2 2 2 0 1 2 2 0 1 1 1 
1 1 0 2 2 2 0 1 1 1 1 1 0 2 2 2 
0 1 1 1 0 1 2 2 0 1 1 1 0 1 1 1 
1 1 1 1 0 2 2 2 0 1 1 1 1 1 0 2 
2 2 0 1 1 1 0 1 2 2 0 1 1 1 0 1 
2 2 1 1 0 2 2 2 0 1 1 1 0 1 2 2 
0 1 1 1 1 1 0 2 2 2 0 1 1 1 0 1 
2 2 0 1 1 1 3242 3168 300 MP stroke
0 1 1 1 1 1 1 1 0 2 2 2 0 1 1 1 
0 1 2 2 0 1 1 1 1 1 0 2 2 2 0 1 
1 1 0 1 2 2 1 1 0 1 1 1 1 1 0 2 
2 2 0 1 1 1 0 1 2 2 0 1 1 1 1 1 
0 2 2 2 0 1 1 1 0 1 2 2 1 1 0 1 
1 1 1 1 0 2 2 2 0 1 1 1 0 1 2 2 
0 1 1 1 0 1 2 2 0 1 1 1 0 1 2 2 
0 1 2 2 0 1 1 1 0 1 2 2 0 1 1 1 
0 1 2 2 0 1 1 1 1 1 0 2 2 2 1 1 
0 2 2 2 1 1 0 1 1 1 0 1 2 2 0 1 
1 1 0 1 2 2 0 1 1 1 0 1 2 2 0 1 
1 1 1 1 0 2 2 2 1 1 0 1 1 1 0 1 
2 2 0 1 1 1 0 1 2 2 0 1 1 1 0 1 
2 2 0 1 1 1 0 1 2 2 0 1 1 1 1 1 
0 1 2 2 0 1 1 1 0 1 2 2 0 1 1 1 
0 1 2 2 0 1 1 1 0 1 2 2 0 1 1 1 
0 1 2 2 1 1 0 1 1 1 0 1 2 2 0 1 
1 1 0 1 2 2 1 1 0 2 2 2 1 1 0 2 
2 2 1 1 1 1 0 2 2 2 0 1 2 2 0 1 
1 1 0 1 2 2 0 1 1 1 0 1 2 2 1 1 
0 2 2 2 1 1 1 1 0 2 2 2 0 1 2 2 
0 1 1 1 0 1 2 2 0 1 1 1 0 1 2 2 
1 1 0 2 2 2 1 1 0 1 2 2 0 1 1 1 
0 1 2 2 1 1 0 2 2 2 0 1 2 2 0 1 
1 1 0 1 2 2 0 1 2 2 0 1 2 2 0 1 
2 2 0 1 1 1 0 1 2 2 0 1 2 2 0 1 
1 1 0 1 2 2 0 1 2 2 0 1 2 2 0 1 
2 2 0 1 1 1 0 1 2 2 0 1 2 2 0 1 
1 1 0 1 2 2 0 1 2 2 1 1 0 1 1 1 
0 1 2 2 0 1 2 2 0 1 1 1 0 1 2 2 
0 1 2 2 0 1 1 1 0 1 2 2 1 1 0 1 
2 2 0 1 1 1 0 1 2 2 0 1 2 2 0 1 
2 2 0 1 1 1 0 1 2 2 0 1 2 2 1 1 
0 1 1 1 0 1 2 2 0 1 2 2 0 1 2 2 
0 1 1 1 0 1 2 2 0 1 2 2 1 1 0 1 
2 2 0 1 1 1 0 1 2 2 0 1 2 2 0 1 
2 2 0 1 1 1 0 1 2 2 0 1 2 2 1 1 
0 1 2 2 1 1 2992 2769 300 MP stroke
0 2 2 2 0 1 2 2 0 1 2 2 0 1 2 2 
1 1 0 2 2 2 1 1 0 1 2 2 0 1 2 2 
0 1 2 2 0 1 2 2 0 1 1 1 0 1 2 2 
0 1 2 2 1 1 0 1 2 2 0 1 2 2 0 1 
2 2 1 1 0 2 2 2 0 1 2 2 0 1 2 2 
1 1 0 1 2 2 0 1 2 2 0 1 2 2 0 1 
2 2 0 1 2 2 0 1 1 1 0 1 2 2 1 1 
0 1 2 2 0 1 2 2 0 1 2 2 0 1 2 2 
0 1 2 2 0 1 2 2 0 1 2 2 1 1 0 1 
2 2 0 1 2 2 0 1 2 2 0 1 2 2 0 1 
2 2 0 1 2 2 0 1 2 2 1 1 0 1 2 2 
0 1 2 2 0 1 2 2 0 1 2 2 0 1 2 2 
0 1 2 2 0 1 2 2 1 1 0 1 2 2 0 1 
2 2 0 1 2 2 0 1 2 2 0 1 2 2 0 1 
2 2 1 1 0 1 2 2 0 1 2 2 0 1 2 2 
0 1 2 2 0 1 2 2 0 1 2 2 1 1 0 1 
2 2 1 1 0 1 2 2 0 1 2 2 0 1 2 2 
0 1 2 2 0 1 2 2 0 1 2 2 1 1 1 1 
0 1 2 2 0 1 2 2 0 1 2 2 0 1 2 2 
0 1 2 2 0 1 2 2 1 1 1 1 0 1 2 2 
0 1 2 2 0 1 2 2 0 1 2 2 1 1 0 1 
2 2 0 1 2 2 1 1 0 1 2 2 0 1 2 2 
1 1 0 1 2 2 0 1 2 2 0 1 2 2 0 1 
2 2 1 1 1 1 0 1 2 2 0 1 2 2 0 1 
2 2 1 1 0 1 2 2 0 1 2 2 0 1 2 2 
1 1 1 1 0 1 2 2 0 1 2 2 1 1 0 1 
2 2 0 1 2 2 0 1 2 2 1 1 1 1 0 1 
2 2 0 1 2 2 1 1 0 1 2 2 0 1 2 2 
0 1 2 2 1 1 0 1 2 2 1 1 0 1 2 2 
1 1 0 1 2 2 0 1 2 2 1 1 0 1 2 2 
0 1 2 2 1 1 1 1 0 1 2 2 1 1 0 1 
2 2 0 1 2 2 1 1 0 1 2 2 0 1 2 2 
1 1 0 1 2 2 1 1 0 1 2 2 1 1 0 1 
2 2 1 1 0 1 2 2 0 1 2 2 1 1 0 1 
2 2 1 1 1 1 0 1 2 2 0 1 2 2 1 1 
0 1 2 2 1 1 0 1 2 2 0 1 2 2 1 1 
1 1 0 1 2 2 1 1 0 1 2 2 1 1 0 1 
2 2 0 1 2 2 2695 2344 300 MP stroke
1 1 0 1 2 2 1 1 1 1 0 1 2 2 1 1 
0 1 2 2 1 1 0 1 2 2 1 1 0 1 2 2 
0 1 2 2 1 0 -1 0 2 2 1 1 0 1 2 2 
0 1 2 2 1 1 0 1 2 2 1 1 0 1 2 2 
1 1 1 1 0 1 2 2 1 1 0 1 2 2 1 1 
0 1 2 2 1 1 0 1 2 2 1 1 0 1 2 2 
1 0 -1 0 2 2 1 1 0 1 2 2 1 1 0 1 
2 2 1 1 0 1 2 2 1 1 0 1 2 2 1 1 
1 1 0 1 2 2 1 1 0 1 2 2 1 1 1 1 
0 1 2 2 1 1 0 1 2 2 1 1 1 1 0 1 
2 2 1 1 0 1 2 2 1 1 1 1 0 1 2 2 
1 1 0 1 2 2 1 1 1 1 1 1 0 1 2 2 
1 1 0 1 2 2 1 1 0 1 2 2 1 1 1 1 
0 1 2 2 1 1 1 1 0 1 2 2 1 1 1 1 
0 1 2 2 1 1 0 1 2 2 1 1 1 1 0 1 
2 2 1 1 1 1 1 1 0 1 2 2 1 1 0 1 
2 2 1 1 1 1 0 1 2 2 1 1 1 1 1 1 
0 1 2 2 1 1 1 1 0 1 2 2 1 1 0 1 
2 2 1 1 1 1 0 1 2 2 1 1 1 1 1 1 
0 1 2 2 1 1 1 1 0 1 2 2 1 1 1 1 
0 1 2 2 1 1 1 1 1 1 0 1 2 2 1 1 
1 1 0 1 2 2 1 1 1 1 0 1 2 2 1 1 
1 1 0 1 2 2 1 0 -1 0 2 2 1 1 1 1 
0 1 2 2 1 1 1 1 0 1 2 2 1 1 1 1 
0 1 2 2 1 0 -1 0 2 2 1 1 1 1 0 1 
2 2 1 1 1 1 1 1 0 1 2 2 1 1 1 1 
0 1 2 2 1 0 -1 0 2 2 1 1 1 1 0 1 
2 2 1 1 1 1 0 1 2 2 1 1 1 1 1 1 
1 1 1 1 0 1 2 2 1 1 1 1 0 1 2 2 
1 1 1 1 1 1 0 1 2 2 1 1 1 1 1 1 
1 1 1 1 0 1 2 2 1 1 1 1 0 1 2 2 
1 1 1 1 1 1 0 1 2 2 1 1 1 1 1 1 
1 1 1 1 0 1 2 2 1 1 1 1 1 1 0 1 
2 2 1 1 1 1 1 1 1 1 1 1 1 1 0 1 
2 2 1 1 1 1 1 1 0 1 2 2 1 1 1 1 
1 1 0 1 2 2 1 0 0 1 2 2 1 1 1 1 
1 1 0 1 2 2 1 1 1 1 1 1 1 1 0 1 
2 2 1 0 -1 0 2403 1982 300 MP stroke
2 2 1 1 1 1 1 1 1 1 0 1 2 2 1 1 
1 1 1 1 1 1 0 1 2 2 1 1 1 1 1 1 
1 1 1 1 1 1 0 1 2 2 1 1 1 1 1 1 
1 1 1 1 0 1 2 2 1 0 -1 0 2 2 1 1 
1 1 1 1 1 1 1 1 0 1 2 2 1 1 1 1 
1 1 1 1 0 1 2 2 1 0 0 1 2 2 1 1 
1 1 1 1 1 1 1 1 0 1 2 2 1 1 1 1 
1 1 1 1 1 1 1 1 1 1 1 1 0 1 2 2 
1 1 1 1 1 1 1 1 1 1 1 1 0 1 2 2 
1 1 1 0 -1 0 2 2 1 1 1 1 1 1 1 1 
1 1 1 1 0 1 2 2 1 1 1 1 1 1 1 1 
1 1 1 1 1 1 1 1 1 1 1 1 0 1 2 2 
1 1 1 1 1 1 1 1 1 1 1 1 1 1 1 1 
1 1 1 1 0 1 2 2 1 1 1 1 1 1 1 1 
1 1 1 1 1 1 1 1 1 1 1 1 1 1 1 1 
0 1 2 2 1 1 1 1 1 1 1 1 1 1 1 1 
1 1 1 1 1 1 1 1 1 1 1 1 1 1 0 1 
2 2 1 1 1 1 1 1 1 1 1 1 1 1 1 1 
1 1 1 1 1 1 1 1 1 1 1 1 1 1 0 1 
2 2 1 1 1 1 1 1 1 1 1 1 1 1 1 1 
1 1 1 1 1 1 1 1 1 1 1 1 1 1 1 1 
1 1 1 1 1 1 0 1 2 2 1 1 1 1 1 0 
1 1 0 1 2 2 1 1 1 1 1 1 1 1 1 1 
1 1 1 1 1 1 1 1 1 1 1 1 1 1 1 1 
1 1 1 1 1 1 1 1 1 1 1 1 1 1 1 1 
1 1 1 1 1 1 1 1 1 1 1 1 1 1 1 1 
1 1 1 1 1 1 1 1 1 1 0 1 2 2 1 1 
1 1 1 1 1 0 1 1 1 1 1 1 1 1 0 1 
2 2 1 1 1 1 1 1 1 1 1 1 1 1 1 1 
1 1 1 0 1 1 1 1 1 1 0 1 2 2 1 1 
1 1 1 1 1 1 1 1 1 1 1 1 1 1 1 0 
1 1 1 1 1 1 1 1 1 1 1 1 1 1 1 1 
1 1 1 1 1 1 1 1 1 1 1 1 1 1 1 1 
1 1 1 1 1 1 1 1 1 1 1 1 1 1 1 1 
1 1 1 1 1 1 1 1 1 1 1 1 1 1 1 1 
1 1 1 1 1 1 1 1 1 1 1 1 1 1 1 1 
1 1 1 1 1 0 1 1 1 1 1 1 1 1 1 1 
1 1 1 1 1 1 2105 1669 300 MP stroke
1 1 1 1 1 1 1 1 1 1 1 1 1 1 1 1 
1 1 1 1 1 1 1 1 1 1 1 1 1 1 1 0 
1 1 1 1 1 1 1 1 1 1 1 1 1 1 1 1 
1 1 1 1 1 1 1 1 1 1 1 1 1 1 1 1 
1 1 1 1 1 0 1 1 1 1 1 1 1 1 1 1 
1 1 1 1 1 1 1 1 1 1 1 1 1 1 1 1 
1 1 1 0 1 1 1 1 1 1 1 1 1 1 1 1 
1 1 1 1 1 1 1 1 1 1 1 0 1 1 1 1 
1 1 1 1 1 1 1 1 1 1 1 1 1 1 1 1 
1 0 1 1 1 1 1 1 1 1 1 1 1 1 1 1 
1 1 1 1 1 0 1 1 1 1 1 1 1 1 1 1 
1 1 1 1 1 1 1 1 1 1 1 0 1 1 1 1 
1 1 1 1 1 1 1 1 1 1 1 1 1 1 1 0 
1 1 1 1 1 1 1 1 1 1 1 1 1 1 1 0 
1 1 1 1 1 1 1 1 1 1 1 1 1 1 1 1 
1 1 1 0 1 1 1 1 1 1 1 1 1 1 1 1 
1 0 1 1 1 1 1 1 1 1 1 1 1 1 1 1 
1 0 1 1 1 1 1 1 1 1 1 1 1 1 1 1 
1 0 1 1 1 1 1 1 1 1 1 1 1 0 1 1 
1 1 1 1 1 1 1 1 1 1 1 1 1 1 1 0 
1 1 1 1 1 1 1 1 1 1 1 0 1 1 1 1 
1 1 1 1 1 1 1 1 1 0 1 1 1 1 1 1 
1 1 1 1 1 1 1 0 1 1 1 1 1 1 1 1 
1 1 1 0 1 1 1 1 1 1 1 1 1 1 1 1 
1 0 1 1 1 1 1 1 1 1 1 0 1 1 1 1 
1 1 1 1 1 1 1 0 1 1 1 1 1 1 1 1 
1 0 1 1 1 1 1 1 1 1 1 1 1 0 1 1 
1 1 1 1 1 1 1 1 1 1 1 0 1 1 1 1 
1 1 1 0 1 1 1 1 1 1 1 1 1 1 1 0 
1 1 1 1 1 1 1 1 1 1 1 0 1 1 1 1 
1 1 1 0 1 1 1 1 1 1 1 1 1 1 1 0 
1 1 1 1 1 1 1 1 1 0 1 1 1 1 1 1 
1 0 1 1 1 1 1 1 1 1 1 0 1 1 1 1 
1 1 1 1 1 0 1 1 1 1 1 1 1 0 1 1 
1 1 1 1 1 1 1 0 1 1 1 1 1 1 1 1 
1 0 1 1 1 1 1 1 1 0 1 1 1 1 1 1 
1 1 1 0 1 1 1 1 1 1 1 1 1 0 1 1 
1 1 1 0 1 1 1806 1411 300 MP stroke
1 1 1 1 1 1 1 0 1 1 1 1 1 1 1 0 
1 1 1 1 1 1 1 0 1 1 1 1 1 1 1 0 
1 1 1 1 1 1 1 1 1 0 1 1 1 1 1 1 
1 0 1 1 1 1 1 0 1 1 1 1 1 1 1 1 
1 0 1 1 1 1 1 1 1 0 1 1 1 1 1 0 
1 1 1 1 1 1 1 0 1 1 1 1 1 1 1 0 
1 1 1 1 1 1 1 0 1 1 1 1 1 0 1 1 
1 1 1 1 1 0 1 1 1 1 1 1 1 0 1 1 
1 1 1 1 1 0 1 1 1 1 1 0 1 1 1 1 
1 1 1 0 1 1 1 1 1 1 1 0 1 1 1 1 
1 1 1 0 1 1 1 0 1 1 1 1 1 1 1 0 
1 1 1 1 1 1 1 0 1 1 1 1 1 1 1 0 
1 1 1 0 1 1 1 1 1 1 1 0 1 1 1 1 
1 0 1 1 1 1 1 1 1 0 1 1 1 1 1 0 
1 1 1 1 1 0 1 1 1 1 1 1 1 0 1 1 
1 1 1 0 1 1 1 1 1 0 1 1 1 1 1 0 
1 1 1 1 1 0 1 1 1 1 1 1 1 0 1 1 
1 1 1 0 1 1 1 1 1 0 1 1 1 1 1 0 
1 1 1 1 1 0 1 1 1 1 1 0 1 1 1 1 
1 1 1 0 1 1 1 0 1 1 1 1 1 0 1 1 
1 1 1 0 1 1 1 1 1 0 1 1 1 1 1 1 
1 0 1 1 1 0 1 1 1 1 1 0 1 1 1 1 
1 0 1 1 1 1 1 0 1 1 1 1 1 0 1 1 
1 0 1 1 1 1 1 0 1 1 1 1 1 0 1 1 
1 1 1 0 1 1 1 1 1 0 1 1 1 1 1 0 
1 1 1 1 1 0 1 1 1 0 1 1 1 1 1 0 
1 1 1 1 1 0 1 1 1 1 1 0 1 1 1 0 
1 1 1 1 1 0 1 1 1 1 1 0 1 1 1 1 
1 0 1 1 1 0 1 1 1 1 1 0 1 1 1 0 
1 1 1 1 1 0 1 1 1 1 1 0 1 1 1 1 
1 0 1 1 1 0 1 1 1 0 1 1 1 1 1 0 
1 1 1 1 1 0 1 1 1 0 1 1 1 1 1 0 
1 1 1 0 1 1 1 1 1 0 1 1 1 0 1 1 
1 1 1 0 1 1 1 0 1 1 1 1 1 0 1 1 
1 0 1 1 1 1 1 0 1 1 1 0 1 1 1 1 
1 0 1 1 1 0 1 1 1 1 1 0 1 1 1 0 
1 1 1 0 1 1 1 1 1 0 1 1 1 0 1 1 
1 1 1 0 1 1 1507 1209 300 MP stroke
1 0 1 1 1 0 1 1 1 1 1 0 1 1 1 0 
1 1 1 0 1 1 1 1 1 0 1 1 1 0 1 1 
1 0 1 1 1 1 1 0 1 1 1 0 1 1 1 0 
1 1 1 1 1 0 1 1 1 0 1 1 1 0 1 1 
1 0 1 1 1 1 1 0 1 1 1 0 1 1 1 0 
1 1 1 0 1 1 1 1 1 0 1 1 1 0 1 1 
1 0 1 1 1 0 1 1 1 0 1 1 1 1 1 0 
1 1 1 0 1 1 1 0 1 1 1 0 1 1 1 0 
1 1 1 0 1 1 1 1 1 0 1 1 1 0 1 1 
1 0 1 1 1 0 1 1 1 0 1 1 1 0 1 1 
1 0 1 1 1 1 1 0 1 1 1 0 1 1 1 0 
1 1 1 0 1 1 1 0 1 1 1 0 1 1 1 0 
1 1 1 0 1 1 1 0 1 1 1 0 1 1 1 0 
1 1 1 0 1 1 1 0 1 1 1 0 1 1 1 1 
1 0 1 1 1 0 1 1 1 0 1 0 1 1 1 1 
1 0 1 1 1 0 1 1 1 0 1 1 1 0 1 1 
1 0 1 1 1 0 1 0 1 1 1 0 1 1 1 0 
1 1 1 0 1 1 1 0 1 1 1 0 1 1 1 0 
1 1 1 0 1 1 1 0 1 1 1 0 1 1 1 0 
1 1 1 0 1 1 1 0 1 1 1 0 1 1 1 0 
1 1 1 0 1 1 1 0 1 0 1 1 1 0 1 1 
1 0 1 1 1 0 1 1 1 0 1 1 1 0 1 1 
1 0 1 1 1 0 1 1 1 0 1 0 1 1 1 0 
1 1 1 0 1 1 1 0 1 1 1 0 1 1 1 0 
1 1 1 0 1 0 1 1 1 0 1 1 1 0 1 1 
1 0 1 1 1 0 1 0 1 1 1 0 1 1 1 0 
1 1 1 0 1 1 1 0 1 1 1 0 1 0 1 1 
1 0 1 1 1 0 1 1 1 0 1 0 1 1 1 0 
1 1 1 0 1 1 1 0 1 1 1 0 1 0 1 1 
1 0 1 1 1 0 1 1 1 0 1 0 1 1 1 0 
1 1 1 0 1 1 1 0 1 0 1 1 1 0 1 1 
1 0 1 0 1 1 1 0 1 1 1 0 1 1 1 0 
1 0 1 1 1 0 1 1 1 0 1 0 1 1 1 0 
1 1 1 0 1 1 1 0 1 0 1 1 1 0 1 1 
1 0 1 0 1 1 1 0 1 1 1 0 1 0 1 1 
1 0 1 1 1 0 1 0 1 1 1 0 1 1 1 0 
1 0 1 1 1 0 1 1 1 0 1 0 1 1 1 0 
1 1 1 0 1 0 1208 1065 300 MP stroke
1 1 1 0 1 1 1 0 1 0 1 1 1 0 1 0 
1 1 1 0 1 1 1 0 1 0 1 1 1 0 1 1 
1 0 1 0 1 1 1 0 1 0 1 1 1 0 1 0 
1 1 1 0 1 1 1 0 1 0 1 1 1 0 1 0 
1 1 1 0 1 0 1 1 1 0 1 1 1 0 1 0 
1 1 1 0 1 0 1 1 1 0 1 1 1 0 1 0 
1 1 1 0 1 0 1 1 1 0 1 0 1 1 1 0 
1 0 1 1 1 0 1 1 1 0 1 0 1 1 1 0 
1 0 1 1 1 0 1 0 1 1 1 0 1 0 1 1 
1 0 1 0 1 1 1 0 1 0 1 1 1 0 1 0 
1 1 1 0 1 0 1 1 1 0 1 0 1 1 1 0 
1 0 1 1 1 0 1 0 1 1 1 0 1 0 1 1 
1 0 1 0 1 1 1 0 1 0 1 1 1 0 1 0 
1 1 1 0 1 0 1 1 1 0 1 0 1 1 1 0 
1 0 1 1 1 0 1 0 1 1 1 0 1 0 1 0 
1 1 1 0 1 0 1 1 1 0 1 0 1 1 1 0 
1 0 1 1 1 0 1 0 1 0 1 1 1 0 1 0 
1 1 1 0 1 0 1 1 1 0 1 0 1 0 1 1 
1 0 1 0 1 1 1 0 1 0 1 1 1 0 1 0 
1 0 1 1 1 0 1 0 1 1 1 0 1 0 1 0 
1 1 1 0 1 0 1 1 1 0 1 0 1 0 1 1 
1 0 1 0 1 1 1 0 1 0 1 0 1 1 1 0 
1 0 1 1 1 0 1 0 1 0 1 1 1 0 1 0 
1 0 1 1 1 0 1 0 1 1 1 0 1 0 1 0 
1 1 1 0 1 0 1 0 1 1 1 0 1 0 1 0 
1 1 1 0 1 0 1 0 1 1 1 0 1 0 1 1 
1 0 1 0 1 0 1 0 1 1 1 0 1 0 1 1 
1 0 1 0 1 0 1 1 1 0 1 0 1 0 1 0 
1 1 1 0 1 0 1 0 1 1 1 0 1 0 1 0 
1 1 1 0 1 0 1 0 1 1 1 0 1 0 1 0 
1 1 1 0 1 0 1 0 1 1 1 0 1 0 1 0 
1 1 1 0 1 0 1 0 1 0 1 1 1 0 1 0 
1 0 1 1 1 0 1 0 1 0 1 0 1 1 1 0 
1 0 1 0 1 1 1 0 1 0 1 0 1 0 1 1 
1 0 1 0 1 0 1 1 1 0 1 0 1 0 1 0 
1 1 1 0 1 0 1 0 1 0 1 1 1 0 1 0 
1 0 1 0 1 1 1 0 1 0 1 0 1 0 1 1 
1 0 1 0 1 0 909 977 300 MP stroke
1 0 1 1 1 0 1 0 1 0 1 0 1 1 1 0 
1 0 1 0 1 0 1 1 1 0 1 0 1 0 1 0 
1 1 1 0 1 0 1 0 1 0 1 0 1 1 1 0 
1 0 1 0 1 0 1 1 1 0 1 0 1 0 1 0 
1 0 1 1 1 0 1 0 1 0 1 0 1 1 1 0 
1 0 1 0 1 0 1 0 1 1 1 0 1 0 1 0 
1 0 1 0 1 1 1 0 1 0 1 0 1 0 1 0 
1 1 1 0 1 0 1 0 1 0 1 0 1 1 1 0 
1 0 1 0 1 0 1 0 1 0 1 1 1 0 1 0 
1 0 1 0 1 0 1 1 1 0 1 0 1 0 1 0 
1 0 1 0 1 1 1 0 1 0 1 0 1 0 1 0 
1 0 1 1 1 0 1 0 1 0 1 0 1 0 1 0 
1 1 1 0 1 0 1 0 1 0 1 0 1 0 1 1 
1 0 1 0 1 0 1 0 1 0 1 0 1 0 1 1 
1 0 1 0 1 0 1 0 1 0 1 0 1 0 1 1 
1 0 1 0 1 0 1 0 1 0 1 0 1 0 1 1 
1 0 1 0 1 0 1 0 1 0 1 0 1 0 1 0 
1 1 1 0 1 0 1 0 1 0 1 0 1 0 1 0 
1 0 1 1 1 0 1 0 1 0 1 0 1 0 1 0 
1 0 1 0 1 0 1 1 1 0 1 0 1 0 1 0 
1 0 1 0 1 0 1 0 1 0 1 1 1 0 1 0 
1 0 1 0 1 0 1 0 1 0 1 0 1 0 1 0 
1 1 1 0 1 0 1 0 1 0 1 0 1 0 1 0 
1 0 1 0 1 0 1 0 1 1 1 0 1 0 1 0 
1 0 1 0 1 0 1 0 1 0 1 0 1 0 1 0 
1 0 1 1 1 0 1 0 1 0 1 0 1 0 1 0 
1 0 1 0 1 0 1 0 1 0 1 0 1 0 1 0 
1 1 1 0 1 0 1 0 1 0 1 0 1 0 1 0 
1 0 1 0 1 0 1 0 1 0 1 0 1 0 1 0 
1 0 1 0 1 1 1 0 1 0 1 0 1 0 1 0 
1 0 1 0 1 0 1 0 1 0 1 0 1 0 1 0 
1 0 1 0 1 0 1 0 1 0 1 0 1 0 1 0 
1 0 1 1 1 0 1 0 1 0 1 0 1 0 1 0 
1 0 1 0 1 0 1 0 1 0 1 0 1 0 1 0 
1 0 1 0 1 0 1 0 1 0 1 0 1 0 1 0 
1 0 1 0 1 0 1 0 1 0 1 0 1 0 1 0 
1 0 1 0 1 0 1 0 1 0 1 0 1 0 1 0 
1 0 1 0 1 0 610 946 300 MP stroke
1 0 1 0 1 0 1 0 1 0 1 0 1 0 1 0 
1 0 1 0 1 0 1 0 1 0 1 0 596 946 15 MP stroke
36 w
gs 3227 3194 496 784 rc
/c9 { 0.000000 1.000000 1.000000 sr} bdef
c9
  18   18 3301 3268 FO
  18   18 3302 3269 FO
  18   18 3302 3270 FO
  18   18 3303 3271 FO
  18   18 3303 3272 FO
  18   18 3304 3273 FO
  18   18 3304 3274 FO
  18   18 3305 3274 FO
  18   18 3305 3275 FO
  18   18 3305 3276 FO
  18   18 3306 3276 FO
  18   18 3306 3277 FO
  18   18 3307 3278 FO
  18   18 3307 3279 FO
  18   18 3308 3280 FO
  18   18 3308 3281 FO
  18   18 3309 3281 FO
  18   18 3309 3282 FO
  18   18 3309 3283 FO
  18   18 3310 3283 FO
  18   18 3310 3284 FO
  18   18 3311 3285 FO
  18   18 3311 3286 FO
  18   18 3312 3287 FO
  18   18 3312 3288 FO
  18   18 3313 3288 FO
  18   18 3313 3289 FO
  18   18 3313 3290 FO
  18   18 3314 3290 FO
  18   18 3314 3291 FO
  18   18 3315 3291 FO
  18   18 3315 3292 FO
  18   18 3315 3293 FO
  18   18 3316 3293 FO
  18   18 3316 3294 FO
  18   18 3317 3295 FO
  18   18 3317 3296 FO
  18   18 3318 3297 FO
  18   18 3318 3298 FO
  18   18 3319 3298 FO
  18   18 3319 3299 FO
  18   18 3319 3300 FO
  18   18 3320 3300 FO
  18   18 3320 3301 FO
  18   18 3321 3302 FO
  18   18 3321 3303 FO
  18   18 3322 3304 FO
  18   18 3322 3305 FO
  18   18 3323 3306 FO
  18   18 3323 3307 FO
  18   18 3324 3307 FO
  18   18 3324 3308 FO
  18   18 3325 3309 FO
  18   18 3325 3310 FO
  18   18 3326 3311 FO
  18   18 3326 3312 FO
  18   18 3327 3313 FO
  18   18 3327 3314 FO
  18   18 3328 3314 FO
  18   18 3328 3315 FO
  18   18 3329 3316 FO
  18   18 3329 3317 FO
  18   18 3330 3317 FO
  18   18 3330 3318 FO
  18   18 3330 3319 FO
  18   18 3331 3319 FO
  18   18 3331 3320 FO
  18   18 3332 3321 FO
  18   18 3332 3322 FO
  18   18 3333 3323 FO
  18   18 3333 3324 FO
  18   18 3334 3324 FO
  18   18 3334 3325 FO
  18   18 3334 3326 FO
  18   18 3335 3326 FO
  18   18 3335 3327 FO
  18   18 3336 3328 FO
  18   18 3336 3329 FO
  18   18 3337 3330 FO
  18   18 3337 3331 FO
  18   18 3338 3332 FO
  18   18 3338 3333 FO
  18   18 3339 3333 FO
  18   18 3339 3334 FO
  18   18 3339 3335 FO
  18   18 3340 3335 FO
  18   18 3340 3336 FO
  18   18 3341 3337 FO
  18   18 3341 3338 FO
  18   18 3342 3339 FO
  18   18 3343 3340 FO
  18   18 3343 3341 FO
  18   18 3344 3342 FO
  18   18 3344 3343 FO
  18   18 3345 3343 FO
  18   18 3345 3344 FO
  18   18 3345 3345 FO
  18   18 3346 3345 FO
  18   18 3346 3346 FO
  18   18 3347 3347 FO
  18   18 3347 3348 FO
  18   18 3348 3349 FO
  18   18 3348 3350 FO
  18   18 3349 3351 FO
  18   18 3349 3352 FO
  18   18 3350 3352 FO
  18   18 3350 3353 FO
  18   18 3350 3354 FO
  18   18 3351 3354 FO
  18   18 3351 3355 FO
  18   18 3352 3356 FO
  18   18 3352 3357 FO
  18   18 3353 3358 FO
  18   18 3353 3359 FO
  18   18 3354 3360 FO
  18   18 3354 3361 FO
  18   18 3355 3361 FO
  18   18 3355 3362 FO
  18   18 3355 3363 FO
  18   18 3356 3363 FO
  18   18 3356 3364 FO
  18   18 3357 3365 FO
  18   18 3357 3366 FO
  18   18 3358 3366 FO
  18   18 3358 3367 FO
  18   18 3359 3368 FO
  18   18 3359 3369 FO
  18   18 3360 3370 FO
  18   18 3360 3371 FO
  18   18 3361 3372 FO
  18   18 3361 3373 FO
  18   18 3362 3373 FO
  18   18 3362 3374 FO
  18   18 3362 3375 FO
  18   18 3363 3375 FO
  18   18 3363 3376 FO
  18   18 3364 3377 FO
  18   18 3364 3378 FO
  18   18 3365 3379 FO
  18   18 3365 3380 FO
  18   18 3366 3381 FO
  18   18 3366 3382 FO
  18   18 3367 3382 FO
  18   18 3367 3383 FO
  18   18 3367 3384 FO
  18   18 3368 3384 FO
  18   18 3368 3385 FO
  18   18 3369 3386 FO
  18   18 3369 3387 FO
  18   18 3370 3388 FO
  18   18 3370 3389 FO
  18   18 3371 3390 FO
  18   18 3372 3391 FO
  18   18 3372 3392 FO
  18   18 3373 3393 FO
  18   18 3373 3394 FO
  18   18 3374 3394 FO
  18   18 3374 3395 FO
  18   18 3374 3396 FO
  18   18 3375 3396 FO
  18   18 3375 3397 FO
  18   18 3376 3398 FO
  18   18 3376 3399 FO
  18   18 3377 3400 FO
  18   18 3377 3401 FO
  18   18 3378 3402 FO
  18   18 3378 3403 FO
  18   18 3379 3403 FO
  18   18 3379 3404 FO
  18   18 3379 3405 FO
  18   18 3380 3405 FO
  18   18 3380 3406 FO
  18   18 3381 3407 FO
  18   18 3381 3408 FO
  18   18 3382 3409 FO
  18   18 3382 3410 FO
  18   18 3383 3411 FO
  18   18 3383 3412 FO
  18   18 3384 3412 FO
  18   18 3384 3413 FO
  18   18 3384 3414 FO
  18   18 3385 3414 FO
  18   18 3385 3415 FO
  18   18 3386 3416 FO
  18   18 3386 3417 FO
  18   18 3387 3417 FO
  18   18 3387 3418 FO
  18   18 3388 3419 FO
  18   18 3388 3420 FO
  18   18 3389 3421 FO
  18   18 3389 3422 FO
  18   18 3390 3423 FO
  18   18 3390 3424 FO
  18   18 3391 3425 FO
  18   18 3391 3426 FO
  18   18 3392 3426 FO
  18   18 3392 3427 FO
  18   18 3392 3428 FO
  18   18 3393 3428 FO
  18   18 3393 3429 FO
  18   18 3394 3430 FO
  18   18 3394 3431 FO
  18   18 3395 3432 FO
  18   18 3395 3433 FO
  18   18 3396 3434 FO
  18   18 3396 3435 FO
  18   18 3397 3435 FO
  18   18 3397 3436 FO
  18   18 3397 3437 FO
  18   18 3398 3437 FO
  18   18 3398 3438 FO
  18   18 3399 3439 FO
  18   18 3399 3440 FO
  18   18 3400 3441 FO
  18   18 3401 3442 FO
  18   18 3401 3443 FO
  18   18 3402 3444 FO
  18   18 3402 3445 FO
  18   18 3403 3446 FO
  18   18 3403 3447 FO
  18   18 3404 3448 FO
  18   18 3404 3449 FO
  18   18 3405 3449 FO
  18   18 3405 3450 FO
  18   18 3405 3451 FO
  18   18 3406 3451 FO
  18   18 3406 3452 FO
  18   18 3407 3453 FO
  18   18 3407 3454 FO
  18   18 3408 3455 FO
  18   18 3408 3456 FO
  18   18 3409 3457 FO
  18   18 3409 3458 FO
  18   18 3410 3459 FO
  18   18 3410 3460 FO
  18   18 3411 3460 FO
  18   18 3411 3461 FO
  18   18 3411 3462 FO
  18   18 3412 3462 FO
  18   18 3412 3463 FO
  18   18 3413 3464 FO
  18   18 3413 3465 FO
  18   18 3414 3466 FO
  18   18 3414 3467 FO
  18   18 3415 3468 FO
  18   18 3416 3469 FO
  18   18 3416 3470 FO
  18   18 3417 3471 FO
  18   18 3417 3472 FO
  18   18 3418 3473 FO
  18   18 3418 3474 FO
  18   18 3419 3474 FO
  18   18 3419 3475 FO
  18   18 3419 3476 FO
  18   18 3420 3476 FO
  18   18 3420 3477 FO
  18   18 3421 3478 FO
  18   18 3421 3479 FO
  18   18 3422 3480 FO
  18   18 3422 3481 FO
  18   18 3423 3482 FO
  18   18 3423 3483 FO
  18   18 3424 3484 FO
  18   18 3424 3485 FO
  18   18 3425 3485 FO
  18   18 3425 3486 FO
  18   18 3425 3487 FO
  18   18 3426 3487 FO
  18   18 3426 3488 FO
  18   18 3427 3489 FO
  18   18 3427 3490 FO
  18   18 3428 3491 FO
  18   18 3428 3492 FO
  18   18 3429 3493 FO
  18   18 3430 3494 FO
  18   18 3430 3495 FO
  18   18 3431 3496 FO
  18   18 3431 3497 FO
  18   18 3432 3498 FO
  18   18 3432 3499 FO
  18   18 3433 3500 FO
  18   18 3433 3501 FO
  18   18 3434 3501 FO
  18   18 3434 3502 FO
  18   18 3434 3503 FO
  18   18 3435 3503 FO
  18   18 3435 3504 FO
  18   18 3436 3505 FO
  18   18 3436 3506 FO
  18   18 3437 3507 FO
  18   18 3437 3508 FO
  18   18 3438 3509 FO
  18   18 3438 3510 FO
  18   18 3439 3511 FO
  18   18 3439 3512 FO
  18   18 3440 3512 FO
  18   18 3440 3513 FO
  18   18 3440 3514 FO
  18   18 3441 3514 FO
  18   18 3441 3515 FO
  18   18 3441 3516 FO
  18   18 3442 3516 FO
  18   18 3442 3517 FO
  18   18 3443 3518 FO
  18   18 3443 3519 FO
  18   18 3444 3520 FO
  18   18 3445 3521 FO
  18   18 3445 3522 FO
  18   18 3446 3523 FO
  18   18 3446 3524 FO
  18   18 3447 3525 FO
  18   18 3447 3526 FO
  18   18 3448 3527 FO
  18   18 3448 3528 FO
  18   18 3449 3528 FO
  18   18 3449 3529 FO
  18   18 3449 3530 FO
  18   18 3450 3530 FO
  18   18 3450 3531 FO
  18   18 3450 3532 FO
  18   18 3451 3532 FO
  18   18 3451 3533 FO
  18   18 3452 3534 FO
  18   18 3452 3535 FO
  18   18 3453 3536 FO
  18   18 3453 3537 FO
  18   18 3454 3538 FO
  18   18 3454 3539 FO
  18   18 3455 3540 FO
  18   18 3455 3541 FO
  18   18 3456 3541 FO
  18   18 3456 3542 FO
  18   18 3456 3543 FO
  18   18 3457 3543 FO
  18   18 3457 3544 FO
  18   18 3457 3545 FO
  18   18 3458 3545 FO
  18   18 3458 3546 FO
  18   18 3459 3546 FO
  18   18 3459 3547 FO
  18   18 3459 3548 FO
  18   18 3460 3548 FO
  18   18 3460 3549 FO
  18   18 3460 3550 FO
  18   18 3461 3550 FO
  18   18 3461 3551 FO
  18   18 3462 3552 FO
  18   18 3462 3553 FO
  18   18 3463 3554 FO
  18   18 3463 3555 FO
  18   18 3464 3556 FO
  18   18 3464 3557 FO
  18   18 3465 3558 FO
  18   18 3465 3559 FO
  18   18 3466 3559 FO
  18   18 3466 3560 FO
  18   18 3466 3561 FO
  18   18 3467 3561 FO
  18   18 3467 3562 FO
  18   18 3467 3563 FO
  18   18 3468 3563 FO
  18   18 3468 3564 FO
  18   18 3469 3565 FO
  18   18 3469 3566 FO
  18   18 3470 3567 FO
  18   18 3470 3568 FO
  18   18 3471 3569 FO
  18   18 3471 3570 FO
  18   18 3472 3571 FO
  18   18 3472 3572 FO
  18   18 3473 3573 FO
  18   18 3474 3574 FO
  18   18 3474 3575 FO
  18   18 3475 3576 FO
  18   18 3475 3577 FO
  18   18 3476 3577 FO
  18   18 3476 3578 FO
  18   18 3476 3579 FO
  18   18 3477 3579 FO
  18   18 3477 3580 FO
  18   18 3477 3581 FO
  18   18 3478 3581 FO
  18   18 3478 3582 FO
  18   18 3479 3583 FO
  18   18 3479 3584 FO
  18   18 3480 3585 FO
  18   18 3480 3586 FO
  18   18 3481 3587 FO
  18   18 3481 3588 FO
  18   18 3482 3589 FO
  18   18 3482 3590 FO
  18   18 3483 3591 FO
  18   18 3483 3592 FO
  18   18 3484 3592 FO
  18   18 3484 3593 FO
  18   18 3484 3594 FO
  18   18 3485 3594 FO
  18   18 3485 3595 FO
  18   18 3485 3596 FO
  18   18 3486 3596 FO
  18   18 3486 3597 FO
  18   18 3487 3598 FO
  18   18 3487 3599 FO
  18   18 3488 3599 FO
  18   18 3488 3600 FO
  18   18 3488 3601 FO
  18   18 3489 3601 FO
  18   18 3489 3602 FO
  18   18 3490 3603 FO
  18   18 3490 3604 FO
  18   18 3491 3605 FO
  18   18 3491 3606 FO
  18   18 3492 3607 FO
  18   18 3492 3608 FO
  18   18 3493 3609 FO
  18   18 3493 3610 FO
  18   18 3494 3611 FO
  18   18 3494 3612 FO
  18   18 3495 3613 FO
  18   18 3495 3614 FO
  18   18 3496 3614 FO
  18   18 3496 3615 FO
  18   18 3496 3616 FO
  18   18 3497 3616 FO
  18   18 3497 3617 FO
  18   18 3497 3618 FO
  18   18 3498 3618 FO
  18   18 3498 3619 FO
  18   18 3499 3620 FO
  18   18 3499 3621 FO
  18   18 3500 3622 FO
  18   18 3500 3623 FO
  18   18 3501 3624 FO
  18   18 3502 3625 FO
  18   18 3502 3626 FO
  18   18 3503 3627 FO
  18   18 3503 3628 FO
  18   18 3504 3629 FO
  18   18 3504 3630 FO
  18   18 3505 3631 FO
  18   18 3505 3632 FO
  18   18 3506 3633 FO
  18   18 3506 3634 FO
  18   18 3507 3635 FO
  18   18 3507 3636 FO
  18   18 3508 3636 FO
  18   18 3508 3637 FO
  18   18 3508 3638 FO
  18   18 3509 3638 FO
  18   18 3509 3639 FO
  18   18 3509 3640 FO
  18   18 3510 3640 FO
  18   18 3510 3641 FO
  18   18 3511 3642 FO
  18   18 3511 3643 FO
  18   18 3512 3644 FO
  18   18 3512 3645 FO
  18   18 3513 3646 FO
  18   18 3513 3647 FO
  18   18 3514 3648 FO
  18   18 3514 3649 FO
  18   18 3515 3650 FO
  18   18 3515 3651 FO
  18   18 3516 3652 FO
  18   18 3517 3653 FO
  18   18 3517 3654 FO
  18   18 3518 3655 FO
  18   18 3518 3656 FO
  18   18 3519 3657 FO
  18   18 3519 3658 FO
  18   18 3520 3659 FO
  18   18 3520 3660 FO
  18   18 3521 3660 FO
  18   18 3521 3661 FO
  18   18 3521 3662 FO
  18   18 3522 3662 FO
  18   18 3522 3663 FO
  18   18 3522 3664 FO
  18   18 3523 3664 FO
  18   18 3523 3665 FO
  18   18 3523 3666 FO
  18   18 3524 3666 FO
  18   18 3524 3667 FO
  18   18 3525 3668 FO
  18   18 3525 3669 FO
  18   18 3526 3670 FO
  18   18 3526 3671 FO
  18   18 3527 3672 FO
  18   18 3527 3673 FO
  18   18 3528 3674 FO
  18   18 3528 3675 FO
  18   18 3529 3676 FO
  18   18 3529 3677 FO
  18   18 3530 3678 FO
  18   18 3531 3679 FO
  18   18 3531 3680 FO
  18   18 3532 3681 FO
  18   18 3532 3682 FO
  18   18 3533 3683 FO
  18   18 3533 3684 FO
  18   18 3534 3685 FO
  18   18 3534 3686 FO
  18   18 3535 3686 FO
  18   18 3535 3687 FO
  18   18 3535 3688 FO
  18   18 3536 3688 FO
  18   18 3536 3689 FO
  18   18 3536 3690 FO
  18   18 3537 3690 FO
  18   18 3537 3691 FO
  18   18 3537 3692 FO
  18   18 3538 3692 FO
  18   18 3538 3693 FO
  18   18 3539 3694 FO
  18   18 3539 3695 FO
  18   18 3540 3696 FO
  18   18 3540 3697 FO
  18   18 3541 3698 FO
  18   18 3541 3699 FO
  18   18 3542 3700 FO
  18   18 3542 3701 FO
  18   18 3543 3702 FO
  18   18 3543 3703 FO
  18   18 3544 3704 FO
  18   18 3544 3705 FO
  18   18 3545 3706 FO
  18   18 3546 3707 FO
  18   18 3546 3708 FO
  18   18 3547 3709 FO
  18   18 3547 3710 FO
  18   18 3548 3711 FO
  18   18 3548 3712 FO
  18   18 3549 3713 FO
  18   18 3549 3714 FO
  18   18 3550 3715 FO
  18   18 3550 3716 FO
  18   18 3551 3716 FO
  18   18 3551 3717 FO
  18   18 3551 3718 FO
  18   18 3552 3718 FO
  18   18 3552 3719 FO
  18   18 3552 3720 FO
  18   18 3553 3720 FO
  18   18 3553 3721 FO
  18   18 3553 3722 FO
  18   18 3554 3722 FO
  18   18 3554 3723 FO
  18   18 3554 3724 FO
  18   18 3555 3724 FO
  18   18 3555 3725 FO
  18   18 3556 3726 FO
  18   18 3556 3727 FO
  18   18 3557 3728 FO
  18   18 3557 3729 FO
  18   18 3558 3730 FO
  18   18 3558 3731 FO
  18   18 3559 3732 FO
  18   18 3560 3733 FO
  18   18 3560 3734 FO
  18   18 3561 3735 FO
  18   18 3561 3736 FO
  18   18 3562 3737 FO
  18   18 3562 3738 FO
  18   18 3563 3739 FO
  18   18 3563 3740 FO
  18   18 3564 3741 FO
  18   18 3564 3742 FO
  18   18 3565 3743 FO
  18   18 3565 3744 FO
  18   18 3566 3745 FO
  18   18 3566 3746 FO
  18   18 3567 3747 FO
  18   18 3567 3748 FO
  18   18 3568 3749 FO
  18   18 3568 3750 FO
  18   18 3569 3750 FO
  18   18 3569 3751 FO
  18   18 3569 3752 FO
  18   18 3570 3752 FO
  18   18 3570 3753 FO
  18   18 3570 3754 FO
  18   18 3571 3754 FO
  18   18 3571 3755 FO
  18   18 3571 3756 FO
  18   18 3572 3756 FO
  18   18 3572 3757 FO
  18   18 3572 3758 FO
  18   18 3573 3758 FO
  18   18 3573 3759 FO
  18   18 3573 3760 FO
  18   18 3574 3760 FO
  18   18 3574 3761 FO
  18   18 3575 3761 FO
  18   18 3575 3762 FO
  18   18 3575 3763 FO
  18   18 3576 3763 FO
  18   18 3576 3764 FO
  18   18 3576 3765 FO
  18   18 3577 3765 FO
  18   18 3577 3766 FO
  18   18 3577 3767 FO
  18   18 3578 3767 FO
  18   18 3578 3768 FO
  18   18 3578 3769 FO
  18   18 3579 3769 FO
  18   18 3579 3770 FO
  18   18 3580 3771 FO
  18   18 3580 3772 FO
  18   18 3581 3773 FO
  18   18 3581 3774 FO
  18   18 3582 3775 FO
  18   18 3582 3776 FO
  18   18 3583 3777 FO
  18   18 3583 3778 FO
  18   18 3584 3779 FO
  18   18 3584 3780 FO
  18   18 3585 3781 FO
  18   18 3585 3782 FO
  18   18 3586 3783 FO
  18   18 3586 3784 FO
  18   18 3587 3785 FO
  18   18 3587 3786 FO
  18   18 3588 3787 FO
  18   18 3589 3788 FO
  18   18 3589 3789 FO
  18   18 3590 3790 FO
  18   18 3590 3791 FO
  18   18 3591 3792 FO
  18   18 3591 3793 FO
  18   18 3592 3794 FO
  18   18 3592 3795 FO
  18   18 3593 3796 FO
  18   18 3593 3797 FO
  18   18 3594 3798 FO
  18   18 3594 3799 FO
  18   18 3595 3800 FO
  18   18 3595 3801 FO
  18   18 3596 3802 FO
  18   18 3596 3803 FO
  18   18 3597 3804 FO
  18   18 3597 3805 FO
  18   18 3598 3805 FO
  18   18 3598 3806 FO
  18   18 3598 3807 FO
  18   18 3599 3807 FO
  18   18 3599 3808 FO
  18   18 3599 3809 FO
  18   18 3600 3809 FO
  18   18 3600 3810 FO
  18   18 3600 3811 FO
  18   18 3601 3811 FO
  18   18 3601 3812 FO
  18   18 3601 3813 FO
  18   18 3602 3813 FO
  18   18 3602 3814 FO
  18   18 3602 3815 FO
  18   18 3603 3815 FO
  18   18 3603 3816 FO
  18   18 3604 3817 FO
  18   18 3604 3818 FO
  18   18 3605 3818 FO
  18   18 3605 3819 FO
  18   18 3605 3820 FO
  18   18 3606 3820 FO
  18   18 3606 3821 FO
  18   18 3606 3822 FO
  18   18 3607 3822 FO
  18   18 3607 3823 FO
  18   18 3607 3824 FO
  18   18 3608 3824 FO
  18   18 3608 3825 FO
  18   18 3608 3826 FO
  18   18 3609 3826 FO
  18   18 3609 3827 FO
  18   18 3609 3828 FO
  18   18 3610 3828 FO
  18   18 3610 3829 FO
  18   18 3610 3830 FO
  18   18 3611 3830 FO
  18   18 3611 3831 FO
  18   18 3611 3832 FO
  18   18 3612 3832 FO
  18   18 3612 3833 FO
  18   18 3612 3834 FO
  18   18 3613 3834 FO
  18   18 3613 3835 FO
  18   18 3614 3836 FO
  18   18 3614 3837 FO
  18   18 3615 3838 FO
  18   18 3615 3839 FO
  18   18 3616 3840 FO
  18   18 3616 3841 FO
  18   18 3617 3842 FO
  18   18 3617 3843 FO
  18   18 3618 3843 FO
  18   18 3618 3844 FO
  18   18 3618 3845 FO
  18   18 3619 3845 FO
  18   18 3619 3846 FO
  18   18 3619 3847 FO
  18   18 3620 3847 FO
  18   18 3620 3848 FO
  18   18 3620 3849 FO
  18   18 3621 3849 FO
  18   18 3621 3850 FO
  18   18 3621 3851 FO
  18   18 3622 3851 FO
  18   18 3622 3852 FO
  18   18 3623 3853 FO
  18   18 3623 3854 FO
  18   18 3624 3855 FO
  18   18 3624 3856 FO
  18   18 3625 3857 FO
  18   18 3625 3858 FO
  18   18 3626 3859 FO
  18   18 3626 3860 FO
  18   18 3627 3861 FO
  18   18 3627 3862 FO
  18   18 3628 3863 FO
  18   18 3628 3864 FO
  18   18 3629 3865 FO
  18   18 3629 3866 FO
  18   18 3630 3867 FO
  18   18 3630 3868 FO
  18   18 3631 3869 FO
  18   18 3631 3870 FO
  18   18 3632 3871 FO
  18   18 3632 3872 FO
  18   18 3633 3872 FO
  18   18 3633 3873 FO
  18   18 3634 3874 FO
  18   18 3634 3875 FO
  18   18 3635 3876 FO
  18   18 3635 3877 FO
  18   18 3636 3878 FO
  18   18 3636 3879 FO
  18   18 3637 3880 FO
  18   18 3637 3881 FO
  18   18 3638 3882 FO
  18   18 3638 3883 FO
  18   18 3639 3884 FO
  18   18 3639 3885 FO
  18   18 3640 3886 FO
  18   18 3640 3887 FO
  18   18 3641 3888 FO
  18   18 3641 3889 FO
  18   18 3642 3890 FO
  18   18 3642 3891 FO
  18   18 3643 3892 FO
  18   18 3643 3893 FO
  18   18 3644 3894 FO
  18   18 3644 3895 FO
  18   18 3645 3896 FO
  18   18 3645 3897 FO
  18   18 3646 3898 FO
  18   18 3646 3899 FO
  18   18 3647 3899 FO
  18   18 3647 3900 FO
  18   18 3647 3901 FO
  18   18 3648 3901 FO
  18   18 3648 3902 FO
  18   18 3648 3903 FO
gr

c9
gs 3345 3401 254 341 rc
0 j
0 -30 -30 0 0 30 30 0 3454 3551 5 MP
/c10 { 1.000000 0.000000 0.000000 sr} bdef
c10
DP
0 -30 -30 0 0 30 30 0 3404 3460 5 MP
DP
0 -30 -30 0 0 30 30 0 3493 3623 5 MP
DP
0 -30 -30 0 0 30 30 0 3472 3583 5 MP
DP
0 -30 -30 0 0 30 30 0 3404 3460 5 MP
DP
0 -30 -30 0 0 30 30 0 3454 3551 5 MP
DP
0 -30 -30 0 0 30 30 0 3509 3652 5 MP
DP
0 -30 -30 0 0 30 30 0 3454 3551 5 MP
DP
0 -30 -30 0 0 30 30 0 3418 3485 5 MP
DP
0 -30 -30 0 0 30 30 0 3411 3473 5 MP
DP
0 -30 -30 0 0 30 30 0 3436 3518 5 MP
DP
0 -30 -30 0 0 30 30 0 3411 3473 5 MP
DP
0 -30 -30 0 0 30 30 0 3404 3460 5 MP
DP
0 -30 -30 0 0 30 30 0 3431 3509 5 MP
DP
0 -30 -30 0 0 30 30 0 3493 3623 5 MP
DP
0 -30 -30 0 0 30 30 0 3418 3485 5 MP
DP
0 -30 -30 0 0 30 30 0 3429 3506 5 MP
DP
0 -30 -30 0 0 30 30 0 3456 3554 5 MP
DP
0 -30 -30 0 0 30 30 0 3493 3623 5 MP
DP
0 -30 -30 0 0 30 30 0 3404 3460 5 MP
DP
0 -30 -30 0 0 30 30 0 3509 3652 5 MP
DP
0 -30 -30 0 0 30 30 0 3493 3623 5 MP
DP
0 -30 -30 0 0 30 30 0 3456 3554 5 MP
DP
0 -30 -30 0 0 30 30 0 3418 3485 5 MP
DP
0 -30 -30 0 0 30 30 0 3429 3506 5 MP
DP
0 -30 -30 0 0 30 30 0 3436 3518 5 MP
DP
0 -30 -30 0 0 30 30 0 3418 3485 5 MP
DP
0 -30 -30 0 0 30 30 0 3404 3460 5 MP
DP
0 -30 -30 0 0 30 30 0 3468 3575 5 MP
DP
0 -30 -30 0 0 30 30 0 3454 3551 5 MP
DP
0 -30 -30 0 0 30 30 0 3493 3623 5 MP
DP
0 -30 -30 0 0 30 30 0 3436 3518 5 MP
DP
0 -30 -30 0 0 30 30 0 3509 3652 5 MP
DP
0 -30 -30 0 0 30 30 0 3471 3581 5 MP
DP
0 -30 -30 0 0 30 30 0 3404 3460 5 MP
DP
0 -30 -30 0 0 30 30 0 3472 3583 5 MP
DP
0 -30 -30 0 0 30 30 0 3431 3509 5 MP
DP
0 -30 -30 0 0 30 30 0 3418 3485 5 MP
DP
0 -30 -30 0 0 30 30 0 3468 3575 5 MP
DP
0 -30 -30 0 0 30 30 0 3493 3623 5 MP
DP
0 -30 -30 0 0 30 30 0 3454 3551 5 MP
DP
0 -30 -30 0 0 30 30 0 3418 3485 5 MP
DP
0 -30 -30 0 0 30 30 0 3431 3509 5 MP
DP
0 -30 -30 0 0 30 30 0 3472 3583 5 MP
DP
0 -30 -30 0 0 30 30 0 3429 3506 5 MP
DP
0 -30 -30 0 0 30 30 0 3472 3583 5 MP
DP
0 -30 -30 0 0 30 30 0 3436 3518 5 MP
DP
gr

c10
gs 2910 3827 149 149 rc
0 sg
  18   18 2984 3901 PO
  18   18 2984 3901 FO
gr

0 sg
gr

36 w
%%IncludeResource: font Helvetica
/Helvetica /WindowsLatin1Encoding 120 FMSR

 579 4683 mt 
( ) s
3992  988 mt 
( ) s
6 w
1 sg
0 504 2061 0 0 -504 1944 1502 4 MP
PP
-2061 0 0 504 2061 0 0 -504 1944 1502 5 MP stroke
4 w
DO
SO
6 w
1944  998 mt 4005  998 L
1944 1502 mt 4005 1502 L
4005 1502 mt 4005  998 L
1944 1502 mt 1944  998 L
1944 1502 mt 4005 1502 L
1944 1502 mt 1944  998 L
1944  998 mt 4005  998 L
1944 1502 mt 4005 1502 L
4005 1502 mt 4005  998 L
1944 1502 mt 1944  998 L
0 sg
%%IncludeResource: font Times-Roman
/Times-Roman /WindowsLatin1Encoding 180 FMSR

2412 1196 mt 
(Preferred Region) s
gs 1944 998 2062 505 rc
36 w
gs 2122 1060 149 149 rc
c9
  18   18 2196 1134 FO
gr

c9
gr

36 w
c9
0 sg
2412 1427 mt 
(Obtained Soloutions) s
gs 1944 998 2062 505 rc
gs 2122 1291 149 149 rc
0 j
0 -30 -30 0 0 30 30 0 2181 1350 5 MP
c10
DP
gr

c10
6 w
gr

6 w
c10
0 sg
%%IncludeResource: font Times-Roman
/Times-Roman /WindowsLatin1Encoding 192 FMSR

2626 4247 mt 
(\(0.7,0.2\)) s

end %%Color Dict

eplot
%%EndObject

epage
end

showpage

%%Trailer
%%EOF
