%!PS-Adobe-3.0 EPSF-3.0
%%Creator: MATLAB, The MathWorks, Inc. Version 7.13.0.564 (R2011b). Operating System: Microsoft Windows XP.
%%Title: D:\DriveG\Sem2-2012\Program\ReferenceMetric-v3\metricfig\zdt6\zdt6-rnsgaii.eps
%%CreationDate: 03/15/2013  01:16:28
%%DocumentNeededFonts: Helvetica
%%+ Times-Roman
%%DocumentProcessColors: Cyan Magenta Yellow Black
%%LanguageLevel: 2
%%Pages: 1
%%BoundingBox:   108   222   487   619
%%EndComments

%%BeginProlog
% MathWorks dictionary
/MathWorks 160 dict begin
% definition operators
/bdef {bind def} bind def
/ldef {load def} bind def
/xdef {exch def} bdef
/xstore {exch store} bdef
% operator abbreviations
/c  /clip ldef
/cc /concat ldef
/cp /closepath ldef
/gr /grestore ldef
/gs /gsave ldef
/mt /moveto ldef
/np /newpath ldef
/cm /currentmatrix ldef
/sm /setmatrix ldef
/rm /rmoveto ldef
/rl /rlineto ldef
/s {show newpath} bdef
/sc {setcmykcolor} bdef
/sr /setrgbcolor ldef
/sg /setgray ldef
/w /setlinewidth ldef
/j /setlinejoin ldef
/cap /setlinecap ldef
/rc {rectclip} bdef
/rf {rectfill} bdef
% page state control
/pgsv () def
/bpage {/pgsv save def} bdef
/epage {pgsv restore} bdef
/bplot /gsave ldef
/eplot {stroke grestore} bdef
% orientation switch
/portraitMode 0 def /landscapeMode 1 def /rotateMode 2 def
% coordinate system mappings
/dpi2point 0 def
% font control
/FontSize 0 def
/FMS {/FontSize xstore findfont [FontSize 0 0 FontSize neg 0 0]
  makefont setfont} bdef
/ISOLatin1Encoding where {pop /WindowsLatin1Encoding 256 array bdef
ISOLatin1Encoding WindowsLatin1Encoding copy pop
/.notdef/.notdef/quotesinglbase/florin/quotedblbase/ellipsis/dagger
/daggerdbl/circumflex/perthousand/Scaron/guilsinglleft/OE/.notdef/.notdef
/.notdef/.notdef/quoteleft/quoteright/quotedblleft/quotedblright/bullet
/endash/emdash/tilde/trademark/scaron/guilsinglright/oe/.notdef/.notdef
/Ydieresis WindowsLatin1Encoding 128 32 getinterval astore pop}
{/WindowsLatin1Encoding StandardEncoding bdef} ifelse
/reencode {exch dup where {pop load} {pop StandardEncoding} ifelse
  exch dup 3 1 roll findfont dup length dict begin
  { 1 index /FID ne {def}{pop pop} ifelse } forall
  /Encoding exch def currentdict end definefont pop} bdef
/isroman {findfont /CharStrings get /Agrave known} bdef
/FMSR {3 1 roll 1 index dup isroman {reencode} {pop pop} ifelse
  exch FMS} bdef
/csm {1 dpi2point div -1 dpi2point div scale neg translate
 dup landscapeMode eq {pop -90 rotate}
  {rotateMode eq {90 rotate} if} ifelse} bdef
% line types: solid, dotted, dashed, dotdash
/SO { [] 0 setdash } bdef
/DO { [.5 dpi2point mul 4 dpi2point mul] 0 setdash } bdef
/DA { [6 dpi2point mul] 0 setdash } bdef
/DD { [.5 dpi2point mul 4 dpi2point mul 6 dpi2point mul 4
  dpi2point mul] 0 setdash } bdef
% macros for lines and objects
/L {lineto stroke} bdef
/MP {3 1 roll moveto 1 sub {rlineto} repeat} bdef
/AP {{rlineto} repeat} bdef
/PDlw -1 def
/W {/PDlw currentlinewidth def setlinewidth} def
/PP {closepath eofill} bdef
/DP {closepath stroke} bdef
/MR {4 -2 roll moveto dup  0 exch rlineto exch 0 rlineto
  neg 0 exch rlineto closepath} bdef
/FR {MR stroke} bdef
/PR {MR fill} bdef
/L1i {{currentfile picstr readhexstring pop} image} bdef
/tMatrix matrix def
/MakeOval {newpath tMatrix currentmatrix pop translate scale
0 0 1 0 360 arc tMatrix setmatrix} bdef
/FO {MakeOval stroke} bdef
/PO {MakeOval fill} bdef
/PD {currentlinewidth 2 div 0 360 arc fill
   PDlw -1 eq not {PDlw w /PDlw -1 def} if} def
/FA {newpath tMatrix currentmatrix pop translate scale
  0 0 1 5 -2 roll arc tMatrix setmatrix stroke} bdef
/PA {newpath tMatrix currentmatrix pop	translate 0 0 moveto scale
  0 0 1 5 -2 roll arc closepath tMatrix setmatrix fill} bdef
/FAn {newpath tMatrix currentmatrix pop translate scale
  0 0 1 5 -2 roll arcn tMatrix setmatrix stroke} bdef
/PAn {newpath tMatrix currentmatrix pop translate 0 0 moveto scale
  0 0 1 5 -2 roll arcn closepath tMatrix setmatrix fill} bdef
/vradius 0 def /hradius 0 def /lry 0 def
/lrx 0 def /uly 0 def /ulx 0 def /rad 0 def
/MRR {/vradius xdef /hradius xdef /lry xdef /lrx xdef /uly xdef
  /ulx xdef newpath tMatrix currentmatrix pop ulx hradius add uly
  vradius add translate hradius vradius scale 0 0 1 180 270 arc 
  tMatrix setmatrix lrx hradius sub uly vradius add translate
  hradius vradius scale 0 0 1 270 360 arc tMatrix setmatrix
  lrx hradius sub lry vradius sub translate hradius vradius scale
  0 0 1 0 90 arc tMatrix setmatrix ulx hradius add lry vradius sub
  translate hradius vradius scale 0 0 1 90 180 arc tMatrix setmatrix
  closepath} bdef
/FRR {MRR stroke } bdef
/PRR {MRR fill } bdef
/MlrRR {/lry xdef /lrx xdef /uly xdef /ulx xdef /rad lry uly sub 2 div def
  newpath tMatrix currentmatrix pop ulx rad add uly rad add translate
  rad rad scale 0 0 1 90 270 arc tMatrix setmatrix lrx rad sub lry rad
  sub translate rad rad scale 0 0 1 270 90 arc tMatrix setmatrix
  closepath} bdef
/FlrRR {MlrRR stroke } bdef
/PlrRR {MlrRR fill } bdef
/MtbRR {/lry xdef /lrx xdef /uly xdef /ulx xdef /rad lrx ulx sub 2 div def
  newpath tMatrix currentmatrix pop ulx rad add uly rad add translate
  rad rad scale 0 0 1 180 360 arc tMatrix setmatrix lrx rad sub lry rad
  sub translate rad rad scale 0 0 1 0 180 arc tMatrix setmatrix
  closepath} bdef
/FtbRR {MtbRR stroke } bdef
/PtbRR {MtbRR fill } bdef
/stri 6 array def /dtri 6 array def
/smat 6 array def /dmat 6 array def
/tmat1 6 array def /tmat2 6 array def /dif 3 array def
/asub {/ind2 exch def /ind1 exch def dup dup
  ind1 get exch ind2 get sub exch } bdef
/tri_to_matrix {
  2 0 asub 3 1 asub 4 0 asub 5 1 asub
  dup 0 get exch 1 get 7 -1 roll astore } bdef
/compute_transform {
  dmat dtri tri_to_matrix tmat1 invertmatrix 
  smat stri tri_to_matrix tmat2 concatmatrix } bdef
/ds {stri astore pop} bdef
/dt {dtri astore pop} bdef
/db {2 copy /cols xdef /rows xdef mul dup 3 mul string
  currentfile 
  3 index 0 eq {/ASCIIHexDecode filter}
  {/ASCII85Decode filter 3 index 2 eq {/RunLengthDecode filter} if }
  ifelse exch readstring pop
  dup 0 3 index getinterval /rbmap xdef
  dup 2 index dup getinterval /gbmap xdef
  1 index dup 2 mul exch getinterval /bbmap xdef pop pop}bdef
/it {gs np dtri aload pop moveto lineto lineto cp c
  cols rows 8 compute_transform 
  rbmap gbmap bbmap true 3 colorimage gr}bdef
/il {newpath moveto lineto stroke}bdef
currentdict end def
%%EndProlog

%%BeginSetup
MathWorks begin

0 cap

end
%%EndSetup

%%Page: 1 1
%%BeginPageSetup
%%PageBoundingBox:   108   222   487   619
MathWorks begin
bpage
%%EndPageSetup

%%BeginObject: obj1
bplot

/dpi2point 12 def
portraitMode 1296 7428 csm

    0     0  4549  4754 rc
86 dict begin %Colortable dictionary
/c0 { 0.000000 0.000000 0.000000 sr} bdef
/c1 { 1.000000 1.000000 1.000000 sr} bdef
/c2 { 0.900000 0.000000 0.000000 sr} bdef
/c3 { 0.000000 0.820000 0.000000 sr} bdef
/c4 { 0.000000 0.000000 0.800000 sr} bdef
/c5 { 0.910000 0.820000 0.320000 sr} bdef
/c6 { 1.000000 0.260000 0.820000 sr} bdef
/c7 { 0.000000 0.820000 0.820000 sr} bdef
c0
1 j
1 sg
   0    0 4550 4755 rf
6 w
0 3566 3412 0 0 -3566 596 4479 4 MP
PP
-3412 0 0 3566 3412 0 0 -3566 596 4479 5 MP stroke
4 w
DO
SO
6 w
0 sg
 596  913 mt 4008  913 L
 596 4479 mt 4008 4479 L
4008 4479 mt 4008  913 L
 596 4479 mt  596  913 L
 596 4479 mt 4008 4479 L
 596 4479 mt  596  913 L
 596 4479 mt  596 4443 L
 596  913 mt  596  948 L
%%IncludeResource: font Times-Roman
/Times-Roman /WindowsLatin1Encoding 144 FMSR

 506 4642 mt 
(0.2) s
1449 4479 mt 1449 4443 L
1449  913 mt 1449  948 L
1359 4642 mt 
(0.4) s
2302 4479 mt 2302 4443 L
2302  913 mt 2302  948 L
2212 4642 mt 
(0.6) s
3155 4479 mt 3155 4443 L
3155  913 mt 3155  948 L
3065 4642 mt 
(0.8) s
4008 4479 mt 4008 4443 L
4008  913 mt 4008  948 L
3972 4642 mt 
(1) s
 596 4479 mt  631 4479 L
4008 4479 mt 3972 4479 L
 489 4530 mt 
(0) s
 596 4122 mt  631 4122 L
4008 4122 mt 3972 4122 L
 381 4173 mt 
(0.1) s
 596 3765 mt  631 3765 L
4008 3765 mt 3972 3765 L
 381 3816 mt 
(0.2) s
 596 3409 mt  631 3409 L
4008 3409 mt 3972 3409 L
 381 3460 mt 
(0.3) s
 596 3052 mt  631 3052 L
4008 3052 mt 3972 3052 L
 381 3103 mt 
(0.4) s
 596 2696 mt  631 2696 L
4008 2696 mt 3972 2696 L
 381 2747 mt 
(0.5) s
 596 2339 mt  631 2339 L
4008 2339 mt 3972 2339 L
 381 2390 mt 
(0.6) s
 596 1982 mt  631 1982 L
4008 1982 mt 3972 1982 L
 381 2033 mt 
(0.7) s
 596 1626 mt  631 1626 L
4008 1626 mt 3972 1626 L
 381 1677 mt 
(0.8) s
 596 1269 mt  631 1269 L
4008 1269 mt 3972 1269 L
 381 1320 mt 
(0.9) s
 596  913 mt  631  913 L
4008  913 mt 3972  913 L
 489  964 mt 
(1) s
 596  913 mt 4008  913 L
 596 4479 mt 4008 4479 L
4008 4479 mt 4008  913 L
 596 4479 mt  596  913 L
gs 596 913 3413 3567 rc
27.6 w
/c8 { 0.000000 0.000000 1.000000 sr} bdef
c8
1 1 0 1 2 2 0 1 1 1 1 1 0 1 1 2 
1 1 1 2 1 1 1 2 1 2 1 3 2 2 1 3 
2 2 2 3 2 3 2 4 2 3 2 4 3 4 2 4 
3 4 2 5 3 4 3 5 3 5 3 5 3 5 3 5 
3 5 3 5 3 6 4 5 3 5 3 5 3 5 3 5 
3 5 3 5 3 4 2 5 3 4 2 4 2 3 2 4 
2 3 2 3 2 2 1 2 1 2 1 1 0 1 1 1 
-1 -1 -1 -2 -1 -1 -1 -2 -1 -2 -2 -3 -2 -3 -2 -3 
-2 -4 -2 -4 -3 -4 -2 -4 -3 -5 -3 -4 -3 -5 -3 -5 
-3 -5 -3 -6 -4 -5 -3 -5 -3 -6 -3 -5 -4 -5 -3 -5 
-3 -6 -3 -5 -3 -5 -3 -5 -3 -4 -2 -5 -3 -4 -3 -4 
-2 -4 -2 -4 -3 -4 -2 -3 -2 -4 -1 -3 -2 -2 -2 -3 
-1 -3 -1 -2 -2 -2 -1 -2 -1 -1 -1 -2 -1 -1 0 -1 
-1 -2 -1 -1 0 -1 -1 -1 -1 -1 0 -1 0 1 1 1 
0 1 1 1 1 2 1 1 1 1 1 2 1 1 1 3 
1 2 2 2 1 3 2 3 2 4 3 3 2 5 3 4 
3 5 3 5 3 5 4 6 3 7 4 6 5 7 4 8 
5 7 5 8 5 9 5 8 5 9 6 9 6 10 6 9 
6 10 6 10 6 10 6 10 6 10 6 10 6 10 6 10 
6 9 6 10 6 9 6 9 5 9 5 8 5 7 4 8 
5 6 3 7 4 5 3 5 3 5 2 4 2 3 2 2 
1 2 1 1 -1 0 0 -2 -2 -2 -1 -2 -2 -3 -3 -4 
-3 -5 -3 -5 -4 -6 -4 -7 -4 -7 -5 -7 -5 -8 -5 -8 
-5 -9 -6 -9 -6 -10 -6 -9 -6 -10 -6 -10 -6 -10 -7 -11 
-6 -10 -6 -10 -7 -10 -6 -10 -6 -10 -6 -10 -6 -9 -5 -10 
-6 -9 -5 -8 -5 -9 -5 -8 -5 -7 -4 -8 -4 -7 -4 -6 
-4 -6 -3 -6 -3 -5 -3 -5 -3 -5 -3 -4 -2 -4 -2 -4 
-2 -3 -2 -3 -1 -2 -2 -2 -1 -2 -1 -2 -1 -2 -1 -1 
0 -1 -1 -1 0 -1 -1 -1 -1 -1 0 -1 0 1 1 1 
1 1 0 1 1 1 1 1 1 2 1 2 1 2 1 2 
2 3 2 3 2 4 3 4 2 5 4 5 3 6 4 6 
4 7 4 7 5 8 6 9 5 10 7 10 6 11 7 11 
8 13 8 13 8 13 9 15 9 15 10 16 10 16 10 16 
11 18 11 17 11 19 12 18 11 19 12 18 12 19 12 19 
12 19 12 19 12 19 12 18 11 18 12 18 11 17 10 16 
11 16 9 15 9 14 9 13 8 13 8 11 6 10 6 9 
5 8 5 6 3 6 3 4 2 2 1 2 -1 -2 -2 -2 
-3 -4 -3 -5 -4 -7 3605 3838 300 MP stroke
-6 -8 -5 -9 -7 -10 -8 -11 -8 -12 -8 -14 -10 -14 -9 -15 
-11 -16 -11 -17 -11 -17 -11 -18 -12 -18 -12 -19 -12 -19 -12 -19 
-13 -19 -12 -20 -12 -19 -12 -19 -12 -19 -12 -19 -11 -19 -12 -18 
-10 -17 -11 -17 -10 -17 -10 -16 -9 -15 -9 -14 -9 -14 -8 -13 
-7 -13 -7 -11 -7 -11 -6 -10 -6 -10 -5 -8 -5 -8 -4 -8 
-4 -6 -3 -6 -4 -5 -3 -5 -2 -5 -2 -3 -2 -4 -2 -2 
-2 -3 -1 -2 -1 -2 -1 -1 -1 -2 0 -1 -1 -1 -1 -1 
0 -1 -1 -1 1 1 0 1 2 2 0 1 1 1 1 2 
1 2 1 2 2 3 2 3 2 4 3 4 3 5 3 6 
4 6 5 8 5 8 5 9 6 11 7 11 8 12 8 14 
9 15 10 16 11 18 11 18 13 20 13 22 14 22 15 25 
16 25 16 26 18 28 18 29 19 30 20 31 20 32 21 33 
22 33 22 34 22 34 23 35 23 35 24 35 23 35 24 35 
23 34 23 34 23 33 22 32 22 32 21 30 21 29 19 28 
19 26 17 25 17 22 15 22 14 19 12 17 12 15 9 13 
8 11 6 8 5 7 3 4 1 1 -3 -3 -4 -6 -5 -7 
-8 -10 -8 -12 -11 -15 -12 -16 -13 -19 -15 -20 -16 -23 -18 -24 
-18 -26 -20 -28 -20 -29 -22 -30 -22 -31 -22 -33 -23 -33 -24 -35 
-23 -35 -24 -35 -24 -36 -24 -35 -24 -36 -23 -36 -23 -35 -23 -35 
-22 -34 -22 -34 -21 -33 -20 -32 -20 -30 -18 -30 -18 -29 -17 -27 
-17 -26 -15 -24 -14 -24 -14 -21 -12 -21 -12 -19 -10 -17 -10 -17 
-9 -14 -9 -14 -7 -12 -7 -12 -6 -10 -5 -8 -5 -8 -4 -7 
-4 -6 -3 -6 -3 -4 -2 -4 -2 -4 -2 -2 -1 -3 -1 -2 
-1 -1 -1 -2 -1 -1 -1 -1 0 -1 0 1 1 1 0 1 
1 1 1 1 1 2 1 2 2 3 2 3 2 4 3 5 
3 5 4 7 5 8 5 9 7 10 7 11 7 14 9 14 
11 17 11 18 12 21 14 22 15 25 17 27 18 29 20 32 
21 34 23 37 25 38 26 42 28 43 29 46 32 48 33 50 
34 52 36 54 38 56 39 57 40 58 41 59 43 61 43 60 
44 62 45 61 45 61 46 61 45 60 46 59 45 58 45 56 
44 55 43 53 42 51 41 49 39 46 38 44 36 41 33 38 
32 35 28 32 27 28 23 26 20 22 18 19 14 15 12 12 
8 9 4 4 1 2 -2 -2 -5 -6 -9 -9 -12 -13 -15 -17 
-19 -19 -21 -24 -25 -26 -27 -30 -29 -33 -33 -37 -34 -39 -37 -42 
-39 -45 -40 -48 -42 -50 -43 -53 -44 -55 -46 -56 -45 -58 -47 -60 
-46 -61 -47 -61 -46 -62 -46 -63 -46 -63 -45 -62 -44 -62 -42 -62 
-42 -60 -41 -59 -39 -58 -37 -56 -36 -54 -35 -52 -32 -50 -31 -48 
-29 -45 -28 -43 -25 -41 3784 4115 300 MP stroke
-24 -38 -22 -35 -20 -33 -19 -30 -17 -28 -16 -25 -14 -23 -12 -21 
-12 -18 -10 -17 -9 -15 -8 -13 -6 -11 -6 -10 -6 -8 -4 -7 
-4 -7 -3 -5 -2 -4 -2 -3 -2 -3 -1 -3 -1 -1 -1 -2 
-1 -1 -1 -1 0 -1 0 1 1 1 1 1 0 1 1 2 
2 2 2 3 2 4 3 5 3 5 4 7 5 8 6 10 
7 12 8 13 9 16 11 18 13 20 14 24 16 26 18 30 
21 33 23 36 25 41 28 44 30 48 34 52 36 57 39 60 
43 65 46 69 49 73 52 76 55 80 59 84 62 87 65 89 
68 92 71 94 74 96 77 96 79 98 81 97 84 97 85 97 
86 95 88 94 88 91 89 89 89 85 88 83 88 78 87 75 
86 70 83 67 81 61 79 58 75 52 72 49 68 43 64 40 
60 35 54 31 49 27 44 23 38 20 32 16 26 13 20 9 
13 7 7 3 -6 -3 -13 -6 -19 -9 -26 -13 -31 -16 -38 -19 
-44 -23 -49 -27 -55 -32 -60 -35 -64 -40 -69 -44 -72 -48 -77 -54 
-80 -58 -82 -63 -85 -67 -87 -72 -88 -77 -90 -80 -90 -84 -91 -88 
-91 -91 -90 -94 -89 -96 -89 -98 -86 -99 -85 -100 -83 -100 -81 -100 
-77 -99 -76 -98 -72 -96 -69 -94 -65 -91 -63 -88 -59 -85 -56 -81 
-52 -77 -48 -73 -46 -69 -41 -64 -39 -60 -35 -55 -33 -51 -29 -46 
-26 -43 -24 -38 -21 -34 -19 -31 -17 -27 -15 -24 -12 -21 -11 -18 
-10 -16 -8 -13 -6 -11 -6 -10 -5 -8 -4 -6 -3 -5 -2 -4 
-2 -3 -2 -3 -1 -2 -1 -1 0 -1 -1 -1 0 -1 -1 -1 
4008 4479 169 MP stroke
36 w
gs 3066 3101 567 741 rc
/c9 { 0.000000 1.000000 1.000000 sr} bdef
c9
  18   18 3540 3739 FO
  18   18 3488 3662 FO
  18   18 3432 3581 FO
  18   18 3373 3496 FO
  18   18 3310 3408 FO
  18   18 3245 3317 FO
  18   18 3176 3223 FO
  18   18 3146 3183 FO
  18   18 3214 3275 FO
  18   18 3279 3364 FO
  18   18 3341 3451 FO
  18   18 3400 3535 FO
  18   18 3455 3615 FO
  18   18 3507 3691 FO
  18   18 3556 3764 FO
  18   18 3531 3726 FO
  18   18 3492 3668 FO
  18   18 3451 3609 FO
  18   18 3409 3549 FO
  18   18 3367 3487 FO
  18   18 3323 3425 FO
  18   18 3278 3363 FO
  18   18 3232 3300 FO
  18   18 3186 3237 FO
  18   18 3140 3175 FO
  18   18 3163 3206 FO
  18   18 3208 3267 FO
  18   18 3253 3328 FO
  18   18 3297 3390 FO
  18   18 3340 3450 FO
  18   18 3383 3511 FO
  18   18 3424 3570 FO
  18   18 3464 3628 FO
  18   18 3503 3685 FO
  18   18 3541 3741 FO
  18   18 3554 3761 FO
  18   18 3530 3725 FO
  18   18 3506 3690 FO
  18   18 3483 3655 FO
  18   18 3459 3620 FO
  18   18 3436 3587 FO
  18   18 3414 3554 FO
  18   18 3392 3523 FO
  18   18 3370 3493 FO
  18   18 3350 3464 FO
  18   18 3330 3436 FO
  18   18 3312 3410 FO
  18   18 3294 3386 FO
  18   18 3278 3363 FO
  18   18 3263 3343 FO
  18   18 3250 3324 FO
  18   18 3238 3308 FO
  18   18 3227 3293 FO
  18   18 3219 3281 FO
  18   18 3211 3271 FO
  18   18 3206 3264 FO
  18   18 3202 3258 FO
  18   18 3199 3255 FO
  18   18 3200 3256 FO
  18   18 3203 3260 FO
  18   18 3208 3267 FO
  18   18 3214 3275 FO
  18   18 3222 3286 FO
  18   18 3231 3299 FO
  18   18 3243 3314 FO
  18   18 3255 3331 FO
  18   18 3269 3350 FO
  18   18 3284 3372 FO
  18   18 3301 3394 FO
  18   18 3318 3419 FO
  18   18 3337 3445 FO
  18   18 3356 3473 FO
  18   18 3377 3502 FO
  18   18 3398 3532 FO
  18   18 3420 3564 FO
  18   18 3442 3596 FO
  18   18 3465 3629 FO
  18   18 3488 3663 FO
  18   18 3511 3697 FO
  18   18 3535 3732 FO
  18   18 3558 3767 FO
gr

c9
gs 3185 3263 149 149 rc
0 j
0 -30 -30 0 0 30 30 0 3244 3322 5 MP
/c10 { 1.000000 0.000000 0.000000 sr} bdef
c10
gs
PP
gr
DP
gr

c10
gs 2654 3691 149 149 rc
0 sg
  18   18 2728 3765 PO
  18   18 2728 3765 FO
gr

0 sg
gr

36 w
%%IncludeResource: font Helvetica
/Helvetica /WindowsLatin1Encoding 120 FMSR

 579 4522 mt 
( ) s
3992  955 mt 
( ) s
6 w
1 sg
0 540 2133 0 0 -540 1823 1514 4 MP
PP
-2133 0 0 540 2133 0 0 -540 1823 1514 5 MP stroke
4 w
DO
SO
6 w
1823  974 mt 3956  974 L
1823 1514 mt 3956 1514 L
3956 1514 mt 3956  974 L
1823 1514 mt 1823  974 L
1823 1514 mt 3956 1514 L
1823 1514 mt 1823  974 L
1823  974 mt 3956  974 L
1823 1514 mt 3956 1514 L
3956 1514 mt 3956  974 L
1823 1514 mt 1823  974 L
0 sg
%%IncludeResource: font Times-Roman
/Times-Roman /WindowsLatin1Encoding 192 FMSR

2291 1186 mt 
(Preferred Region) s
gs 1823 974 2134 541 rc
36 w
gs 2001 1045 149 149 rc
c9
  18   18 2075 1119 FO
gr

c9
gr

36 w
c9
0 sg
2291 1435 mt 
(Obtained Soloutions) s
gs 1823 974 2134 541 rc
gs 2001 1294 149 149 rc
0 j
0 -30 -30 0 0 30 30 0 2060 1353 5 MP
c10
gs
PP
gr
DP
gr

c10
6 w
gr

6 w
c10
0 sg
2186 3997 mt 
(\( 0.7 , 0.2 \)) s

end %%Color Dict

eplot
%%EndObject

epage
end

showpage

%%Trailer
%%EOF
