%!PS-Adobe-3.0 EPSF-3.0
%%Creator: MATLAB, The MathWorks, Inc. Version 7.13.0.564 (R2011b). Operating System: Microsoft Windows XP.
%%Title: D:\DriveG\Sem2-2012\Program\ReferenceMetric-v3\metricfig\zdt6\zdt6-ws.eps
%%CreationDate: 03/15/2013  01:56:11
%%DocumentNeededFonts: Helvetica
%%+ Times-Roman
%%DocumentProcessColors: Cyan Magenta Yellow Black
%%LanguageLevel: 2
%%Pages: 1
%%BoundingBox:   107   222   487   619
%%EndComments

%%BeginProlog
% MathWorks dictionary
/MathWorks 160 dict begin
% definition operators
/bdef {bind def} bind def
/ldef {load def} bind def
/xdef {exch def} bdef
/xstore {exch store} bdef
% operator abbreviations
/c  /clip ldef
/cc /concat ldef
/cp /closepath ldef
/gr /grestore ldef
/gs /gsave ldef
/mt /moveto ldef
/np /newpath ldef
/cm /currentmatrix ldef
/sm /setmatrix ldef
/rm /rmoveto ldef
/rl /rlineto ldef
/s {show newpath} bdef
/sc {setcmykcolor} bdef
/sr /setrgbcolor ldef
/sg /setgray ldef
/w /setlinewidth ldef
/j /setlinejoin ldef
/cap /setlinecap ldef
/rc {rectclip} bdef
/rf {rectfill} bdef
% page state control
/pgsv () def
/bpage {/pgsv save def} bdef
/epage {pgsv restore} bdef
/bplot /gsave ldef
/eplot {stroke grestore} bdef
% orientation switch
/portraitMode 0 def /landscapeMode 1 def /rotateMode 2 def
% coordinate system mappings
/dpi2point 0 def
% font control
/FontSize 0 def
/FMS {/FontSize xstore findfont [FontSize 0 0 FontSize neg 0 0]
  makefont setfont} bdef
/ISOLatin1Encoding where {pop /WindowsLatin1Encoding 256 array bdef
ISOLatin1Encoding WindowsLatin1Encoding copy pop
/.notdef/.notdef/quotesinglbase/florin/quotedblbase/ellipsis/dagger
/daggerdbl/circumflex/perthousand/Scaron/guilsinglleft/OE/.notdef/.notdef
/.notdef/.notdef/quoteleft/quoteright/quotedblleft/quotedblright/bullet
/endash/emdash/tilde/trademark/scaron/guilsinglright/oe/.notdef/.notdef
/Ydieresis WindowsLatin1Encoding 128 32 getinterval astore pop}
{/WindowsLatin1Encoding StandardEncoding bdef} ifelse
/reencode {exch dup where {pop load} {pop StandardEncoding} ifelse
  exch dup 3 1 roll findfont dup length dict begin
  { 1 index /FID ne {def}{pop pop} ifelse } forall
  /Encoding exch def currentdict end definefont pop} bdef
/isroman {findfont /CharStrings get /Agrave known} bdef
/FMSR {3 1 roll 1 index dup isroman {reencode} {pop pop} ifelse
  exch FMS} bdef
/csm {1 dpi2point div -1 dpi2point div scale neg translate
 dup landscapeMode eq {pop -90 rotate}
  {rotateMode eq {90 rotate} if} ifelse} bdef
% line types: solid, dotted, dashed, dotdash
/SO { [] 0 setdash } bdef
/DO { [.5 dpi2point mul 4 dpi2point mul] 0 setdash } bdef
/DA { [6 dpi2point mul] 0 setdash } bdef
/DD { [.5 dpi2point mul 4 dpi2point mul 6 dpi2point mul 4
  dpi2point mul] 0 setdash } bdef
% macros for lines and objects
/L {lineto stroke} bdef
/MP {3 1 roll moveto 1 sub {rlineto} repeat} bdef
/AP {{rlineto} repeat} bdef
/PDlw -1 def
/W {/PDlw currentlinewidth def setlinewidth} def
/PP {closepath eofill} bdef
/DP {closepath stroke} bdef
/MR {4 -2 roll moveto dup  0 exch rlineto exch 0 rlineto
  neg 0 exch rlineto closepath} bdef
/FR {MR stroke} bdef
/PR {MR fill} bdef
/L1i {{currentfile picstr readhexstring pop} image} bdef
/tMatrix matrix def
/MakeOval {newpath tMatrix currentmatrix pop translate scale
0 0 1 0 360 arc tMatrix setmatrix} bdef
/FO {MakeOval stroke} bdef
/PO {MakeOval fill} bdef
/PD {currentlinewidth 2 div 0 360 arc fill
   PDlw -1 eq not {PDlw w /PDlw -1 def} if} def
/FA {newpath tMatrix currentmatrix pop translate scale
  0 0 1 5 -2 roll arc tMatrix setmatrix stroke} bdef
/PA {newpath tMatrix currentmatrix pop	translate 0 0 moveto scale
  0 0 1 5 -2 roll arc closepath tMatrix setmatrix fill} bdef
/FAn {newpath tMatrix currentmatrix pop translate scale
  0 0 1 5 -2 roll arcn tMatrix setmatrix stroke} bdef
/PAn {newpath tMatrix currentmatrix pop translate 0 0 moveto scale
  0 0 1 5 -2 roll arcn closepath tMatrix setmatrix fill} bdef
/vradius 0 def /hradius 0 def /lry 0 def
/lrx 0 def /uly 0 def /ulx 0 def /rad 0 def
/MRR {/vradius xdef /hradius xdef /lry xdef /lrx xdef /uly xdef
  /ulx xdef newpath tMatrix currentmatrix pop ulx hradius add uly
  vradius add translate hradius vradius scale 0 0 1 180 270 arc 
  tMatrix setmatrix lrx hradius sub uly vradius add translate
  hradius vradius scale 0 0 1 270 360 arc tMatrix setmatrix
  lrx hradius sub lry vradius sub translate hradius vradius scale
  0 0 1 0 90 arc tMatrix setmatrix ulx hradius add lry vradius sub
  translate hradius vradius scale 0 0 1 90 180 arc tMatrix setmatrix
  closepath} bdef
/FRR {MRR stroke } bdef
/PRR {MRR fill } bdef
/MlrRR {/lry xdef /lrx xdef /uly xdef /ulx xdef /rad lry uly sub 2 div def
  newpath tMatrix currentmatrix pop ulx rad add uly rad add translate
  rad rad scale 0 0 1 90 270 arc tMatrix setmatrix lrx rad sub lry rad
  sub translate rad rad scale 0 0 1 270 90 arc tMatrix setmatrix
  closepath} bdef
/FlrRR {MlrRR stroke } bdef
/PlrRR {MlrRR fill } bdef
/MtbRR {/lry xdef /lrx xdef /uly xdef /ulx xdef /rad lrx ulx sub 2 div def
  newpath tMatrix currentmatrix pop ulx rad add uly rad add translate
  rad rad scale 0 0 1 180 360 arc tMatrix setmatrix lrx rad sub lry rad
  sub translate rad rad scale 0 0 1 0 180 arc tMatrix setmatrix
  closepath} bdef
/FtbRR {MtbRR stroke } bdef
/PtbRR {MtbRR fill } bdef
/stri 6 array def /dtri 6 array def
/smat 6 array def /dmat 6 array def
/tmat1 6 array def /tmat2 6 array def /dif 3 array def
/asub {/ind2 exch def /ind1 exch def dup dup
  ind1 get exch ind2 get sub exch } bdef
/tri_to_matrix {
  2 0 asub 3 1 asub 4 0 asub 5 1 asub
  dup 0 get exch 1 get 7 -1 roll astore } bdef
/compute_transform {
  dmat dtri tri_to_matrix tmat1 invertmatrix 
  smat stri tri_to_matrix tmat2 concatmatrix } bdef
/ds {stri astore pop} bdef
/dt {dtri astore pop} bdef
/db {2 copy /cols xdef /rows xdef mul dup 3 mul string
  currentfile 
  3 index 0 eq {/ASCIIHexDecode filter}
  {/ASCII85Decode filter 3 index 2 eq {/RunLengthDecode filter} if }
  ifelse exch readstring pop
  dup 0 3 index getinterval /rbmap xdef
  dup 2 index dup getinterval /gbmap xdef
  1 index dup 2 mul exch getinterval /bbmap xdef pop pop}bdef
/it {gs np dtri aload pop moveto lineto lineto cp c
  cols rows 8 compute_transform 
  rbmap gbmap bbmap true 3 colorimage gr}bdef
/il {newpath moveto lineto stroke}bdef
currentdict end def
%%EndProlog

%%BeginSetup
MathWorks begin

0 cap

end
%%EndSetup

%%Page: 1 1
%%BeginPageSetup
%%PageBoundingBox:   107   222   487   619
MathWorks begin
bpage
%%EndPageSetup

%%BeginObject: obj1
bplot

/dpi2point 12 def
portraitMode 1284 7428 csm

    0     0  4567  4754 rc
86 dict begin %Colortable dictionary
/c0 { 0.000000 0.000000 0.000000 sr} bdef
/c1 { 1.000000 1.000000 1.000000 sr} bdef
/c2 { 0.900000 0.000000 0.000000 sr} bdef
/c3 { 0.000000 0.820000 0.000000 sr} bdef
/c4 { 0.000000 0.000000 0.800000 sr} bdef
/c5 { 0.910000 0.820000 0.320000 sr} bdef
/c6 { 1.000000 0.260000 0.820000 sr} bdef
/c7 { 0.000000 0.820000 0.820000 sr} bdef
c0
1 j
1 sg
   0    0 4568 4755 rf
6 w
0 3566 3425 0 0 -3566 585 4479 4 MP
PP
-3425 0 0 3566 3425 0 0 -3566 585 4479 5 MP stroke
4 w
DO
SO
6 w
0 sg
 585  913 mt 4010  913 L
 585 4479 mt 4010 4479 L
4010 4479 mt 4010  913 L
 585 4479 mt  585  913 L
 585 4479 mt 4010 4479 L
 585 4479 mt  585  913 L
 585 4479 mt  585 4443 L
 585  913 mt  585  948 L
%%IncludeResource: font Times-Roman
/Times-Roman /WindowsLatin1Encoding 144 FMSR

 495 4642 mt 
(0.2) s
1441 4479 mt 1441 4443 L
1441  913 mt 1441  948 L
1351 4642 mt 
(0.4) s
2297 4479 mt 2297 4443 L
2297  913 mt 2297  948 L
2207 4642 mt 
(0.6) s
3153 4479 mt 3153 4443 L
3153  913 mt 3153  948 L
3063 4642 mt 
(0.8) s
4010 4479 mt 4010 4443 L
4010  913 mt 4010  948 L
3974 4642 mt 
(1) s
 585 4479 mt  620 4479 L
4010 4479 mt 3974 4479 L
 478 4530 mt 
(0) s
 585 4122 mt  620 4122 L
4010 4122 mt 3974 4122 L
 370 4173 mt 
(0.1) s
 585 3765 mt  620 3765 L
4010 3765 mt 3974 3765 L
 370 3816 mt 
(0.2) s
 585 3409 mt  620 3409 L
4010 3409 mt 3974 3409 L
 370 3460 mt 
(0.3) s
 585 3052 mt  620 3052 L
4010 3052 mt 3974 3052 L
 370 3103 mt 
(0.4) s
 585 2696 mt  620 2696 L
4010 2696 mt 3974 2696 L
 370 2747 mt 
(0.5) s
 585 2339 mt  620 2339 L
4010 2339 mt 3974 2339 L
 370 2390 mt 
(0.6) s
 585 1982 mt  620 1982 L
4010 1982 mt 3974 1982 L
 370 2033 mt 
(0.7) s
 585 1626 mt  620 1626 L
4010 1626 mt 3974 1626 L
 370 1677 mt 
(0.8) s
 585 1269 mt  620 1269 L
4010 1269 mt 3974 1269 L
 370 1320 mt 
(0.9) s
 585  913 mt  620  913 L
4010  913 mt 3974  913 L
 478  964 mt 
(1) s
 585  913 mt 4010  913 L
 585 4479 mt 4010 4479 L
4010 4479 mt 4010  913 L
 585 4479 mt  585  913 L
gs 585 913 3426 3567 rc
27.6 w
/c8 { 0.000000 0.000000 1.000000 sr} bdef
c8
1 1 0 1 2 2 0 1 1 1 1 1 0 1 1 2 
1 1 1 2 1 1 1 2 1 2 2 3 1 2 2 3 
1 2 2 3 2 3 2 4 2 3 2 4 3 4 2 4 
3 4 2 5 3 4 3 5 3 5 3 5 3 5 3 5 
3 5 4 5 3 6 3 5 3 5 3 5 3 5 3 5 
3 5 3 5 3 4 3 5 2 4 3 4 2 3 2 4 
2 3 1 3 2 2 1 2 1 2 1 1 1 1 0 1 
-1 -1 0 -2 -1 -1 -2 -2 -1 -2 -2 -3 -1 -3 -2 -3 
-3 -4 -2 -4 -3 -4 -2 -4 -3 -5 -3 -4 -3 -5 -3 -5 
-3 -5 -3 -6 -3 -5 -4 -5 -3 -6 -3 -5 -3 -5 -4 -5 
-3 -6 -3 -5 -3 -5 -3 -5 -3 -4 -2 -5 -3 -4 -3 -4 
-2 -4 -2 -4 -2 -4 -3 -3 -2 -4 -1 -3 -2 -2 -2 -3 
-1 -3 -1 -2 -2 -2 -1 -2 -1 -1 -1 -2 -1 -1 0 -1 
-1 -2 -1 -1 0 -1 -1 -1 -1 -1 0 -1 0 1 1 1 
0 1 1 1 1 2 1 1 1 1 1 2 1 1 1 3 
1 2 2 2 2 3 1 3 2 4 3 3 2 5 3 4 
3 5 3 5 3 5 4 6 4 7 4 6 4 7 4 8 
5 7 5 8 5 9 5 8 6 9 5 9 6 10 6 9 
6 10 6 10 6 10 6 10 7 10 6 10 6 10 6 10 
6 9 6 10 6 9 5 9 6 9 5 8 4 7 5 8 
4 6 4 7 4 5 3 5 3 5 2 4 2 3 2 2 
1 2 0 1 -1 -2 -1 -2 -1 -2 -2 -3 -3 -4 -3 -5 
-3 -5 -4 -6 -4 -7 -4 -7 -5 -7 -5 -8 -5 -8 -6 -9 
-5 -9 -6 -10 -6 -9 -6 -10 -7 -10 -6 -10 -6 -11 -7 -10 
-6 -10 -6 -10 -6 -10 -6 -10 -6 -10 -6 -9 -6 -10 -5 -9 
-6 -8 -5 -9 -5 -8 -4 -7 -5 -8 -4 -7 -4 -6 -4 -6 
-3 -6 -3 -5 -3 -5 -3 -5 -3 -4 -2 -4 -2 -4 -2 -3 
-2 -3 -1 -2 -2 -2 -1 -2 -1 -2 -1 -2 -1 -1 0 -1 
-1 -1 0 -1 -1 -1 -1 -1 0 -1 0 1 1 1 1 1 
0 1 1 1 1 1 1 2 1 2 1 2 1 2 2 3 
2 3 2 4 3 4 3 5 3 5 3 6 4 6 4 7 
4 7 5 8 6 9 6 10 6 10 6 11 8 11 7 13 
8 13 8 13 9 15 10 15 9 16 10 16 11 16 10 18 
11 17 12 19 11 18 12 19 12 18 12 19 12 19 12 19 
12 19 12 19 12 18 12 18 11 18 11 17 11 16 10 16 
10 15 9 14 9 13 8 13 7 11 7 10 6 9 5 8 
4 6 4 6 2 4 2 2 1 2 -1 -2 -1 -2 -3 -4 
-4 -5 -4 -7 -5 -8 3611 3846 300 MP stroke
-6 -9 -7 -10 -7 -11 -8 -12 -9 -14 -9 -14 -10 -15 -11 -16 
-10 -17 -12 -17 -11 -18 -12 -18 -12 -19 -12 -19 -12 -19 -13 -19 
-12 -20 -12 -19 -12 -19 -12 -19 -12 -19 -12 -19 -11 -18 -11 -17 
-10 -17 -11 -17 -9 -16 -10 -15 -9 -14 -8 -14 -8 -13 -8 -13 
-7 -11 -7 -11 -6 -10 -5 -10 -6 -8 -4 -8 -5 -8 -4 -6 
-3 -6 -4 -5 -3 -5 -2 -5 -2 -3 -2 -4 -2 -2 -2 -3 
-1 -2 -1 -2 -1 -1 -1 -2 0 -1 -1 -1 -1 -1 0 -1 
-1 -1 1 1 0 1 2 2 0 1 1 1 1 2 1 2 
1 2 2 3 2 3 2 4 3 4 3 5 3 6 4 6 
5 8 5 8 5 9 7 11 7 11 7 12 8 14 10 15 
9 16 11 18 12 18 12 20 13 22 14 22 15 25 16 25 
17 26 17 28 19 29 19 30 20 31 20 32 21 33 22 33 
22 34 23 34 23 35 23 35 23 35 24 35 23 35 24 34 
23 34 23 33 22 32 22 32 22 30 20 29 20 28 18 26 
18 25 17 22 15 22 14 19 12 17 11 15 10 13 8 11 
6 8 5 7 3 4 1 1 -3 -3 -4 -6 -5 -7 -8 -10 
-9 -12 -10 -15 -12 -16 -14 -19 -15 -20 -16 -23 -17 -24 -19 -26 
-19 -28 -21 -29 -21 -30 -22 -31 -23 -33 -23 -33 -24 -35 -23 -35 
-24 -35 -24 -36 -24 -35 -24 -36 -24 -36 -23 -35 -23 -35 -22 -34 
-22 -34 -21 -33 -20 -32 -20 -30 -19 -30 -18 -29 -17 -27 -16 -26 
-15 -24 -15 -24 -13 -21 -13 -21 -11 -19 -11 -17 -10 -17 -9 -14 
-8 -14 -8 -12 -7 -12 -6 -10 -5 -8 -5 -8 -4 -7 -4 -6 
-3 -6 -3 -4 -2 -4 -2 -4 -2 -2 -1 -3 -1 -2 -1 -1 
-1 -2 -1 -1 -1 -1 0 -1 0 1 1 1 0 1 1 1 
1 1 1 2 1 2 2 3 2 3 2 4 3 5 4 5 
3 7 5 8 5 9 7 10 7 11 8 14 9 14 10 17 
11 18 13 21 14 22 15 25 17 27 18 29 20 32 21 34 
23 37 25 38 26 42 28 43 30 46 31 48 33 50 35 52 
36 54 38 56 39 57 40 58 41 59 43 61 44 60 44 62 
45 61 45 61 46 61 46 60 46 59 45 58 45 56 44 55 
44 53 42 51 41 49 39 46 38 44 36 41 34 38 31 35 
29 32 26 28 24 26 20 22 18 19 14 15 12 12 7 9 
5 4 1 2 -2 -2 -5 -6 -9 -9 -12 -13 -15 -17 -19 -19 
-21 -24 -25 -26 -27 -30 -30 -33 -32 -37 -35 -39 -37 -42 -39 -45 
-40 -48 -42 -50 -44 -53 -44 -55 -46 -56 -46 -58 -46 -60 -47 -61 
-47 -61 -46 -62 -46 -63 -46 -63 -45 -62 -44 -62 -43 -62 -42 -60 
-41 -59 -39 -58 -38 -56 -36 -54 -34 -52 -33 -50 -31 -48 -29 -45 
-28 -43 -25 -41 -24 -38 3809 4153 300 MP stroke
-22 -35 -21 -33 -19 -30 -17 -28 -15 -25 -14 -23 -13 -21 -12 -18 
-10 -17 -9 -15 -7 -13 -7 -11 -6 -10 -5 -8 -5 -7 -3 -7 
-4 -5 -2 -4 -2 -3 -2 -3 -1 -3 -1 -1 -1 -2 -1 -1 
-1 -1 0 -1 0 1 1 1 1 1 0 1 1 2 2 2 
2 3 2 4 3 5 3 5 4 7 5 8 6 10 7 12 
8 13 10 16 11 18 12 20 14 24 17 26 18 30 20 33 
23 36 26 41 27 44 31 48 34 52 36 57 40 60 42 65 
46 69 49 73 53 76 56 80 59 84 62 87 65 89 69 92 
71 94 74 96 77 96 80 98 81 97 84 97 85 97 87 95 
88 94 88 91 89 89 90 85 89 83 88 78 87 75 86 70 
84 67 81 61 79 58 76 52 72 49 69 43 64 40 59 35 
55 31 49 27 44 23 38 20 33 16 26 13 20 9 13 7 
7 3 -6 -3 -13 -6 -19 -9 -26 -13 -32 -16 -38 -19 -44 -23 
-49 -27 -55 -32 -60 -35 -65 -40 -69 -44 -73 -48 -77 -54 -80 -58 
-82 -63 -86 -67 -87 -72 -89 -77 -90 -80 -90 -84 -91 -88 -91 -91 
-91 -94 -90 -96 -88 -98 -87 -99 -86 -100 -83 -100 -81 -100 -78 -99 
-75 -98 -73 -96 -69 -94 -66 -91 -62 -88 -60 -85 -56 -81 -52 -77 
-49 -73 -45 -69 -42 -64 -39 -60 -35 -55 -33 -51 -29 -46 -27 -43 
-24 -38 -21 -34 -19 -31 -17 -27 -14 -24 -13 -21 -11 -18 -10 -16 
-8 -13 -6 -11 -6 -10 -5 -8 -4 -6 -3 -5 -2 -4 -2 -3 
-2 -3 -1 -2 -1 -1 0 -1 -1 -1 0 -1 -1 -1 4010 4479 168 MP stroke
36 w
gs 3065 3101 569 741 rc
/c9 { 0.000000 1.000000 1.000000 sr} bdef
c9
  18   18 3540 3739 FO
  18   18 3488 3662 FO
  18   18 3432 3581 FO
  18   18 3372 3496 FO
  18   18 3310 3408 FO
  18   18 3244 3317 FO
  18   18 3175 3223 FO
  18   18 3144 3183 FO
  18   18 3213 3275 FO
  18   18 3278 3364 FO
  18   18 3340 3451 FO
  18   18 3399 3535 FO
  18   18 3455 3615 FO
  18   18 3508 3691 FO
  18   18 3557 3764 FO
  18   18 3531 3726 FO
  18   18 3492 3668 FO
  18   18 3451 3609 FO
  18   18 3409 3549 FO
  18   18 3366 3487 FO
  18   18 3322 3425 FO
  18   18 3277 3363 FO
  18   18 3231 3300 FO
  18   18 3185 3237 FO
  18   18 3139 3175 FO
  18   18 3162 3206 FO
  18   18 3207 3267 FO
  18   18 3252 3328 FO
  18   18 3296 3390 FO
  18   18 3340 3450 FO
  18   18 3383 3511 FO
  18   18 3424 3570 FO
  18   18 3464 3628 FO
  18   18 3503 3685 FO
  18   18 3541 3741 FO
  18   18 3554 3761 FO
  18   18 3530 3725 FO
  18   18 3506 3690 FO
  18   18 3483 3655 FO
  18   18 3459 3620 FO
  18   18 3436 3587 FO
  18   18 3413 3554 FO
  18   18 3391 3523 FO
  18   18 3370 3493 FO
  18   18 3349 3464 FO
  18   18 3330 3436 FO
  18   18 3311 3410 FO
  18   18 3294 3386 FO
  18   18 3278 3363 FO
  18   18 3263 3343 FO
  18   18 3249 3324 FO
  18   18 3237 3308 FO
  18   18 3227 3293 FO
  18   18 3218 3281 FO
  18   18 3210 3271 FO
  18   18 3205 3264 FO
  18   18 3201 3258 FO
  18   18 3198 3255 FO
  18   18 3199 3256 FO
  18   18 3202 3260 FO
  18   18 3207 3267 FO
  18   18 3213 3275 FO
  18   18 3221 3286 FO
  18   18 3231 3299 FO
  18   18 3242 3314 FO
  18   18 3254 3331 FO
  18   18 3268 3350 FO
  18   18 3283 3372 FO
  18   18 3300 3394 FO
  18   18 3318 3419 FO
  18   18 3336 3445 FO
  18   18 3356 3473 FO
  18   18 3376 3502 FO
  18   18 3398 3532 FO
  18   18 3420 3564 FO
  18   18 3442 3596 FO
  18   18 3465 3629 FO
  18   18 3488 3663 FO
  18   18 3512 3697 FO
  18   18 3535 3732 FO
  18   18 3559 3767 FO
gr

c9
gs 2651 3691 149 149 rc
0 sg
  18   18 2725 3765 PO
  18   18 2725 3765 FO
gr

0 sg
gr

36 w
%%IncludeResource: font Helvetica
/Helvetica /WindowsLatin1Encoding 120 FMSR

 568 4522 mt 
( ) s
3994  955 mt 
( ) s
6 w
1 sg
0 291 1854 0 0 -291 2101 1262 4 MP
PP
-1854 0 0 291 1854 0 0 -291 2101 1262 5 MP stroke
4 w
DO
SO
6 w
2101  971 mt 3955  971 L
2101 1262 mt 3955 1262 L
3955 1262 mt 3955  971 L
2101 1262 mt 2101  971 L
2101 1262 mt 3955 1262 L
2101 1262 mt 2101  971 L
2101  971 mt 3955  971 L
2101 1262 mt 3955 1262 L
3955 1262 mt 3955  971 L
2101 1262 mt 2101  971 L
0 sg
%%IncludeResource: font Times-Roman
/Times-Roman /WindowsLatin1Encoding 192 FMSR

2569 1183 mt 
(Preferred Region) s
gs 2101 971 1855 292 rc
36 w
gs 2279 1042 149 149 rc
c9
  18   18 2353 1116 FO
gr

c9
6 w
gr

c9
0 sg
2203 3994 mt 
(\( 0.7 , 0.2 \)) s

end %%Color Dict

eplot
%%EndObject

epage
end

showpage

%%Trailer
%%EOF
