%!PS-Adobe-3.0 EPSF-3.0
%%Creator: MATLAB, The MathWorks, Inc. Version 7.13.0.564 (R2011b). Operating System: Microsoft Windows XP.
%%Title: D:\DriveG\Sem2-2012\Program\ReferenceMetric-v3\metricfig\zdt2\zdt2-te.eps
%%CreationDate: 02/20/2013  12:47:04
%%DocumentNeededFonts: Helvetica
%%+ Courier-Bold
%%+ Courier
%%DocumentProcessColors: Cyan Magenta Yellow Black
%%LanguageLevel: 2
%%Pages: 1
%%BoundingBox:  -191   230   787   610
%%EndComments

%%BeginProlog
% MathWorks dictionary
/MathWorks 160 dict begin
% definition operators
/bdef {bind def} bind def
/ldef {load def} bind def
/xdef {exch def} bdef
/xstore {exch store} bdef
% operator abbreviations
/c  /clip ldef
/cc /concat ldef
/cp /closepath ldef
/gr /grestore ldef
/gs /gsave ldef
/mt /moveto ldef
/np /newpath ldef
/cm /currentmatrix ldef
/sm /setmatrix ldef
/rm /rmoveto ldef
/rl /rlineto ldef
/s {show newpath} bdef
/sc {setcmykcolor} bdef
/sr /setrgbcolor ldef
/sg /setgray ldef
/w /setlinewidth ldef
/j /setlinejoin ldef
/cap /setlinecap ldef
/rc {rectclip} bdef
/rf {rectfill} bdef
% page state control
/pgsv () def
/bpage {/pgsv save def} bdef
/epage {pgsv restore} bdef
/bplot /gsave ldef
/eplot {stroke grestore} bdef
% orientation switch
/portraitMode 0 def /landscapeMode 1 def /rotateMode 2 def
% coordinate system mappings
/dpi2point 0 def
% font control
/FontSize 0 def
/FMS {/FontSize xstore findfont [FontSize 0 0 FontSize neg 0 0]
  makefont setfont} bdef
/ISOLatin1Encoding where {pop /WindowsLatin1Encoding 256 array bdef
ISOLatin1Encoding WindowsLatin1Encoding copy pop
/.notdef/.notdef/quotesinglbase/florin/quotedblbase/ellipsis/dagger
/daggerdbl/circumflex/perthousand/Scaron/guilsinglleft/OE/.notdef/.notdef
/.notdef/.notdef/quoteleft/quoteright/quotedblleft/quotedblright/bullet
/endash/emdash/tilde/trademark/scaron/guilsinglright/oe/.notdef/.notdef
/Ydieresis WindowsLatin1Encoding 128 32 getinterval astore pop}
{/WindowsLatin1Encoding StandardEncoding bdef} ifelse
/reencode {exch dup where {pop load} {pop StandardEncoding} ifelse
  exch dup 3 1 roll findfont dup length dict begin
  { 1 index /FID ne {def}{pop pop} ifelse } forall
  /Encoding exch def currentdict end definefont pop} bdef
/isroman {findfont /CharStrings get /Agrave known} bdef
/FMSR {3 1 roll 1 index dup isroman {reencode} {pop pop} ifelse
  exch FMS} bdef
/csm {1 dpi2point div -1 dpi2point div scale neg translate
 dup landscapeMode eq {pop -90 rotate}
  {rotateMode eq {90 rotate} if} ifelse} bdef
% line types: solid, dotted, dashed, dotdash
/SO { [] 0 setdash } bdef
/DO { [.5 dpi2point mul 4 dpi2point mul] 0 setdash } bdef
/DA { [6 dpi2point mul] 0 setdash } bdef
/DD { [.5 dpi2point mul 4 dpi2point mul 6 dpi2point mul 4
  dpi2point mul] 0 setdash } bdef
% macros for lines and objects
/L {lineto stroke} bdef
/MP {3 1 roll moveto 1 sub {rlineto} repeat} bdef
/AP {{rlineto} repeat} bdef
/PDlw -1 def
/W {/PDlw currentlinewidth def setlinewidth} def
/PP {closepath eofill} bdef
/DP {closepath stroke} bdef
/MR {4 -2 roll moveto dup  0 exch rlineto exch 0 rlineto
  neg 0 exch rlineto closepath} bdef
/FR {MR stroke} bdef
/PR {MR fill} bdef
/L1i {{currentfile picstr readhexstring pop} image} bdef
/tMatrix matrix def
/MakeOval {newpath tMatrix currentmatrix pop translate scale
0 0 1 0 360 arc tMatrix setmatrix} bdef
/FO {MakeOval stroke} bdef
/PO {MakeOval fill} bdef
/PD {currentlinewidth 2 div 0 360 arc fill
   PDlw -1 eq not {PDlw w /PDlw -1 def} if} def
/FA {newpath tMatrix currentmatrix pop translate scale
  0 0 1 5 -2 roll arc tMatrix setmatrix stroke} bdef
/PA {newpath tMatrix currentmatrix pop	translate 0 0 moveto scale
  0 0 1 5 -2 roll arc closepath tMatrix setmatrix fill} bdef
/FAn {newpath tMatrix currentmatrix pop translate scale
  0 0 1 5 -2 roll arcn tMatrix setmatrix stroke} bdef
/PAn {newpath tMatrix currentmatrix pop translate 0 0 moveto scale
  0 0 1 5 -2 roll arcn closepath tMatrix setmatrix fill} bdef
/vradius 0 def /hradius 0 def /lry 0 def
/lrx 0 def /uly 0 def /ulx 0 def /rad 0 def
/MRR {/vradius xdef /hradius xdef /lry xdef /lrx xdef /uly xdef
  /ulx xdef newpath tMatrix currentmatrix pop ulx hradius add uly
  vradius add translate hradius vradius scale 0 0 1 180 270 arc 
  tMatrix setmatrix lrx hradius sub uly vradius add translate
  hradius vradius scale 0 0 1 270 360 arc tMatrix setmatrix
  lrx hradius sub lry vradius sub translate hradius vradius scale
  0 0 1 0 90 arc tMatrix setmatrix ulx hradius add lry vradius sub
  translate hradius vradius scale 0 0 1 90 180 arc tMatrix setmatrix
  closepath} bdef
/FRR {MRR stroke } bdef
/PRR {MRR fill } bdef
/MlrRR {/lry xdef /lrx xdef /uly xdef /ulx xdef /rad lry uly sub 2 div def
  newpath tMatrix currentmatrix pop ulx rad add uly rad add translate
  rad rad scale 0 0 1 90 270 arc tMatrix setmatrix lrx rad sub lry rad
  sub translate rad rad scale 0 0 1 270 90 arc tMatrix setmatrix
  closepath} bdef
/FlrRR {MlrRR stroke } bdef
/PlrRR {MlrRR fill } bdef
/MtbRR {/lry xdef /lrx xdef /uly xdef /ulx xdef /rad lrx ulx sub 2 div def
  newpath tMatrix currentmatrix pop ulx rad add uly rad add translate
  rad rad scale 0 0 1 180 360 arc tMatrix setmatrix lrx rad sub lry rad
  sub translate rad rad scale 0 0 1 0 180 arc tMatrix setmatrix
  closepath} bdef
/FtbRR {MtbRR stroke } bdef
/PtbRR {MtbRR fill } bdef
/stri 6 array def /dtri 6 array def
/smat 6 array def /dmat 6 array def
/tmat1 6 array def /tmat2 6 array def /dif 3 array def
/asub {/ind2 exch def /ind1 exch def dup dup
  ind1 get exch ind2 get sub exch } bdef
/tri_to_matrix {
  2 0 asub 3 1 asub 4 0 asub 5 1 asub
  dup 0 get exch 1 get 7 -1 roll astore } bdef
/compute_transform {
  dmat dtri tri_to_matrix tmat1 invertmatrix 
  smat stri tri_to_matrix tmat2 concatmatrix } bdef
/ds {stri astore pop} bdef
/dt {dtri astore pop} bdef
/db {2 copy /cols xdef /rows xdef mul dup 3 mul string
  currentfile 
  3 index 0 eq {/ASCIIHexDecode filter}
  {/ASCII85Decode filter 3 index 2 eq {/RunLengthDecode filter} if }
  ifelse exch readstring pop
  dup 0 3 index getinterval /rbmap xdef
  dup 2 index dup getinterval /gbmap xdef
  1 index dup 2 mul exch getinterval /bbmap xdef pop pop}bdef
/it {gs np dtri aload pop moveto lineto lineto cp c
  cols rows 8 compute_transform 
  rbmap gbmap bbmap true 3 colorimage gr}bdef
/il {newpath moveto lineto stroke}bdef
currentdict end def
%%EndProlog

%%BeginSetup
MathWorks begin

0 cap

end
%%EndSetup

%%Page: 1 1
%%BeginPageSetup
%%PageBoundingBox:  -191   230   787   610
MathWorks begin
bpage
%%EndPageSetup

%%BeginObject: obj1
bplot

/dpi2point 12 def
portraitMode -2292 7320 csm

    0     0 11746  4556 rc
86 dict begin %Colortable dictionary
/c0 { 0.000000 0.000000 0.000000 sr} bdef
/c1 { 1.000000 1.000000 1.000000 sr} bdef
/c2 { 0.900000 0.000000 0.000000 sr} bdef
/c3 { 0.000000 0.820000 0.000000 sr} bdef
/c4 { 0.000000 0.000000 0.800000 sr} bdef
/c5 { 0.910000 0.820000 0.320000 sr} bdef
/c6 { 1.000000 0.260000 0.820000 sr} bdef
/c7 { 0.000000 0.820000 0.820000 sr} bdef
c0
1 j
1 sg
   0    0 11747 4557 rf
6 w
0 4128 8858 0 0 -4128 1539 4292 4 MP
PP
-8858 0 0 4128 8858 0 0 -4128 1539 4292 5 MP stroke
4 w
DO
SO
6 w
0 sg
1539  164 mt 10397  164 L
1539 4292 mt 10397 4292 L
10397 4292 mt 10397  164 L
1539 4292 mt 1539  164 L
1539 4292 mt 10397 4292 L
1539 4292 mt 1539  164 L
1539 4292 mt 1539 4203 L
1539  164 mt 1539  252 L
%%IncludeResource: font Helvetica
/Helvetica /WindowsLatin1Encoding 192 FMSR

1486 4504 mt 
(0) s
2424 4292 mt 2424 4203 L
2424  164 mt 2424  252 L
2291 4504 mt 
(0.1) s
3310 4292 mt 3310 4203 L
3310  164 mt 3310  252 L
3177 4504 mt 
(0.2) s
4196 4292 mt 4196 4203 L
4196  164 mt 4196  252 L
4063 4504 mt 
(0.3) s
5082 4292 mt 5082 4203 L
5082  164 mt 5082  252 L
4949 4504 mt 
(0.4) s
5968 4292 mt 5968 4203 L
5968  164 mt 5968  252 L
5835 4504 mt 
(0.5) s
6853 4292 mt 6853 4203 L
6853  164 mt 6853  252 L
6720 4504 mt 
(0.6) s
7739 4292 mt 7739 4203 L
7739  164 mt 7739  252 L
7606 4504 mt 
(0.7) s
8625 4292 mt 8625 4203 L
8625  164 mt 8625  252 L
8492 4504 mt 
(0.8) s
9511 4292 mt 9511 4203 L
9511  164 mt 9511  252 L
9378 4504 mt 
(0.9) s
10397 4292 mt 10397 4203 L
10397  164 mt 10397  252 L
10344 4504 mt 
(1) s
1539 4292 mt 1627 4292 L
10397 4292 mt 10308 4292 L
1398 4363 mt 
(0) s
1539 3879 mt 1627 3879 L
10397 3879 mt 10308 3879 L
1238 3950 mt 
(0.1) s
1539 3466 mt 1627 3466 L
10397 3466 mt 10308 3466 L
1238 3537 mt 
(0.2) s
1539 3053 mt 1627 3053 L
10397 3053 mt 10308 3053 L
1238 3124 mt 
(0.3) s
1539 2640 mt 1627 2640 L
10397 2640 mt 10308 2640 L
1238 2711 mt 
(0.4) s
1539 2228 mt 1627 2228 L
10397 2228 mt 10308 2228 L
1238 2299 mt 
(0.5) s
1539 1815 mt 1627 1815 L
10397 1815 mt 10308 1815 L
1238 1886 mt 
(0.6) s
1539 1402 mt 1627 1402 L
10397 1402 mt 10308 1402 L
1238 1473 mt 
(0.7) s
1539  989 mt 1627  989 L
10397  989 mt 10308  989 L
1238 1060 mt 
(0.8) s
1539  576 mt 1627  576 L
10397  576 mt 10308  576 L
1238  647 mt 
(0.9) s
1539  164 mt 1627  164 L
10397  164 mt 10308  164 L
1398  235 mt 
(1) s
1539  164 mt 10397  164 L
1539 4292 mt 10397 4292 L
10397 4292 mt 10397  164 L
1539 4292 mt 1539  164 L
gs 1539 164 8859 4129 rc
27.6 w
/c8 { 0.000000 0.000000 1.000000 sr} bdef
c8
1 1 1 1 1 1 1 1 1 1 1 0 1 1 1 1 
0 1 1 1 1 1 1 0 1 1 1 1 1 1 1 1 
1 1 1 1 1 1 1 1 1 1 1 0 1 1 1 1 
1 1 0 1 1 1 1 0 1 1 1 1 1 1 1 1 
1 1 1 0 -1 0 2 2 1 1 1 1 1 0 1 1 
1 1 1 1 0 1 1 1 1 0 1 1 1 1 1 1 
1 1 1 0 1 1 0 1 1 1 1 1 1 1 1 0 
1 1 1 1 1 1 1 1 1 1 1 1 1 1 1 1 
1 1 1 0 1 1 1 1 0 1 1 1 1 1 1 0 
1 1 1 1 1 1 1 1 1 1 1 1 1 1 1 1 
1 1 1 0 1 1 1 1 0 1 1 1 1 0 1 1 
1 1 1 1 1 1 1 1 1 0 -1 0 2 2 1 1 
1 1 1 0 1 1 1 1 1 1 1 1 1 1 1 1 
1 1 1 1 1 1 1 0 1 1 0 1 1 1 1 1 
1 1 1 0 1 1 1 1 1 1 1 1 1 1 1 1 
1 1 1 1 1 1 1 0 1 1 1 1 0 1 1 1 
1 0 1 1 1 1 1 1 1 1 1 0 1 1 0 1 
1 1 1 1 1 1 1 0 1 1 1 1 1 1 1 1 
1 1 1 1 1 1 1 1 1 0 1 1 1 1 0 1 
1 1 1 1 1 0 1 1 1 1 1 1 1 1 1 0 
-1 0 2 2 1 1 1 1 1 0 1 1 1 1 1 1 
1 1 1 1 1 1 1 1 1 1 1 1 1 0 1 1 
0 1 1 1 1 1 1 0 1 1 1 1 1 1 1 1 
1 0 -1 0 2 2 1 1 1 1 1 1 1 0 1 1 
1 1 1 1 1 1 1 1 1 1 1 1 1 1 1 0 
1 1 1 1 0 1 1 1 1 0 1 1 1 1 1 1 
1 1 1 1 1 1 1 1 1 1 1 1 1 0 1 1 
1 1 1 1 1 1 1 1 1 1 1 1 1 1 1 0 
1 1 1 1 0 1 1 1 1 0 1 1 1 1 1 1 
1 1 1 0 1 1 0 1 1 1 1 1 1 1 1 0 
1 1 1 1 1 1 1 1 1 1 1 1 1 1 1 1 
1 0 1 1 1 1 0 1 1 1 1 0 1 1 1 1 
1 1 1 1 1 0 1 1 0 1 1 1 1 1 1 0 
1 1 1 1 1 1 1 1 1 0 -1 0 2 2 1 1 
1 1 1 0 1 1 1 1 1 1 1 1 1 1 1 1 
1 1 1 1 1 0 1 1 1 1 0 1 1 1 1 0 
1 1 1 1 1 1 1 1 1 0 1 1 0 1 1 1 
1 1 1 0 1 1 10121 4039 300 MP stroke
1 1 1 1 1 1 1 0 -1 0 2 2 1 1 1 1 
1 0 1 1 1 1 1 1 1 1 1 1 1 1 1 1 
1 1 1 0 1 1 1 1 0 1 1 1 1 0 1 1 
1 1 1 1 1 1 1 0 1 1 0 1 1 1 1 1 
1 0 1 1 1 1 1 1 1 1 1 0 -1 0 2 2 
1 1 1 1 1 0 1 1 1 1 1 1 1 1 1 1 
1 1 1 1 1 1 1 0 1 1 1 1 0 1 1 1 
1 0 1 1 1 1 1 1 1 1 1 0 1 1 0 1 
1 1 1 0 1 1 1 1 1 1 1 1 1 0 1 1 
0 1 1 1 1 1 1 0 1 1 1 1 1 1 1 1 
1 0 -1 0 2 2 1 1 1 1 1 0 1 1 1 1 
1 1 1 1 1 1 1 1 1 1 1 0 1 1 1 1 
1 1 1 1 1 1 1 1 1 1 1 1 1 0 1 1 
1 1 0 1 1 1 1 0 1 1 1 1 1 1 1 1 
1 0 1 1 0 1 1 1 1 0 1 1 1 1 1 1 
1 1 1 0 -1 0 2 2 1 1 1 1 1 0 1 1 
1 1 1 1 1 1 1 1 1 1 1 1 1 0 1 1 
1 1 1 1 1 1 1 1 1 1 1 1 1 1 1 0 
1 1 1 1 1 1 1 1 1 1 1 1 1 1 1 0 
1 1 1 1 0 1 1 1 1 0 1 1 1 1 1 1 
1 0 1 1 1 1 0 1 1 1 1 0 1 1 1 1 
1 1 1 1 1 0 1 1 0 1 1 1 1 0 1 1 
1 1 1 1 1 1 1 0 1 1 0 1 1 1 1 1 
1 0 1 1 1 1 1 1 1 0 -1 0 2 2 1 1 
1 1 1 0 1 1 1 1 1 1 1 1 1 1 1 1 
1 1 1 0 1 1 1 1 1 1 1 1 1 1 1 1 
1 1 1 0 1 1 1 1 1 1 1 1 1 1 1 1 
1 1 1 1 1 0 1 1 1 1 1 1 1 1 1 1 
1 1 1 1 1 0 1 1 1 1 1 1 1 1 1 1 
1 1 1 1 1 0 1 1 1 1 1 1 1 1 1 1 
1 1 1 1 1 0 1 1 1 1 1 1 1 1 1 1 
1 1 1 1 1 0 1 1 0 1 1 1 1 0 1 1 
1 1 1 1 1 1 1 0 1 1 0 1 1 1 1 0 
1 1 1 1 1 1 1 1 1 0 1 1 0 1 1 1 
1 0 1 1 1 1 1 1 1 1 1 0 1 1 0 1 
1 1 1 0 1 1 1 1 1 1 1 1 1 0 -1 0 
2 2 1 1 1 0 1 1 1 1 1 1 1 1 1 0 
-1 0 2 2 1 1 9844 3792 300 MP stroke
1 0 1 1 1 1 1 1 1 0 1 1 0 1 1 1 
1 1 1 0 1 1 1 1 1 1 1 0 1 1 0 1 
1 1 1 1 1 0 1 1 1 1 1 1 1 0 -1 0 
2 2 1 1 1 0 1 1 1 1 1 1 1 1 1 0 
-1 0 2 2 1 1 1 0 1 1 1 1 1 1 1 0 
1 1 0 1 1 1 1 1 1 0 1 1 1 1 1 1 
1 0 1 1 0 1 1 1 1 1 1 0 1 1 1 1 
1 1 1 0 1 1 0 1 1 1 1 0 1 1 1 1 
1 1 1 1 1 0 -1 0 2 2 1 1 1 0 1 1 
1 1 1 1 1 0 1 1 0 1 1 1 1 0 1 1 
1 1 1 1 1 1 1 0 1 1 0 1 1 1 1 0 
1 1 1 1 1 1 1 0 1 1 1 1 0 1 1 1 
1 0 1 1 1 1 1 1 1 0 1 1 0 1 1 1 
1 0 1 1 1 1 1 1 1 0 1 1 1 1 0 1 
1 1 1 0 1 1 1 1 1 1 1 0 1 1 1 1 
1 1 1 1 1 1 1 1 1 0 1 1 1 1 1 1 
1 1 1 1 1 1 1 1 1 0 1 1 1 1 1 1 
1 1 1 1 1 1 1 0 1 1 1 1 1 1 1 1 
1 1 1 1 1 1 1 0 1 1 1 1 1 1 1 1 
1 1 1 1 1 0 1 1 1 1 1 1 1 0 -1 0 
2 2 1 1 1 0 1 1 1 1 1 1 1 1 1 1 
1 1 1 1 1 0 1 1 1 1 1 1 1 0 -1 0 
2 2 1 1 1 0 1 1 1 1 1 1 1 0 1 1 
0 1 1 1 1 0 1 1 1 1 1 1 1 0 1 1 
1 1 0 1 1 1 1 0 1 1 1 1 1 1 1 0 
1 1 0 1 1 1 1 0 1 1 1 1 1 1 1 0 
1 1 1 1 1 1 1 1 1 1 1 1 1 0 1 1 
1 1 1 1 1 1 1 1 1 1 1 0 1 1 1 1 
1 1 1 0 -1 0 2 2 1 1 1 0 1 1 1 1 
1 1 1 1 1 1 1 1 1 1 1 0 1 1 1 1 
1 1 1 0 -1 0 2 2 1 1 1 0 1 1 1 1 
1 1 1 0 1 1 0 1 1 1 1 0 1 1 1 1 
1 1 1 0 1 1 1 1 1 1 1 1 1 1 1 1 
1 0 1 1 1 1 1 1 1 1 1 1 1 1 1 0 
1 1 1 1 1 1 1 1 1 1 1 1 1 0 1 1 
1 1 1 1 1 0 -1 0 2 2 1 1 1 0 1 1 
1 1 1 1 1 0 1 1 0 1 1 1 1 0 1 1 
1 1 1 1 1 0 9568 3556 300 MP stroke
1 1 0 1 1 1 1 0 1 1 1 1 1 1 1 0 
1 1 1 1 1 1 1 1 1 1 1 1 1 0 1 1 
1 1 1 1 1 1 1 1 1 1 1 0 1 1 1 1 
1 1 1 0 -1 0 2 2 1 1 1 0 1 1 1 1 
1 0 1 1 0 1 1 1 1 0 1 1 1 1 1 1 
1 0 1 1 1 1 1 1 1 1 1 1 1 1 1 0 
1 1 1 1 1 1 1 1 1 1 1 1 1 0 1 1 
1 1 1 1 1 0 -1 0 2 2 1 1 1 0 1 1 
1 1 1 1 1 0 1 1 0 1 1 1 1 0 1 1 
1 1 1 0 1 1 1 1 1 1 1 1 1 1 1 1 
1 0 1 1 1 1 1 1 1 1 1 1 1 1 1 0 
1 1 1 1 1 1 1 0 -1 0 2 2 1 1 1 0 
1 1 1 1 1 0 1 1 1 1 1 1 1 1 1 1 
1 1 1 0 1 1 1 1 1 1 1 1 1 1 1 1 
1 0 1 1 1 1 1 1 1 1 1 1 1 0 1 1 
1 1 1 1 1 0 1 1 0 1 1 1 1 0 1 1 
1 1 1 1 1 0 1 1 1 1 1 1 1 1 1 1 
1 0 1 1 1 1 1 1 1 1 1 1 1 1 1 0 
1 1 1 1 1 1 1 0 -1 0 2 2 1 1 1 0 
1 1 1 1 1 0 1 1 1 1 1 1 1 1 1 1 
1 1 1 0 1 1 1 1 1 1 1 1 1 1 1 0 
1 1 1 1 1 1 1 0 -1 0 2 2 1 1 1 0 
1 1 1 1 1 1 1 0 1 1 1 1 1 1 1 1 
1 1 1 0 1 1 1 1 1 1 1 1 1 1 1 0 
1 1 1 1 1 1 1 0 1 1 0 1 1 1 1 0 
1 1 1 1 1 1 1 0 1 1 1 1 1 1 1 1 
1 1 1 0 1 1 1 1 1 1 1 1 1 1 1 0 
1 1 1 1 1 1 1 0 1 1 0 1 1 1 1 0 
1 1 1 1 1 1 1 0 1 1 1 1 1 1 1 1 
1 1 1 0 1 1 1 1 1 1 1 1 1 1 1 0 
1 1 1 1 1 1 1 0 1 1 0 1 1 1 1 0 
1 1 1 1 1 0 1 1 1 1 1 1 1 1 1 1 
1 0 1 1 1 1 1 1 1 0 1 1 0 1 1 1 
1 0 1 1 1 1 1 0 1 1 1 1 1 1 1 1 
1 1 1 1 1 0 1 1 1 1 1 0 -1 0 2 2 
1 1 1 0 1 1 1 1 1 0 1 1 1 1 1 1 
1 1 1 1 1 1 1 0 1 1 1 1 1 0 -1 0 
2 2 1 1 1 0 9284 3320 300 MP stroke
1 1 1 1 1 0 1 1 0 1 1 1 1 0 1 1 
1 1 1 1 1 0 1 1 1 1 1 1 1 1 1 1 
1 0 1 1 1 1 1 0 1 1 0 1 1 1 1 0 
1 1 1 1 1 1 1 0 1 1 1 1 1 1 1 1 
1 1 1 0 1 1 1 1 1 0 -1 0 2 2 1 1 
1 0 1 1 1 1 1 0 1 1 1 1 1 1 1 1 
1 1 1 0 1 1 1 1 1 1 1 0 -1 0 2 2 
1 0 1 1 1 1 1 1 1 0 1 1 1 1 1 1 
1 1 1 1 1 0 1 1 1 1 1 1 1 1 1 1 
1 0 1 1 1 1 1 1 1 0 1 1 1 1 1 1 
1 1 1 1 1 0 1 1 1 1 1 0 -1 0 2 2 
1 1 1 0 1 1 1 1 1 0 1 1 1 1 1 1 
1 1 1 1 1 0 1 1 1 1 1 1 1 0 -1 0 
2 2 1 0 1 1 1 1 1 1 1 0 1 1 1 1 
1 1 1 1 1 1 1 0 1 1 1 1 1 0 -1 0 
2 2 1 0 1 1 1 1 1 1 1 0 1 1 1 1 
1 1 1 1 1 1 1 0 1 1 1 1 1 0 1 1 
0 1 1 1 1 0 1 1 1 1 1 0 1 1 1 1 
1 1 1 1 1 1 1 0 1 1 1 1 1 0 1 1 
0 1 1 1 1 0 1 1 1 1 1 0 1 1 1 1 
1 1 1 1 1 1 1 0 1 1 1 1 1 1 1 0 
1 1 1 1 1 1 1 1 1 0 1 1 1 1 1 1 
1 1 1 1 1 0 1 1 1 1 1 1 1 0 1 1 
1 1 1 1 1 1 1 0 1 1 1 1 1 1 1 0 
-1 0 2 2 1 0 1 1 1 1 1 1 1 0 1 1 
1 1 1 1 1 1 1 0 1 1 1 1 1 1 1 0 
-1 0 2 2 1 0 1 1 1 1 1 0 1 1 1 1 
1 1 1 1 1 1 1 0 1 1 1 1 1 1 1 0 
1 1 1 1 1 1 1 1 1 0 1 1 1 1 1 1 
1 0 -1 0 2 2 1 0 1 1 1 1 1 0 1 1 
1 1 1 1 1 1 1 1 1 0 1 1 1 1 1 0 
1 1 0 1 1 1 1 0 1 1 1 1 1 0 1 1 
1 1 1 0 -1 0 2 2 1 1 1 0 1 1 1 1 
1 0 1 1 1 1 1 1 1 1 1 1 1 0 1 1 
1 1 1 0 -1 0 2 2 1 0 1 1 1 1 1 0 
1 1 1 1 1 1 1 1 1 1 1 0 1 1 1 1 
1 0 1 1 1 1 1 1 1 1 1 1 1 0 1 1 
1 1 1 0 1 1 9000 3093 300 MP stroke
0 1 1 1 1 0 1 1 1 1 1 0 1 1 1 1 
1 1 1 1 1 0 1 1 1 1 1 1 1 0 1 1 
1 1 1 1 1 1 1 0 1 1 1 1 1 0 1 1 
0 1 1 1 1 0 1 1 1 1 1 0 1 1 1 1 
1 0 -1 0 2 2 1 0 1 1 1 1 1 1 1 0 
1 1 1 1 1 1 1 1 1 0 1 1 1 1 1 0 
1 1 0 1 1 1 1 0 1 1 1 1 1 0 1 1 
1 1 1 0 -1 0 2 2 1 0 1 1 1 1 1 1 
1 0 1 1 1 1 1 1 1 1 1 0 1 1 1 1 
1 0 1 1 1 1 1 1 1 1 1 1 1 0 1 1 
1 1 1 0 -1 0 2 2 1 0 1 1 1 1 1 0 
1 1 1 1 1 1 1 1 1 1 1 0 1 1 1 1 
1 0 1 1 1 1 1 1 1 1 1 0 1 1 1 1 
1 0 1 1 1 1 1 1 1 1 1 1 1 0 1 1 
1 1 1 0 -1 0 2 2 1 0 1 1 1 1 1 0 
1 1 1 1 1 1 1 1 1 1 1 0 1 1 1 1 
1 0 1 1 1 1 1 1 1 1 1 0 1 1 1 1 
1 0 1 1 1 1 1 1 1 1 1 1 1 0 1 1 
1 1 1 0 -1 0 2 2 1 0 1 1 1 1 1 0 
1 1 1 1 1 0 -1 0 2 2 1 0 1 1 1 1 
1 1 1 0 1 1 1 1 1 1 1 1 1 0 1 1 
1 1 1 0 1 1 1 1 1 1 1 1 1 0 1 1 
1 1 1 0 1 1 1 1 1 1 1 1 1 1 1 0 
1 1 1 1 1 0 -1 0 2 2 1 0 1 1 1 1 
1 0 1 1 1 1 1 0 -1 0 2 2 1 0 1 1 
1 1 1 0 1 1 1 1 1 0 -1 0 2 2 1 0 
1 1 1 1 1 1 1 0 1 1 1 1 1 1 1 1 
1 0 1 1 1 1 1 0 1 1 1 1 1 1 1 1 
1 0 1 1 1 1 1 0 1 1 1 1 1 1 1 1 
1 0 1 1 1 1 1 0 1 1 1 1 1 1 1 1 
1 0 1 1 1 1 1 0 -1 0 2 2 1 1 1 0 
1 1 1 1 1 0 1 1 1 1 1 1 1 1 1 0 
1 1 1 1 1 0 1 1 1 1 1 1 1 1 1 0 
1 1 1 1 1 0 1 1 1 1 1 1 1 1 1 0 
1 1 1 1 1 0 1 1 1 1 1 1 1 1 1 0 
1 1 1 1 1 0 1 1 1 1 1 1 1 1 1 0 
1 1 1 1 1 0 1 1 1 1 1 1 1 1 1 0 
1 1 1 1 1 0 8714 2873 300 MP stroke
1 1 1 1 1 1 1 1 1 0 1 1 1 1 1 0 
-1 0 2 2 1 0 1 1 1 1 1 0 1 1 1 1 
1 0 -1 0 2 2 1 0 1 1 1 1 1 0 1 1 
1 1 1 0 -1 0 2 2 1 0 1 1 1 1 1 0 
1 1 1 1 1 0 -1 0 2 2 1 0 1 1 1 1 
1 0 1 1 1 1 1 1 1 1 1 0 1 1 1 1 
1 0 1 1 1 1 1 1 1 1 1 0 1 1 1 1 
1 0 1 1 1 1 1 1 1 1 1 0 1 1 1 1 
1 0 1 1 1 1 1 1 1 1 1 0 1 1 1 1 
1 0 1 1 1 1 1 1 1 1 1 0 1 1 1 1 
1 0 1 1 1 1 1 1 1 1 1 0 1 1 1 1 
1 0 1 1 1 1 1 1 1 1 1 0 1 1 1 1 
1 0 1 1 1 1 1 1 1 1 1 0 1 1 1 0 
1 1 1 1 1 1 1 1 1 0 1 1 1 1 1 0 
1 1 1 1 1 1 1 1 1 0 1 1 1 1 1 0 
1 1 1 1 1 1 1 1 1 0 1 1 1 1 1 0 
1 1 1 1 1 1 1 1 1 0 1 1 1 1 1 0 
1 1 1 1 1 1 1 0 1 1 1 1 1 0 1 1 
1 1 1 1 1 1 1 0 1 1 1 1 1 0 1 1 
1 1 1 1 1 1 1 0 1 1 1 1 1 0 1 1 
1 1 1 1 1 1 1 0 1 1 1 0 1 1 1 1 
1 1 1 1 1 0 1 1 1 1 1 0 1 1 1 1 
1 1 1 1 1 0 1 1 1 1 1 0 1 1 1 1 
1 1 1 0 1 1 1 1 1 0 1 1 1 1 1 1 
1 1 1 0 1 1 1 1 1 0 1 1 1 1 1 1 
1 1 1 0 1 1 1 0 1 1 1 1 1 1 1 1 
1 0 1 1 1 1 1 0 1 1 1 1 1 1 1 1 
1 0 1 1 1 1 1 0 1 1 1 0 -1 0 2 2 
1 0 1 1 1 1 1 0 1 1 1 1 1 0 -1 0 
2 2 1 0 1 1 1 1 1 0 1 1 1 0 -1 0 
2 2 1 0 1 1 1 1 1 0 1 1 1 1 1 0 
-1 0 2 2 1 0 1 1 1 1 1 0 1 1 1 0 
1 1 1 1 1 1 1 1 1 0 1 1 1 1 1 0 
1 1 1 1 1 1 1 1 1 0 1 1 1 0 1 1 
1 1 1 1 1 1 1 0 1 1 1 1 1 0 1 1 
1 1 1 1 1 0 1 1 1 1 1 0 1 1 1 1 
1 1 1 1 1 0 1 1 1 1 1 0 1 1 1 0 
-1 0 2 2 1 0 8424 2658 300 MP stroke
1 1 1 1 1 0 1 1 1 1 1 1 1 1 1 0 
1 1 1 0 1 1 1 1 1 0 -1 0 2 2 1 0 
1 1 1 1 1 0 1 1 1 0 1 1 1 1 1 1 
1 1 1 0 1 1 1 1 1 0 1 1 1 1 1 1 
1 0 1 1 1 1 1 0 1 1 1 1 1 1 1 1 
1 0 1 1 1 0 1 1 1 1 1 1 1 1 1 0 
1 1 1 1 1 0 1 1 1 0 -1 0 2 2 1 0 
1 1 1 1 1 0 1 1 1 1 1 0 1 1 1 1 
1 1 1 0 1 1 1 1 1 0 -1 0 2 2 1 0 
1 1 1 0 1 1 1 1 1 0 1 1 1 1 1 1 
1 1 1 0 1 1 1 0 1 1 1 1 1 1 1 1 
1 0 1 1 1 1 1 0 1 1 1 0 -1 0 2 2 
1 0 1 1 1 1 1 0 1 1 1 0 1 1 1 1 
1 1 1 1 1 0 1 1 1 1 1 0 1 1 1 1 
1 1 1 0 1 1 1 1 1 0 1 1 1 1 1 1 
1 0 1 1 1 1 1 0 1 1 1 1 1 1 1 0 
1 1 1 1 1 0 1 1 1 1 1 0 1 1 1 1 
1 1 1 0 1 1 1 1 1 0 1 1 1 1 1 1 
1 0 1 1 1 1 1 0 1 1 1 1 1 1 1 0 
1 1 1 1 1 0 1 1 1 1 1 1 1 0 1 1 
1 1 1 0 1 1 1 1 1 0 1 1 1 1 1 1 
1 0 1 1 1 1 1 0 1 1 1 1 1 1 1 0 
1 1 1 1 1 0 1 1 1 1 1 1 1 0 1 1 
1 1 1 0 1 1 1 0 -1 0 2 2 1 0 1 1 
1 1 1 0 1 1 1 0 1 1 1 1 1 1 1 1 
1 0 1 1 1 0 1 1 1 1 1 1 1 1 1 0 
1 1 1 0 1 1 1 1 1 1 1 1 1 0 1 1 
1 0 1 1 1 1 1 0 -1 0 2 2 1 0 1 1 
1 0 1 1 1 1 1 0 1 1 1 1 1 1 1 0 
1 1 1 1 1 0 1 1 1 1 1 1 1 0 1 1 
1 1 1 0 1 1 1 0 -1 0 2 2 1 0 1 1 
1 0 1 1 1 1 1 0 1 1 1 1 1 1 1 0 
1 1 1 1 1 0 1 1 1 1 1 1 1 0 1 1 
1 1 1 0 1 1 1 0 -1 0 2 2 1 0 1 1 
1 1 1 0 1 1 1 0 1 1 1 1 1 1 1 1 
1 0 1 1 1 0 1 1 1 1 1 1 1 0 1 1 
1 1 1 0 1 1 1 1 1 0 1 1 1 1 1 1 
1 0 1 1 1 0 8133 2452 300 MP stroke
1 1 1 1 1 1 1 1 1 0 1 1 1 0 1 1 
1 1 1 1 1 0 1 1 1 1 1 0 1 1 1 0 
1 1 1 1 1 1 1 1 1 0 1 1 1 0 1 1 
1 1 1 1 1 0 1 1 1 1 1 0 1 1 1 1 
1 1 1 0 1 1 1 1 1 0 1 1 1 0 1 1 
1 1 1 1 1 0 1 1 1 1 1 0 1 1 1 1 
1 1 1 0 1 1 1 1 1 0 1 1 1 0 1 1 
1 1 1 1 1 0 1 1 1 1 1 0 1 1 1 1 
1 1 1 0 1 1 1 1 1 0 1 1 1 0 -1 0 
2 2 1 0 1 1 1 0 1 1 1 1 1 0 1 1 
1 1 1 1 1 0 1 1 1 0 1 1 1 1 1 0 
1 1 1 1 1 1 1 0 1 1 1 1 1 0 1 1 
1 1 1 1 1 0 1 1 1 0 1 1 1 1 1 1 
1 0 1 1 1 1 1 0 1 1 1 0 1 1 1 1 
1 1 1 0 1 1 1 1 1 0 1 1 1 0 -1 0 
2 2 1 0 1 1 1 0 1 1 1 1 1 0 1 1 
1 1 1 1 1 0 1 1 1 0 1 1 1 1 1 1 
1 1 1 0 1 1 1 0 1 1 1 1 1 0 1 1 
1 1 1 1 1 0 1 1 1 0 1 1 1 1 1 1 
1 0 1 1 1 1 1 0 1 1 1 0 1 1 1 1 
1 1 1 0 1 1 1 1 1 0 1 1 1 1 1 1 
1 0 1 1 1 0 1 1 1 1 1 0 1 1 1 1 
1 1 1 0 1 1 1 0 1 1 1 1 1 1 1 0 
1 1 1 0 1 1 1 1 1 0 1 1 1 1 1 1 
1 0 1 1 1 0 1 1 1 1 1 1 1 0 1 1 
1 1 1 0 1 1 1 0 1 1 1 1 1 1 1 0 
1 1 1 1 1 0 1 1 1 0 -1 0 2 2 1 0 
1 1 1 0 1 1 1 1 1 0 1 1 1 1 1 1 
1 0 1 1 1 0 1 1 1 0 -1 0 2 2 1 0 
1 1 1 0 1 1 1 1 1 0 1 1 1 1 1 1 
1 0 1 1 1 0 1 1 1 1 1 0 1 1 1 1 
1 1 1 0 1 1 1 0 1 1 1 0 -1 0 2 2 
1 0 1 1 1 0 1 1 1 1 1 0 1 1 1 1 
1 1 1 0 1 1 1 0 1 1 1 1 1 1 1 0 
1 1 1 0 1 1 1 1 1 0 1 1 1 1 1 1 
1 0 1 1 1 0 1 1 1 1 1 0 1 1 1 1 
1 0 1 1 1 1 1 0 1 1 1 1 1 1 1 0 
1 1 1 0 1 1 7839 2252 300 MP stroke
1 1 1 0 1 1 1 1 1 0 1 1 1 1 1 0 
1 1 1 0 -1 0 2 2 1 0 1 1 1 0 1 1 
1 1 1 0 1 1 1 1 1 0 1 1 1 1 1 0 
1 1 1 0 -1 0 2 2 1 0 1 1 1 0 1 1 
1 0 1 1 1 1 1 1 1 0 1 1 1 1 1 0 
1 1 1 0 1 1 1 1 1 1 1 0 1 1 1 0 
1 1 1 1 1 0 1 1 1 1 1 0 1 1 1 1 
1 0 1 1 1 1 1 1 1 0 1 1 1 0 1 1 
1 0 1 1 1 1 1 1 1 0 1 1 1 1 1 0 
1 1 1 0 1 1 1 1 1 1 1 0 1 1 1 0 
1 1 1 0 -1 0 2 2 1 0 1 1 1 0 1 1 
1 1 1 0 1 1 1 1 1 0 1 1 1 1 1 0 
1 1 1 0 1 1 1 1 1 1 1 0 1 1 1 0 
1 1 1 1 1 1 1 0 1 1 1 0 1 1 1 1 
1 0 1 1 1 1 1 0 1 1 1 1 1 0 1 1 
1 0 1 1 1 1 1 1 1 0 1 1 1 0 1 1 
1 1 1 1 1 0 1 1 1 0 1 1 1 1 1 0 
1 1 1 1 1 0 1 1 1 1 1 0 1 1 1 0 
1 1 1 1 1 1 1 0 1 1 1 0 1 1 1 0 
1 1 1 1 1 1 1 0 1 1 1 0 1 1 1 1 
1 1 1 0 1 1 1 0 1 1 1 1 1 0 1 1 
1 1 1 0 1 1 1 1 1 0 1 1 1 0 1 1 
1 1 1 1 1 0 1 1 1 0 1 1 1 0 1 1 
1 1 1 1 1 0 1 1 1 0 1 1 1 1 1 1 
1 0 1 1 1 0 1 1 1 1 1 0 1 1 1 1 
1 0 1 1 1 1 1 0 1 1 1 0 1 1 1 1 
1 1 1 0 1 1 1 0 1 1 1 0 1 1 1 1 
1 1 1 0 1 1 1 0 1 1 1 0 -1 0 2 2 
1 0 1 1 1 0 1 1 1 0 1 1 1 1 1 1 
1 0 1 1 1 0 1 1 1 1 1 0 1 1 1 1 
1 0 1 1 1 0 1 1 1 1 1 0 1 1 1 1 
1 0 1 1 1 1 1 0 1 1 1 0 1 1 1 1 
1 1 1 0 1 1 1 0 1 1 1 0 1 1 1 1 
1 1 1 0 1 1 1 0 1 1 1 0 -1 0 2 2 
1 0 1 1 1 0 1 1 1 0 1 1 1 0 -1 0 
2 2 1 0 1 1 1 0 1 1 1 0 1 1 1 1 
1 1 1 0 1 1 1 0 1 1 1 0 1 1 1 1 
1 1 1 0 1 1 7546 2062 300 MP stroke
1 0 1 1 1 0 1 1 1 1 1 1 1 0 1 1 
1 0 1 1 1 1 1 0 1 1 1 1 1 0 1 1 
1 0 1 1 1 1 1 1 1 0 1 1 1 0 1 1 
1 0 1 1 1 1 1 1 1 0 1 1 1 0 1 1 
1 0 1 1 1 1 1 1 1 0 1 1 1 0 1 1 
1 0 1 1 1 1 1 1 1 0 1 1 1 0 1 1 
1 0 1 1 1 1 1 1 1 0 1 1 1 0 1 1 
1 0 1 1 1 1 1 1 1 0 1 1 1 0 1 1 
1 0 1 1 1 1 1 1 1 0 1 1 1 0 1 1 
1 0 1 1 1 1 1 1 1 0 1 1 1 0 1 1 
1 0 -1 0 2 2 1 0 1 1 1 0 1 1 1 0 
1 1 1 0 1 1 1 1 1 1 1 0 1 1 1 0 
1 1 1 0 1 1 1 1 1 1 1 0 1 1 1 0 
1 1 1 0 1 1 1 1 1 1 1 0 1 1 1 0 
1 1 1 0 1 1 1 1 1 0 1 1 1 1 1 0 
1 1 1 1 1 0 1 1 1 0 1 1 1 0 1 1 
1 1 1 1 1 0 1 1 1 0 1 1 1 0 1 1 
1 1 1 1 1 0 1 1 1 0 1 1 1 0 1 1 
1 0 -1 0 2 2 1 0 1 1 1 0 1 1 1 0 
1 1 1 1 1 0 1 1 1 1 1 0 1 1 1 0 
1 1 1 1 1 0 1 1 1 0 1 1 1 1 1 0 
1 1 1 1 1 0 1 1 1 0 1 1 1 0 1 1 
1 1 1 1 1 0 1 1 1 0 1 1 1 0 1 1 
1 1 1 0 1 1 1 1 1 0 1 1 1 0 1 1 
1 1 1 0 1 1 1 0 1 1 1 1 1 0 1 1 
1 1 1 0 1 1 1 0 1 1 1 0 1 1 1 0 
-1 0 2 2 1 0 1 1 1 0 1 1 1 0 1 1 
1 1 1 0 1 1 1 1 1 0 1 1 1 0 1 1 
1 1 1 0 1 1 1 0 1 1 1 0 1 1 1 1 
1 1 1 0 1 1 1 0 1 1 1 0 1 1 1 0 
1 1 1 1 1 1 1 0 1 1 1 0 1 1 1 1 
1 0 1 1 1 0 1 1 1 0 1 1 1 0 -1 0 
2 2 1 0 1 1 1 0 1 1 1 0 1 1 1 0 
1 1 1 1 1 0 1 1 1 1 1 0 1 1 1 0 
1 1 1 1 1 0 1 1 1 0 1 1 1 0 1 1 
1 1 1 1 1 0 1 1 1 0 1 1 1 0 1 1 
1 1 1 0 1 1 1 0 1 1 1 0 1 1 1 1 
1 1 1 0 1 1 7251 1880 300 MP stroke
1 0 1 1 1 0 1 1 1 1 1 0 1 1 1 0 
1 1 1 1 1 0 1 1 1 1 1 0 1 1 1 0 
1 1 1 0 1 1 1 1 1 0 1 1 1 0 1 1 
1 1 1 0 1 1 1 1 1 0 1 1 1 0 1 1 
1 0 1 1 1 0 1 1 1 1 1 0 1 1 1 1 
1 0 1 1 1 1 1 0 1 1 1 0 1 1 1 0 
1 1 1 0 1 1 1 1 1 0 1 1 1 1 1 0 
1 1 1 0 1 1 1 1 1 0 1 1 1 0 1 1 
1 0 1 1 1 1 1 0 1 1 1 0 1 1 1 1 
1 0 1 1 1 1 1 0 1 1 1 0 1 1 1 0 
1 1 1 1 1 0 1 1 1 0 1 1 1 0 1 1 
1 1 1 1 1 0 1 1 1 0 1 1 1 0 1 1 
1 0 1 1 1 1 1 0 1 1 1 0 1 1 1 0 
1 1 1 1 1 1 1 0 1 1 1 0 1 1 1 0 
1 1 1 1 1 0 1 1 1 0 1 1 1 0 1 1 
1 1 1 0 1 1 1 0 1 1 1 0 1 1 1 0 
-1 0 2 2 1 0 1 1 1 0 1 1 1 0 1 1 
1 0 1 1 1 1 1 0 1 1 1 0 1 1 1 0 
1 1 1 1 1 0 1 1 1 0 1 1 1 0 1 1 
1 1 1 1 1 0 1 1 1 0 1 1 1 0 1 1 
1 1 1 0 1 1 1 0 1 1 1 0 1 1 1 0 
1 1 1 1 1 0 1 1 1 0 1 1 1 0 1 1 
1 1 1 1 1 0 1 1 1 0 1 1 1 0 1 1 
1 1 1 0 1 1 1 0 1 1 1 0 1 1 1 1 
1 0 1 1 1 0 1 1 1 0 1 1 1 0 1 1 
1 1 1 0 1 1 1 0 1 1 1 0 1 1 1 1 
1 1 1 0 1 1 1 0 1 1 1 0 1 1 1 1 
1 0 1 1 1 0 1 1 1 0 1 1 1 1 1 0 
1 1 1 0 1 1 1 0 1 1 1 0 1 1 1 1 
1 0 1 1 1 0 1 1 1 0 1 1 1 1 1 0 
1 1 1 0 1 1 1 0 1 1 1 1 1 1 1 0 
1 1 1 0 1 1 1 0 1 1 1 1 1 0 1 1 
1 0 1 1 1 0 1 1 1 0 1 1 1 1 1 0 
1 1 1 0 1 1 1 0 1 1 1 1 1 0 1 1 
1 0 1 1 1 0 1 1 1 1 1 0 1 1 1 0 
1 1 1 0 1 1 1 0 1 1 1 1 1 0 1 1 
1 0 1 1 1 0 1 1 1 1 1 0 1 1 1 0 
1 1 1 0 1 1 6953 1706 300 MP stroke
1 1 1 0 1 1 1 0 1 1 1 0 1 1 1 0 
1 1 1 1 1 0 1 1 1 0 1 1 1 0 1 1 
1 1 1 0 1 1 1 1 1 0 1 1 1 0 1 1 
1 1 1 0 1 1 1 0 1 1 1 0 1 1 1 1 
1 0 1 1 1 0 1 1 1 0 1 1 1 0 1 1 
1 1 1 0 1 1 1 0 1 1 1 0 1 1 1 1 
1 0 1 1 1 0 1 1 1 0 1 1 1 0 1 1 
1 1 1 0 1 1 1 0 1 1 1 0 1 1 1 1 
1 0 1 1 1 0 1 1 1 0 1 1 1 1 1 0 
1 1 1 0 1 1 1 0 1 1 1 0 1 1 1 1 
1 0 1 0 1 1 1 0 1 1 1 0 1 1 1 1 
1 0 1 1 1 0 1 1 1 0 1 1 1 1 1 0 
1 1 1 0 1 1 1 0 1 1 1 1 1 0 1 1 
1 0 1 1 1 0 1 1 1 0 1 1 1 1 1 0 
1 1 1 0 1 1 1 0 1 1 1 1 1 0 1 1 
1 0 1 1 1 0 1 1 1 0 1 1 1 1 1 0 
1 1 1 0 1 1 1 0 1 1 1 1 1 0 1 1 
1 0 1 1 1 0 1 1 1 1 1 0 1 1 1 0 
1 1 1 0 1 1 1 0 1 1 1 1 1 0 1 1 
1 0 1 0 1 1 1 0 1 1 1 1 1 0 1 1 
1 0 1 1 1 0 1 1 1 1 1 0 1 1 1 0 
1 1 1 0 1 1 1 1 1 0 1 1 1 0 1 1 
1 0 1 1 1 0 1 1 1 1 1 0 1 1 1 0 
1 1 1 0 1 1 1 1 1 0 1 1 1 0 1 0 
1 1 1 0 1 1 1 1 1 0 1 1 1 0 1 1 
1 0 1 1 1 1 1 0 1 1 1 0 1 1 1 0 
1 1 1 0 1 1 1 1 1 0 1 1 1 0 1 1 
1 0 1 1 1 1 1 0 1 1 1 0 1 0 1 1 
1 0 1 1 1 1 1 0 1 1 1 0 1 1 1 0 
1 1 1 1 1 0 1 1 1 0 1 1 1 0 1 1 
1 0 1 1 1 1 1 0 1 1 1 0 1 1 1 0 
1 0 1 1 1 1 1 0 1 1 1 0 1 1 1 0 
1 1 1 1 1 0 1 1 1 0 1 1 1 0 1 1 
1 1 1 0 1 1 1 0 1 1 1 0 1 0 1 1 
1 1 1 0 1 1 1 0 1 1 1 0 1 1 1 0 
1 1 1 1 1 0 1 1 1 0 1 1 1 0 1 1 
1 1 1 0 1 0 1 1 1 0 1 1 1 0 1 1 
1 1 1 0 1 1 6654 1540 300 MP stroke
1 0 1 1 1 0 1 1 1 1 1 0 1 1 1 0 
1 1 1 0 1 1 1 0 1 1 1 0 1 1 1 0 
1 1 1 0 1 1 1 1 1 0 1 1 1 0 1 1 
1 0 1 1 1 0 1 1 1 0 1 1 1 0 1 1 
1 0 1 1 1 0 1 1 1 1 1 0 1 1 1 0 
1 1 1 0 1 1 1 1 1 0 1 0 1 1 1 0 
1 1 1 0 1 1 1 1 1 0 1 1 1 0 1 1 
1 0 1 1 1 1 1 0 1 0 1 1 1 0 1 1 
1 0 1 1 1 1 1 0 1 1 1 0 1 1 1 0 
1 1 1 0 1 1 1 0 1 1 1 0 1 1 1 0 
1 1 1 1 1 0 1 1 1 0 1 1 1 0 1 1 
1 0 1 1 1 0 1 1 1 0 1 1 1 0 1 1 
1 0 1 1 1 1 1 0 1 1 1 0 1 1 1 0 
1 0 1 1 1 1 1 0 1 1 1 0 1 1 1 0 
1 1 1 1 1 0 1 1 1 0 1 0 1 1 1 0 
1 1 1 1 1 0 1 1 1 0 1 1 1 0 1 1 
1 1 1 0 1 0 1 1 1 0 1 1 1 0 1 1 
1 1 1 0 1 1 1 0 1 1 1 0 1 0 1 1 
1 1 1 0 1 1 1 0 1 1 1 0 1 1 1 1 
1 0 1 0 1 1 1 0 1 1 1 0 1 1 1 1 
1 0 1 1 1 0 1 1 1 0 1 1 1 0 1 1 
1 0 1 1 1 0 1 1 1 0 1 1 1 0 1 1 
1 0 1 1 1 0 1 1 1 0 1 1 1 1 1 0 
1 1 1 0 1 1 1 0 1 0 1 1 1 1 1 0 
1 1 1 0 1 1 1 0 1 1 1 0 1 1 1 0 
1 1 1 0 1 1 1 0 1 1 1 0 1 1 1 1 
1 0 1 0 1 1 1 0 1 1 1 1 1 0 1 1 
1 0 1 1 1 0 1 0 1 1 1 1 1 0 1 1 
1 0 1 1 1 0 1 1 1 0 1 1 1 0 1 1 
1 0 1 1 1 0 1 1 1 0 1 1 1 1 1 0 
1 0 1 1 1 0 1 1 1 1 1 0 1 1 1 0 
1 1 1 0 1 0 1 1 1 1 1 0 1 1 1 0 
1 1 1 0 1 0 1 1 1 1 1 0 1 1 1 0 
1 1 1 0 1 1 1 0 1 1 1 0 1 1 1 0 
1 1 1 0 1 1 1 1 1 0 1 0 1 1 1 0 
1 1 1 0 1 1 1 1 1 0 1 0 1 1 1 0 
1 1 1 0 1 1 1 1 1 0 1 1 1 0 1 0 
1 1 1 0 1 1 6355 1384 300 MP stroke
1 1 1 0 1 1 1 0 1 0 1 1 1 0 1 1 
1 1 1 0 1 1 1 0 1 0 1 1 1 0 1 1 
1 1 1 0 1 1 1 0 1 1 1 0 1 0 1 1 
1 1 1 0 1 1 1 0 1 1 1 0 1 0 1 1 
1 1 1 0 1 1 1 0 1 1 1 0 1 1 1 0 
1 1 1 0 1 1 1 0 1 1 1 0 1 1 1 0 
1 1 1 0 1 1 1 0 1 1 1 0 1 1 1 0 
1 1 1 0 1 1 1 0 1 1 1 0 1 1 1 0 
1 1 1 0 1 1 1 0 1 1 1 0 1 1 1 0 
1 1 1 0 1 1 1 0 1 1 1 0 1 1 1 0 
1 1 1 0 1 1 1 0 1 0 1 1 1 1 1 0 
1 1 1 0 1 1 1 0 1 0 1 1 1 1 1 0 
1 1 1 0 1 1 1 0 1 0 1 1 1 1 1 0 
1 1 1 0 1 0 1 1 1 1 1 0 1 1 1 0 
1 1 1 0 1 0 1 1 1 1 1 0 1 1 1 0 
1 1 1 0 1 0 1 1 1 1 1 0 1 1 1 0 
1 0 1 1 1 0 1 1 1 1 1 0 1 0 1 1 
1 0 1 1 1 0 1 1 1 1 1 0 1 0 1 1 
1 0 1 1 1 0 1 1 1 0 1 1 1 0 1 1 
1 0 1 1 1 0 1 1 1 0 1 1 1 0 1 1 
1 0 1 1 1 0 1 1 1 0 1 1 1 0 1 1 
1 0 1 0 1 1 1 1 1 0 1 1 1 0 1 0 
1 1 1 0 1 1 1 1 1 0 1 1 1 0 1 0 
1 1 1 0 1 1 1 1 1 0 1 0 1 1 1 0 
1 1 1 0 1 1 1 0 1 1 1 0 1 1 1 0 
1 1 1 0 1 1 1 0 1 1 1 0 1 1 1 0 
1 0 1 1 1 1 1 0 1 1 1 0 1 0 1 1 
1 0 1 1 1 1 1 0 1 0 1 1 1 0 1 1 
1 0 1 1 1 0 1 1 1 0 1 1 1 0 1 1 
1 0 1 1 1 0 1 1 1 0 1 1 1 0 1 0 
1 1 1 1 1 0 1 1 1 0 1 0 1 1 1 0 
1 1 1 1 1 0 1 0 1 1 1 0 1 1 1 0 
1 1 1 0 1 1 1 0 1 1 1 0 1 0 1 1 
1 1 1 0 1 1 1 0 1 0 1 1 1 0 1 1 
1 1 1 0 1 0 1 1 1 0 1 1 1 0 1 1 
1 0 1 1 1 0 1 1 1 0 1 0 1 1 1 1 
1 0 1 1 1 0 1 0 1 1 1 0 1 1 1 1 
1 0 1 0 1 1 6056 1237 300 MP stroke
1 0 1 1 1 0 1 1 1 0 1 1 1 0 1 1 
1 0 1 0 1 1 1 1 1 0 1 1 1 0 1 0 
1 1 1 0 1 1 1 0 1 1 1 0 1 1 1 0 
1 1 1 0 1 1 1 0 1 1 1 0 1 0 1 1 
1 0 1 1 1 1 1 0 1 0 1 1 1 0 1 1 
1 0 1 1 1 0 1 1 1 0 1 1 1 0 1 0 
1 1 1 0 1 1 1 1 1 0 1 0 1 1 1 0 
1 1 1 0 1 1 1 0 1 1 1 0 1 0 1 1 
1 0 1 1 1 1 1 0 1 0 1 1 1 0 1 1 
1 0 1 1 1 0 1 1 1 0 1 1 1 0 1 0 
1 1 1 1 1 0 1 0 1 1 1 0 1 1 1 0 
1 1 1 0 1 1 1 0 1 1 1 0 1 0 1 1 
1 1 1 0 1 0 1 1 1 0 1 1 1 0 1 1 
1 0 1 1 1 0 1 1 1 0 1 0 1 1 1 0 
1 1 1 0 1 1 1 0 1 1 1 0 1 0 1 1 
1 1 1 0 1 1 1 0 1 0 1 1 1 0 1 1 
1 0 1 1 1 0 1 1 1 0 1 0 1 1 1 1 
1 0 1 0 1 1 1 0 1 1 1 0 1 1 1 0 
1 1 1 0 1 1 1 0 1 0 1 1 1 0 1 1 
1 0 1 1 1 0 1 1 1 0 1 0 1 1 1 1 
1 0 1 0 1 1 1 0 1 1 1 0 1 1 1 0 
1 1 1 0 1 1 1 0 1 0 1 1 1 1 1 0 
1 0 1 1 1 0 1 1 1 0 1 0 1 1 1 1 
1 0 1 0 1 1 1 0 1 1 1 0 1 1 1 0 
1 1 1 0 1 0 1 1 1 0 1 1 1 0 1 1 
1 0 1 1 1 0 1 0 1 1 1 1 1 0 1 0 
1 1 1 0 1 1 1 0 1 0 1 1 1 1 1 0 
1 0 1 1 1 0 1 1 1 0 1 1 1 0 1 1 
1 0 1 0 1 1 1 0 1 1 1 0 1 1 1 0 
1 1 1 0 1 0 1 1 1 1 1 0 1 0 1 1 
1 0 1 1 1 0 1 0 1 1 1 1 1 0 1 0 
1 1 1 0 1 1 1 0 1 1 1 0 1 1 1 0 
1 0 1 1 1 0 1 1 1 0 1 1 1 0 1 1 
1 0 1 0 1 1 1 1 1 0 1 0 1 1 1 0 
1 1 1 0 1 0 1 1 1 1 1 0 1 0 1 1 
1 0 1 1 1 0 1 1 1 0 1 1 1 0 1 0 
1 1 1 0 1 1 1 0 1 1 1 0 1 0 1 1 
1 0 1 1 1 0 5757 1100 300 MP stroke
1 1 1 0 1 1 1 0 1 0 1 1 1 0 1 1 
1 0 1 1 1 0 1 1 1 0 1 0 1 1 1 0 
1 1 1 0 1 1 1 0 1 0 1 1 1 1 1 0 
1 0 1 1 1 0 1 1 1 0 1 0 1 1 1 1 
1 0 1 0 1 1 1 0 1 0 1 1 1 1 1 0 
1 0 1 1 1 0 1 1 1 0 1 1 1 0 1 1 
1 0 1 0 1 1 1 0 1 0 1 1 1 1 1 0 
1 0 1 1 1 0 1 1 1 0 1 1 1 0 1 1 
1 0 1 0 1 1 1 0 1 0 1 1 1 1 1 0 
1 0 1 1 1 0 1 1 1 0 1 1 1 0 1 0 
1 1 1 0 1 1 1 0 1 1 1 0 1 1 1 0 
1 0 1 1 1 0 1 0 1 1 1 1 1 0 1 0 
1 1 1 0 1 1 1 0 1 1 1 0 1 0 1 1 
1 0 1 1 1 0 1 0 1 1 1 1 1 0 1 0 
1 1 1 0 1 0 1 1 1 1 1 0 1 0 1 1 
1 0 1 0 1 1 1 1 1 0 1 0 1 1 1 0 
1 1 1 0 1 0 1 1 1 0 1 1 1 0 1 1 
1 0 1 0 1 1 1 0 1 1 1 0 1 1 1 0 
1 0 1 1 1 1 1 0 1 0 1 1 1 0 1 0 
1 1 1 0 1 1 1 0 1 1 1 0 1 0 1 1 
1 0 1 1 1 0 1 1 1 0 1 0 1 1 1 0 
1 1 1 0 1 1 1 0 1 1 1 0 1 0 1 1 
1 0 1 1 1 0 1 1 1 0 1 0 1 1 1 0 
1 0 1 1 1 1 1 0 1 0 1 1 1 0 1 0 
1 1 1 1 1 0 1 0 1 1 1 0 1 0 1 1 
1 0 1 1 1 0 1 1 1 0 1 0 1 1 1 0 
1 1 1 0 1 1 1 0 1 0 1 1 1 0 1 1 
1 0 1 1 1 0 1 0 1 1 1 0 1 0 1 1 
1 1 1 0 1 0 1 1 1 0 1 0 1 1 1 0 
1 1 1 0 1 1 1 0 1 0 1 1 1 0 1 1 
1 0 1 1 1 0 1 0 1 1 1 0 1 1 1 0 
1 1 1 0 1 0 1 1 1 0 1 0 1 1 1 1 
1 0 1 0 1 1 1 0 1 0 1 1 1 0 1 1 
1 0 1 1 1 0 1 0 1 1 1 0 1 1 1 0 
1 1 1 0 1 0 1 1 1 0 1 0 1 1 1 1 
1 0 1 0 1 1 1 0 1 0 1 1 1 0 1 1 
1 0 1 1 1 0 1 0 1 1 1 0 1 1 1 0 
1 0 1 1 1 0 5458 972 300 MP stroke
1 1 1 0 1 1 1 0 1 0 1 1 1 0 1 0 
1 1 1 0 1 1 1 0 1 1 1 0 1 0 1 1 
1 0 1 1 1 0 1 1 1 0 1 0 1 1 1 0 
1 0 1 1 1 0 1 1 1 0 1 1 1 0 1 0 
1 1 1 0 1 1 1 0 1 0 1 1 1 0 1 1 
1 0 1 1 1 0 1 0 1 1 1 0 1 0 1 1 
1 0 1 1 1 0 1 1 1 0 1 0 1 1 1 0 
1 0 1 1 1 1 1 0 1 0 1 1 1 0 1 0 
1 1 1 0 1 1 1 0 1 0 1 1 1 0 1 1 
1 0 1 1 1 0 1 0 1 1 1 0 1 0 1 1 
1 0 1 1 1 0 1 1 1 0 1 0 1 1 1 0 
1 1 1 0 1 0 1 1 1 0 1 0 1 1 1 0 
1 1 1 0 1 1 1 0 1 0 1 1 1 0 1 1 
1 0 1 0 1 1 1 0 1 1 1 0 1 0 1 1 
1 0 1 1 1 0 1 0 1 1 1 0 1 0 1 1 
1 0 1 1 1 0 1 1 1 0 1 0 1 1 1 0 
1 1 1 0 1 0 1 1 1 0 1 0 1 1 1 0 
1 1 1 0 1 1 1 0 1 0 1 1 1 0 1 1 
1 0 1 0 1 1 1 0 1 0 1 1 1 0 1 1 
1 0 1 1 1 0 1 0 1 1 1 0 1 1 1 0 
1 0 1 1 1 0 1 0 1 1 1 0 1 1 1 0 
1 0 1 1 1 0 1 1 1 0 1 1 1 0 1 0 
1 1 1 0 1 0 1 1 1 0 1 1 1 0 1 0 
1 1 1 0 1 0 1 1 1 0 1 1 1 0 1 1 
1 0 1 0 1 1 1 0 1 1 1 0 1 0 1 1 
1 0 1 0 1 1 1 0 1 1 1 0 1 0 1 1 
1 0 1 0 1 1 1 0 1 1 1 0 1 1 1 0 
1 0 1 1 1 0 1 0 1 1 1 0 1 1 1 0 
1 0 1 1 1 0 1 1 1 0 1 0 1 1 1 0 
1 0 1 1 1 0 1 1 1 0 1 0 1 1 1 0 
1 1 1 0 1 0 1 1 1 0 1 1 1 0 1 0 
1 1 1 0 1 0 1 1 1 0 1 1 1 0 1 0 
1 1 1 0 1 1 1 0 1 0 1 1 1 0 1 0 
1 1 1 0 1 1 1 0 1 0 1 1 1 0 1 0 
1 1 1 0 1 1 1 0 1 1 1 0 1 0 1 1 
1 0 1 0 1 1 1 0 1 1 1 0 1 0 1 1 
1 0 1 1 1 0 1 0 1 1 1 0 1 0 1 1 
1 0 1 1 1 0 5159 853 300 MP stroke
1 0 1 1 1 0 1 0 1 1 1 0 1 1 1 0 
1 0 1 1 1 0 1 0 1 1 1 0 1 1 1 0 
1 0 1 1 1 0 1 0 1 1 1 0 1 1 1 0 
1 0 1 1 1 0 1 0 1 1 1 0 1 1 1 0 
1 0 1 1 1 0 1 0 1 1 1 0 1 1 1 0 
1 0 1 1 1 0 1 0 1 1 1 0 1 1 1 0 
1 0 1 1 1 0 1 0 1 1 1 0 1 1 1 0 
1 0 1 1 1 0 1 0 1 1 1 0 1 1 1 0 
1 0 1 1 1 0 1 0 1 1 1 0 1 1 1 0 
1 0 1 1 1 0 1 0 1 1 1 0 1 1 1 0 
1 0 1 1 1 0 1 0 1 1 1 0 1 1 1 0 
1 0 1 1 1 0 1 1 1 0 1 0 1 1 1 0 
1 0 1 1 1 0 1 1 1 0 1 0 1 1 1 0 
1 0 1 1 1 0 1 1 1 0 1 0 1 1 1 0 
1 0 1 0 1 1 1 0 1 1 1 0 1 0 1 1 
1 0 1 0 1 1 1 0 1 1 1 0 1 0 1 1 
1 0 1 0 1 1 1 0 1 1 1 0 1 0 1 1 
1 0 1 0 1 1 1 0 1 1 1 0 1 0 1 1 
1 0 1 0 1 1 1 0 1 0 1 1 1 0 1 0 
1 1 1 0 1 1 1 0 1 0 1 1 1 0 1 0 
1 1 1 0 1 1 1 0 1 0 1 1 1 0 1 0 
1 1 1 0 1 1 1 0 1 0 1 1 1 0 1 0 
1 0 1 1 1 0 1 1 1 0 1 0 1 1 1 0 
1 1 1 0 1 0 1 1 1 0 1 0 1 1 1 0 
1 1 1 0 1 0 1 1 1 0 1 0 1 0 1 1 
1 0 1 1 1 0 1 0 1 1 1 0 1 0 1 1 
1 0 1 1 1 0 1 0 1 1 1 0 1 0 1 1 
1 0 1 0 1 1 1 0 1 0 1 1 1 0 1 1 
1 0 1 0 1 1 1 0 1 0 1 1 1 0 1 1 
1 0 1 0 1 0 1 1 1 0 1 0 1 1 1 0 
1 1 1 0 1 0 1 1 1 0 1 0 1 1 1 0 
1 1 1 0 1 0 1 0 1 1 1 0 1 1 1 0 
1 0 1 1 1 0 1 0 1 1 1 0 1 1 1 0 
1 0 1 0 1 1 1 0 1 0 1 1 1 0 1 1 
1 0 1 0 1 1 1 0 1 0 1 1 1 0 1 0 
1 1 1 0 1 0 1 1 1 0 1 1 1 0 1 0 
1 1 1 0 1 0 1 1 1 0 1 0 1 1 1 0 
1 0 1 1 1 0 4860 744 300 MP stroke
1 0 1 1 1 0 1 1 1 0 1 0 1 0 1 1 
1 0 1 1 1 0 1 0 1 1 1 0 1 0 1 1 
1 0 1 0 1 1 1 0 1 0 1 1 1 0 1 0 
1 1 1 0 1 1 1 0 1 0 1 0 1 1 1 0 
1 0 1 1 1 0 1 1 1 0 1 0 1 1 1 0 
1 0 1 1 1 0 1 0 1 1 1 0 1 0 1 1 
1 0 1 1 1 0 1 0 1 0 1 1 1 0 1 0 
1 1 1 0 1 1 1 0 1 0 1 0 1 1 1 0 
1 1 1 0 1 0 1 1 1 0 1 0 1 1 1 0 
1 0 1 1 1 0 1 0 1 1 1 0 1 0 1 1 
1 0 1 0 1 1 1 0 1 0 1 1 1 0 1 1 
1 0 1 0 1 0 1 1 1 0 1 0 1 1 1 0 
1 1 1 0 1 0 1 0 1 1 1 0 1 0 1 1 
1 0 1 1 1 0 1 0 1 0 1 1 1 0 1 1 
1 0 1 0 1 1 1 0 1 0 1 0 1 1 1 0 
1 1 1 0 1 0 1 1 1 0 1 0 1 1 1 0 
1 0 1 1 1 0 1 0 1 1 1 0 1 0 1 1 
1 0 1 0 1 1 1 0 1 0 1 1 1 0 1 0 
1 1 1 0 1 0 1 1 1 0 1 0 1 1 1 0 
1 0 1 1 1 0 1 0 1 1 1 0 1 0 1 1 
1 0 1 0 1 1 1 0 1 0 1 1 1 0 1 0 
1 1 1 0 1 0 1 1 1 0 1 0 1 1 1 0 
1 0 1 1 1 0 1 0 1 1 1 0 1 0 1 1 
1 0 1 0 1 0 1 1 1 0 1 1 1 0 1 0 
1 1 1 0 1 0 1 0 1 1 1 0 1 1 1 0 
1 0 1 0 1 1 1 0 1 1 1 0 1 0 1 0 
1 1 1 0 1 0 1 1 1 0 1 1 1 0 1 0 
1 0 1 1 1 0 1 1 1 0 1 0 1 0 1 1 
1 0 1 0 1 1 1 0 1 0 1 1 1 0 1 0 
1 1 1 0 1 0 1 1 1 0 1 0 1 1 1 0 
1 0 1 0 1 1 1 0 1 1 1 0 1 0 1 0 
1 1 1 0 1 1 1 0 1 0 1 0 1 1 1 0 
1 0 1 1 1 0 1 0 1 1 1 0 1 0 1 1 
1 0 1 0 1 1 1 0 1 0 1 1 1 0 1 0 
1 0 1 1 1 0 1 1 1 0 1 0 1 0 1 1 
1 0 1 1 1 0 1 0 1 0 1 1 1 0 1 0 
1 1 1 0 1 0 1 1 1 0 1 0 1 1 1 0 
1 0 1 1 1 0 4561 644 300 MP stroke
1 0 1 0 1 1 1 0 1 0 1 1 1 0 1 0 
1 1 1 0 1 0 1 1 1 0 1 0 1 1 1 0 
1 0 1 1 1 0 1 0 1 0 1 1 1 0 1 1 
1 0 1 0 1 0 1 1 1 0 1 0 1 1 1 0 
1 0 1 1 1 0 1 0 1 1 1 0 1 0 1 1 
1 0 1 0 1 0 1 1 1 0 1 0 1 1 1 0 
1 0 1 1 1 0 1 0 1 1 1 0 1 0 1 1 
1 0 1 0 1 0 1 1 1 0 1 0 1 1 1 0 
1 0 1 1 1 0 1 0 1 1 1 0 1 0 1 0 
1 1 1 0 1 0 1 1 1 0 1 0 1 1 1 0 
1 0 1 0 1 1 1 0 1 1 1 0 1 0 1 0 
1 1 1 0 1 0 1 1 1 0 1 0 1 1 1 0 
1 0 1 0 1 1 1 0 1 1 1 0 1 0 1 0 
1 1 1 0 1 0 1 1 1 0 1 0 1 0 1 1 
1 0 1 0 1 1 1 0 1 0 1 1 1 0 1 0 
1 0 1 1 1 0 1 1 1 0 1 0 1 0 1 1 
1 0 1 0 1 1 1 0 1 0 1 1 1 0 1 0 
1 0 1 1 1 0 1 0 1 1 1 0 1 0 1 0 
1 1 1 0 1 1 1 0 1 0 1 0 1 1 1 0 
1 0 1 1 1 0 1 0 1 0 1 1 1 0 1 0 
1 1 1 0 1 0 1 1 1 0 1 0 1 0 1 1 
1 0 1 0 1 1 1 0 1 0 1 1 1 0 1 0 
1 1 1 0 1 0 1 0 1 1 1 0 1 0 1 0 
1 1 1 0 1 1 1 0 1 0 1 0 1 1 1 0 
1 0 1 1 1 0 1 0 1 0 1 1 1 0 1 0 
1 1 1 0 1 0 1 1 1 0 1 0 1 0 1 1 
1 0 1 0 1 1 1 0 1 0 1 0 1 1 1 0 
1 0 1 1 1 0 1 0 1 1 1 0 1 0 1 1 
1 0 1 0 1 0 1 1 1 0 1 0 1 1 1 0 
1 0 1 0 1 1 1 0 1 0 1 0 1 1 1 0 
1 0 1 1 1 0 1 0 1 1 1 0 1 0 1 1 
1 0 1 0 1 0 1 1 1 0 1 0 1 1 1 0 
1 0 1 0 1 1 1 0 1 0 1 1 1 0 1 0 
1 0 1 1 1 0 1 0 1 0 1 1 1 0 1 1 
1 0 1 0 1 0 1 1 1 0 1 0 1 1 1 0 
1 0 1 0 1 1 1 0 1 0 1 1 1 0 1 0 
1 0 1 1 1 0 1 0 1 1 1 0 1 0 1 0 
1 1 1 0 1 0 4262 554 300 MP stroke
1 0 1 1 1 0 1 0 1 1 1 0 1 0 1 0 
1 1 1 0 1 0 1 1 1 0 1 0 1 0 1 1 
1 0 1 0 1 1 1 0 1 0 1 0 1 1 1 0 
1 0 1 1 1 0 1 0 1 1 1 0 1 0 1 0 
1 1 1 0 1 0 1 1 1 0 1 0 1 0 1 1 
1 0 1 0 1 1 1 0 1 0 1 0 1 1 1 0 
1 0 1 1 1 0 1 0 1 0 1 1 1 0 1 0 
1 0 1 1 1 0 1 0 1 0 1 1 1 0 1 0 
1 1 1 0 1 0 1 0 1 1 1 0 1 0 1 1 
1 0 1 0 1 0 1 1 1 0 1 0 1 0 1 1 
1 0 1 0 1 1 1 0 1 0 1 0 1 1 1 0 
1 0 1 1 1 0 1 0 1 0 1 1 1 0 1 0 
1 1 1 0 1 0 1 0 1 1 1 0 1 0 1 1 
1 0 1 0 1 0 1 1 1 0 1 0 1 1 1 0 
1 0 1 0 1 0 1 1 1 0 1 0 1 1 1 0 
1 0 1 0 1 1 1 0 1 0 1 1 1 0 1 0 
1 0 1 1 1 0 1 0 1 0 1 1 1 0 1 0 
1 1 1 0 1 0 1 0 1 0 1 1 1 0 1 0 
1 1 1 0 1 0 1 0 1 1 1 0 1 0 1 1 
1 0 1 0 1 0 1 1 1 0 1 0 1 1 1 0 
1 0 1 0 1 0 1 1 1 0 1 0 1 1 1 0 
1 0 1 0 1 1 1 0 1 0 1 1 1 0 1 0 
1 0 1 1 1 0 1 0 1 0 1 1 1 0 1 0 
1 0 1 1 1 0 1 0 1 1 1 0 1 0 1 0 
1 1 1 0 1 0 1 0 1 1 1 0 1 0 1 0 
1 1 1 0 1 0 1 1 1 0 1 0 1 0 1 1 
1 0 1 0 1 0 1 1 1 0 1 0 1 0 1 1 
1 0 1 0 1 1 1 0 1 0 1 0 1 1 1 0 
1 0 1 0 1 1 1 0 1 0 1 0 1 1 1 0 
1 0 1 0 1 1 1 0 1 0 1 0 1 1 1 0 
1 0 1 1 1 0 1 0 1 0 1 1 1 0 1 0 
1 0 1 1 1 0 1 0 1 0 1 1 1 0 1 0 
1 0 1 1 1 0 1 0 1 0 1 1 1 0 1 0 
1 0 1 1 1 0 1 0 1 1 1 0 1 0 1 0 
1 1 1 0 1 0 1 0 1 1 1 0 1 0 1 0 
1 1 1 0 1 0 1 0 1 1 1 0 1 0 1 0 
1 1 1 0 1 0 1 0 1 1 1 0 1 0 1 0 
1 1 1 0 1 0 3963 473 300 MP stroke
1 0 1 1 1 0 1 0 1 1 1 0 1 0 1 0 
1 1 1 0 1 0 1 0 1 1 1 0 1 0 1 0 
1 1 1 0 1 0 1 0 1 1 1 0 1 0 1 0 
1 1 1 0 1 0 1 0 1 1 1 0 1 0 1 0 
1 1 1 0 1 0 1 0 1 1 1 0 1 0 1 0 
1 1 1 0 1 0 1 0 1 1 1 0 1 0 1 0 
1 1 1 0 1 0 1 0 1 1 1 0 1 0 1 0 
1 1 1 0 1 0 1 0 1 1 1 0 1 0 1 0 
1 1 1 0 1 0 1 0 1 1 1 0 1 0 1 0 
1 1 1 0 1 0 1 0 1 1 1 0 1 0 1 0 
1 0 1 1 1 0 1 0 1 1 1 0 1 0 1 0 
1 0 1 1 1 0 1 0 1 1 1 0 1 0 1 0 
1 0 1 1 1 0 1 0 1 0 1 1 1 0 1 0 
1 0 1 1 1 0 1 0 1 0 1 1 1 0 1 0 
1 0 1 1 1 0 1 0 1 0 1 1 1 0 1 0 
1 0 1 1 1 0 1 0 1 0 1 1 1 0 1 0 
1 0 1 1 1 0 1 0 1 0 1 0 1 1 1 0 
1 0 1 1 1 0 1 0 1 0 1 0 1 1 1 0 
1 0 1 0 1 1 1 0 1 0 1 0 1 0 1 1 
1 0 1 0 1 1 1 0 1 0 1 0 1 0 1 1 
1 0 1 0 1 0 1 1 1 0 1 0 1 0 1 1 
1 0 1 0 1 0 1 1 1 0 1 0 1 0 1 1 
1 0 1 0 1 0 1 0 1 1 1 0 1 0 1 0 
1 1 1 0 1 0 1 0 1 1 1 0 1 0 1 0 
1 1 1 0 1 0 1 0 1 0 1 1 1 0 1 0 
1 0 1 1 1 0 1 0 1 0 1 0 1 1 1 0 
1 0 1 0 1 1 1 0 1 0 1 0 1 1 1 0 
1 0 1 0 1 1 1 0 1 0 1 0 1 1 1 0 
1 0 1 0 1 0 1 1 1 0 1 0 1 0 1 1 
1 0 1 0 1 0 1 0 1 1 1 0 1 0 1 0 
1 1 1 0 1 0 1 0 1 0 1 1 1 0 1 0 
1 1 1 0 1 0 1 0 1 0 1 1 1 0 1 0 
1 0 1 1 1 0 1 0 1 0 1 1 1 0 1 0 
1 0 1 0 1 1 1 0 1 0 1 0 1 1 1 0 
1 0 1 0 1 0 1 1 1 0 1 0 1 0 1 1 
1 0 1 0 1 0 1 0 1 1 1 0 1 0 1 0 
1 1 1 0 1 0 1 0 1 1 1 0 1 0 1 0 
1 0 1 1 1 0 3664 401 300 MP stroke
1 0 1 0 1 1 1 0 1 0 1 0 1 0 1 1 
1 0 1 0 1 0 1 0 1 1 1 0 1 0 1 0 
1 1 1 0 1 0 1 0 1 0 1 1 1 0 1 0 
1 0 1 1 1 0 1 0 1 0 1 0 1 1 1 0 
1 0 1 0 1 1 1 0 1 0 1 0 1 0 1 1 
1 0 1 0 1 0 1 1 1 0 1 0 1 0 1 1 
1 0 1 0 1 0 1 0 1 0 1 1 1 0 1 0 
1 0 1 1 1 0 1 0 1 0 1 0 1 1 1 0 
1 0 1 0 1 1 1 0 1 0 1 0 1 1 1 0 
1 0 1 0 1 0 1 0 1 1 1 0 1 0 1 0 
1 1 1 0 1 0 1 0 1 0 1 1 1 0 1 0 
1 0 1 1 1 0 1 0 1 0 1 0 1 1 1 0 
1 0 1 0 1 0 1 1 1 0 1 0 1 0 1 1 
1 0 1 0 1 0 1 0 1 0 1 1 1 0 1 0 
1 0 1 1 1 0 1 0 1 0 1 1 1 0 1 0 
1 0 1 0 1 0 1 1 1 0 1 0 1 0 1 1 
1 0 1 0 1 0 1 0 1 1 1 0 1 0 1 0 
1 0 1 1 1 0 1 0 1 0 1 1 1 0 1 0 
1 0 1 0 1 0 1 1 1 0 1 0 1 0 1 1 
1 0 1 0 1 0 1 1 1 0 1 0 1 0 1 0 
1 0 1 1 1 0 1 0 1 0 1 1 1 0 1 0 
1 0 1 0 1 0 1 1 1 0 1 0 1 0 1 1 
1 0 1 0 1 0 1 0 1 1 1 0 1 0 1 0 
1 0 1 1 1 0 1 0 1 0 1 0 1 1 1 0 
1 0 1 0 1 1 1 0 1 0 1 0 1 0 1 0 
1 1 1 0 1 0 1 0 1 0 1 1 1 0 1 0 
1 0 1 0 1 1 1 0 1 0 1 0 1 0 1 1 
1 0 1 0 1 0 1 1 1 0 1 0 1 0 1 0 
1 0 1 1 1 0 1 0 1 0 1 0 1 1 1 0 
1 0 1 0 1 1 1 0 1 0 1 0 1 0 1 0 
1 1 1 0 1 0 1 0 1 0 1 1 1 0 1 0 
1 0 1 0 1 1 1 0 1 0 1 0 1 0 1 1 
1 0 1 0 1 0 1 0 1 1 1 0 1 0 1 0 
1 0 1 1 1 0 1 0 1 0 1 0 1 0 1 1 
1 0 1 0 1 0 1 1 1 0 1 0 1 0 1 0 
1 1 1 0 1 0 1 0 1 0 1 0 1 1 1 0 
1 0 1 0 1 0 1 1 1 0 1 0 1 0 1 0 
1 1 1 0 1 0 3365 339 300 MP stroke
1 0 1 0 1 0 1 1 1 0 1 0 1 0 1 1 
1 0 1 0 1 0 1 0 1 1 1 0 1 0 1 0 
1 0 1 0 1 1 1 0 1 0 1 0 1 0 1 1 
1 0 1 0 1 0 1 0 1 1 1 0 1 0 1 0 
1 0 1 0 1 1 1 0 1 0 1 0 1 0 1 1 
1 0 1 0 1 0 1 0 1 1 1 0 1 0 1 0 
1 0 1 0 1 1 1 0 1 0 1 0 1 0 1 1 
1 0 1 0 1 0 1 0 1 1 1 0 1 0 1 0 
1 0 1 0 1 1 1 0 1 0 1 0 1 0 1 1 
1 0 1 0 1 0 1 0 1 0 1 1 1 0 1 0 
1 0 1 0 1 1 1 0 1 0 1 0 1 0 1 0 
1 1 1 0 1 0 1 0 1 0 1 1 1 0 1 0 
1 0 1 0 1 1 1 0 1 0 1 0 1 0 1 0 
1 0 1 1 1 0 1 0 1 0 1 0 1 1 1 0 
1 0 1 0 1 0 1 1 1 0 1 0 1 0 1 0 
1 1 1 0 1 0 1 0 1 0 1 0 1 0 1 1 
1 0 1 0 1 0 1 0 1 1 1 0 1 0 1 0 
1 0 1 1 1 0 1 0 1 0 1 0 1 0 1 1 
1 0 1 0 1 0 1 0 1 0 1 1 1 0 1 0 
1 0 1 0 1 1 1 0 1 0 1 0 1 0 1 0 
1 1 1 0 1 0 1 0 1 0 1 0 1 1 1 0 
1 0 1 0 1 0 1 0 1 1 1 0 1 0 1 0 
1 0 1 1 1 0 1 0 1 0 1 0 1 0 1 1 
1 0 1 0 1 0 1 0 1 0 1 1 1 0 1 0 
1 0 1 0 1 0 1 1 1 0 1 0 1 0 1 0 
1 1 1 0 1 0 1 0 1 0 1 0 1 1 1 0 
1 0 1 0 1 0 1 0 1 0 1 1 1 0 1 0 
1 0 1 0 1 1 1 0 1 0 1 0 1 0 1 0 
1 1 1 0 1 0 1 0 1 0 1 0 1 1 1 0 
1 0 1 0 1 0 1 0 1 1 1 0 1 0 1 0 
1 0 1 0 1 1 1 0 1 0 1 0 1 0 1 0 
1 1 1 0 1 0 1 0 1 0 1 0 1 1 1 0 
1 0 1 0 1 0 1 0 1 1 1 0 1 0 1 0 
1 0 1 0 1 0 1 1 1 0 1 0 1 0 1 0 
1 1 1 0 1 0 1 0 1 0 1 0 1 1 1 0 
1 0 1 0 1 0 1 0 1 1 1 0 1 0 1 0 
1 0 1 0 1 0 1 1 1 0 1 0 1 0 1 0 
1 0 1 1 1 0 3066 286 300 MP stroke
1 0 1 0 1 0 1 0 1 1 1 0 1 0 1 0 
1 0 1 0 1 1 1 0 1 0 1 0 1 0 1 0 
1 0 1 1 1 0 1 0 1 0 1 0 1 0 1 1 
1 0 1 0 1 0 1 0 1 0 1 0 1 1 1 0 
1 0 1 0 1 0 1 0 1 1 1 0 1 0 1 0 
1 0 1 0 1 1 1 0 1 0 1 0 1 0 1 0 
1 1 1 0 1 0 1 0 1 0 1 0 1 0 1 1 
1 0 1 0 1 0 1 0 1 0 1 0 1 1 1 0 
1 0 1 0 1 0 1 0 1 1 1 0 1 0 1 0 
1 0 1 0 1 0 1 1 1 0 1 0 1 0 1 0 
1 0 1 1 1 0 1 0 1 0 1 0 1 0 1 0 
1 1 1 0 1 0 1 0 1 0 1 0 1 1 1 0 
1 0 1 0 1 0 1 0 1 0 1 1 1 0 1 0 
1 0 1 0 1 0 1 0 1 1 1 0 1 0 1 0 
1 0 1 0 1 0 1 1 1 0 1 0 1 0 1 0 
1 0 1 1 1 0 1 0 1 0 1 0 1 0 1 0 
1 1 1 0 1 0 1 0 1 0 1 0 1 0 1 1 
1 0 1 0 1 0 1 0 1 0 1 1 1 0 1 0 
1 0 1 0 1 0 1 0 1 1 1 0 1 0 1 0 
1 0 1 0 1 0 1 1 1 0 1 0 1 0 1 0 
1 0 1 0 1 1 1 0 1 0 1 0 1 0 1 0 
1 0 1 0 1 1 1 0 1 0 1 0 1 0 1 0 
1 0 1 1 1 0 1 0 1 0 1 0 1 0 1 1 
1 0 1 0 1 0 1 0 1 0 1 0 1 1 1 0 
1 0 1 0 1 0 1 0 1 0 1 0 1 1 1 0 
1 0 1 0 1 0 1 0 1 0 1 1 1 0 1 0 
1 0 1 0 1 0 1 0 1 1 1 0 1 0 1 0 
1 0 1 0 1 0 1 1 1 0 1 0 1 0 1 0 
1 0 1 0 1 1 1 0 1 0 1 0 1 0 1 0 
1 0 1 1 1 0 1 0 1 0 1 0 1 0 1 0 
1 0 1 1 1 0 1 0 1 0 1 0 1 0 1 0 
1 1 1 0 1 0 1 0 1 0 1 0 1 0 1 0 
1 1 1 0 1 0 1 0 1 0 1 0 1 0 1 1 
1 0 1 0 1 0 1 0 1 0 1 0 1 0 1 1 
1 0 1 0 1 0 1 0 1 0 1 0 1 0 1 1 
1 0 1 0 1 0 1 0 1 0 1 0 1 1 1 0 
1 0 1 0 1 0 1 0 1 0 1 0 1 1 1 0 
1 0 1 0 1 0 2767 243 300 MP stroke
1 0 1 0 1 0 1 1 1 0 1 0 1 0 1 0 
1 0 1 0 1 0 1 1 1 0 1 0 1 0 1 0 
1 0 1 0 1 1 1 0 1 0 1 0 1 0 1 0 
1 0 1 0 1 1 1 0 1 0 1 0 1 0 1 0 
1 0 1 0 1 1 1 0 1 0 1 0 1 0 1 0 
1 0 1 0 1 1 1 0 1 0 1 0 1 0 1 0 
1 0 1 0 1 1 1 0 1 0 1 0 1 0 1 0 
1 0 1 0 1 1 1 0 1 0 1 0 1 0 1 0 
1 0 1 0 1 1 1 0 1 0 1 0 1 0 1 0 
1 0 1 0 1 1 1 0 1 0 1 0 1 0 1 0 
1 0 1 0 1 0 1 1 1 0 1 0 1 0 1 0 
1 0 1 0 1 0 1 1 1 0 1 0 1 0 1 0 
1 0 1 0 1 0 1 0 1 1 1 0 1 0 1 0 
1 0 1 0 1 0 1 0 1 1 1 0 1 0 1 0 
1 0 1 0 1 0 1 0 1 0 1 1 1 0 1 0 
1 0 1 0 1 0 1 0 1 0 1 1 1 0 1 0 
1 0 1 0 1 0 1 0 1 0 1 0 1 1 1 0 
1 0 1 0 1 0 1 0 1 0 1 0 1 0 1 1 
1 0 1 0 1 0 1 0 1 0 1 0 1 0 1 1 
1 0 1 0 1 0 1 0 1 0 1 0 1 0 1 0 
1 1 1 0 1 0 1 0 1 0 1 0 1 0 1 0 
1 0 1 1 1 0 1 0 1 0 1 0 1 0 1 0 
1 0 1 0 1 1 1 0 1 0 1 0 1 0 1 0 
1 0 1 0 1 0 1 1 1 0 1 0 1 0 1 0 
1 0 1 0 1 0 1 0 1 0 1 1 1 0 1 0 
1 0 1 0 1 0 1 0 1 0 1 1 1 0 1 0 
1 0 1 0 1 0 1 0 1 0 1 0 1 0 1 1 
1 0 1 0 1 0 1 0 1 0 1 0 1 0 1 0 
1 1 1 0 1 0 1 0 1 0 1 0 1 0 1 0 
1 0 1 0 1 1 1 0 1 0 1 0 1 0 1 0 
1 0 1 0 1 0 1 1 1 0 1 0 1 0 1 0 
1 0 1 0 1 0 1 0 1 0 1 1 1 0 1 0 
1 0 1 0 1 0 1 0 1 0 1 0 1 0 1 1 
1 0 1 0 1 0 1 0 1 0 1 0 1 0 1 0 
1 0 1 1 1 0 1 0 1 0 1 0 1 0 1 0 
1 0 1 0 1 1 1 0 1 0 1 0 1 0 1 0 
1 0 1 0 1 0 1 0 1 0 1 1 1 0 1 0 
1 0 1 0 1 0 2468 209 300 MP stroke
1 0 1 0 1 0 1 0 1 1 1 0 1 0 1 0 
1 0 1 0 1 0 1 0 1 0 1 0 1 1 1 0 
1 0 1 0 1 0 1 0 1 0 1 0 1 0 1 0 
1 0 1 1 1 0 1 0 1 0 1 0 1 0 1 0 
1 0 1 0 1 0 1 0 1 1 1 0 1 0 1 0 
1 0 1 0 1 0 1 0 1 0 1 0 1 1 1 0 
1 0 1 0 1 0 1 0 1 0 1 0 1 0 1 0 
1 0 1 1 1 0 1 0 1 0 1 0 1 0 1 0 
1 0 1 0 1 0 1 0 1 0 1 1 1 0 1 0 
1 0 1 0 1 0 1 0 1 0 1 0 1 0 1 1 
1 0 1 0 1 0 1 0 1 0 1 0 1 0 1 0 
1 0 1 0 1 0 1 1 1 0 1 0 1 0 1 0 
1 0 1 0 1 0 1 0 1 0 1 0 1 1 1 0 
1 0 1 0 1 0 1 0 1 0 1 0 1 0 1 0 
1 0 1 0 1 1 1 0 1 0 1 0 1 0 1 0 
1 0 1 0 1 0 1 0 1 0 1 1 1 0 1 0 
1 0 1 0 1 0 1 0 1 0 1 0 1 0 1 0 
1 0 1 1 1 0 1 0 1 0 1 0 1 0 1 0 
1 0 1 0 1 0 1 0 1 0 1 1 1 0 1 0 
1 0 1 0 1 0 1 0 1 0 1 0 1 0 1 0 
1 0 1 0 1 1 1 0 1 0 1 0 1 0 1 0 
1 0 1 0 1 0 1 0 1 0 1 0 1 1 1 0 
1 0 1 0 1 0 1 0 1 0 1 0 1 0 1 0 
1 0 1 0 1 1 1 0 1 0 1 0 1 0 1 0 
1 0 1 0 1 0 1 0 1 0 1 0 1 0 1 0 
1 1 1 0 1 0 1 0 1 0 1 0 1 0 1 0 
1 0 1 0 1 0 1 0 1 0 1 1 1 0 1 0 
1 0 1 0 1 0 1 0 1 0 1 0 1 0 1 0 
1 0 1 0 1 1 1 0 1 0 1 0 1 0 1 0 
1 0 1 0 1 0 1 0 1 0 1 0 1 0 1 1 
1 0 1 0 1 0 1 0 1 0 1 0 1 0 1 0 
1 0 1 0 1 0 1 0 1 0 1 0 1 1 1 0 
1 0 1 0 1 0 1 0 1 0 1 0 1 0 1 0 
1 0 1 0 1 0 1 0 1 1 1 0 1 0 1 0 
1 0 1 0 1 0 1 0 1 0 1 0 1 0 1 0 
1 0 1 0 1 1 1 0 1 0 1 0 1 0 1 0 
1 0 1 0 1 0 1 0 1 0 1 0 1 0 1 0 
1 0 1 1 1 0 2169 184 300 MP stroke
1 0 1 0 1 0 1 0 1 0 1 0 1 0 1 0 
1 0 1 0 1 0 1 0 1 0 1 1 1 0 1 0 
1 0 1 0 1 0 1 0 1 0 1 0 1 0 1 0 
1 0 1 0 1 0 1 0 1 0 1 1 1 0 1 0 
1 0 1 0 1 0 1 0 1 0 1 0 1 0 1 0 
1 0 1 0 1 0 1 0 1 0 1 1 1 0 1 0 
1 0 1 0 1 0 1 0 1 0 1 0 1 0 1 0 
1 0 1 0 1 0 1 0 1 0 1 0 1 1 1 0 
1 0 1 0 1 0 1 0 1 0 1 0 1 0 1 0 
1 0 1 0 1 0 1 0 1 0 1 0 1 0 1 1 
1 0 1 0 1 0 1 0 1 0 1 0 1 0 1 0 
1 0 1 0 1 0 1 0 1 0 1 0 1 0 1 0 
1 1 1 0 1 0 1 0 1 0 1 0 1 0 1 0 
1 0 1 0 1 0 1 0 1 0 1 0 1 0 1 0 
1 0 1 0 1 1 1 0 1 0 1 0 1 0 1 0 
1 0 1 0 1 0 1 0 1 0 1 0 1 0 1 0 
1 0 1 0 1 0 1 0 1 0 1 1 1 0 1 0 
1 0 1 0 1 0 1 0 1 0 1 0 1 0 1 0 
1 0 1 0 1 0 1 0 1 0 1 0 1 0 1 0 
1 1 1 0 1 0 1 0 1 0 1 0 1 0 1 0 
1 0 1 0 1 0 1 0 1 0 1 0 1 0 1 0 
1 0 1 0 1 0 1 0 1 0 1 1 1 0 1 0 
1 0 1 0 1 0 1 0 1 0 1 0 1 0 1 0 
1 0 1 0 1 0 1 0 1 0 1 0 1 0 1 0 
1 0 1 0 1 1 1 0 1 0 1 0 1 0 1 0 
1 0 1 0 1 0 1 0 1 0 1 0 1 0 1 0 
1 0 1 0 1 0 1 0 1 0 1 0 1 0 1 0 
1 0 1 1 1 0 1 0 1 0 1 0 1 0 1 0 
1 0 1 0 1 0 1 0 1 0 1 0 1 0 1 0 
1 0 1 0 1 0 1 0 1 0 1 0 1 0 1 0 
1 1 1 0 1 0 1 0 1 0 1 0 1 0 1 0 
1 0 1 0 1 0 1 0 1 0 1 0 1 0 1 0 
1 0 1 0 1 0 1 0 1 0 1 0 1 0 1 0 
1 0 1 0 1 1 1 0 1 0 1 0 1 0 1 0 
1 0 1 0 1 0 1 0 1 0 1 0 1 0 1 0 
1 0 1 0 1 0 1 0 1 0 1 0 1 0 1 0 
1 0 1 0 1 0 1 0 1 1 1 0 1 0 1 0 
1 0 1 0 1 0 1870 169 300 MP stroke
1 0 1 0 1 0 1 0 1 0 1 0 1 0 1 0 
1 0 1 0 1 0 1 0 1 0 1 0 1 0 1 0 
1 0 1 0 1 0 1 0 1 0 1 0 1 1 1 0 
1 0 1 0 1 0 1 0 1 0 1 0 1 0 1 0 
1 0 1 0 1 0 1 0 1 0 1 0 1 0 1 0 
1 0 1 0 1 0 1 0 1 0 1 0 1 0 1 0 
1 0 1 0 1 0 1 0 1 0 1 0 1 0 1 1 
1 0 1 0 1 0 1 0 1 0 1 0 1 0 1 0 
1 0 1 0 1 0 1 0 1 0 1 0 1 0 1 0 
1 0 1 0 1 0 1 0 1 0 1 0 1 0 1 0 
1 0 1 0 1 0 1 0 1 0 1 0 1 0 1 0 
1 0 1 0 1 0 1 0 1 1 1 0 1 0 1 0 
1 0 1 0 1 0 1 0 1 0 1 0 1 0 1 0 
1 0 1 0 1 0 1 0 1 0 1 0 1 0 1 0 
1 0 1 0 1 0 1 0 1 0 1 0 1 0 1 0 
1 0 1 0 1 0 1 0 1 0 1 0 1 0 1 0 
1 0 1 0 1 0 1 0 1 0 1 0 1 0 1 0 
1 1 1 0 1 0 1 0 1 0 1 0 1 0 1 0 
1 0 1 0 1 0 1 0 1 0 1 0 1 0 1 0 
1 0 1 0 1 0 1 0 1 0 1 0 1 0 1 0 
1 0 1 0 1 0 1 0 1 0 1 0 1 0 1 0 
1 0 1 0 1 0 1 0 1 0 1 0 1 0 1 0 
1 0 1 0 1 0 1 0 1 0 1 0 1 0 1 0 
1 0 1 0 1 0 1 0 1 0 1 0 1 0 1 0 
1 0 1 1 1 0 1 0 1 0 1 0 1 0 1 0 
1 0 1 0 1 0 1 0 1 0 1 0 1 0 1 0 
1 0 1 0 1 0 1 0 1 0 1 0 1 0 1 0 
1 0 1 0 1 0 1 0 1 0 1 0 1 0 1 0 
1 0 1 0 1 0 1 0 1 0 1 0 1 0 1 0 
1 0 1 0 1 0 1 0 1 0 1 0 1 0 1 0 
1 0 1 0 1 0 1 0 1 0 1 0 1 0 1 0 
1 0 1 0 1 0 1 0 1 0 1 0 1 0 1 0 
1 0 1 0 1 0 1 0 1 0 1 0 1 0 1 0 
1 0 1 0 1 0 1 0 1 0 1 0 1 0 1 0 
1 0 1 0 1 0 1 0 1 0 1 0 1 0 1 0 
1 0 1 0 1 0 1 0 1 0 1 0 1 0 1 0 
1 0 1 0 1 0 1 0 1 0 1 0 1 0 1 0 
1 0 1 0 1 0 1571 164 300 MP stroke
1 0 1 0 1 0 1 0 1 0 1 0 1 0 1 0 
1 0 1 0 1 0 1 0 1 0 1 0 1 0 1 0 
1 0 1 0 1 0 1 0 1 0 1 0 1 0 1 0 
1 0 1 0 1 0 1 0 1 0 1 0 1 0 1 0 
1539 164 33 MP stroke
72 w
gr

72 w
c8
/c9 { 0.000000 1.000000 1.000000 sr} bdef
c9
  36   36 8563 2759 FO
  36   36 8564 2760 FO
  36   36 8565 2761 FO
  36   36 8566 2761 FO
  36   36 8566 2762 FO
  36   36 8567 2763 FO
  36   36 8568 2763 FO
  36   36 8569 2764 FO
  36   36 8570 2765 FO
  36   36 8571 2765 FO
  36   36 8572 2766 FO
  36   36 8573 2767 FO
  36   36 8574 2767 FO
  36   36 8574 2768 FO
  36   36 8575 2769 FO
  36   36 8576 2769 FO
  36   36 8577 2770 FO
  36   36 8578 2771 FO
  36   36 8579 2771 FO
  36   36 8580 2772 FO
  36   36 8581 2772 FO
  36   36 8581 2773 FO
  36   36 8582 2774 FO
  36   36 8583 2774 FO
  36   36 8584 2775 FO
  36   36 8585 2776 FO
  36   36 8586 2776 FO
  36   36 8587 2777 FO
  36   36 8588 2778 FO
  36   36 8589 2778 FO
  36   36 8589 2779 FO
  36   36 8590 2780 FO
  36   36 8591 2780 FO
  36   36 8592 2781 FO
  36   36 8593 2782 FO
  36   36 8594 2782 FO
  36   36 8595 2783 FO
  36   36 8596 2784 FO
  36   36 8597 2784 FO
  36   36 8597 2785 FO
  36   36 8598 2786 FO
  36   36 8599 2786 FO
  36   36 8600 2787 FO
  36   36 8601 2788 FO
  36   36 8602 2788 FO
  36   36 8603 2789 FO
  36   36 8604 2790 FO
  36   36 8605 2790 FO
  36   36 8605 2791 FO
  36   36 8606 2792 FO
  36   36 8607 2792 FO
  36   36 8608 2793 FO
  36   36 8609 2794 FO
  36   36 8610 2794 FO
  36   36 8611 2795 FO
  36   36 8612 2796 FO
  36   36 8613 2797 FO
  36   36 8614 2798 FO
  36   36 8615 2798 FO
  36   36 8616 2799 FO
  36   36 8617 2799 FO
  36   36 8618 2800 FO
  36   36 8619 2801 FO
  36   36 8620 2801 FO
  36   36 8620 2802 FO
  36   36 8621 2803 FO
  36   36 8622 2803 FO
  36   36 8623 2804 FO
  36   36 8624 2805 FO
  36   36 8625 2805 FO
  36   36 8626 2806 FO
  36   36 8627 2807 FO
  36   36 8628 2807 FO
  36   36 8628 2808 FO
  36   36 8629 2809 FO
  36   36 8630 2809 FO
  36   36 8631 2810 FO
  36   36 8632 2811 FO
  36   36 8633 2811 FO
  36   36 8634 2812 FO
  36   36 8635 2813 FO
  36   36 8636 2813 FO
  36   36 8636 2814 FO
  36   36 8637 2815 FO
  36   36 8638 2815 FO
  36   36 8639 2816 FO
  36   36 8640 2817 FO
  36   36 8641 2817 FO
  36   36 8642 2818 FO
  36   36 8643 2819 FO
  36   36 8644 2819 FO
  36   36 8644 2820 FO
  36   36 8645 2821 FO
  36   36 8646 2821 FO
  36   36 8647 2822 FO
  36   36 8648 2823 FO
  36   36 8649 2823 FO
  36   36 8650 2824 FO
  36   36 8651 2825 FO
  36   36 8652 2826 FO
  36   36 8653 2827 FO
  36   36 8654 2827 FO
  36   36 8655 2828 FO
  36   36 8656 2829 FO
  36   36 8657 2829 FO
  36   36 8658 2830 FO
  36   36 8659 2831 FO
  36   36 8660 2832 FO
  36   36 8661 2833 FO
  36   36 8662 2833 FO
  36   36 8663 2834 FO
  36   36 8664 2835 FO
  36   36 8665 2835 FO
  36   36 8666 2836 FO
  36   36 8667 2837 FO
  36   36 8668 2838 FO
  36   36 8669 2839 FO
  36   36 8670 2839 FO
  36   36 8671 2840 FO
  36   36 8672 2841 FO
  36   36 8673 2841 FO
  36   36 8674 2842 FO
  36   36 8675 2843 FO
  36   36 8676 2844 FO
  36   36 8677 2845 FO
  36   36 8678 2845 FO
  36   36 8679 2846 FO
  36   36 8680 2847 FO
  36   36 8681 2847 FO
  36   36 8682 2848 FO
  36   36 8682 2849 FO
  36   36 8683 2849 FO
  36   36 8684 2850 FO
  36   36 8685 2851 FO
  36   36 8686 2851 FO
  36   36 8687 2852 FO
  36   36 8688 2853 FO
  36   36 8689 2853 FO
  36   36 8690 2854 FO
  36   36 8690 2855 FO
  36   36 8691 2855 FO
  36   36 8692 2856 FO
  36   36 8693 2857 FO
  36   36 8694 2857 FO
  36   36 8695 2858 FO
  36   36 8696 2859 FO
  36   36 8697 2859 FO
  36   36 8698 2860 FO
  36   36 8698 2861 FO
  36   36 8699 2861 FO
  36   36 8700 2862 FO
  36   36 8701 2863 FO
  36   36 8702 2863 FO
  36   36 8703 2864 FO
  36   36 8704 2865 FO
  36   36 8705 2865 FO
  36   36 8706 2866 FO
  36   36 8706 2867 FO
  36   36 8707 2867 FO
  36   36 8708 2868 FO
  36   36 8709 2869 FO
  36   36 8710 2869 FO
  36   36 8711 2870 FO
  36   36 8712 2871 FO
  36   36 8713 2871 FO
  36   36 8713 2872 FO
  36   36 8714 2873 FO
  36   36 8715 2873 FO
  36   36 8716 2874 FO
  36   36 8717 2875 FO
  36   36 8718 2875 FO
  36   36 8719 2876 FO
  36   36 8720 2877 FO
  36   36 8721 2877 FO
  36   36 8721 2878 FO
  36   36 8722 2879 FO
  36   36 8723 2879 FO
  36   36 8724 2880 FO
  36   36 8725 2881 FO
  36   36 8726 2881 FO
  36   36 8727 2882 FO
  36   36 8728 2883 FO
  36   36 8729 2883 FO
  36   36 8729 2884 FO
  36   36 8730 2885 FO
  36   36 8731 2885 FO
  36   36 8732 2886 FO
  36   36 8733 2887 FO
  36   36 8734 2887 FO
  36   36 8735 2888 FO
  36   36 8736 2889 FO
  36   36 8737 2889 FO
  36   36 8737 2890 FO
  36   36 8738 2891 FO
  36   36 8739 2891 FO
  36   36 8740 2892 FO
  36   36 8741 2893 FO
  36   36 8742 2893 FO
  36   36 8743 2894 FO
  36   36 8744 2895 FO
  36   36 8745 2896 FO
  36   36 8746 2897 FO
  36   36 8747 2897 FO
  36   36 8748 2898 FO
  36   36 8749 2899 FO
  36   36 8750 2899 FO
  36   36 8751 2900 FO
  36   36 8752 2901 FO
  36   36 8753 2902 FO
  36   36 8754 2903 FO
  36   36 8755 2903 FO
  36   36 8756 2904 FO
  36   36 8757 2905 FO
  36   36 8758 2905 FO
  36   36 8759 2906 FO
  36   36 8760 2907 FO
  36   36 8761 2908 FO
  36   36 8762 2909 FO
  36   36 8763 2909 FO
  36   36 8764 2910 FO
  36   36 8765 2911 FO
  36   36 8766 2911 FO
  36   36 8767 2912 FO
  36   36 8768 2913 FO
  36   36 8768 2914 FO
  36   36 8769 2914 FO
  36   36 8770 2915 FO
  36   36 8771 2916 FO
  36   36 8772 2916 FO
  36   36 8773 2917 FO
  36   36 8774 2918 FO
  36   36 8775 2918 FO
  36   36 8775 2919 FO
  36   36 8776 2920 FO
  36   36 8777 2920 FO
  36   36 8778 2921 FO
  36   36 8779 2922 FO
  36   36 8780 2922 FO
  36   36 8781 2923 FO
  36   36 8782 2924 FO
  36   36 8783 2924 FO
  36   36 8783 2925 FO
  36   36 8784 2926 FO
  36   36 8785 2926 FO
  36   36 8786 2927 FO
  36   36 8787 2928 FO
  36   36 8788 2928 FO
  36   36 8789 2929 FO
  36   36 8790 2930 FO
  36   36 8791 2930 FO
  36   36 8791 2931 FO
  36   36 8792 2932 FO
  36   36 8793 2932 FO
  36   36 8794 2933 FO
  36   36 8795 2934 FO
  36   36 8796 2934 FO
  36   36 8797 2935 FO
  36   36 8798 2936 FO
  36   36 8799 2936 FO
  36   36 8799 2937 FO
  36   36 8800 2938 FO
  36   36 8801 2938 FO
  36   36 8802 2939 FO
  36   36 8803 2940 FO
  36   36 8804 2941 FO
  36   36 8805 2941 FO
  36   36 8806 2942 FO
  36   36 8806 2943 FO
  36   36 8807 2943 FO
  36   36 8808 2944 FO
  36   36 8809 2945 FO
  36   36 8810 2945 FO
  36   36 8811 2946 FO
  36   36 8812 2947 FO
  36   36 8813 2947 FO
  36   36 8814 2948 FO
  36   36 8814 2949 FO
  36   36 8815 2949 FO
  36   36 8816 2950 FO
  36   36 8817 2951 FO
  36   36 8818 2951 FO
  36   36 8819 2952 FO
  36   36 8820 2953 FO
  36   36 8821 2953 FO
  36   36 8822 2954 FO
  36   36 8822 2955 FO
  36   36 8823 2955 FO
  36   36 8824 2956 FO
  36   36 8825 2957 FO
  36   36 8826 2957 FO
  36   36 8827 2958 FO
  36   36 8828 2959 FO
  36   36 8829 2960 FO
  36   36 8830 2960 FO
  36   36 8830 2961 FO
  36   36 8831 2962 FO
  36   36 8832 2962 FO
  36   36 8833 2963 FO
  36   36 8834 2964 FO
  36   36 8835 2964 FO
  36   36 8836 2965 FO
  36   36 8837 2966 FO
  36   36 8838 2967 FO
  36   36 8839 2968 FO
  36   36 8840 2968 FO
  36   36 8841 2969 FO
  36   36 8842 2970 FO
  36   36 8843 2970 FO
  36   36 8844 2971 FO
  36   36 8845 2972 FO
  36   36 8846 2973 FO
  36   36 8847 2974 FO
  36   36 8848 2974 FO
  36   36 8849 2975 FO
  36   36 8850 2976 FO
  36   36 8851 2977 FO
  36   36 8852 2977 FO
  36   36 8853 2978 FO
  36   36 8853 2979 FO
  36   36 8854 2979 FO
  36   36 8855 2980 FO
  36   36 8856 2981 FO
  36   36 8857 2981 FO
  36   36 8858 2982 FO
  36   36 8859 2983 FO
  36   36 8860 2983 FO
  36   36 8861 2984 FO
  36   36 8861 2985 FO
  36   36 8862 2985 FO
  36   36 8863 2986 FO
  36   36 8864 2987 FO
  36   36 8865 2987 FO
  36   36 8866 2988 FO
  36   36 8867 2989 FO
  36   36 8868 2989 FO
  36   36 8868 2990 FO
  36   36 8869 2991 FO
  36   36 8870 2992 FO
  36   36 8871 2992 FO
  36   36 8872 2993 FO
  36   36 8873 2994 FO
  36   36 8874 2994 FO
  36   36 8875 2995 FO
  36   36 8876 2996 FO
  36   36 8877 2997 FO
  36   36 8878 2998 FO
  36   36 8879 2998 FO
  36   36 8880 2999 FO
  36   36 8881 3000 FO
  36   36 8882 3000 FO
  36   36 8883 3001 FO
  36   36 8884 3002 FO
  36   36 8885 3003 FO
  36   36 8886 3004 FO
  36   36 8887 3005 FO
  36   36 8888 3005 FO
  36   36 8889 3006 FO
  36   36 8890 3007 FO
  36   36 8891 3007 FO
  36   36 8892 3008 FO
  36   36 8892 3009 FO
  36   36 8893 3009 FO
  36   36 8894 3010 FO
  36   36 8895 3011 FO
  36   36 8896 3011 FO
  36   36 8897 3012 FO
  36   36 8898 3013 FO
  36   36 8899 3013 FO
  36   36 8899 3014 FO
  36   36 8900 3015 FO
  36   36 8901 3016 FO
  36   36 8902 3016 FO
  36   36 8903 3017 FO
  36   36 8904 3018 FO
  36   36 8905 3018 FO
  36   36 8906 3019 FO
  36   36 8907 3020 FO
  36   36 8908 3021 FO
  36   36 8909 3022 FO
  36   36 8910 3022 FO
  36   36 8911 3023 FO
  36   36 8912 3024 FO
  36   36 8913 3024 FO
  36   36 8914 3025 FO
  36   36 8915 3026 FO
  36   36 8916 3027 FO
  36   36 8917 3028 FO
  36   36 8918 3029 FO
  36   36 8919 3029 FO
  36   36 8920 3030 FO
  36   36 8921 3031 FO
  36   36 8922 3031 FO
  36   36 8923 3032 FO
  36   36 8923 3033 FO
  36   36 8924 3033 FO
  36   36 8925 3034 FO
  36   36 8926 3035 FO
  36   36 8927 3035 FO
  36   36 8928 3036 FO
  36   36 8929 3037 FO
  36   36 8930 3038 FO
  36   36 8931 3038 FO
  36   36 8931 3039 FO
  36   36 8932 3040 FO
  36   36 8933 3040 FO
  36   36 8934 3041 FO
  36   36 8935 3042 FO
  36   36 8936 3042 FO
  36   36 8937 3043 FO
  36   36 8938 3044 FO
  36   36 8939 3045 FO
  36   36 8940 3046 FO
  36   36 8941 3046 FO
  36   36 8942 3047 FO
  36   36 8943 3048 FO
  36   36 8944 3049 FO
  36   36 8945 3049 FO
  36   36 8946 3050 FO
  36   36 8946 3051 FO
  36   36 8947 3051 FO
  36   36 8948 3052 FO
  36   36 8949 3053 FO
  36   36 8950 3053 FO
  36   36 8951 3054 FO
  36   36 8952 3055 FO
  36   36 8953 3055 FO
  36   36 8954 3056 FO
  36   36 8954 3057 FO
  36   36 8955 3058 FO
  36   36 8956 3058 FO
  36   36 8957 3059 FO
  36   36 8958 3060 FO
  36   36 8959 3060 FO
  36   36 8960 3061 FO
  36   36 8961 3062 FO
  36   36 8962 3062 FO
  36   36 8962 3063 FO
  36   36 8963 3064 FO
  36   36 8964 3064 FO
  36   36 8965 3065 FO
  36   36 8966 3066 FO
  36   36 8967 3067 FO
  36   36 8968 3067 FO
  36   36 8969 3068 FO
  36   36 8969 3069 FO
  36   36 8970 3069 FO
  36   36 8971 3070 FO
  36   36 8972 3071 FO
  36   36 8973 3071 FO
  36   36 8974 3072 FO
  36   36 8975 3073 FO
  36   36 8976 3073 FO
  36   36 8977 3074 FO
  36   36 8977 3075 FO
  36   36 8978 3076 FO
  36   36 8979 3076 FO
  36   36 8980 3077 FO
  36   36 8981 3078 FO
  36   36 8982 3078 FO
  36   36 8983 3079 FO
  36   36 8984 3080 FO
  36   36 8985 3080 FO
  36   36 8985 3081 FO
  36   36 8986 3082 FO
  36   36 8987 3082 FO
  36   36 8988 3083 FO
  36   36 8989 3084 FO
  36   36 8990 3085 FO
  36   36 8991 3085 FO
  36   36 8992 3086 FO
  36   36 8993 3087 FO
  36   36 8994 3088 FO
  36   36 8995 3089 FO
  36   36 8996 3089 FO
  36   36 8997 3090 FO
  36   36 8998 3091 FO
  36   36 8999 3091 FO
  36   36 9000 3092 FO
  36   36 9000 3093 FO
  36   36 9001 3094 FO
  36   36 9002 3094 FO
  36   36 9003 3095 FO
  36   36 9004 3096 FO
  36   36 9005 3096 FO
  36   36 9006 3097 FO
  36   36 9007 3098 FO
  36   36 9008 3098 FO
  36   36 9008 3099 FO
  36   36 9009 3100 FO
  36   36 9010 3101 FO
  36   36 9011 3101 FO
  36   36 9012 3102 FO
  36   36 9013 3103 FO
  36   36 9014 3103 FO
  36   36 9015 3104 FO
  36   36 9016 3105 FO
  36   36 9017 3106 FO
  36   36 9018 3107 FO
  36   36 9019 3108 FO
  36   36 9020 3108 FO
  36   36 9021 3109 FO
  36   36 9022 3110 FO
  36   36 9023 3110 FO
  36   36 9024 3111 FO
  36   36 9024 3112 FO
  36   36 9025 3112 FO
  36   36 9026 3113 FO
  36   36 9027 3114 FO
  36   36 9028 3114 FO
  36   36 9029 3115 FO
  36   36 9030 3116 FO
  36   36 9031 3117 FO
  36   36 9032 3118 FO
  36   36 9033 3119 FO
  36   36 9034 3119 FO
  36   36 9035 3120 FO
  36   36 9036 3121 FO
  36   36 9037 3121 FO
  36   36 9038 3122 FO
  36   36 9039 3123 FO
  36   36 9039 3124 FO
  36   36 9040 3124 FO
  36   36 9041 3125 FO
  36   36 9042 3126 FO
  36   36 9043 3126 FO
  36   36 9044 3127 FO
  36   36 9045 3128 FO
  36   36 9046 3128 FO
  36   36 9047 3129 FO
  36   36 9047 3130 FO
  36   36 9048 3131 FO
  36   36 9049 3131 FO
  36   36 9050 3132 FO
  36   36 9051 3133 FO
  36   36 9052 3133 FO
  36   36 9053 3134 FO
  36   36 9054 3135 FO
  36   36 9055 3135 FO
  36   36 9055 3136 FO
  36   36 9056 3137 FO
  36   36 9057 3138 FO
  36   36 9058 3138 FO
  36   36 9059 3139 FO
  36   36 9060 3140 FO
  36   36 9061 3140 FO
  36   36 9062 3141 FO
  36   36 9062 3142 FO
  36   36 9063 3142 FO
  36   36 9064 3143 FO
  36   36 9065 3144 FO
  36   36 9066 3145 FO
  36   36 9067 3145 FO
  36   36 9068 3146 FO
  36   36 9069 3147 FO
  36   36 9070 3147 FO
  36   36 9070 3148 FO
  36   36 9071 3149 FO
  36   36 9072 3149 FO
  36   36 9073 3150 FO
  36   36 9074 3151 FO
  36   36 9075 3152 FO
  36   36 9076 3152 FO
  36   36 9077 3153 FO
  36   36 9078 3154 FO
  36   36 9079 3155 FO
  36   36 9080 3156 FO
  36   36 9081 3157 FO
  36   36 9082 3157 FO
  36   36 9083 3158 FO
  36   36 9084 3159 FO
  36   36 9085 3159 FO
  36   36 9086 3160 FO
  36   36 9086 3161 FO
  36   36 9087 3161 FO
  36   36 9088 3162 FO
  36   36 9089 3163 FO
  36   36 9090 3164 FO
  36   36 9091 3164 FO
  36   36 9092 3165 FO
  36   36 9093 3166 FO
  36   36 9094 3167 FO
  36   36 9095 3168 FO
  36   36 9096 3168 FO
  36   36 9097 3169 FO
  36   36 9098 3170 FO
  36   36 9099 3171 FO
  36   36 9100 3171 FO
  36   36 9101 3172 FO
  36   36 9101 3173 FO
  36   36 9102 3173 FO
  36   36 9103 3174 FO
  36   36 9104 3175 FO
  36   36 9105 3176 FO
  36   36 9106 3176 FO
  36   36 9107 3177 FO
  36   36 9108 3178 FO
  36   36 9109 3178 FO
  36   36 9109 3179 FO
  36   36 9110 3180 FO
  36   36 9111 3180 FO
  36   36 9112 3181 FO
  36   36 9113 3182 FO
  36   36 9114 3183 FO
  36   36 9115 3183 FO
  36   36 9116 3184 FO
  36   36 9117 3185 FO
  36   36 9118 3186 FO
  36   36 9119 3187 FO
  36   36 9120 3188 FO
  36   36 9121 3188 FO
  36   36 9122 3189 FO
  36   36 9123 3190 FO
  36   36 9124 3190 FO
  36   36 9124 3191 FO
  36   36 9125 3192 FO
  36   36 9126 3192 FO
  36   36 9127 3193 FO
  36   36 9128 3194 FO
  36   36 9129 3195 FO
  36   36 9130 3195 FO
  36   36 9131 3196 FO
  36   36 9132 3197 FO
  36   36 9133 3198 FO
  36   36 9134 3199 FO
  36   36 9135 3200 FO
  36   36 9136 3200 FO
  36   36 9137 3201 FO
  36   36 9138 3202 FO
  36   36 9139 3202 FO
  36   36 9140 3203 FO
  36   36 9140 3204 FO
  36   36 9141 3205 FO
  36   36 9142 3205 FO
  36   36 9143 3206 FO
  36   36 9144 3207 FO
  36   36 9145 3207 FO
  36   36 9146 3208 FO
  36   36 9147 3209 FO
  36   36 9148 3209 FO
  36   36 9148 3210 FO
  36   36 9149 3211 FO
  36   36 9150 3212 FO
  36   36 9151 3212 FO
  36   36 9152 3213 FO
  36   36 9153 3214 FO
  36   36 9154 3214 FO
  36   36 9155 3215 FO
  36   36 9155 3216 FO
  36   36 9156 3217 FO
  36   36 9157 3217 FO
  36   36 9158 3218 FO
  36   36 9159 3219 FO
  36   36 9160 3219 FO
  36   36 9161 3220 FO
  36   36 9162 3221 FO
  36   36 9163 3222 FO
  36   36 9164 3223 FO
  36   36 9165 3224 FO
  36   36 9166 3224 FO
  36   36 9167 3225 FO
  36   36 9168 3226 FO
  36   36 9169 3227 FO
  36   36 9170 3227 FO
  36   36 9171 3228 FO
  36   36 9171 3229 FO
  36   36 9172 3229 FO
  36   36 9173 3230 FO
  36   36 9174 3231 FO
  36   36 9175 3231 FO
  36   36 9176 3232 FO
  36   36 9177 3233 FO
  36   36 9178 3234 FO
  36   36 9179 3234 FO
  36   36 9179 3235 FO
  36   36 9180 3236 FO
  36   36 9181 3236 FO
  36   36 9182 3237 FO
  36   36 9183 3238 FO
  36   36 9184 3239 FO
  36   36 9185 3239 FO
  36   36 9186 3240 FO
  36   36 9186 3241 FO
  36   36 9187 3241 FO
  36   36 9188 3242 FO
  36   36 9189 3243 FO
  36   36 9190 3244 FO
  36   36 9191 3244 FO
  36   36 9192 3245 FO
  36   36 9193 3246 FO
  36   36 9194 3246 FO
  36   36 9194 3247 FO
  36   36 9195 3248 FO
  36   36 9196 3249 FO
  36   36 9197 3249 FO
  36   36 9198 3250 FO
  36   36 9199 3251 FO
  36   36 9200 3251 FO
  36   36 9201 3252 FO
  36   36 9202 3253 FO
  36   36 9202 3254 FO
  36   36 9203 3254 FO
  36   36 9204 3255 FO
  36   36 9205 3256 FO
  36   36 9206 3256 FO
  36   36 9207 3257 FO
  36   36 9208 3258 FO
  36   36 9209 3259 FO
  36   36 9210 3259 FO
  36   36 9210 3260 FO
  36   36 9211 3261 FO
  36   36 9212 3261 FO
  36   36 9213 3262 FO
  36   36 9214 3263 FO
  36   36 9215 3264 FO
  36   36 9216 3264 FO
  36   36 9217 3265 FO
  36   36 9218 3266 FO
  36   36 9219 3267 FO
  36   36 9220 3268 FO
  36   36 9221 3269 FO
  36   36 9222 3269 FO
  36   36 9223 3270 FO
  36   36 9224 3271 FO
  36   36 9225 3271 FO
  36   36 9225 3272 FO
  36   36 9226 3273 FO
  36   36 9227 3274 FO
  36   36 9228 3274 FO
  36   36 9229 3275 FO
  36   36 9230 3276 FO
  36   36 9231 3277 FO
  36   36 9232 3277 FO
  36   36 9233 3278 FO
  36   36 9233 3279 FO
  36   36 9234 3279 FO
  36   36 9235 3280 FO
  36   36 9236 3281 FO
  36   36 9237 3282 FO
  36   36 9238 3282 FO
  36   36 9239 3283 FO
  36   36 9240 3284 FO
  36   36 9241 3284 FO
  36   36 9241 3285 FO
  36   36 9242 3286 FO
  36   36 9243 3287 FO
  36   36 9244 3287 FO
  36   36 9245 3288 FO
  36   36 9246 3289 FO
  36   36 9247 3289 FO
  36   36 9248 3290 FO
  36   36 9249 3291 FO
  36   36 9249 3292 FO
  36   36 9250 3292 FO
  36   36 9251 3293 FO
  36   36 9252 3294 FO
  36   36 9253 3294 FO
  36   36 9254 3295 FO
  36   36 9255 3296 FO
  36   36 9256 3297 FO
  36   36 9257 3298 FO
  36   36 9258 3299 FO
  36   36 9259 3299 FO
  36   36 9260 3300 FO
  36   36 9261 3301 FO
  36   36 9262 3302 FO
  36   36 9263 3302 FO
  36   36 9264 3303 FO
  36   36 9264 3304 FO
  36   36 9265 3305 FO
  36   36 9266 3305 FO
  36   36 9267 3306 FO
  36   36 9268 3307 FO
  36   36 9269 3307 FO
  36   36 9270 3308 FO
  36   36 9271 3309 FO
  36   36 9272 3310 FO
  36   36 9273 3311 FO
  36   36 9274 3312 FO
  36   36 9275 3312 FO
  36   36 9276 3313 FO
  36   36 9277 3314 FO
  36   36 9278 3315 FO
  36   36 9279 3315 FO
  36   36 9280 3316 FO
  36   36 9280 3317 FO
  36   36 9281 3318 FO
  36   36 9282 3318 FO
  36   36 9283 3319 FO
  36   36 9284 3320 FO
  36   36 9285 3320 FO
  36   36 9286 3321 FO
  36   36 9287 3322 FO
  36   36 9287 3323 FO
  36   36 9288 3323 FO
  36   36 9289 3324 FO
  36   36 9290 3325 FO
  36   36 9291 3325 FO
  36   36 9292 3326 FO
  36   36 9293 3327 FO
  36   36 9294 3328 FO
  36   36 9295 3328 FO
  36   36 9295 3329 FO
  36   36 9296 3330 FO
  36   36 9297 3331 FO
  36   36 9298 3331 FO
  36   36 9299 3332 FO
  36   36 9300 3333 FO
  36   36 9301 3333 FO
  36   36 9302 3334 FO
  36   36 9303 3335 FO
  36   36 9303 3336 FO
  36   36 9304 3336 FO
  36   36 9305 3337 FO
  36   36 9306 3338 FO
  36   36 9307 3338 FO
  36   36 9308 3339 FO
  36   36 9309 3340 FO
  36   36 9310 3341 FO
  36   36 9311 3341 FO
  36   36 9311 3342 FO
  36   36 9312 3343 FO
  36   36 9313 3344 FO
  36   36 9314 3344 FO
  36   36 9315 3345 FO
  36   36 9316 3346 FO
  36   36 9317 3346 FO
  36   36 9318 3347 FO
  36   36 9318 3348 FO
  36   36 9319 3349 FO
  36   36 9320 3349 FO
  36   36 9321 3350 FO
  36   36 9322 3351 FO
  36   36 9323 3352 FO
  36   36 9324 3352 FO
  36   36 9325 3353 FO
  36   36 9326 3354 FO
  36   36 9327 3355 FO
  36   36 9328 3356 FO
  36   36 9329 3357 FO
  36   36 9330 3357 FO
  36   36 9331 3358 FO
  36   36 9332 3359 FO
  36   36 9333 3359 FO
  36   36 9334 3360 FO
  36   36 9334 3361 FO
  36   36 9335 3362 FO
  36   36 9336 3362 FO
  36   36 9337 3363 FO
  36   36 9338 3364 FO
  36   36 9339 3365 FO
  36   36 9340 3365 FO
  36   36 9341 3366 FO
  36   36 9342 3367 FO
  36   36 9343 3368 FO
  36   36 9344 3369 FO
  36   36 9345 3370 FO
  36   36 9346 3370 FO
  36   36 9347 3371 FO
  36   36 9348 3372 FO
  36   36 9349 3373 FO
  36   36 9350 3374 FO
  36   36 9351 3375 FO
  36   36 9352 3375 FO
  36   36 9353 3376 FO
  36   36 9354 3377 FO
  36   36 9355 3378 FO
  36   36 9356 3378 FO
  36   36 9357 3379 FO
  36   36 9357 3380 FO
  36   36 9358 3381 FO
  36   36 9359 3381 FO
  36   36 9360 3382 FO
  36   36 9361 3383 FO
  36   36 9362 3384 FO
  36   36 9363 3384 FO
  36   36 9364 3385 FO
  36   36 9365 3386 FO
  36   36 9366 3387 FO
  36   36 9367 3388 FO
  36   36 9368 3389 FO
  36   36 9369 3389 FO
  36   36 9370 3390 FO
  36   36 9371 3391 FO
  36   36 9372 3392 FO
  36   36 9373 3392 FO
  36   36 9373 3393 FO
  36   36 9374 3394 FO
  36   36 9375 3394 FO
  36   36 9376 3395 FO
  36   36 9377 3396 FO
  36   36 9378 3397 FO
  36   36 9379 3397 FO
  36   36 9380 3398 FO
  36   36 9380 3399 FO
  36   36 9381 3400 FO
  36   36 9382 3400 FO
  36   36 9383 3401 FO
  36   36 9384 3402 FO
  36   36 9385 3403 FO
  36   36 9386 3403 FO
  36   36 9387 3404 FO
  36   36 9388 3405 FO
  36   36 9389 3406 FO
  36   36 9390 3407 FO
  36   36 9391 3408 FO
  36   36 9392 3408 FO
  36   36 9393 3409 FO
  36   36 9394 3410 FO
  36   36 9395 3411 FO
  36   36 9396 3411 FO
  36   36 9396 3412 FO
  36   36 9397 3413 FO
  36   36 9398 3413 FO
  36   36 9399 3414 FO
  36   36 9400 3415 FO
  36   36 9401 3416 FO
  36   36 9402 3416 FO
  36   36 9403 3417 FO
  36   36 9404 3418 FO
  36   36 9404 3419 FO
  36   36 9405 3419 FO
  36   36 9406 3420 FO
  36   36 9407 3421 FO
  36   36 9408 3422 FO
  36   36 9409 3422 FO
  36   36 9410 3423 FO
  36   36 9411 3424 FO
  36   36 9412 3425 FO
  36   36 9413 3426 FO
  36   36 9414 3427 FO
  36   36 9415 3427 FO
  36   36 9416 3428 FO
  36   36 9417 3429 FO
  36   36 9418 3430 FO
  36   36 9419 3430 FO
  36   36 9419 3431 FO
  36   36 9420 3432 FO
  36   36 9421 3433 FO
  36   36 9422 3433 FO
  36   36 9423 3434 FO
  36   36 9424 3435 FO
  36   36 9425 3435 FO
  36   36 9426 3436 FO
  36   36 9427 3437 FO
  36   36 9427 3438 FO
  36   36 9428 3438 FO
  36   36 9429 3439 FO
  36   36 9430 3440 FO
  36   36 9431 3441 FO
  36   36 9432 3441 FO
  36   36 9433 3442 FO
  36   36 9434 3443 FO
  36   36 9435 3444 FO
  36   36 9436 3445 FO
  36   36 9437 3446 FO
  36   36 9438 3447 FO
  36   36 9439 3447 FO
  36   36 9440 3448 FO
  36   36 9441 3449 FO
  36   36 9442 3449 FO
  36   36 9442 3450 FO
  36   36 9443 3451 FO
  36   36 9444 3452 FO
  36   36 9445 3452 FO
  36   36 9446 3453 FO
  36   36 9447 3454 FO
  36   36 9448 3455 FO
  36   36 9449 3455 FO
  36   36 9450 3456 FO
  36   36 9450 3457 FO
  36   36 9451 3458 FO
  36   36 9452 3458 FO
  36   36 9453 3459 FO
  36   36 9454 3460 FO
  36   36 9455 3461 FO
  36   36 9456 3461 FO
  36   36 9457 3462 FO
  36   36 9458 3463 FO
  36   36 9459 3464 FO
  36   36 9460 3465 FO
  36   36 9461 3466 FO
  36   36 9462 3466 FO
  36   36 9463 3467 FO
  36   36 9464 3468 FO
gs 1539 164 8859 4129 rc
gr

0 j
0 -58 -58 0 0 58 58 0 8971 3063 5 MP
/c10 { 1.000000 0.000000 0.000000 sr} bdef
c10
DP
0 -58 -58 0 0 58 58 0 8840 2962 5 MP
DP
0 -58 -58 0 0 58 58 0 9072 3143 5 MP
DP
0 -58 -58 0 0 58 58 0 9015 3098 5 MP
DP
0 -58 -58 0 0 58 58 0 8840 2962 5 MP
DP
0 -58 -58 0 0 58 58 0 8971 3063 5 MP
DP
0 -58 -58 0 0 58 58 0 9113 3176 5 MP
DP
0 -58 -58 0 0 58 58 0 8971 3063 5 MP
DP
0 -58 -58 0 0 58 58 0 8875 2989 5 MP
DP
0 -58 -58 0 0 58 58 0 8858 2976 5 MP
DP
0 -58 -58 0 0 58 58 0 8923 3026 5 MP
DP
0 -58 -58 0 0 58 58 0 8858 2976 5 MP
DP
0 -58 -58 0 0 58 58 0 8840 2962 5 MP
DP
0 -58 -58 0 0 58 58 0 8911 3016 5 MP
DP
0 -58 -58 0 0 58 58 0 9072 3143 5 MP
DP
0 -58 -58 0 0 58 58 0 8875 2989 5 MP
DP
0 -58 -58 0 0 58 58 0 8906 3012 5 MP
DP
0 -58 -58 0 0 58 58 0 8975 3066 5 MP
DP
0 -58 -58 0 0 58 58 0 9072 3143 5 MP
DP
0 -58 -58 0 0 58 58 0 8840 2962 5 MP
DP
0 -58 -58 0 0 58 58 0 9113 3176 5 MP
DP
0 -58 -58 0 0 58 58 0 9072 3143 5 MP
DP
0 -58 -58 0 0 58 58 0 8975 3066 5 MP
DP
0 -58 -58 0 0 58 58 0 8875 2989 5 MP
DP
0 -58 -58 0 0 58 58 0 8906 3012 5 MP
DP
0 -58 -58 0 0 58 58 0 8923 3026 5 MP
DP
0 -58 -58 0 0 58 58 0 8875 2989 5 MP
DP
0 -58 -58 0 0 58 58 0 8840 2962 5 MP
DP
0 -58 -58 0 0 58 58 0 9005 3090 5 MP
DP
0 -58 -58 0 0 58 58 0 8971 3063 5 MP
DP
0 -58 -58 0 0 58 58 0 9072 3143 5 MP
DP
0 -58 -58 0 0 58 58 0 8923 3026 5 MP
DP
0 -58 -58 0 0 58 58 0 9113 3176 5 MP
DP
0 -58 -58 0 0 58 58 0 9013 3097 5 MP
DP
0 -58 -58 0 0 58 58 0 8840 2962 5 MP
DP
0 -58 -58 0 0 58 58 0 9015 3098 5 MP
DP
0 -58 -58 0 0 58 58 0 8911 3016 5 MP
DP
0 -58 -58 0 0 58 58 0 8875 2989 5 MP
DP
0 -58 -58 0 0 58 58 0 9005 3090 5 MP
DP
0 -58 -58 0 0 58 58 0 9072 3143 5 MP
DP
0 -58 -58 0 0 58 58 0 8971 3063 5 MP
DP
0 -58 -58 0 0 58 58 0 8875 2989 5 MP
DP
0 -58 -58 0 0 58 58 0 8911 3016 5 MP
DP
0 -58 -58 0 0 58 58 0 9015 3098 5 MP
DP
0 -58 -58 0 0 58 58 0 8906 3012 5 MP
DP
0 -58 -58 0 0 58 58 0 9015 3098 5 MP
DP
0 -58 -58 0 0 58 58 0 8923 3026 5 MP
DP
gs 1539 164 8859 4129 rc
gr

0 sg
  36   36 7739 3466 PO
  36   36 7739 3466 FO
gs 1539 164 8859 4129 rc
gr

%%IncludeResource: font Helvetica
/Helvetica /WindowsLatin1Encoding 120 FMSR

1522 4335 mt 
( ) s
10381  206 mt 
( ) s
6 w
1 sg
0 792 3789 0 0 -792 6436 1014 4 MP
PP
-3789 0 0 792 3789 0 0 -792 6436 1014 5 MP stroke
4 w
DO
SO
6 w
6436  222 mt 10225  222 L
6436 1014 mt 10225 1014 L
10225 1014 mt 10225  222 L
6436 1014 mt 6436  222 L
6436 1014 mt 10225 1014 L
6436 1014 mt 6436  222 L
6436  222 mt 10225  222 L
6436 1014 mt 10225 1014 L
10225 1014 mt 10225  222 L
6436 1014 mt 6436  222 L
0 sg
%%IncludeResource: font Courier
/Courier /WindowsLatin1Encoding 288 FMSR

7014  524 mt 
(Preferred Region) s
gs 6436 222 3790 793 rc
72 w
gs 6601 284 293 293 rc
c9
  36   36 6747  430 FO
gr

c9
gr

72 w
c9
0 sg
7014  899 mt 
(Obtained Soloutions) s
gs 6436 222 3790 793 rc
gs 6601 659 293 293 rc
0 -58 -58 0 0 58 58 0 6718 776 5 MP
c10
DP
gr

c10
6 w
gr

6 w
c10
0 sg
%%IncludeResource: font Courier-Bold
/Courier-Bold /WindowsLatin1Encoding 288 FMSR

7152 3302 mt 
(\(0.7,0.2\)) s

end %%Color Dict

eplot
%%EndObject

epage
end

showpage

%%Trailer
%%EOF
