%!PS-Adobe-3.0 EPSF-3.0
%%Creator: MATLAB, The MathWorks, Inc. Version 7.13.0.564 (R2011b). Operating System: Microsoft Windows XP.
%%Title: D:\DriveG\Sem2-2012\Program\ReferenceMetric-v3\metricfig\zdt2\zdt2-ws.eps
%%CreationDate: 02/27/2013  13:23:45
%%DocumentNeededFonts: Helvetica
%%+ Courier-Bold
%%+ Courier
%%DocumentProcessColors: Cyan Magenta Yellow Black
%%LanguageLevel: 2
%%Pages: 1
%%BoundingBox:  -329    76   926   765
%%EndComments

%%BeginProlog
% MathWorks dictionary
/MathWorks 160 dict begin
% definition operators
/bdef {bind def} bind def
/ldef {load def} bind def
/xdef {exch def} bdef
/xstore {exch store} bdef
% operator abbreviations
/c  /clip ldef
/cc /concat ldef
/cp /closepath ldef
/gr /grestore ldef
/gs /gsave ldef
/mt /moveto ldef
/np /newpath ldef
/cm /currentmatrix ldef
/sm /setmatrix ldef
/rm /rmoveto ldef
/rl /rlineto ldef
/s {show newpath} bdef
/sc {setcmykcolor} bdef
/sr /setrgbcolor ldef
/sg /setgray ldef
/w /setlinewidth ldef
/j /setlinejoin ldef
/cap /setlinecap ldef
/rc {rectclip} bdef
/rf {rectfill} bdef
% page state control
/pgsv () def
/bpage {/pgsv save def} bdef
/epage {pgsv restore} bdef
/bplot /gsave ldef
/eplot {stroke grestore} bdef
% orientation switch
/portraitMode 0 def /landscapeMode 1 def /rotateMode 2 def
% coordinate system mappings
/dpi2point 0 def
% font control
/FontSize 0 def
/FMS {/FontSize xstore findfont [FontSize 0 0 FontSize neg 0 0]
  makefont setfont} bdef
/ISOLatin1Encoding where {pop /WindowsLatin1Encoding 256 array bdef
ISOLatin1Encoding WindowsLatin1Encoding copy pop
/.notdef/.notdef/quotesinglbase/florin/quotedblbase/ellipsis/dagger
/daggerdbl/circumflex/perthousand/Scaron/guilsinglleft/OE/.notdef/.notdef
/.notdef/.notdef/quoteleft/quoteright/quotedblleft/quotedblright/bullet
/endash/emdash/tilde/trademark/scaron/guilsinglright/oe/.notdef/.notdef
/Ydieresis WindowsLatin1Encoding 128 32 getinterval astore pop}
{/WindowsLatin1Encoding StandardEncoding bdef} ifelse
/reencode {exch dup where {pop load} {pop StandardEncoding} ifelse
  exch dup 3 1 roll findfont dup length dict begin
  { 1 index /FID ne {def}{pop pop} ifelse } forall
  /Encoding exch def currentdict end definefont pop} bdef
/isroman {findfont /CharStrings get /Agrave known} bdef
/FMSR {3 1 roll 1 index dup isroman {reencode} {pop pop} ifelse
  exch FMS} bdef
/csm {1 dpi2point div -1 dpi2point div scale neg translate
 dup landscapeMode eq {pop -90 rotate}
  {rotateMode eq {90 rotate} if} ifelse} bdef
% line types: solid, dotted, dashed, dotdash
/SO { [] 0 setdash } bdef
/DO { [.5 dpi2point mul 4 dpi2point mul] 0 setdash } bdef
/DA { [6 dpi2point mul] 0 setdash } bdef
/DD { [.5 dpi2point mul 4 dpi2point mul 6 dpi2point mul 4
  dpi2point mul] 0 setdash } bdef
% macros for lines and objects
/L {lineto stroke} bdef
/MP {3 1 roll moveto 1 sub {rlineto} repeat} bdef
/AP {{rlineto} repeat} bdef
/PDlw -1 def
/W {/PDlw currentlinewidth def setlinewidth} def
/PP {closepath eofill} bdef
/DP {closepath stroke} bdef
/MR {4 -2 roll moveto dup  0 exch rlineto exch 0 rlineto
  neg 0 exch rlineto closepath} bdef
/FR {MR stroke} bdef
/PR {MR fill} bdef
/L1i {{currentfile picstr readhexstring pop} image} bdef
/tMatrix matrix def
/MakeOval {newpath tMatrix currentmatrix pop translate scale
0 0 1 0 360 arc tMatrix setmatrix} bdef
/FO {MakeOval stroke} bdef
/PO {MakeOval fill} bdef
/PD {currentlinewidth 2 div 0 360 arc fill
   PDlw -1 eq not {PDlw w /PDlw -1 def} if} def
/FA {newpath tMatrix currentmatrix pop translate scale
  0 0 1 5 -2 roll arc tMatrix setmatrix stroke} bdef
/PA {newpath tMatrix currentmatrix pop	translate 0 0 moveto scale
  0 0 1 5 -2 roll arc closepath tMatrix setmatrix fill} bdef
/FAn {newpath tMatrix currentmatrix pop translate scale
  0 0 1 5 -2 roll arcn tMatrix setmatrix stroke} bdef
/PAn {newpath tMatrix currentmatrix pop translate 0 0 moveto scale
  0 0 1 5 -2 roll arcn closepath tMatrix setmatrix fill} bdef
/vradius 0 def /hradius 0 def /lry 0 def
/lrx 0 def /uly 0 def /ulx 0 def /rad 0 def
/MRR {/vradius xdef /hradius xdef /lry xdef /lrx xdef /uly xdef
  /ulx xdef newpath tMatrix currentmatrix pop ulx hradius add uly
  vradius add translate hradius vradius scale 0 0 1 180 270 arc 
  tMatrix setmatrix lrx hradius sub uly vradius add translate
  hradius vradius scale 0 0 1 270 360 arc tMatrix setmatrix
  lrx hradius sub lry vradius sub translate hradius vradius scale
  0 0 1 0 90 arc tMatrix setmatrix ulx hradius add lry vradius sub
  translate hradius vradius scale 0 0 1 90 180 arc tMatrix setmatrix
  closepath} bdef
/FRR {MRR stroke } bdef
/PRR {MRR fill } bdef
/MlrRR {/lry xdef /lrx xdef /uly xdef /ulx xdef /rad lry uly sub 2 div def
  newpath tMatrix currentmatrix pop ulx rad add uly rad add translate
  rad rad scale 0 0 1 90 270 arc tMatrix setmatrix lrx rad sub lry rad
  sub translate rad rad scale 0 0 1 270 90 arc tMatrix setmatrix
  closepath} bdef
/FlrRR {MlrRR stroke } bdef
/PlrRR {MlrRR fill } bdef
/MtbRR {/lry xdef /lrx xdef /uly xdef /ulx xdef /rad lrx ulx sub 2 div def
  newpath tMatrix currentmatrix pop ulx rad add uly rad add translate
  rad rad scale 0 0 1 180 360 arc tMatrix setmatrix lrx rad sub lry rad
  sub translate rad rad scale 0 0 1 0 180 arc tMatrix setmatrix
  closepath} bdef
/FtbRR {MtbRR stroke } bdef
/PtbRR {MtbRR fill } bdef
/stri 6 array def /dtri 6 array def
/smat 6 array def /dmat 6 array def
/tmat1 6 array def /tmat2 6 array def /dif 3 array def
/asub {/ind2 exch def /ind1 exch def dup dup
  ind1 get exch ind2 get sub exch } bdef
/tri_to_matrix {
  2 0 asub 3 1 asub 4 0 asub 5 1 asub
  dup 0 get exch 1 get 7 -1 roll astore } bdef
/compute_transform {
  dmat dtri tri_to_matrix tmat1 invertmatrix 
  smat stri tri_to_matrix tmat2 concatmatrix } bdef
/ds {stri astore pop} bdef
/dt {dtri astore pop} bdef
/db {2 copy /cols xdef /rows xdef mul dup 3 mul string
  currentfile 
  3 index 0 eq {/ASCIIHexDecode filter}
  {/ASCII85Decode filter 3 index 2 eq {/RunLengthDecode filter} if }
  ifelse exch readstring pop
  dup 0 3 index getinterval /rbmap xdef
  dup 2 index dup getinterval /gbmap xdef
  1 index dup 2 mul exch getinterval /bbmap xdef pop pop}bdef
/it {gs np dtri aload pop moveto lineto lineto cp c
  cols rows 8 compute_transform 
  rbmap gbmap bbmap true 3 colorimage gr}bdef
/il {newpath moveto lineto stroke}bdef
currentdict end def
%%EndProlog

%%BeginSetup
MathWorks begin

0 cap

end
%%EndSetup

%%Page: 1 1
%%BeginPageSetup
%%PageBoundingBox:  -329    76   926   765
MathWorks begin
bpage
%%EndPageSetup

%%BeginObject: obj1
bplot

/dpi2point 12 def
portraitMode -3948 9180 csm

    0     0 15060  8257 rc
86 dict begin %Colortable dictionary
/c0 { 0.000000 0.000000 0.000000 sr} bdef
/c1 { 1.000000 1.000000 1.000000 sr} bdef
/c2 { 0.900000 0.000000 0.000000 sr} bdef
/c3 { 0.000000 0.820000 0.000000 sr} bdef
/c4 { 0.000000 0.000000 0.800000 sr} bdef
/c5 { 0.910000 0.820000 0.320000 sr} bdef
/c6 { 1.000000 0.260000 0.820000 sr} bdef
/c7 { 0.000000 0.820000 0.820000 sr} bdef
c0
1 j
1 sg
   0    0 15061 8258 rf
6 w
0 6730 11671 0 0 -6730 1958 7349 4 MP
PP
-11671 0 0 6730 11671 0 0 -6730 1958 7349 5 MP stroke
4 w
DO
SO
6 w
0 sg
1958  619 mt 13629  619 L
1958 7349 mt 13629 7349 L
13629 7349 mt 13629  619 L
1958 7349 mt 1958  619 L
1958 7349 mt 13629 7349 L
1958 7349 mt 1958  619 L
1958 7349 mt 1958 7232 L
1958  619 mt 1958  735 L
%%IncludeResource: font Helvetica
/Helvetica /WindowsLatin1Encoding 240 FMSR

1892 7606 mt 
(0) s
3125 7349 mt 3125 7232 L
3125  619 mt 3125  735 L
2959 7606 mt 
(0.1) s
4292 7349 mt 4292 7232 L
4292  619 mt 4292  735 L
4126 7606 mt 
(0.2) s
5459 7349 mt 5459 7232 L
5459  619 mt 5459  735 L
5293 7606 mt 
(0.3) s
6626 7349 mt 6626 7232 L
6626  619 mt 6626  735 L
6460 7606 mt 
(0.4) s
7793 7349 mt 7793 7232 L
7793  619 mt 7793  735 L
7627 7606 mt 
(0.5) s
8960 7349 mt 8960 7232 L
8960  619 mt 8960  735 L
8794 7606 mt 
(0.6) s
10127 7349 mt 10127 7232 L
10127  619 mt 10127  735 L
9961 7606 mt 
(0.7) s
11294 7349 mt 11294 7232 L
11294  619 mt 11294  735 L
11128 7606 mt 
(0.8) s
12461 7349 mt 12461 7232 L
12461  619 mt 12461  735 L
12295 7606 mt 
(0.9) s
13629 7349 mt 13629 7232 L
13629  619 mt 13629  735 L
13563 7606 mt 
(1) s
1958 7349 mt 2074 7349 L
13629 7349 mt 13512 7349 L
1790 7438 mt 
(0) s
1958 6676 mt 2074 6676 L
13629 6676 mt 13512 6676 L
1590 6765 mt 
(0.1) s
1958 6003 mt 2074 6003 L
13629 6003 mt 13512 6003 L
1590 6092 mt 
(0.2) s
1958 5330 mt 2074 5330 L
13629 5330 mt 13512 5330 L
1590 5419 mt 
(0.3) s
1958 4657 mt 2074 4657 L
13629 4657 mt 13512 4657 L
1590 4746 mt 
(0.4) s
1958 3984 mt 2074 3984 L
13629 3984 mt 13512 3984 L
1590 4073 mt 
(0.5) s
1958 3310 mt 2074 3310 L
13629 3310 mt 13512 3310 L
1590 3399 mt 
(0.6) s
1958 2638 mt 2074 2638 L
13629 2638 mt 13512 2638 L
1590 2727 mt 
(0.7) s
1958 1965 mt 2074 1965 L
13629 1965 mt 13512 1965 L
1590 2054 mt 
(0.8) s
1958 1292 mt 2074 1292 L
13629 1292 mt 13512 1292 L
1590 1381 mt 
(0.9) s
1958  619 mt 2074  619 L
13629  619 mt 13512  619 L
1790  708 mt 
(1) s
1958  619 mt 13629  619 L
1958 7349 mt 13629 7349 L
13629 7349 mt 13629  619 L
1958 7349 mt 1958  619 L
gs 1958 619 11672 6731 rc
27.6 w
/c8 { 0.000000 0.000000 1.000000 sr} bdef
c8
2 2 1 1 1 2 1 1 1 1 2 2 1 1 1 1 
1 2 1 1 1 1 2 2 1 1 1 1 1 2 1 1 
1 1 2 2 1 1 1 1 1 2 1 1 1 1 2 2 
1 1 1 1 1 2 1 1 1 1 2 2 1 1 1 2 
1 1 1 1 1 2 2 1 1 1 1 2 1 1 1 1 
1 2 2 1 1 1 1 2 1 1 1 1 1 2 2 1 
1 1 1 2 1 1 1 1 1 2 2 1 1 1 1 2 
1 1 1 1 1 2 2 1 1 1 1 2 1 1 1 1 
1 2 2 1 1 1 1 2 1 1 1 1 1 2 2 1 
1 1 1 2 1 1 1 1 1 2 2 1 1 1 1 2 
1 1 1 1 1 2 2 1 1 1 1 2 1 1 1 1 
1 2 2 1 1 1 1 2 1 1 1 1 1 2 2 1 
1 1 1 2 1 1 1 1 1 2 2 1 1 1 1 2 
1 1 1 1 1 2 2 1 1 1 1 2 1 1 1 1 
1 2 2 1 1 1 1 2 1 1 1 1 1 2 2 1 
1 1 1 2 1 1 1 1 1 2 2 1 1 1 1 2 
1 1 1 1 1 2 2 1 1 1 1 2 1 1 1 1 
1 2 2 1 1 1 1 2 1 1 1 1 1 2 2 1 
1 1 1 2 1 1 1 1 1 2 2 1 1 1 1 2 
1 1 1 1 1 2 2 1 1 1 1 1 1 2 1 1 
1 1 2 2 1 1 1 1 1 2 1 1 1 1 2 2 
1 1 1 1 1 2 1 1 1 1 2 2 1 1 1 1 
1 2 1 1 1 1 2 2 1 1 1 1 1 2 1 1 
1 1 2 2 1 1 1 1 1 1 1 2 1 1 2 1 
1 2 1 1 1 1 1 2 1 1 2 1 1 2 1 1 
1 1 1 2 1 1 2 1 1 2 1 1 1 1 1 2 
1 1 2 1 1 2 1 1 1 1 1 1 1 2 2 1 
1 1 1 2 1 1 1 1 1 2 2 1 1 1 1 2 
1 1 1 1 1 2 2 1 1 1 1 2 1 1 1 1 
1 1 2 2 1 1 1 1 1 2 1 1 1 1 2 2 
1 1 1 1 1 2 1 1 1 1 2 2 1 1 1 1 
1 1 1 2 1 1 2 1 1 2 1 1 1 1 1 2 
1 1 2 1 1 2 1 1 1 1 1 2 1 1 2 1 
1 1 1 2 1 1 1 1 1 2 2 1 1 1 1 2 
1 1 1 1 1 2 2 1 1 1 1 1 1 2 1 1 
1 1 2 2 1 1 1 1 1 2 1 1 1 1 2 2 
1 1 1 1 1 1 1 2 1 1 2 1 1 2 1 1 
1 1 1 2 1 1 13280 6952 300 MP stroke
2 1 1 2 1 1 1 1 1 1 1 2 2 1 1 1 
1 2 1 1 1 1 1 2 2 1 1 1 1 2 1 1 
1 1 1 1 2 2 1 1 1 1 1 2 1 1 1 1 
2 2 1 1 1 1 1 1 1 2 1 1 2 1 1 2 
1 1 1 1 1 2 1 1 2 1 1 1 1 2 1 1 
1 1 1 2 2 1 1 1 1 2 1 1 1 1 1 1 
2 2 1 1 1 1 1 2 1 1 1 1 2 2 1 1 
1 1 1 1 1 2 1 1 2 1 1 2 1 1 1 1 
1 2 1 1 2 1 1 1 1 2 1 1 1 1 1 2 
2 1 1 1 1 1 1 2 1 1 1 1 2 2 1 1 
1 1 1 2 1 1 1 1 2 1 1 2 1 1 1 1 
1 2 2 1 1 1 1 1 1 2 1 1 1 1 2 2 
1 1 1 1 1 2 1 1 1 1 2 1 1 2 1 1 
1 1 1 2 1 1 2 1 1 1 1 2 1 1 1 1 
1 2 2 1 1 1 1 1 1 2 1 1 1 1 2 2 
1 1 1 1 1 2 1 1 1 1 2 1 1 2 1 1 
1 1 1 2 1 1 2 1 1 1 1 2 1 1 1 1 
1 2 2 1 1 1 1 1 1 2 1 1 1 1 2 2 
1 1 1 1 1 1 1 2 1 1 2 1 1 2 1 1 
1 1 1 1 1 2 2 1 1 1 1 2 1 1 1 1 
1 1 2 2 1 1 1 1 1 2 1 1 1 1 2 1 
1 2 1 1 1 1 1 2 1 1 2 1 1 1 1 2 
1 1 1 1 1 2 2 1 1 1 1 1 1 2 1 1 
1 1 2 1 1 2 1 1 1 1 1 2 1 1 2 1 
1 1 1 2 1 1 1 1 1 2 2 1 1 1 1 1 
1 2 1 1 1 1 2 2 1 1 1 1 1 1 1 2 
1 1 2 1 1 1 1 2 1 1 1 1 1 2 2 1 
1 1 1 1 1 2 1 1 1 1 2 1 1 2 1 1 
1 1 1 2 1 1 2 1 1 1 1 2 1 1 1 1 
1 2 2 1 1 1 1 1 1 2 1 1 1 1 2 1 
1 2 1 1 1 1 1 2 1 1 2 1 1 1 1 2 
1 1 1 1 1 1 2 2 1 1 1 1 1 2 1 1 
1 1 2 1 1 2 1 1 1 1 1 1 1 2 2 1 
1 1 1 2 1 1 1 1 1 1 2 2 1 1 1 1 
1 1 1 2 1 1 2 1 1 1 1 2 1 1 1 1 
1 2 2 1 1 1 1 1 1 2 1 1 1 1 2 1 
1 2 1 1 1 1 1 1 1 2 2 1 1 1 1 2 
1 1 1 1 1 1 12931 6568 300 MP stroke
2 2 1 1 1 1 1 1 1 2 1 1 2 1 1 1 
1 2 1 1 1 1 1 2 2 1 1 1 1 1 1 2 
1 1 1 1 2 1 1 2 1 1 1 1 1 1 1 2 
2 1 1 1 1 1 1 2 1 1 1 1 2 2 1 1 
1 1 1 1 1 2 1 1 2 1 1 1 1 2 1 1 
1 1 1 1 2 2 1 1 1 1 1 1 1 2 1 1 
2 1 1 1 1 2 1 1 1 1 1 1 2 2 1 1 
1 1 1 2 1 1 1 1 2 1 1 2 1 1 1 1 
1 1 1 2 2 1 1 1 1 1 1 2 1 1 1 1 
2 1 1 2 1 1 1 1 1 1 1 2 2 1 1 1 
1 1 1 2 1 1 1 1 2 1 1 2 1 1 1 1 
1 1 1 2 2 1 1 1 1 1 1 2 1 1 1 1 
2 1 1 2 1 1 1 1 1 1 1 2 2 1 1 1 
1 1 1 2 1 1 1 1 2 1 1 2 1 1 1 1 
1 1 1 2 2 1 1 1 1 1 1 2 1 1 1 1 
2 1 1 2 1 1 1 1 1 1 1 2 2 1 1 1 
1 1 1 2 1 1 1 1 2 1 1 2 1 1 1 1 
1 1 1 2 2 1 1 1 1 1 1 2 1 1 1 1 
2 1 1 2 1 1 1 1 1 1 1 2 2 1 1 1 
1 1 1 2 1 1 1 1 2 1 1 2 1 1 1 1 
1 1 1 2 2 1 1 1 1 1 1 2 1 1 1 1 
2 1 1 2 1 1 1 1 1 1 2 2 1 1 1 1 
1 1 1 1 1 2 2 1 1 1 1 1 1 2 1 1 
1 1 2 1 1 2 1 1 1 1 1 1 1 2 2 1 
1 1 1 1 1 2 1 1 1 1 2 1 1 2 1 1 
1 1 1 1 1 1 2 2 1 1 1 1 1 1 1 2 
1 1 2 1 1 1 1 2 1 1 1 1 1 1 2 2 
1 1 1 1 1 1 1 1 1 2 2 1 1 1 1 1 
1 2 1 1 1 1 2 1 1 2 1 1 1 1 1 1 
1 2 2 1 1 1 1 1 1 1 1 2 1 1 2 1 
1 1 1 2 1 1 1 1 1 1 2 2 1 1 1 1 
1 1 1 2 1 1 2 1 1 1 1 1 1 2 1 1 
1 1 2 1 1 2 1 1 1 1 1 1 1 2 2 1 
1 1 1 1 1 1 1 2 1 1 2 1 1 1 1 2 
1 1 1 1 1 1 2 1 1 2 1 1 1 1 1 1 
1 2 2 1 1 1 1 1 1 2 1 1 1 1 2 1 
1 1 1 2 1 1 1 1 1 1 2 2 1 1 1 1 
1 1 1 1 1 2 12582 6195 300 MP stroke
2 1 1 1 1 1 1 2 1 1 1 1 2 1 1 2 
1 1 1 1 1 1 1 1 2 2 1 1 1 1 1 1 
1 2 1 1 2 1 1 1 1 1 1 2 1 1 1 1 
2 1 1 2 1 1 1 1 1 1 1 1 2 2 1 1 
1 1 1 1 1 2 1 1 2 1 1 1 1 1 1 2 
1 1 1 1 2 1 1 1 1 2 1 1 1 1 1 1 
2 2 1 1 1 1 1 1 1 1 1 2 2 1 1 1 
1 1 1 2 1 1 1 1 2 1 1 1 1 2 1 1 
1 1 1 1 2 2 1 1 1 1 1 1 1 1 1 2 
2 1 1 1 1 1 1 1 1 2 1 1 2 1 1 1 
1 2 1 1 1 1 1 1 2 1 1 2 1 1 1 1 
1 1 1 1 2 2 1 1 1 1 1 1 1 2 1 1 
2 1 1 1 1 1 1 2 1 1 1 1 2 1 1 1 
1 2 1 1 1 1 1 1 2 1 1 2 1 1 1 1 
1 1 1 2 2 1 1 1 1 1 1 1 1 2 1 1 
2 1 1 1 1 1 1 2 1 1 1 1 2 1 1 1 
1 2 1 1 1 1 1 1 2 1 1 2 1 1 1 1 
1 1 1 2 2 1 1 1 1 1 1 1 1 2 1 1 
2 1 1 1 1 1 1 2 1 1 1 1 2 1 1 1 
1 2 1 1 1 1 1 1 2 1 1 2 1 1 1 1 
1 1 1 1 2 2 1 1 1 1 1 1 1 1 1 2 
2 1 1 1 1 1 1 1 1 2 1 1 2 1 1 1 
1 1 1 2 1 1 1 1 2 1 1 1 1 2 1 1 
1 1 1 1 2 1 1 2 1 1 1 1 1 1 1 1 
2 2 1 1 1 1 1 1 1 1 1 2 2 1 1 1 
1 1 1 1 1 2 1 1 2 1 1 1 1 1 1 2 
1 1 1 1 2 1 1 1 1 2 1 1 1 1 1 1 
2 1 1 2 1 1 1 1 1 1 1 1 2 2 1 1 
1 1 1 1 1 1 1 2 2 1 1 1 1 1 1 1 
1 2 1 1 2 1 1 1 1 1 1 2 1 1 1 1 
2 1 1 1 1 1 1 2 1 1 1 1 2 1 1 1 
1 2 1 1 1 1 1 1 2 1 1 2 1 1 1 1 
1 1 2 1 1 2 1 1 1 1 1 1 1 1 2 1 
1 2 1 1 1 1 1 1 1 1 2 2 1 1 1 1 
1 1 1 1 1 2 2 1 1 1 1 1 1 1 1 2 
1 1 2 1 1 1 1 1 1 1 1 2 1 1 2 1 
1 1 1 1 1 2 1 1 1 1 2 1 1 1 1 1 
1 2 1 1 1 1 12233 5835 300 MP stroke
2 1 1 1 1 2 1 1 1 1 1 1 2 1 1 2 
1 1 1 1 1 1 1 1 2 1 1 2 1 1 1 1 
1 1 1 1 2 2 1 1 1 1 1 1 1 1 1 1 
2 2 1 1 1 1 1 1 1 1 1 2 2 1 1 1 
1 1 1 1 1 1 1 2 2 1 1 1 1 1 1 1 
1 2 1 1 2 1 1 1 1 1 1 1 1 2 1 1 
2 1 1 1 1 1 1 1 1 2 1 1 2 1 1 1 
1 1 1 2 1 1 1 1 2 1 1 1 1 1 1 2 
1 1 1 1 2 1 1 1 1 1 1 2 1 1 1 1 
2 1 1 1 1 2 1 1 1 1 1 1 2 1 1 1 
1 2 1 1 1 1 1 1 2 1 1 1 1 2 1 1 
1 1 1 1 2 1 1 2 1 1 1 1 1 1 1 1 
2 1 1 2 1 1 1 1 1 1 1 1 2 1 1 2 
1 1 1 1 1 1 1 1 2 1 1 2 1 1 1 1 
1 1 1 1 2 1 1 2 1 1 1 1 1 1 1 1 
2 1 1 2 1 1 1 1 1 1 1 1 2 1 1 2 
1 1 1 1 1 1 1 1 2 1 1 2 1 1 1 1 
1 1 1 1 2 1 1 2 1 1 1 1 1 1 1 1 
2 1 1 2 1 1 1 1 1 1 1 1 2 1 1 2 
1 1 1 1 1 1 1 1 2 1 1 2 1 1 1 1 
1 1 1 1 2 1 1 2 1 1 1 1 1 1 1 1 
2 1 1 2 1 1 1 1 1 1 1 1 2 1 1 2 
1 1 1 1 1 1 1 1 2 1 1 1 1 2 1 1 
1 1 1 1 2 1 1 1 1 2 1 1 1 1 1 1 
2 1 1 1 1 2 1 1 1 1 1 1 2 1 1 1 
1 2 1 1 1 1 1 1 2 1 1 1 1 1 1 2 
1 1 1 1 2 1 1 1 1 1 1 2 1 1 1 1 
2 1 1 1 1 1 1 1 1 2 1 1 2 1 1 1 
1 1 1 1 1 2 1 1 2 1 1 1 1 1 1 1 
1 2 1 1 2 1 1 1 1 1 1 1 1 1 1 2 
2 1 1 1 1 1 1 1 1 1 1 1 2 2 1 1 
1 1 1 1 1 1 1 1 2 2 1 1 1 1 1 1 
1 1 1 1 2 1 1 2 1 1 1 1 1 1 1 1 
2 1 1 2 1 1 1 1 1 1 1 1 2 1 1 1 
1 2 1 1 1 1 1 1 2 1 1 1 1 1 1 2 
1 1 1 1 2 1 1 1 1 1 1 1 1 2 1 1 
2 1 1 1 1 1 1 1 1 1 1 2 2 1 1 1 
1 1 1 1 1 1 11884 5487 300 MP stroke
1 1 2 2 1 1 1 1 1 1 1 1 1 1 2 2 
1 1 1 1 1 1 1 1 1 1 2 1 1 2 1 1 
1 1 1 1 1 1 2 1 1 1 1 2 1 1 1 1 
1 1 2 1 1 1 1 1 1 1 1 2 1 1 2 1 
1 1 1 1 1 1 1 1 1 2 2 1 1 1 1 1 
1 1 1 1 1 1 2 2 1 1 1 1 1 1 1 1 
2 1 1 1 1 2 1 1 1 1 1 1 2 1 1 1 
1 1 1 2 1 1 1 1 2 1 1 1 1 1 1 1 
1 1 1 2 2 1 1 1 1 1 1 1 1 1 1 1 
2 2 1 1 1 1 1 1 1 1 1 1 2 1 1 2 
1 1 1 1 1 1 1 1 2 1 1 1 1 1 1 2 
1 1 1 1 2 1 1 1 1 1 1 1 1 1 1 2 
2 1 1 1 1 1 1 1 1 1 1 1 2 2 1 1 
1 1 1 1 1 1 1 1 2 1 1 1 1 2 1 1 
1 1 1 1 2 1 1 1 1 1 1 1 1 2 1 1 
2 1 1 1 1 1 1 1 1 1 1 2 2 1 1 1 
1 1 1 1 1 1 1 1 2 1 1 2 1 1 1 1 
1 1 1 1 2 1 1 1 1 1 1 2 1 1 1 1 
2 1 1 1 1 1 1 1 1 1 1 2 2 1 1 1 
1 1 1 1 1 1 1 1 2 1 1 2 1 1 1 1 
1 1 1 1 2 1 1 1 1 1 1 2 1 1 1 1 
2 1 1 1 1 1 1 1 1 1 1 2 2 1 1 1 
1 1 1 1 1 1 1 1 2 1 1 1 1 2 1 1 
1 1 1 1 2 1 1 1 1 1 1 1 1 2 1 1 
2 1 1 1 1 1 1 1 1 1 1 1 2 1 1 2 
1 1 1 1 1 1 1 1 2 1 1 1 1 1 1 2 
1 1 1 1 2 1 1 1 1 1 1 1 1 1 1 1 
2 2 1 1 1 1 1 1 1 1 1 1 2 1 1 1 
1 2 1 1 1 1 1 1 2 1 1 1 1 1 1 1 
1 1 1 2 2 1 1 1 1 1 1 1 1 1 1 1 
2 1 1 1 1 2 1 1 1 1 1 1 2 1 1 1 
1 1 1 1 1 1 1 2 2 1 1 1 1 1 1 1 
1 1 1 1 2 1 1 1 1 2 1 1 1 1 1 1 
2 1 1 1 1 1 1 1 1 1 1 2 2 1 1 1 
1 1 1 1 1 1 1 1 2 1 1 1 1 2 1 1 
1 1 1 1 2 1 1 1 1 1 1 1 1 1 1 1 
2 2 1 1 1 1 1 1 1 1 1 1 2 1 1 1 
1 1 1 2 1 1 11535 5150 300 MP stroke
1 1 2 1 1 1 1 1 1 1 1 1 1 1 2 1 
1 2 1 1 1 1 1 1 1 1 2 1 1 1 1 1 
1 1 1 1 1 2 2 1 1 1 1 1 1 1 1 1 
1 1 2 1 1 1 1 1 1 2 1 1 1 1 2 1 
1 1 1 1 1 1 1 1 1 1 2 1 1 2 1 1 
1 1 1 1 1 1 2 1 1 1 1 1 1 1 1 1 
1 2 2 1 1 1 1 1 1 1 1 1 1 1 2 1 
1 1 1 1 1 2 1 1 1 1 2 1 1 1 1 1 
1 1 1 1 1 1 2 1 1 2 1 1 1 1 1 1 
1 1 2 1 1 1 1 1 1 1 1 1 1 1 2 2 
1 1 1 1 1 1 1 1 1 1 2 1 1 1 1 1 
1 1 1 1 1 2 2 1 1 1 1 1 1 1 1 1 
1 1 2 1 1 1 1 1 1 1 1 2 1 1 2 1 
1 1 1 1 1 1 1 1 1 1 2 1 1 1 1 1 
1 2 1 1 1 1 2 1 1 1 1 1 1 1 1 1 
1 1 2 1 1 1 1 2 1 1 1 1 1 1 2 1 
1 1 1 1 1 1 1 1 2 1 1 1 1 2 1 1 
1 1 1 1 2 1 1 1 1 1 1 1 1 1 1 1 
2 1 1 1 1 2 1 1 1 1 1 1 2 1 1 1 
1 1 1 1 1 1 1 1 2 1 1 1 1 2 1 1 
1 1 1 1 2 1 1 1 1 1 1 1 1 1 1 1 
2 1 1 1 1 2 1 1 1 1 1 1 2 1 1 1 
1 1 1 1 1 1 1 1 2 1 1 1 1 1 1 2 
1 1 1 1 2 1 1 1 1 1 1 1 1 1 1 1 
2 1 1 1 1 1 1 2 1 1 1 1 2 1 1 1 
1 1 1 1 1 1 1 1 2 1 1 1 1 1 1 1 
1 2 1 1 2 1 1 1 1 1 1 1 1 1 1 1 
2 1 1 1 1 1 1 1 1 1 1 2 2 1 1 1 
1 1 1 1 1 1 1 1 2 1 1 1 1 1 1 1 
1 1 1 1 2 1 1 2 1 1 1 1 1 1 1 1 
2 1 1 1 1 1 1 1 1 1 1 1 2 1 1 1 
1 1 1 2 1 1 1 1 2 1 1 1 1 1 1 1 
1 1 1 1 2 1 1 1 1 1 1 1 1 1 1 2 
2 1 1 1 1 1 1 1 1 1 1 1 2 1 1 1 
1 1 1 1 1 1 1 1 2 1 1 1 1 2 1 1 
1 1 1 1 2 1 1 1 1 1 1 1 1 1 1 1 
2 1 1 1 1 1 1 1 1 1 1 2 2 1 1 1 
1 1 1 1 1 1 11186 4826 300 MP stroke
1 1 2 1 1 1 1 1 1 1 1 1 1 1 2 1 
1 1 1 1 1 2 1 1 1 1 2 1 1 1 1 1 
1 1 1 1 1 1 2 1 1 1 1 1 1 1 1 1 
1 1 2 1 1 2 1 1 1 1 1 1 1 1 2 1 
1 1 1 1 1 1 1 1 1 1 2 1 1 1 1 1 
1 1 1 1 1 2 2 1 1 1 1 1 1 1 1 1 
1 1 2 1 1 1 1 1 1 1 1 1 1 1 2 1 
1 1 1 1 1 1 1 1 1 2 2 1 1 1 1 1 
1 1 1 1 1 1 2 1 1 1 1 1 1 1 1 1 
1 1 2 1 1 1 1 1 1 1 1 1 1 2 2 1 
1 1 1 1 1 1 1 1 1 1 2 1 1 1 1 1 
1 1 1 1 1 1 2 1 1 1 1 1 1 1 1 1 
1 1 2 2 1 1 1 1 1 1 1 1 1 1 2 1 
1 1 1 1 1 1 1 1 1 1 2 1 1 1 1 1 
1 1 1 1 1 1 2 1 1 1 1 2 1 1 1 1 
1 1 2 1 1 1 1 1 1 1 1 1 1 1 2 1 
1 1 1 1 1 1 1 1 1 1 2 1 1 1 1 1 
1 1 1 1 1 1 2 2 1 1 1 1 1 1 1 1 
1 1 2 1 1 1 1 1 1 1 1 1 1 1 2 1 
1 1 1 1 1 1 1 1 1 1 2 1 1 1 1 1 
1 1 1 2 1 1 2 1 1 1 1 1 1 1 1 1 
1 1 2 1 1 1 1 1 1 1 1 1 1 1 2 1 
1 1 1 1 1 1 1 1 1 1 2 1 1 1 1 1 
1 1 1 1 1 2 2 1 1 1 1 1 1 1 1 1 
1 1 2 1 1 1 1 1 1 1 1 1 1 1 2 1 
1 1 1 1 1 1 1 1 1 1 2 1 1 1 1 1 
1 1 1 1 1 1 2 1 1 1 1 2 1 1 1 1 
2 1 1 1 1 1 1 1 1 1 1 1 2 1 1 1 
1 1 1 1 1 1 1 1 2 1 1 1 1 1 1 1 
1 1 1 1 2 1 1 1 1 1 1 1 1 1 1 1 
2 1 1 1 1 2 1 1 1 1 1 1 2 1 1 1 
1 1 1 1 1 1 1 1 2 1 1 1 1 1 1 1 
1 1 1 1 2 1 1 1 1 1 1 1 1 1 1 1 
2 1 1 1 1 1 1 1 1 1 1 1 2 1 1 1 
1 1 1 1 1 1 1 1 2 2 1 1 1 1 1 1 
1 1 1 1 2 1 1 1 1 1 1 1 1 1 1 1 
2 1 1 1 1 1 1 1 1 1 1 1 2 1 1 1 
1 1 1 1 1 1 10837 4514 300 MP stroke
1 1 2 1 1 1 1 1 1 1 1 1 1 1 2 1 
1 1 1 1 1 1 1 1 1 1 2 1 1 1 1 1 
1 1 1 1 1 1 2 2 1 1 1 1 1 1 1 1 
1 1 2 1 1 1 1 1 1 1 1 1 1 1 2 1 
1 1 1 1 1 1 1 1 1 1 2 1 1 1 1 1 
1 1 1 1 1 1 2 1 1 1 1 1 1 1 1 1 
1 1 2 1 1 1 1 1 1 1 1 1 1 1 2 1 
1 1 1 1 1 1 1 1 1 1 2 1 1 1 1 1 
1 1 1 1 1 1 2 1 1 1 1 1 1 1 1 1 
1 1 2 1 1 1 1 2 1 1 1 1 1 1 2 1 
1 1 1 1 1 1 1 1 1 1 2 1 1 1 1 1 
1 1 1 1 1 1 2 1 1 1 1 1 1 1 1 1 
1 1 2 1 1 1 1 1 1 1 1 1 1 1 2 1 
1 1 1 1 1 1 1 1 1 1 2 1 1 1 1 1 
1 1 1 1 1 1 2 1 1 1 1 1 1 1 1 1 
1 1 2 1 1 1 1 1 1 1 1 1 1 1 2 1 
1 1 1 1 1 1 1 1 1 1 2 1 1 1 1 1 
1 1 1 1 1 1 2 1 1 1 1 1 1 1 1 1 
1 1 2 1 1 1 1 1 1 1 1 1 1 1 2 1 
1 1 1 1 1 1 1 1 1 1 2 1 1 1 1 1 
1 1 1 1 1 1 2 1 1 1 1 1 1 1 1 1 
1 1 2 1 1 1 1 1 1 1 1 1 1 1 2 1 
1 1 1 1 1 1 1 1 1 1 2 1 1 1 1 1 
1 1 1 1 1 1 2 1 1 1 1 1 1 1 1 1 
1 1 2 1 1 1 1 1 1 1 1 1 1 1 2 1 
1 1 1 1 1 1 1 1 1 1 2 1 1 1 1 1 
1 1 1 1 1 1 2 1 1 1 1 1 1 1 1 1 
1 1 2 1 1 1 1 1 1 1 1 1 1 1 2 1 
1 1 1 1 1 1 1 1 1 1 2 1 1 1 1 1 
1 1 1 1 1 1 2 1 1 1 1 1 1 1 1 1 
1 1 2 1 1 1 1 1 1 1 1 1 1 1 2 1 
1 1 1 1 1 1 1 1 1 1 2 1 1 1 1 1 
1 1 1 1 1 1 2 1 1 1 1 1 1 1 1 1 
1 1 2 1 1 1 1 1 1 1 1 1 1 1 2 1 
1 1 1 1 1 1 1 1 1 1 2 1 1 1 1 1 
1 1 1 0 1 1 2 1 1 1 1 1 1 1 1 1 
1 1 2 1 1 1 1 1 1 1 1 1 1 1 2 1 
1 1 1 1 1 1 10488 4214 300 MP stroke
1 1 2 1 1 1 1 1 1 1 1 1 1 1 2 1 
1 1 1 1 1 1 1 1 1 1 2 1 1 1 1 1 
1 1 1 1 1 1 2 1 1 1 1 1 1 1 1 1 
1 1 2 1 1 1 1 1 1 1 1 1 1 1 2 1 
1 1 1 1 1 1 1 1 1 1 2 1 1 0 1 1 
1 1 1 1 1 1 2 1 1 1 1 1 1 1 1 1 
1 1 2 1 1 1 1 1 1 1 1 1 1 1 2 1 
1 1 1 1 1 1 1 1 1 1 2 1 1 1 1 1 
1 1 1 1 1 1 2 1 1 1 1 1 1 1 1 1 
1 1 2 1 1 1 1 1 1 1 1 1 1 1 2 1 
1 0 1 1 1 1 1 1 1 1 2 1 1 1 1 1 
1 1 1 1 1 1 2 1 1 1 1 1 1 1 1 1 
1 1 2 1 1 1 1 1 1 1 1 1 1 1 2 1 
1 1 1 1 1 1 1 1 1 1 2 1 1 1 1 1 
1 1 1 1 1 0 2 1 1 1 1 1 1 1 1 1 
1 1 2 1 1 1 1 1 1 1 1 1 1 1 2 1 
1 1 1 1 1 1 1 1 1 1 2 1 1 1 1 1 
1 1 1 1 1 1 2 1 1 1 1 1 1 1 1 1 
1 0 2 1 1 1 1 1 1 1 1 1 1 1 2 1 
1 1 1 1 1 1 1 1 1 1 2 1 1 1 1 1 
1 1 1 1 1 1 2 1 1 1 1 1 1 1 1 1 
1 1 2 1 1 0 1 1 1 1 1 1 1 1 2 1 
1 1 1 1 1 1 1 1 1 1 2 1 1 1 1 1 
1 1 1 1 1 1 2 1 1 1 1 1 1 1 1 1 
1 1 2 1 1 1 1 0 1 1 1 1 1 1 2 1 
1 1 1 1 1 1 1 1 1 1 2 1 1 1 1 1 
1 1 1 1 1 1 2 1 1 1 1 1 1 1 1 1 
1 1 2 1 1 0 1 1 1 1 1 1 1 1 2 1 
1 1 1 1 1 1 1 1 1 1 2 1 1 1 1 1 
1 1 1 1 1 1 2 1 1 1 1 1 1 1 1 0 
1 1 2 1 1 1 1 1 1 1 1 1 1 1 2 1 
1 1 1 1 1 1 1 1 1 1 2 1 1 1 1 1 
1 1 1 1 1 1 2 0 1 1 1 1 1 1 1 1 
1 1 2 1 1 1 1 1 1 1 1 1 1 1 2 1 
1 1 1 1 1 1 1 1 1 1 2 1 1 0 1 1 
1 1 1 1 1 1 2 1 1 1 1 1 1 1 1 1 
1 1 2 1 1 1 1 1 1 1 1 1 1 1 2 1 
1 0 1 1 1 1 10139 3926 300 MP stroke
1 1 1 1 2 1 1 1 1 1 1 1 1 1 1 1 
2 1 1 1 1 1 1 1 1 1 1 1 2 1 1 0 
1 1 1 1 1 1 1 1 2 1 1 1 1 1 1 1 
1 1 1 1 2 1 1 1 1 1 1 1 1 1 1 0 
2 1 1 1 1 1 1 1 1 1 1 1 2 1 1 1 
1 1 1 1 1 1 1 1 2 1 1 1 1 1 1 1 
1 0 1 1 2 1 1 1 1 1 1 1 1 1 1 1 
2 1 1 1 1 1 1 1 1 1 1 1 2 1 1 0 
1 1 1 1 1 1 1 1 2 1 1 1 1 1 1 1 
1 1 1 1 2 1 1 1 1 1 1 1 1 0 1 1 
2 1 1 1 1 1 1 1 1 1 1 1 2 1 1 1 
1 1 1 1 1 1 2 1 1 1 1 0 1 1 1 1 
1 1 2 1 1 1 1 1 1 1 1 1 1 1 2 1 
1 1 1 1 1 1 1 0 1 1 2 1 1 1 1 1 
1 1 1 1 1 1 2 1 1 1 1 1 1 1 1 1 
1 1 2 0 1 1 1 1 1 1 1 1 1 1 2 1 
1 1 1 1 1 1 1 1 1 1 2 1 1 1 1 0 
1 1 1 1 1 1 2 1 1 1 1 1 1 1 1 1 
1 1 2 1 1 1 1 1 1 0 1 1 1 1 2 1 
1 1 1 1 1 1 1 1 1 1 2 1 1 1 1 1 
1 1 1 0 1 1 2 1 1 1 1 1 1 1 1 1 
1 1 2 1 1 1 1 1 1 1 1 1 1 0 2 1 
1 1 1 1 1 1 1 1 1 1 2 1 1 1 1 1 
1 1 1 1 1 0 2 1 1 1 1 1 1 1 1 1 
1 1 2 1 1 1 1 1 1 1 1 1 1 0 2 1 
1 1 1 1 1 1 1 1 1 1 2 1 1 1 1 1 
1 1 1 1 1 0 2 1 1 1 1 1 1 1 1 1 
1 1 2 1 1 1 1 1 1 1 1 1 1 0 2 1 
1 1 1 1 1 1 1 1 1 1 2 1 1 1 1 1 
1 1 1 0 1 1 2 1 1 1 1 1 1 1 1 1 
1 1 2 1 1 1 1 1 1 1 1 0 1 1 2 1 
1 1 1 1 1 1 1 1 1 1 2 1 1 1 1 1 
1 0 1 1 1 1 2 1 1 1 1 1 1 1 1 1 
1 1 2 1 1 1 1 0 1 1 1 1 1 1 2 1 
1 1 1 1 1 1 1 1 1 1 2 0 1 1 1 1 
1 1 1 1 1 1 2 1 1 1 1 1 1 1 1 1 
1 0 2 1 1 1 1 1 1 1 1 1 1 1 2 1 
1 1 1 1 1 0 9790 3650 300 MP stroke
1 1 1 1 2 1 1 1 1 1 1 1 1 1 1 1 
2 1 1 1 1 0 1 1 1 1 1 1 2 1 1 1 
1 1 1 1 1 1 1 1 2 0 1 1 1 1 1 1 
1 1 1 1 2 1 1 1 1 1 1 1 1 0 1 1 
2 1 1 1 1 1 1 1 1 1 1 1 2 1 1 0 
1 1 1 1 1 1 1 1 2 1 1 1 1 1 1 1 
1 1 1 0 2 1 1 1 1 1 1 1 1 1 1 1 
2 1 1 1 1 1 1 0 1 1 1 1 2 1 1 1 
1 1 1 1 1 1 1 1 2 0 1 1 1 1 1 1 
1 1 1 1 2 1 1 1 1 1 1 1 1 0 1 1 
2 1 1 1 1 1 1 1 1 1 1 1 2 1 1 0 
1 1 1 1 1 1 1 1 2 1 1 1 1 1 1 1 
1 0 1 1 2 1 1 1 1 1 1 1 1 1 1 1 
2 1 1 0 1 1 1 1 1 1 1 1 2 1 1 1 
1 1 1 1 1 0 1 1 2 1 1 1 1 1 1 1 
1 1 1 1 2 1 1 0 1 1 1 1 1 1 1 1 
2 1 1 1 1 1 1 1 1 0 1 1 2 1 1 1 
1 1 1 1 1 1 1 1 2 1 1 0 1 1 1 1 
1 1 1 1 2 1 1 1 1 1 1 0 1 1 1 1 
2 1 1 1 1 1 1 1 1 1 1 1 2 0 1 1 
1 1 1 1 1 1 1 1 2 1 1 1 1 0 1 1 
1 1 1 1 2 1 1 1 1 1 1 1 1 0 2 1 
1 1 1 1 1 1 1 1 1 1 2 1 1 1 1 0 
1 1 1 1 1 1 2 1 1 1 1 1 1 1 1 0 
1 1 2 1 1 1 1 1 1 1 1 1 1 1 2 0 
1 1 1 1 1 1 1 1 1 1 2 1 1 1 1 0 
1 1 1 1 1 1 2 1 1 1 1 1 1 1 1 0 
1 1 2 1 1 1 1 1 1 1 1 1 1 1 2 0 
1 1 1 1 1 1 1 1 1 1 2 1 1 1 1 0 
1 1 1 1 1 1 2 1 1 1 1 1 1 1 1 0 
1 1 2 1 1 1 1 1 1 1 1 1 1 0 2 1 
1 1 1 1 1 1 1 1 1 1 2 1 1 0 1 1 
1 1 1 1 1 1 2 1 1 1 1 1 1 0 1 1 
1 1 2 1 1 1 1 1 1 1 1 0 1 1 2 1 
1 1 1 1 1 1 1 1 1 1 2 0 1 1 1 1 
1 1 1 1 1 1 2 1 1 0 1 1 1 1 1 1 
1 1 2 1 1 1 1 1 1 0 1 1 1 1 2 1 
1 1 1 1 1 1 9441 3385 300 MP stroke
1 0 1 1 2 1 1 1 1 1 1 1 1 1 1 0 
2 1 1 1 1 1 1 1 1 1 1 1 2 0 1 1 
1 1 1 1 1 1 1 1 2 1 1 0 1 1 1 1 
1 1 1 1 2 1 1 1 1 1 1 0 1 1 1 1 
2 1 1 1 1 1 1 1 1 0 1 1 2 1 1 1 
1 1 1 1 1 1 1 0 2 1 1 1 1 1 1 1 
1 1 1 1 2 0 1 1 1 1 1 1 1 1 1 1 
2 1 1 0 1 1 1 1 1 1 1 1 2 1 1 1 
1 0 1 1 1 1 1 1 2 1 1 1 1 0 1 1 
1 1 1 1 2 1 1 1 1 1 1 0 1 1 1 1 
2 1 1 1 1 1 1 1 1 0 1 1 2 1 1 1 
1 1 1 1 1 1 1 0 2 1 1 1 1 1 1 1 
1 1 1 0 2 1 1 1 1 1 1 1 1 1 1 1 
2 0 1 1 1 1 1 1 1 1 1 1 2 1 1 0 
1 1 1 1 1 1 1 1 2 1 1 0 1 1 1 1 
1 1 1 1 2 1 1 1 1 0 1 1 1 1 1 1 
2 1 1 1 1 0 1 1 1 1 1 1 2 1 1 1 
1 1 1 0 1 1 1 1 2 1 1 1 1 1 1 0 
1 1 1 1 2 1 1 1 1 1 1 0 1 1 1 1 
2 1 1 1 1 1 1 1 1 0 1 1 2 1 1 1 
1 1 1 1 1 0 1 1 2 1 1 1 1 1 1 1 
1 0 1 1 2 1 1 1 1 1 1 1 1 1 1 0 
2 1 1 1 1 1 1 1 1 1 1 0 2 1 1 1 
1 1 1 1 1 1 1 0 2 1 1 1 1 1 1 1 
1 1 1 0 2 1 1 1 1 1 1 1 1 1 1 0 
2 1 1 1 1 1 1 1 1 1 1 0 2 1 1 1 
1 1 1 1 1 1 1 0 2 1 1 1 1 1 1 1 
1 1 1 0 2 1 1 1 1 1 1 1 1 1 1 0 
2 1 1 1 1 1 1 1 1 1 1 0 2 1 1 1 
1 1 1 1 1 1 1 0 2 1 1 1 1 1 1 1 
1 1 1 0 2 1 1 1 1 1 1 1 1 1 1 0 
2 1 1 1 1 1 1 1 1 1 1 0 2 1 1 1 
1 1 1 1 1 1 2 0 1 1 1 1 1 1 1 1 
1 1 2 0 1 1 1 1 1 1 1 1 1 0 2 1 
1 1 1 1 1 1 1 1 1 0 2 1 1 1 1 1 
1 1 1 1 1 0 2 1 1 1 1 1 1 1 1 1 
1 0 2 1 1 1 1 1 1 1 1 0 1 1 2 1 
1 1 1 1 1 1 9092 3133 300 MP stroke
1 0 1 1 2 1 1 1 1 1 1 1 1 0 1 1 
2 1 1 1 1 1 1 0 1 1 1 1 2 1 1 1 
1 1 1 0 1 1 1 1 2 1 1 1 1 0 1 1 
1 1 1 1 2 1 1 1 1 0 1 1 1 1 1 1 
2 1 1 0 1 1 1 1 1 1 1 1 2 1 1 0 
1 1 1 1 1 1 1 1 2 0 1 1 1 1 1 1 
1 1 1 1 2 0 1 1 1 1 1 1 1 1 1 0 
2 1 1 1 1 1 1 1 1 1 1 0 2 1 1 1 
1 1 1 1 1 0 1 1 2 1 1 1 1 1 1 0 
1 1 1 1 2 1 1 1 1 1 1 0 1 1 1 1 
2 1 1 1 1 0 1 1 1 1 1 1 2 1 1 0 
1 1 1 1 1 1 1 1 2 1 1 0 1 1 1 1 
1 1 1 1 2 0 1 1 1 1 1 1 1 1 1 0 
2 1 1 1 1 1 1 1 1 0 1 1 2 1 1 1 
1 1 1 1 1 0 1 1 2 1 1 1 1 1 1 0 
1 1 1 1 2 1 1 1 1 0 1 1 1 1 1 1 
2 1 1 0 1 1 1 1 1 1 1 1 2 0 1 1 
1 1 1 1 1 1 1 0 2 1 1 1 1 1 1 1 
1 0 1 1 2 1 1 1 1 1 1 0 1 1 1 1 
2 1 1 1 1 1 1 0 1 1 1 1 2 1 1 1 
1 0 1 1 1 1 1 1 2 1 1 0 1 1 1 1 
1 1 1 1 2 0 1 1 1 1 1 1 1 1 1 0 
2 1 1 1 1 1 1 1 1 0 1 1 2 1 1 1 
1 0 1 1 1 1 1 1 2 1 1 0 1 1 1 1 
1 1 1 1 2 0 1 1 1 1 1 1 1 1 1 0 
2 1 1 1 1 1 1 1 1 0 1 1 2 1 1 1 
1 1 1 0 1 1 1 1 2 1 1 1 1 0 1 1 
1 1 1 1 2 1 1 0 1 1 1 1 1 1 1 1 
2 0 1 1 1 1 1 1 1 0 1 1 2 1 1 1 
1 1 1 0 1 1 1 1 2 1 1 1 1 0 1 1 
1 1 1 1 2 1 1 0 1 1 1 1 1 1 1 0 
2 1 1 1 1 1 1 1 1 0 1 1 2 1 1 1 
1 1 1 0 1 1 1 1 2 1 1 1 1 0 1 1 
1 1 1 1 2 0 1 1 1 1 1 1 1 1 1 0 
2 1 1 1 1 1 1 1 1 0 1 1 2 1 1 1 
1 0 1 1 1 1 1 1 2 1 1 0 1 1 1 1 
1 1 1 1 2 0 1 1 1 1 1 1 1 0 1 1 
2 1 1 1 1 1 8743 2893 300 MP stroke
1 0 1 1 1 1 2 1 1 0 1 1 1 1 1 1 
1 1 2 0 1 1 1 1 1 1 1 1 1 0 2 1 
1 1 1 1 1 0 1 1 1 1 2 1 1 1 1 0 
1 1 1 1 1 1 2 0 1 1 1 1 1 1 1 1 
1 0 2 1 1 1 1 1 1 0 1 1 1 1 2 1 
1 1 1 0 1 1 1 1 2 1 1 0 1 1 1 1 
1 1 1 1 2 0 1 1 1 1 1 1 1 0 1 1 
2 1 1 1 1 1 1 0 1 1 1 1 2 1 1 0 
1 1 1 1 1 1 1 0 2 1 1 1 1 1 1 1 
1 0 1 1 2 1 1 1 1 0 1 1 1 1 1 1 
2 1 1 0 1 1 1 1 1 1 1 0 2 1 1 1 
1 1 1 0 1 1 1 1 2 1 1 1 1 0 1 1 
1 1 1 1 2 0 1 1 1 1 1 1 1 0 1 1 
2 1 1 1 1 1 1 0 1 1 1 1 2 1 1 0 
1 1 1 1 1 1 1 0 2 1 1 1 1 1 1 1 
1 0 1 1 2 1 1 1 1 0 1 1 1 1 1 1 
2 0 1 1 1 1 1 1 1 0 1 1 2 1 1 1 
1 1 1 0 1 1 1 1 2 1 1 0 1 1 1 1 
1 1 1 0 2 1 1 1 1 1 1 0 1 1 1 1 
2 1 1 1 1 0 1 1 1 1 1 1 2 0 1 1 
1 1 1 1 1 0 1 1 2 1 1 1 1 0 1 1 
1 1 1 1 2 0 1 1 1 1 1 1 1 0 1 1 
2 1 1 1 1 1 1 0 1 1 1 1 2 1 1 0 
1 1 1 1 1 1 1 0 2 1 1 1 1 1 1 0 
1 1 1 1 2 1 1 0 1 1 1 1 1 1 1 0 
2 1 1 1 1 1 1 0 1 1 1 1 2 1 1 0 
1 1 1 1 1 1 1 0 2 1 1 1 1 1 1 0 
1 1 1 1 2 1 1 0 1 1 1 1 1 1 1 1 
2 0 1 1 1 1 1 1 1 0 1 1 2 1 1 1 
1 0 1 1 1 1 1 1 2 0 1 1 1 1 1 1 
1 0 1 1 2 1 1 1 1 0 1 1 1 1 1 1 
2 0 1 1 1 1 1 1 1 0 1 1 2 1 1 1 
1 0 1 1 1 1 1 1 2 0 1 1 1 1 1 0 
1 1 1 1 2 1 1 0 1 1 1 1 1 1 1 0 
2 1 1 1 1 1 1 0 1 1 1 1 2 1 1 0 
1 1 1 1 1 1 1 0 2 1 1 1 1 1 1 0 
1 1 1 1 2 1 1 0 1 1 1 1 1 1 1 0 
2 1 1 1 1 1 8394 2665 300 MP stroke
1 0 1 1 1 1 2 1 1 0 1 1 1 1 1 0 
1 1 2 1 1 1 1 0 1 1 1 1 1 1 2 0 
1 1 1 1 1 1 1 0 1 1 2 1 1 1 1 0 
1 1 1 1 1 1 2 0 1 1 1 1 1 1 1 0 
1 1 2 1 1 0 1 1 1 1 1 1 1 0 2 1 
1 1 1 1 1 0 1 1 1 1 2 1 1 0 1 1 
1 1 1 1 1 0 2 1 1 1 1 0 1 1 1 1 
1 1 2 0 1 1 1 1 1 1 1 0 1 1 2 1 
1 1 1 0 1 1 1 1 1 0 2 1 1 1 1 1 
1 0 1 1 1 1 2 1 1 0 1 1 1 1 1 1 
1 0 2 1 1 1 1 0 1 1 1 1 1 1 2 0 
1 1 1 1 1 1 1 0 1 1 2 1 1 0 1 1 
1 1 1 1 1 0 2 1 1 1 1 1 1 0 1 1 
1 1 2 0 1 1 1 1 1 1 1 0 1 1 2 1 
1 1 1 0 1 1 1 1 1 0 2 1 1 1 1 1 
1 0 1 1 1 1 2 1 1 0 1 1 1 1 1 0 
1 1 2 1 1 1 1 0 1 1 1 1 2 1 1 0 
1 1 1 1 1 0 1 1 2 1 1 1 1 0 1 1 
1 1 1 0 2 1 1 1 1 1 1 0 1 1 1 1 
2 1 1 0 1 1 1 1 1 0 1 1 2 1 1 1 
1 0 1 1 1 1 1 0 2 1 1 1 1 1 1 0 
1 1 1 1 2 1 1 0 1 1 1 1 1 0 1 1 
2 1 1 1 1 0 1 1 1 1 1 0 2 1 1 1 
1 1 1 0 1 1 1 1 2 0 1 1 1 1 1 1 
1 0 1 1 2 1 1 0 1 1 1 1 1 1 1 0 
2 1 1 1 1 0 1 1 1 1 1 1 2 0 1 1 
1 1 1 0 1 1 1 1 2 1 1 0 1 1 1 1 
1 0 1 1 2 1 1 1 1 0 1 1 1 1 1 0 
2 1 1 1 1 1 1 0 1 1 1 1 2 0 1 1 
1 1 1 1 1 0 1 1 2 1 1 0 1 1 1 1 
1 1 1 0 2 1 1 1 1 0 1 1 1 1 1 1 
2 0 1 1 1 1 1 0 1 1 1 1 2 0 1 1 
1 1 1 1 1 0 1 1 2 1 1 0 1 1 1 1 
1 1 1 0 2 1 1 1 1 0 1 1 1 1 1 0 
2 1 1 1 1 1 1 0 1 1 1 1 2 0 1 1 
1 1 1 1 1 0 1 1 2 1 1 0 1 1 1 1 
1 0 1 1 2 1 1 1 1 0 1 1 1 1 1 0 
2 1 1 1 1 0 8045 2450 300 MP stroke
1 1 1 1 1 1 2 0 1 1 1 1 1 0 1 1 
1 1 2 1 1 0 1 1 1 1 1 0 1 1 2 1 
1 0 1 1 1 1 1 1 1 0 2 1 1 1 1 0 
1 1 1 1 1 0 2 1 1 1 1 0 1 1 1 1 
1 1 2 0 1 1 1 1 1 0 1 1 1 1 2 0 
1 1 1 1 1 1 1 0 1 1 2 1 1 0 1 1 
1 1 1 0 1 1 2 1 1 1 1 0 1 1 1 1 
1 0 2 1 1 1 1 0 1 1 1 1 1 0 2 1 
1 1 1 1 1 0 1 1 1 1 2 0 1 1 1 1 
1 0 1 1 1 1 2 0 1 1 1 1 1 1 1 0 
1 1 2 1 1 0 1 1 1 1 1 0 1 1 2 1 
1 0 1 1 1 1 1 1 1 0 2 1 1 1 1 0 
1 1 1 1 1 0 2 1 1 1 1 0 1 1 1 1 
1 0 2 1 1 1 1 1 1 0 1 1 1 1 2 0 
1 1 1 1 1 0 1 1 1 1 2 0 1 1 1 1 
1 0 1 1 1 1 2 1 1 0 1 1 1 1 1 0 
1 1 2 1 1 0 1 1 1 1 1 0 1 1 2 1 
1 0 1 1 1 1 1 0 1 1 2 1 1 1 1 0 
1 1 1 1 1 0 2 1 1 1 1 0 1 1 1 1 
1 0 2 1 1 1 1 0 1 1 1 1 1 0 2 1 
1 1 1 0 1 1 1 1 1 1 2 0 1 1 1 1 
1 0 1 1 1 1 2 0 1 1 1 1 1 0 1 1 
1 1 2 0 1 1 1 1 1 0 1 1 1 1 2 0 
1 1 1 1 1 0 1 1 1 1 2 0 1 1 1 1 
1 0 1 1 1 1 2 1 1 0 1 1 1 1 1 0 
1 1 2 1 1 0 1 1 1 1 1 0 1 1 2 1 
1 0 1 1 1 1 1 0 1 1 2 1 1 0 1 1 
1 1 1 0 2 1 1 1 1 0 1 1 1 1 1 0 
2 1 1 1 1 0 1 1 1 1 1 0 2 1 1 1 
1 0 1 1 1 1 1 0 2 1 1 1 1 0 1 1 
1 1 1 0 2 1 1 1 1 0 1 1 1 1 1 0 
2 1 1 1 1 0 1 1 1 1 1 0 2 1 1 1 
1 0 1 1 1 1 1 0 2 1 1 1 1 0 1 1 
1 1 1 0 2 1 1 1 1 0 1 1 1 1 1 0 
2 1 1 1 1 0 1 1 1 1 1 0 2 1 1 1 
1 0 1 1 1 1 1 0 2 1 1 1 1 0 1 1 
1 1 1 0 2 1 1 1 1 0 1 1 1 1 1 0 
2 1 1 1 1 0 7696 2246 300 MP stroke
1 1 1 1 1 0 2 1 1 1 1 0 1 1 1 1 
1 0 2 1 1 1 1 0 1 1 1 1 1 0 2 1 
1 1 1 0 1 1 1 1 1 0 2 1 1 1 1 0 
1 1 1 1 1 0 2 1 1 1 1 0 1 1 1 1 
1 0 2 1 1 0 1 1 1 1 1 0 1 1 2 1 
1 0 1 1 1 1 1 0 1 1 2 1 1 0 1 1 
1 1 1 0 1 1 2 1 1 0 1 1 1 1 1 0 
1 1 2 1 1 0 1 1 1 1 1 0 1 1 2 0 
1 1 1 1 1 0 1 1 1 1 2 0 1 1 1 1 
1 0 1 1 1 1 2 0 1 1 1 1 1 0 1 1 
1 1 2 0 1 1 1 1 1 0 1 1 1 0 2 1 
1 1 1 0 1 1 1 1 1 0 2 1 1 1 1 0 
1 1 1 1 1 0 2 1 1 1 1 0 1 1 1 0 
1 1 2 1 1 0 1 1 1 1 1 0 1 1 2 1 
1 0 1 1 1 1 1 0 1 1 2 1 1 0 1 1 
1 0 1 1 1 1 2 0 1 1 1 1 1 0 1 1 
1 1 2 0 1 1 1 1 1 0 1 1 1 1 2 0 
1 1 1 0 1 1 1 1 1 0 2 1 1 1 1 0 
1 1 1 1 1 0 2 1 1 1 1 0 1 1 1 0 
1 1 2 1 1 0 1 1 1 1 1 0 1 1 2 1 
1 0 1 1 1 0 1 1 1 1 2 0 1 1 1 1 
1 0 1 1 1 1 2 0 1 1 1 1 1 0 1 1 
1 0 2 1 1 1 1 0 1 1 1 1 1 0 2 1 
1 1 1 0 1 1 1 0 1 1 2 1 1 0 1 1 
1 1 1 0 1 1 2 1 1 0 1 1 1 0 1 1 
1 1 2 0 1 1 1 1 1 0 1 1 1 1 2 0 
1 1 1 0 1 1 1 1 1 0 2 1 1 1 1 0 
1 1 1 0 1 1 2 1 1 0 1 1 1 1 1 0 
1 1 2 1 1 0 1 1 1 0 1 1 1 1 2 0 
1 1 1 1 1 0 1 1 1 0 2 1 1 1 1 0 
1 1 1 1 1 0 2 1 1 1 1 0 1 1 1 0 
1 1 2 1 1 0 1 1 1 1 1 0 1 1 2 0 
1 1 1 1 1 0 1 1 1 1 2 0 1 1 1 0 
1 1 1 1 1 0 2 1 1 1 1 0 1 1 1 0 
1 1 2 1 1 0 1 1 1 1 1 0 1 1 2 0 
1 1 1 1 1 0 1 1 1 1 2 0 1 1 1 0 
1 1 1 1 1 0 2 1 1 1 1 0 1 1 1 0 
1 1 2 1 1 0 7347 2054 300 MP stroke
1 1 1 1 1 0 2 1 1 0 1 1 1 1 1 0 
1 1 2 0 1 1 1 1 1 0 1 1 1 1 2 0 
1 1 1 0 1 1 1 1 1 0 2 1 1 1 1 0 
1 1 1 0 1 1 2 1 1 0 1 1 1 0 1 1 
1 1 2 0 1 1 1 1 1 0 1 1 1 0 2 1 
1 1 1 0 1 1 1 0 1 1 2 1 1 0 1 1 
1 1 1 0 1 1 2 0 1 1 1 1 1 0 1 1 
1 0 2 1 1 1 1 0 1 1 1 1 1 0 2 1 
1 0 1 1 1 1 1 0 1 1 2 0 1 1 1 1 
1 0 1 1 1 1 2 0 1 1 1 0 1 1 1 1 
1 0 2 1 1 0 1 1 1 1 1 0 1 1 2 0 
1 1 1 1 1 0 1 1 1 0 2 1 1 1 1 0 
1 1 1 1 1 0 2 1 1 0 1 1 1 1 1 0 
1 1 2 0 1 1 1 1 1 0 1 1 1 0 2 1 
1 1 1 0 1 1 1 0 1 1 2 1 1 0 1 1 
1 0 1 1 1 1 2 0 1 1 1 1 1 0 1 1 
1 0 2 1 1 1 1 0 1 1 1 0 1 1 2 1 
1 0 1 1 1 0 1 1 1 1 2 0 1 1 1 0 
1 1 1 1 1 0 2 1 1 0 1 1 1 1 1 0 
1 1 2 0 1 1 1 1 1 0 1 1 1 0 2 1 
1 1 1 0 1 1 1 0 1 1 2 1 1 0 1 1 
1 0 1 1 1 1 2 0 1 1 1 0 1 1 1 1 
1 0 2 1 1 0 1 1 1 1 1 0 1 1 2 0 
1 1 1 1 1 0 1 1 1 0 2 1 1 1 1 0 
1 1 1 0 1 1 2 1 1 0 1 1 1 0 1 1 
1 0 2 1 1 1 1 0 1 1 1 0 1 1 2 1 
1 0 1 1 1 0 1 1 1 1 2 0 1 1 1 0 
1 1 1 1 1 0 2 1 1 0 1 1 1 1 1 0 
1 1 2 0 1 1 1 0 1 1 1 1 1 0 2 1 
1 0 1 1 1 1 1 0 1 1 2 0 1 1 1 1 
1 0 1 1 1 0 2 1 1 1 1 0 1 1 1 0 
1 1 2 0 1 1 1 1 1 0 1 1 1 0 2 1 
1 1 1 0 1 1 1 0 1 1 2 1 1 0 1 1 
1 0 1 1 1 0 2 1 1 1 1 0 1 1 1 0 
1 1 2 1 1 0 1 1 1 0 1 1 1 0 2 1 
1 1 1 0 1 1 1 0 1 1 2 1 1 0 1 1 
1 0 1 1 1 0 2 1 1 1 1 0 1 1 1 0 
1 1 2 1 1 0 6998 1874 300 MP stroke
1 1 1 0 1 1 1 0 2 1 1 1 1 0 1 1 
1 0 1 1 2 0 1 1 1 1 1 0 1 1 1 0 
2 1 1 1 1 0 1 1 1 0 1 1 2 0 1 1 
1 1 1 0 1 1 1 0 2 1 1 0 1 1 1 1 
1 0 1 1 2 0 1 1 1 1 1 0 1 1 1 0 
2 1 1 0 1 1 1 1 1 0 1 1 2 0 1 1 
1 0 1 1 1 1 1 0 2 1 1 0 1 1 1 0 
1 1 1 1 2 0 1 1 1 0 1 1 1 0 1 1 
2 1 1 0 1 1 1 0 1 1 1 0 2 1 1 1 
1 0 1 1 1 0 1 1 2 0 1 1 1 1 1 0 
1 1 1 0 2 1 1 0 1 1 1 1 1 0 1 1 
2 0 1 1 1 0 1 1 1 1 2 0 1 1 1 0 
1 1 1 0 1 1 2 1 1 0 1 1 1 0 1 1 
1 0 2 1 1 1 1 0 1 1 1 0 1 1 2 0 
1 1 1 0 1 1 1 1 1 0 2 1 1 0 1 1 
1 0 1 1 1 1 2 0 1 1 1 0 1 1 1 0 
1 1 2 1 1 0 1 1 1 0 1 1 1 0 2 1 
1 0 1 1 1 1 1 0 1 1 2 0 1 1 1 0 
1 1 1 1 1 0 2 1 1 0 1 1 1 0 1 1 
1 0 2 1 1 1 1 0 1 1 1 0 1 1 2 0 
1 1 1 1 1 0 1 1 1 0 2 1 1 0 1 1 
1 0 1 1 1 1 2 0 1 1 1 0 1 1 1 0 
1 1 2 0 1 1 1 1 1 0 1 1 1 0 2 1 
1 0 1 1 1 0 1 1 1 1 2 0 1 1 1 0 
1 1 1 0 1 1 2 0 1 1 1 1 1 0 1 1 
1 0 2 1 1 0 1 1 1 0 1 1 1 1 2 0 
1 1 1 0 1 1 1 0 1 1 2 0 1 1 1 1 
1 0 1 1 1 0 2 1 1 0 1 1 1 0 1 1 
1 0 2 1 1 1 1 0 1 1 1 0 1 1 2 0 
1 1 1 0 1 1 1 1 1 0 2 1 1 0 1 1 
1 0 1 1 1 0 2 1 1 0 1 1 1 1 1 0 
1 1 2 0 1 1 1 0 1 1 1 0 1 1 2 1 
1 0 1 1 1 0 1 1 1 0 2 1 1 0 1 1 
1 0 1 1 1 1 2 0 1 1 1 0 1 1 1 0 
1 1 2 0 1 1 1 0 1 1 1 1 1 0 2 1 
1 0 1 1 1 0 1 1 1 0 2 1 1 0 1 1 
1 0 1 1 1 1 2 0 1 1 1 0 1 1 1 0 
1 1 2 0 1 1 6649 1706 300 MP stroke
1 0 1 1 1 1 1 0 2 1 1 0 1 1 1 0 
1 1 1 0 2 1 1 0 1 1 1 0 1 1 1 1 
2 0 1 1 1 0 1 1 1 0 1 1 2 0 1 1 
1 0 1 1 1 0 1 1 2 1 1 0 1 1 1 0 
1 1 1 0 2 1 1 0 1 1 1 0 1 1 1 0 
2 1 1 1 1 0 1 1 1 0 1 1 2 0 1 1 
1 0 1 1 1 0 1 1 2 0 1 1 1 0 1 1 
1 1 1 0 2 1 1 0 1 1 1 0 1 1 1 0 
2 1 1 0 1 1 1 0 1 1 1 0 2 1 1 1 
1 0 1 1 1 0 1 1 2 0 1 1 1 0 1 1 
1 0 1 1 2 0 1 1 1 0 1 1 1 0 1 1 
2 1 1 0 1 1 1 0 1 1 1 0 2 1 1 0 
1 1 1 0 1 1 1 0 2 1 1 0 1 1 1 0 
1 1 1 1 2 0 1 1 1 0 1 1 1 0 1 1 
2 0 1 1 1 0 1 1 1 0 1 1 2 0 1 1 
1 0 1 1 1 0 1 1 2 0 1 1 1 1 1 0 
1 1 1 0 2 1 1 0 1 1 1 0 1 1 1 0 
2 1 1 0 1 1 1 0 1 1 1 0 2 1 1 0 
1 1 1 0 1 1 1 1 2 0 1 1 1 0 1 1 
1 0 1 1 2 0 1 1 1 0 1 1 1 0 1 1 
2 0 1 1 1 0 1 1 1 0 1 1 2 0 1 1 
1 0 1 1 1 0 1 1 2 0 1 1 1 1 1 0 
1 1 2 0 1 1 1 0 1 1 1 0 1 1 2 0 
1 1 1 0 1 1 1 0 1 1 2 0 1 1 1 0 
1 1 1 0 1 1 2 0 1 1 1 0 1 1 1 0 
1 1 2 0 1 1 1 0 1 1 1 1 1 0 2 1 
1 0 1 1 1 0 1 1 1 0 2 1 1 0 1 1 
1 0 1 1 1 0 2 1 1 0 1 1 1 0 1 1 
1 0 2 1 1 0 1 1 1 0 1 1 1 0 2 1 
1 0 1 1 1 0 1 1 1 0 2 1 1 0 1 1 
1 0 1 1 1 0 2 1 1 0 1 1 1 0 1 1 
1 0 2 1 1 0 1 1 1 0 1 1 1 1 2 0 
1 1 1 0 1 1 1 0 1 1 2 0 1 1 1 0 
1 1 1 0 1 1 2 0 1 1 1 0 1 1 1 0 
1 1 2 0 1 1 1 0 1 1 1 0 1 1 2 0 
1 1 1 0 1 1 1 0 1 1 2 0 1 1 1 0 
1 1 1 0 1 1 2 0 1 1 1 0 1 1 1 0 
1 1 2 0 1 1 6300 1550 300 MP stroke
1 0 1 1 1 0 1 1 2 0 1 1 1 0 1 1 
1 0 1 1 2 0 1 1 1 0 1 1 1 0 1 1 
2 0 1 1 1 0 1 1 1 0 1 1 2 0 1 1 
1 0 1 1 1 0 1 1 2 0 1 1 1 0 1 1 
1 0 1 1 2 0 1 1 1 0 1 1 1 0 1 1 
2 0 1 1 1 0 1 1 1 0 1 1 2 0 1 1 
1 0 1 1 1 0 1 1 2 0 1 1 1 0 1 1 
1 0 1 0 2 1 1 0 1 1 1 0 1 1 1 0 
2 1 1 0 1 1 1 0 1 1 1 0 2 1 1 0 
1 1 1 0 1 1 1 0 2 1 1 0 1 1 1 0 
1 1 1 0 2 1 1 0 1 1 1 0 1 1 1 0 
2 1 1 0 1 1 1 0 1 1 1 0 2 1 1 0 
1 1 1 0 1 1 1 0 2 1 1 0 1 1 1 0 
1 1 1 0 2 0 1 1 1 0 1 1 1 0 1 1 
2 0 1 1 1 0 1 1 1 0 1 1 2 0 1 1 
1 0 1 1 1 0 1 1 2 0 1 1 1 0 1 1 
1 0 1 1 2 0 1 1 1 0 1 1 1 0 1 1 
2 0 1 1 1 0 1 0 1 1 1 0 2 1 1 0 
1 1 1 0 1 1 1 0 2 1 1 0 1 1 1 0 
1 1 1 0 2 1 1 0 1 1 1 0 1 1 1 0 
2 1 1 0 1 1 1 0 1 0 1 1 2 0 1 1 
1 0 1 1 1 0 1 1 2 0 1 1 1 0 1 1 
1 0 1 1 2 0 1 1 1 0 1 1 1 0 1 1 
2 0 1 1 1 0 1 0 1 1 1 0 2 1 1 0 
1 1 1 0 1 1 1 0 2 1 1 0 1 1 1 0 
1 1 1 0 2 1 1 0 1 1 1 0 1 0 1 1 
2 0 1 1 1 0 1 1 1 0 1 1 2 0 1 1 
1 0 1 1 1 0 1 1 2 0 1 1 1 0 1 0 
1 1 1 0 2 1 1 0 1 1 1 0 1 1 1 0 
2 1 1 0 1 1 1 0 1 1 1 0 2 1 1 0 
1 0 1 1 1 0 1 1 2 0 1 1 1 0 1 1 
1 0 1 1 2 0 1 1 1 0 1 1 1 0 1 0 
2 1 1 0 1 1 1 0 1 1 2 0 1 1 1 0 
1 1 1 0 1 1 2 0 1 1 1 0 1 0 1 1 
1 0 2 1 1 0 1 1 1 0 1 1 1 0 2 1 
1 0 1 1 1 0 1 0 1 1 2 0 1 1 1 0 
1 1 1 0 1 1 2 0 1 1 1 0 1 1 1 0 
1 0 2 1 1 0 5951 1407 300 MP stroke
1 1 1 0 1 1 1 0 2 1 1 0 1 1 1 0 
1 1 1 0 2 0 1 1 1 0 1 1 1 0 1 1 
2 0 1 1 1 0 1 1 1 0 1 1 2 0 1 0 
1 1 1 0 1 1 1 0 2 1 1 0 1 1 1 0 
1 1 1 0 2 0 1 1 1 0 1 1 1 0 1 1 
2 0 1 1 1 0 1 1 1 0 1 0 2 1 1 0 
1 1 1 0 1 1 1 0 2 1 1 0 1 1 1 0 
1 0 1 1 2 0 1 1 1 0 1 1 1 0 1 1 
2 0 1 1 1 0 1 0 1 1 1 0 2 1 1 0 
1 1 1 0 1 1 1 0 2 0 1 1 1 0 1 1 
1 0 1 1 2 0 1 1 1 0 1 1 1 0 1 0 
2 1 1 0 1 1 1 0 1 1 1 0 2 1 1 0 
1 0 1 1 1 0 1 1 2 0 1 1 1 0 1 1 
1 0 1 0 2 1 1 0 1 1 1 0 1 1 1 0 
2 1 1 0 1 0 1 1 1 0 1 1 2 0 1 1 
1 0 1 1 1 0 1 0 2 1 1 0 1 1 1 0 
1 1 1 0 2 1 1 0 1 0 1 1 1 0 1 1 
2 0 1 1 1 0 1 1 1 0 1 0 2 1 1 0 
1 1 1 0 1 1 1 0 2 1 1 0 1 0 1 1 
1 0 1 1 2 0 1 1 1 0 1 1 1 0 1 0 
2 1 1 0 1 1 1 0 1 1 1 0 2 0 1 1 
1 0 1 1 1 0 1 1 2 0 1 1 1 0 1 0 
1 1 1 0 2 1 1 0 1 1 1 0 1 0 1 1 
2 0 1 1 1 0 1 1 1 0 1 0 2 1 1 0 
1 1 1 0 1 1 1 0 2 1 1 0 1 0 1 1 
1 0 1 1 2 0 1 1 1 0 1 0 1 1 1 0 
2 1 1 0 1 1 1 0 1 0 1 1 2 0 1 1 
1 0 1 1 1 0 1 0 2 1 1 0 1 1 1 0 
1 1 1 0 2 0 1 1 1 0 1 1 1 0 1 1 
2 0 1 1 1 0 1 0 1 1 1 0 2 1 1 0 
1 1 1 0 1 0 1 1 2 0 1 1 1 0 1 1 
1 0 1 0 2 1 1 0 1 1 1 0 1 0 1 1 
2 0 1 1 1 0 1 1 1 0 1 0 2 1 1 0 
1 1 1 0 1 1 1 0 2 0 1 1 1 0 1 1 
1 0 1 1 2 0 1 0 1 1 1 0 1 1 1 0 
2 1 1 0 1 0 1 1 1 0 1 1 2 0 1 0 
1 1 1 0 1 1 1 0 2 1 1 0 1 0 1 1 
1 0 1 1 2 0 5602 1275 300 MP stroke
1 1 1 0 1 0 1 1 1 0 2 1 1 0 1 0 
1 1 1 0 1 1 2 0 1 1 1 0 1 0 1 1 
1 0 2 1 1 0 1 0 1 1 1 0 1 1 2 0 
1 1 1 0 1 0 1 1 1 0 2 1 1 0 1 0 
1 1 1 0 1 1 2 0 1 1 1 0 1 0 1 1 
1 0 2 1 1 0 1 0 1 1 1 0 2 1 1 0 
1 1 1 0 1 0 1 1 2 0 1 1 1 0 1 0 
1 1 1 0 2 1 1 0 1 1 1 0 1 0 1 1 
2 0 1 1 1 0 1 0 1 1 1 0 2 1 1 0 
1 0 1 1 1 0 1 1 2 0 1 0 1 1 1 0 
1 1 1 0 2 1 1 0 1 0 1 1 1 0 1 1 
2 0 1 0 1 1 1 0 1 1 1 0 2 0 1 1 
1 0 1 1 1 0 1 0 2 1 1 0 1 1 1 0 
1 1 1 0 2 0 1 1 1 0 1 1 1 0 1 0 
2 1 1 0 1 1 1 0 1 0 1 1 2 0 1 1 
1 0 1 0 1 1 1 0 2 1 1 0 1 0 1 1 
1 0 1 1 2 0 1 0 1 1 1 0 1 1 1 0 
2 0 1 1 1 0 1 1 1 0 1 0 2 1 1 0 
1 1 1 0 1 0 1 1 2 0 1 1 1 0 1 0 
1 1 1 0 2 1 1 0 1 0 1 1 1 0 1 1 
2 0 1 0 1 1 1 0 1 1 1 0 2 0 1 1 
1 0 1 1 1 0 1 0 2 1 1 0 1 1 1 0 
1 0 1 1 2 0 1 1 1 0 1 0 1 1 1 0 
2 1 1 0 1 0 1 1 1 0 1 1 2 0 1 0 
1 1 1 0 1 1 1 0 2 0 1 1 1 0 1 0 
1 1 1 0 2 1 1 0 1 0 1 1 1 0 1 1 
2 0 1 0 1 1 1 0 1 1 1 0 2 0 1 1 
1 0 1 1 1 0 1 0 2 1 1 0 1 1 1 0 
1 0 1 1 2 0 1 0 1 1 1 0 1 1 1 0 
2 0 1 1 1 0 1 1 1 0 1 0 2 1 1 0 
1 1 1 0 1 0 1 1 2 0 1 0 1 1 1 0 
1 1 1 0 2 0 1 1 1 0 1 1 1 0 1 0 
2 1 1 0 1 0 1 1 1 0 1 1 2 0 1 0 
1 1 1 0 1 1 1 0 2 0 1 1 1 0 1 0 
1 1 1 0 2 1 1 0 1 0 1 1 1 0 1 1 
2 0 1 0 1 1 1 0 1 0 1 1 2 0 1 1 
1 0 1 0 1 1 1 0 2 1 1 0 1 0 1 1 
1 0 1 0 2 1 5253 1155 300 MP stroke
1 0 1 1 1 0 1 0 1 1 2 0 1 0 1 1 
1 0 1 1 1 0 2 0 1 1 1 0 1 0 1 1 
1 0 2 1 1 0 1 0 1 1 1 0 1 0 2 1 
1 0 1 1 1 0 1 0 1 1 2 0 1 1 1 0 
1 0 1 1 1 0 2 0 1 1 1 0 1 1 1 0 
1 0 2 1 1 0 1 0 1 1 1 0 1 1 2 0 
1 0 1 1 1 0 1 0 1 1 2 0 1 0 1 1 
1 0 1 1 1 0 2 0 1 1 1 0 1 0 1 1 
1 0 2 1 1 0 1 0 1 1 1 0 1 0 2 1 
1 0 1 1 1 0 1 0 1 1 2 0 1 0 1 1 
1 0 1 1 1 0 2 0 1 1 1 0 1 0 1 1 
1 0 2 0 1 1 1 0 1 1 1 0 1 0 2 1 
1 0 1 0 1 1 1 0 1 0 2 1 1 0 1 1 
1 0 1 0 1 1 2 0 1 0 1 1 1 0 1 1 
1 0 2 0 1 1 1 0 1 0 1 1 1 0 2 0 
1 1 1 0 1 1 1 0 1 0 2 1 1 0 1 0 
1 1 1 0 1 0 2 1 1 0 1 1 1 0 1 0 
2 1 1 0 1 0 1 1 1 0 1 0 2 1 1 0 
1 0 1 1 1 0 1 1 2 0 1 0 1 1 1 0 
1 0 1 1 2 0 1 0 1 1 1 0 1 1 1 0 
2 0 1 1 1 0 1 0 1 1 1 0 2 0 1 1 
1 0 1 0 1 1 1 0 2 1 1 0 1 0 1 1 
1 0 1 0 2 1 1 0 1 0 1 1 1 0 1 0 
2 1 1 0 1 1 1 0 1 0 1 1 2 0 1 0 
1 1 1 0 1 0 1 1 2 0 1 0 1 1 1 0 
1 0 1 1 2 0 1 1 1 0 1 0 1 1 1 0 
2 0 1 1 1 0 1 0 1 1 1 0 2 0 1 1 
1 0 1 0 1 1 1 0 2 1 1 0 1 0 1 1 
1 0 1 0 2 1 1 0 1 0 1 1 1 0 1 0 
2 1 1 0 1 0 1 1 1 0 1 0 2 1 1 0 
1 0 1 1 1 0 1 1 2 0 1 0 1 1 1 0 
1 0 1 1 2 0 1 0 1 1 1 0 1 0 1 1 
2 0 1 0 1 1 1 0 1 0 1 1 2 0 1 0 
1 1 1 0 1 0 1 1 2 0 1 1 1 0 1 0 
1 1 1 0 2 0 1 1 1 0 1 0 1 1 1 0 
2 0 1 1 1 0 1 0 1 1 1 0 2 0 1 1 
1 0 1 0 1 1 1 0 2 0 1 1 1 0 1 0 
1 1 1 0 2 0 4904 1048 300 MP stroke
1 1 1 0 1 0 1 1 1 0 2 0 1 1 1 0 
1 0 1 1 1 0 2 0 1 1 1 0 1 1 1 0 
1 0 2 1 1 0 1 0 1 1 1 0 1 0 2 1 
1 0 1 0 1 1 1 0 1 0 2 1 1 0 1 0 
1 1 1 0 1 0 2 1 1 0 1 0 1 1 1 0 
1 0 2 1 1 0 1 0 1 1 1 0 1 0 2 1 
1 0 1 0 1 1 1 0 1 0 2 1 1 0 1 0 
1 1 1 0 1 0 2 1 1 0 1 0 1 1 1 0 
1 0 2 1 1 0 1 0 1 1 1 0 1 0 2 1 
1 0 1 0 1 1 1 0 1 0 2 1 1 0 1 0 
1 1 1 0 1 0 2 0 1 1 1 0 1 0 1 1 
1 0 2 0 1 1 1 0 1 0 1 1 1 0 2 0 
1 1 1 0 1 0 1 1 1 0 2 0 1 1 1 0 
1 0 1 1 1 0 2 0 1 1 1 0 1 0 1 1 
1 0 2 0 1 1 1 0 1 0 1 1 1 0 2 0 
1 1 1 0 1 0 1 1 1 0 2 0 1 0 1 1 
1 0 1 0 1 1 2 0 1 0 1 1 1 0 1 0 
1 1 2 0 1 0 1 1 1 0 1 0 1 1 2 0 
1 0 1 1 1 0 1 0 1 1 2 0 1 0 1 1 
1 0 1 0 1 0 2 1 1 0 1 0 1 1 1 0 
1 0 2 1 1 0 1 0 1 1 1 0 1 0 2 1 
1 0 1 0 1 1 1 0 1 0 2 1 1 0 1 0 
1 0 1 1 1 0 2 0 1 1 1 0 1 0 1 1 
1 0 2 0 1 1 1 0 1 0 1 1 1 0 2 0 
1 1 1 0 1 0 1 0 1 1 2 0 1 0 1 1 
1 0 1 0 1 1 2 0 1 0 1 1 1 0 1 0 
1 1 2 0 1 0 1 0 1 1 1 0 1 0 2 1 
1 0 1 0 1 1 1 0 2 0 1 1 1 0 1 0 
1 0 1 1 2 0 1 0 1 1 1 0 1 0 1 1 
2 0 1 0 1 1 1 0 1 0 1 0 2 1 1 0 
1 0 1 1 1 0 1 0 2 1 1 0 1 0 1 1 
1 0 1 0 2 0 1 1 1 0 1 0 1 1 1 0 
2 0 1 1 1 0 1 0 1 1 1 0 2 0 1 0 
1 1 1 0 1 0 1 1 2 0 1 0 1 1 1 0 
1 0 1 0 2 1 1 0 1 0 1 1 1 0 1 0 
2 1 1 0 1 0 1 1 1 0 1 0 2 0 1 1 
1 0 1 0 1 1 1 0 2 0 1 1 1 0 1 0 
1 0 1 1 2 0 4555 952 300 MP stroke
1 0 1 1 1 0 1 0 1 1 2 0 1 0 1 0 
1 1 1 0 1 0 2 1 1 0 1 0 1 1 1 0 
1 0 2 0 1 1 1 0 1 0 1 1 1 0 2 0 
1 0 1 1 1 0 1 0 1 1 2 0 1 0 1 1 
1 0 1 0 1 0 2 1 1 0 1 0 1 1 1 0 
1 0 2 0 1 1 1 0 1 0 1 1 1 0 2 0 
1 1 1 0 1 0 1 0 1 1 2 0 1 0 1 1 
1 0 1 0 1 0 2 1 1 0 1 0 1 1 1 0 
1 0 2 1 1 0 1 0 1 0 1 1 1 0 2 0 
1 1 1 0 1 0 1 0 1 1 2 0 1 0 1 1 
1 0 1 0 1 0 2 1 1 0 1 0 1 1 1 0 
1 0 2 0 1 1 1 0 1 0 1 1 1 0 2 0 
1 0 1 1 1 0 1 0 1 1 2 0 1 0 1 0 
1 1 1 0 1 0 2 1 1 0 1 0 1 0 1 1 
1 0 2 0 1 1 1 0 1 0 1 0 1 1 2 0 
1 0 1 1 1 0 1 0 1 0 2 1 1 0 1 0 
1 1 1 0 1 0 2 0 1 1 1 0 1 0 1 1 
1 0 2 0 1 0 1 1 1 0 1 0 1 0 2 1 
1 0 1 0 1 1 1 0 1 0 2 0 1 1 1 0 
1 0 1 1 1 0 2 0 1 0 1 1 1 0 1 0 
1 1 2 0 1 0 1 0 1 1 1 0 1 0 2 0 
1 1 1 0 1 0 1 1 1 0 2 0 1 0 1 1 
1 0 1 0 1 0 2 1 1 0 1 0 1 1 1 0 
1 0 2 0 1 1 1 0 1 0 1 1 1 0 2 0 
1 0 1 1 1 0 1 0 1 0 2 1 1 0 1 0 
1 1 1 0 1 0 2 0 1 1 1 0 1 0 1 0 
1 1 2 0 1 0 1 1 1 0 1 0 1 0 2 1 
1 0 1 0 1 0 1 1 1 0 2 0 1 0 1 1 
1 0 1 0 1 1 2 0 1 0 1 0 1 1 1 0 
1 0 2 0 1 1 1 0 1 0 1 1 1 0 2 0 
1 0 1 1 1 0 1 0 1 0 2 1 1 0 1 0 
1 0 1 1 1 0 2 0 1 1 1 0 1 0 1 0 
1 1 2 0 1 0 1 0 1 1 1 0 1 0 2 0 
1 1 1 0 1 0 1 0 1 1 2 0 1 0 1 1 
1 0 1 0 1 0 2 1 1 0 1 0 1 0 1 1 
1 0 2 0 1 0 1 1 1 0 1 0 1 0 2 1 
1 0 1 0 1 1 1 0 1 0 2 0 1 1 1 0 
1 0 1 0 1 1 4207 868 300 MP stroke
2 0 1 0 1 0 1 1 1 0 2 0 1 0 1 1 
1 0 1 0 1 0 2 1 1 0 1 0 1 0 1 1 
1 0 2 0 1 0 1 1 1 0 1 0 1 1 2 0 
1 0 1 0 1 1 1 0 1 0 2 0 1 1 1 0 
1 0 1 0 1 1 2 0 1 0 1 0 1 1 1 0 
1 0 2 0 1 1 1 0 1 0 1 0 1 1 2 0 
1 0 1 0 1 1 1 0 1 0 2 0 1 1 1 0 
1 0 1 0 1 1 2 0 1 0 1 0 1 1 1 0 
1 0 2 0 1 1 1 0 1 0 1 0 1 1 2 0 
1 0 1 0 1 1 1 0 1 0 2 0 1 1 1 0 
1 0 1 0 1 1 2 0 1 0 1 0 1 1 1 0 
1 0 2 0 1 1 1 0 1 0 1 0 1 1 2 0 
1 0 1 0 1 1 1 0 1 0 2 0 1 1 1 0 
1 0 1 0 1 1 2 0 1 0 1 0 1 1 1 0 
1 0 2 0 1 1 1 0 1 0 1 0 1 1 2 0 
1 0 1 0 1 0 1 1 1 0 2 0 1 0 1 1 
1 0 1 0 1 0 2 1 1 0 1 0 1 0 1 1 
1 0 2 0 1 0 1 1 1 0 1 0 1 0 2 1 
1 0 1 0 1 0 1 1 1 0 2 0 1 0 1 0 
1 1 1 0 1 0 2 0 1 1 1 0 1 0 1 0 
1 1 2 0 1 0 1 0 1 1 1 0 1 0 2 0 
1 1 1 0 1 0 1 0 1 0 2 1 1 0 1 0 
1 0 1 1 1 0 2 0 1 0 1 1 1 0 1 0 
1 0 2 1 1 0 1 0 1 0 1 0 1 1 2 0 
1 0 1 0 1 1 1 0 1 0 2 0 1 1 1 0 
1 0 1 0 1 0 2 1 1 0 1 0 1 0 1 1 
1 0 2 0 1 0 1 1 1 0 1 0 1 0 2 0 
1 1 1 0 1 0 1 0 1 1 2 0 1 0 1 0 
1 1 1 0 1 0 2 0 1 0 1 1 1 0 1 0 
1 0 2 1 1 0 1 0 1 0 1 1 1 0 2 0 
1 0 1 0 1 1 1 0 1 0 2 0 1 1 1 0 
1 0 1 0 1 0 2 1 1 0 1 0 1 0 1 1 
1 0 2 0 1 0 1 0 1 1 1 0 1 0 2 0 
1 1 1 0 1 0 1 0 1 0 2 1 1 0 1 0 
1 0 1 1 1 0 2 0 1 0 1 0 1 1 1 0 
1 0 2 0 1 1 1 0 1 0 1 0 1 0 2 1 
1 0 1 0 1 0 1 1 1 0 2 0 1 0 1 0 
1 1 1 0 1 0 3858 797 300 MP stroke
2 0 1 1 1 0 1 0 1 0 1 0 2 1 1 0 
1 0 1 0 1 1 1 0 2 0 1 0 1 0 1 1 
1 0 1 0 2 0 1 0 1 1 1 0 1 0 1 0 
2 1 1 0 1 0 1 0 1 0 1 1 2 0 1 0 
1 0 1 1 1 0 1 0 2 0 1 0 1 1 1 0 
1 0 1 0 2 0 1 1 1 0 1 0 1 0 1 0 
2 1 1 0 1 0 1 0 1 1 1 0 2 0 1 0 
1 0 1 1 1 0 1 0 2 0 1 0 1 1 1 0 
1 0 1 0 2 1 1 0 1 0 1 0 1 0 1 1 
2 0 1 0 1 0 1 0 1 1 1 0 2 0 1 0 
1 0 1 1 1 0 1 0 2 0 1 0 1 1 1 0 
1 0 2 0 1 1 1 0 1 0 1 0 1 0 2 1 
1 0 1 0 1 0 1 0 1 1 2 0 1 0 1 0 
1 0 1 1 1 0 2 0 1 0 1 0 1 1 1 0 
1 0 2 0 1 0 1 1 1 0 1 0 1 0 2 0 
1 1 1 0 1 0 1 0 1 0 2 1 1 0 1 0 
1 0 1 0 1 1 2 0 1 0 1 0 1 0 1 1 
1 0 2 0 1 0 1 0 1 1 1 0 1 0 2 0 
1 0 1 1 1 0 1 0 1 0 2 0 1 1 1 0 
1 0 1 0 1 0 2 1 1 0 1 0 1 0 1 0 
1 1 2 0 1 0 1 0 1 0 1 1 1 0 2 0 
1 0 1 0 1 1 1 0 1 0 2 0 1 0 1 1 
1 0 1 0 1 0 2 0 1 1 1 0 1 0 1 0 
1 0 2 1 1 0 1 0 1 0 1 0 1 1 2 0 
1 0 1 0 1 0 1 0 1 1 2 0 1 0 1 0 
1 0 1 1 1 0 2 0 1 0 1 0 1 1 1 0 
1 0 2 0 1 0 1 1 1 0 1 0 1 0 2 0 
1 1 1 0 1 0 1 0 1 0 2 0 1 1 1 0 
1 0 1 0 1 0 2 1 1 0 1 0 1 0 1 0 
1 1 2 0 1 0 1 0 1 0 1 0 1 1 2 0 
1 0 1 0 1 0 1 1 1 0 2 0 1 0 1 0 
1 1 1 0 1 0 2 0 1 0 1 0 1 1 1 0 
1 0 2 0 1 0 1 1 1 0 1 0 1 0 2 0 
1 0 1 1 1 0 1 0 1 0 2 0 1 1 1 0 
1 0 1 0 1 0 2 0 1 1 1 0 1 0 1 0 
1 0 2 1 1 0 1 0 1 0 1 0 1 0 2 1 
1 0 1 0 1 0 1 0 1 1 2 0 1 0 1 0 
1 0 1 0 1 1 3509 737 300 MP stroke
2 0 1 0 1 0 1 0 1 1 1 0 2 0 1 0 
1 0 1 0 1 1 1 0 2 0 1 0 1 0 1 0 
1 1 1 0 2 0 1 0 1 0 1 1 1 0 1 0 
2 0 1 0 1 0 1 1 1 0 1 0 2 0 1 0 
1 0 1 1 1 0 1 0 2 0 1 0 1 1 1 0 
1 0 1 0 2 0 1 0 1 1 1 0 1 0 1 0 
2 0 1 0 1 1 1 0 1 0 1 0 2 0 1 0 
1 1 1 0 1 0 1 0 2 0 1 0 1 1 1 0 
1 0 1 0 2 0 1 0 1 1 1 0 1 0 1 0 
2 0 1 1 1 0 1 0 1 0 1 0 2 0 1 1 
1 0 1 0 1 0 1 0 2 0 1 1 1 0 1 0 
1 0 1 0 2 0 1 1 1 0 1 0 1 0 1 0 
2 0 1 1 1 0 1 0 1 0 1 0 2 0 1 1 
1 0 1 0 1 0 1 0 2 0 1 0 1 1 1 0 
1 0 1 0 2 0 1 0 1 1 1 0 1 0 1 0 
2 0 1 0 1 1 1 0 1 0 1 0 2 0 1 0 
1 1 1 0 1 0 1 0 2 0 1 0 1 1 1 0 
1 0 1 0 2 0 1 0 1 1 1 0 1 0 1 0 
2 0 1 0 1 0 1 1 1 0 1 0 2 0 1 0 
1 0 1 1 1 0 1 0 2 0 1 0 1 0 1 1 
1 0 1 0 2 0 1 0 1 0 1 0 1 1 1 0 
2 0 1 0 1 0 1 0 1 1 1 0 2 0 1 0 
1 0 1 0 1 0 2 1 1 0 1 0 1 0 1 0 
1 0 2 1 1 0 1 0 1 0 1 0 1 0 2 0 
1 1 1 0 1 0 1 0 1 0 2 0 1 1 1 0 
1 0 1 0 1 0 2 0 1 0 1 1 1 0 1 0 
1 0 2 0 1 0 1 1 1 0 1 0 1 0 2 0 
1 0 1 0 1 1 1 0 1 0 2 0 1 0 1 0 
1 0 1 1 1 0 2 0 1 0 1 0 1 0 1 1 
1 0 2 0 1 0 1 0 1 0 1 0 1 1 2 0 
1 0 1 0 1 0 1 0 1 0 2 1 1 0 1 0 
1 0 1 0 1 0 2 0 1 1 1 0 1 0 1 0 
1 0 2 0 1 0 1 1 1 0 1 0 1 0 2 0 
1 0 1 0 1 1 1 0 1 0 2 0 1 0 1 0 
1 0 1 1 1 0 2 0 1 0 1 0 1 0 1 0 
1 1 2 0 1 0 1 0 1 0 1 0 1 0 2 1 
1 0 1 0 1 0 1 0 1 0 2 0 1 1 1 0 
1 0 1 0 1 0 3160 690 300 MP stroke
2 0 1 0 1 1 1 0 1 0 1 0 2 0 1 0 
1 0 1 0 1 1 1 0 2 0 1 0 1 0 1 0 
1 0 1 1 2 0 1 0 1 0 1 0 1 0 1 0 
2 1 1 0 1 0 1 0 1 0 1 0 2 0 1 0 
1 1 1 0 1 0 1 0 2 0 1 0 1 0 1 1 
1 0 1 0 2 0 1 0 1 0 1 0 1 0 1 1 
2 0 1 0 1 0 1 0 1 0 1 0 2 1 1 0 
1 0 1 0 1 0 1 0 2 0 1 0 1 1 1 0 
1 0 1 0 2 0 1 0 1 0 1 0 1 1 1 0 
2 0 1 0 1 0 1 0 1 0 1 1 2 0 1 0 
1 0 1 0 1 0 1 0 2 0 1 1 1 0 1 0 
1 0 1 0 2 0 1 0 1 0 1 1 1 0 1 0 
2 0 1 0 1 0 1 0 1 0 1 1 2 0 1 0 
1 0 1 0 1 0 1 0 2 0 1 1 1 0 1 0 
1 0 1 0 2 0 1 0 1 0 1 1 1 0 1 0 
2 0 1 0 1 0 1 0 1 0 1 1 2 0 1 0 
1 0 1 0 1 0 1 0 2 0 1 0 1 1 1 0 
1 0 1 0 2 0 1 0 1 0 1 0 1 1 1 0 
2 0 1 0 1 0 1 0 1 0 1 0 2 1 1 0 
1 0 1 0 1 0 1 0 2 0 1 0 1 0 1 1 
1 0 1 0 2 0 1 0 1 0 1 0 1 0 1 0 
2 1 1 0 1 0 1 0 1 0 1 0 2 0 1 0 
1 1 1 0 1 0 1 0 2 0 1 0 1 0 1 0 
1 0 1 1 2 0 1 0 1 0 1 0 1 0 1 0 
2 0 1 0 1 1 1 0 1 0 1 0 2 0 1 0 
1 0 1 0 1 0 1 1 2 0 1 0 1 0 1 0 
1 0 1 0 2 0 1 0 1 1 1 0 1 0 1 0 
2 0 1 0 1 0 1 0 1 0 1 1 2 0 1 0 
1 0 1 0 1 0 1 0 2 0 1 0 1 1 1 0 
1 0 1 0 2 0 1 0 1 0 1 0 1 0 1 0 
2 1 1 0 1 0 1 0 1 0 1 0 2 0 1 0 
1 0 1 1 1 0 1 0 2 0 1 0 1 0 1 0 
1 0 1 0 2 0 1 1 1 0 1 0 1 0 2 0 
1 0 1 0 1 0 1 0 1 1 2 0 1 0 1 0 
1 0 1 0 1 0 2 0 1 0 1 0 1 1 1 0 
1 0 2 0 1 0 1 0 1 0 1 0 1 0 2 0 
1 1 1 0 1 0 1 0 1 0 2 0 1 0 1 0 
1 0 1 0 1 1 2811 654 300 MP stroke
2 0 1 0 1 0 1 0 1 0 1 0 2 0 1 0 
1 0 1 1 1 0 1 0 2 0 1 0 1 0 1 0 
1 0 1 0 2 0 1 0 1 1 1 0 1 0 1 0 
2 0 1 0 1 0 1 0 1 0 1 0 2 1 1 0 
1 0 1 0 1 0 1 0 2 0 1 0 1 0 1 0 
1 0 1 1 2 0 1 0 1 0 1 0 1 0 1 0 
2 0 1 0 1 0 1 0 1 1 1 0 2 0 1 0 
1 0 1 0 1 0 1 0 2 0 1 0 1 0 1 1 
1 0 1 0 2 0 1 0 1 0 1 0 1 0 1 0 
2 0 1 0 1 1 1 0 1 0 1 0 2 0 1 0 
1 0 1 0 1 0 1 0 2 0 1 1 1 0 1 0 
1 0 1 0 2 0 1 0 1 0 1 0 1 0 1 0 
2 0 1 1 1 0 1 0 1 0 1 0 2 0 1 0 
1 0 1 0 1 0 1 0 2 0 1 1 1 0 1 0 
1 0 1 0 2 0 1 0 1 0 1 0 1 0 1 0 
2 0 1 1 1 0 1 0 1 0 1 0 2 0 1 0 
1 0 1 0 1 0 1 0 2 0 1 1 1 0 1 0 
1 0 1 0 2 0 1 0 1 0 1 0 1 0 1 0 
2 0 1 0 1 1 1 0 1 0 1 0 2 0 1 0 
1 0 1 0 1 0 1 0 2 0 1 0 1 0 1 1 
1 0 1 0 2 0 1 0 1 0 1 0 1 0 1 0 
2 0 1 0 1 0 1 0 1 1 1 0 2 0 1 0 
1 0 1 0 1 0 1 0 2 0 1 0 1 0 1 0 
1 0 1 1 2 0 1 0 1 0 1 0 1 0 1 0 
2 0 1 0 1 0 1 0 1 0 1 0 2 0 1 1 
1 0 1 0 1 0 1 0 2 0 1 0 1 0 1 0 
1 0 1 0 2 0 1 0 1 0 1 1 1 0 1 0 
2 0 1 0 1 0 1 0 1 0 1 0 2 0 1 0 
1 0 1 0 1 0 1 0 2 1 1 0 1 0 1 0 
1 0 1 0 2 0 1 0 1 0 1 0 1 0 1 0 
2 0 1 0 1 0 1 1 1 0 1 0 2 0 1 0 
1 0 1 0 1 0 1 0 2 0 1 0 1 0 1 0 
1 0 1 0 2 1 1 0 1 0 1 0 1 0 1 0 
2 0 1 0 1 0 1 0 1 0 1 0 2 0 1 0 
1 0 1 0 1 1 1 0 2 0 1 0 1 0 1 0 
1 0 1 0 2 0 1 0 1 0 1 0 1 0 1 0 
2 0 1 0 1 0 1 1 1 0 1 0 2 0 1 0 
1 0 1 0 1 0 2462 631 300 MP stroke
1 0 2 0 1 0 1 0 1 0 1 0 1 0 2 0 
1 0 1 1 1 0 1 0 1 0 2 0 1 0 1 0 
1 0 1 0 1 0 2 0 1 0 1 0 1 0 1 0 
1 0 2 0 1 0 1 1 1 0 1 0 1 0 2 0 
1 0 1 0 1 0 1 0 1 0 2 0 1 0 1 0 
1 0 1 0 1 0 2 0 1 0 1 0 1 1 1 0 
2 0 1 0 1 0 1 0 1 0 1 0 2 0 1 0 
1 0 1 0 1 0 1 0 2 0 1 0 1 0 1 0 
1 0 1 0 2 1 1 0 1 0 1 0 1 0 1 0 
2 0 1 0 1 0 1 0 1 0 1 0 2 0 1 0 
1 0 1 0 1 0 1 0 2 0 1 0 1 0 1 1 
1 0 1 0 2 0 1 0 1 0 1 0 1 0 1 0 
2 0 1 0 1 0 1 0 1 0 1 0 2 0 1 0 
1 0 1 0 1 0 1 0 2 0 1 1 1 0 1 0 
1 0 1 0 2 0 1 0 1 0 1 0 1 0 1 0 
2 0 1 0 1 0 1 0 1 0 1 0 2 0 1 0 
1 0 1 0 1 0 1 0 2 0 1 1 1 0 1 0 
1 0 1 0 2 0 1 0 1 0 1 0 1 0 1 0 
2 0 1 0 1 0 1 0 1 0 1 0 2 0 1 0 
1 0 1 0 1 0 1 0 2 0 1 0 1 0 1 1 
1 0 1 0 2 0 1 0 1 0 1 0 1 0 1 0 
2 0 1 0 1 0 1 0 1 0 1 0 2 0 1 0 
1 0 1 0 1 0 1 0 2 0 1 0 1 0 1 0 
1 0 1 0 2 0 1 0 1 1 1 0 1 0 1 0 
2 0 1 0 1 0 1 0 1 0 1 0 2 0 1 0 
1 0 1 0 1 0 1 0 2 0 1 0 1 0 1 0 
1 0 1 0 2 0 1 0 1 0 1 0 1 0 1 0 
2 0 1 0 1 0 1 0 1 1 1 0 2 0 1 0 
1 0 1 0 1 0 1 0 2 0 1 0 1 0 1 0 
1 0 1 0 2 0 1 0 1 0 1 0 1 0 1 0 
2 0 1 0 1 0 1 0 1 0 1 0 2 0 1 0 
1 0 1 0 1 0 1 0 2 0 1 0 1 0 1 0 
1 0 1 0 2 0 1 1 1 0 1 0 1 0 1 0 
2 0 1 0 1 0 1 0 1 0 1 0 2 0 1 0 
1 0 1 0 1 0 1 0 2 0 1 0 1 0 1 0 
1 0 1 0 2 0 1 0 1 0 1 0 1 0 1 0 
2 0 1 0 1 0 1 0 1 0 1 0 2 0 1 0 
1 0 1 0 1 0 2113 620 300 MP stroke
1 0 2 0 1 0 1 0 1 0 1 0 1 0 2 0 
1 0 1 0 1 0 1 1 1 0 2 0 1 0 1 0 
1 0 1 0 1 0 2 0 1 0 1 0 1 0 1 0 
1 0 2 0 1 0 1 0 1 0 1 0 1 0 2 0 
1 0 1 0 1 0 1 0 1 0 2 0 1 0 1 0 
1 0 1 0 1 0 2 0 1 0 1 0 1 0 1 0 
1 0 2 0 1 0 1 0 1 0 1 0 1 0 2 0 
1 0 1 0 1 0 1 0 1 0 2 0 1 0 1 0 
1 0 1 0 1 0 2 0 1 0 1 0 1 0 1 0 
1 0 2 0 1 0 1 0 1 0 1 0 1 0 2 0 
1 0 1 0 1 0 1 0 1 0 2 0 1 0 1 0 
1 0 1 0 1 0 2 0 1 0 1 0 1 0 1 0 
1 0 2 0 1 0 1 0 1 0 1 0 1 0 2 0 
1 0 1 0 1 0 1 0 1 0 2 0 1 0 1 0 
1 0 1 0 1 0 2 0 1 0 1 0 1 0 1 0 
1 0 2 0 1 0 1 0 1 0 1 0 1 0 2 0 
1 0 1 0 1 0 1 0 1 0 1958 619 134 MP stroke
72 w
gr

72 w
c8
/c9 { 0.000000 1.000000 1.000000 sr} bdef
c9
  36   36 11213 4851 FO
  36   36 11214 4852 FO
  36   36 11215 4853 FO
  36   36 11216 4854 FO
  36   36 11217 4855 FO
  36   36 11218 4856 FO
  36   36 11220 4857 FO
  36   36 11221 4858 FO
  36   36 11222 4859 FO
  36   36 11223 4860 FO
  36   36 11224 4861 FO
  36   36 11225 4862 FO
  36   36 11227 4863 FO
  36   36 11228 4865 FO
  36   36 11229 4866 FO
  36   36 11230 4867 FO
  36   36 11231 4868 FO
  36   36 11232 4869 FO
  36   36 11234 4870 FO
  36   36 11235 4871 FO
  36   36 11236 4872 FO
  36   36 11237 4873 FO
  36   36 11238 4874 FO
  36   36 11239 4875 FO
  36   36 11241 4876 FO
  36   36 11242 4877 FO
  36   36 11243 4878 FO
  36   36 11244 4880 FO
  36   36 11245 4881 FO
  36   36 11246 4882 FO
  36   36 11248 4883 FO
  36   36 11249 4884 FO
  36   36 11250 4885 FO
  36   36 11251 4886 FO
  36   36 11252 4887 FO
  36   36 11253 4888 FO
  36   36 11255 4889 FO
  36   36 11256 4890 FO
  36   36 11257 4891 FO
  36   36 11258 4892 FO
  36   36 11259 4893 FO
  36   36 11260 4895 FO
  36   36 11262 4896 FO
  36   36 11263 4897 FO
  36   36 11264 4898 FO
  36   36 11265 4899 FO
  36   36 11266 4900 FO
  36   36 11267 4901 FO
  36   36 11269 4902 FO
  36   36 11270 4903 FO
  36   36 11271 4904 FO
  36   36 11272 4905 FO
  36   36 11273 4906 FO
  36   36 11274 4907 FO
  36   36 11276 4908 FO
  36   36 11277 4910 FO
  36   36 11278 4911 FO
  36   36 11279 4912 FO
  36   36 11280 4913 FO
  36   36 11281 4914 FO
  36   36 11283 4915 FO
  36   36 11284 4916 FO
  36   36 11285 4917 FO
  36   36 11286 4918 FO
  36   36 11287 4919 FO
  36   36 11288 4920 FO
  36   36 11290 4921 FO
  36   36 11291 4922 FO
  36   36 11292 4924 FO
  36   36 11293 4925 FO
  36   36 11294 4926 FO
  36   36 11295 4927 FO
  36   36 11297 4928 FO
  36   36 11298 4929 FO
  36   36 11299 4930 FO
  36   36 11300 4931 FO
  36   36 11301 4932 FO
  36   36 11302 4933 FO
  36   36 11304 4934 FO
  36   36 11305 4935 FO
  36   36 11306 4936 FO
  36   36 11307 4938 FO
  36   36 11308 4939 FO
  36   36 11309 4940 FO
  36   36 11311 4941 FO
  36   36 11312 4942 FO
  36   36 11313 4943 FO
  36   36 11314 4944 FO
  36   36 11315 4945 FO
  36   36 11316 4946 FO
  36   36 11318 4947 FO
  36   36 11319 4948 FO
  36   36 11320 4949 FO
  36   36 11321 4951 FO
  36   36 11322 4952 FO
  36   36 11323 4953 FO
  36   36 11325 4954 FO
  36   36 11326 4955 FO
  36   36 11327 4956 FO
  36   36 11328 4957 FO
  36   36 11329 4958 FO
  36   36 11330 4959 FO
  36   36 11332 4960 FO
  36   36 11333 4961 FO
  36   36 11334 4962 FO
  36   36 11335 4963 FO
  36   36 11336 4965 FO
  36   36 11337 4966 FO
  36   36 11339 4967 FO
  36   36 11340 4968 FO
  36   36 11341 4969 FO
  36   36 11342 4970 FO
  36   36 11343 4971 FO
  36   36 11344 4972 FO
  36   36 11346 4973 FO
  36   36 11347 4974 FO
  36   36 11348 4975 FO
  36   36 11349 4976 FO
  36   36 11350 4978 FO
  36   36 11351 4979 FO
  36   36 11353 4980 FO
  36   36 11354 4981 FO
  36   36 11355 4982 FO
  36   36 11356 4983 FO
  36   36 11357 4984 FO
  36   36 11358 4985 FO
  36   36 11360 4986 FO
  36   36 11361 4987 FO
  36   36 11362 4988 FO
  36   36 11363 4989 FO
  36   36 11364 4991 FO
  36   36 11365 4992 FO
  36   36 11367 4993 FO
  36   36 11368 4994 FO
  36   36 11369 4995 FO
  36   36 11370 4996 FO
  36   36 11371 4997 FO
  36   36 11372 4998 FO
  36   36 11374 4999 FO
  36   36 11375 5000 FO
  36   36 11376 5001 FO
  36   36 11377 5002 FO
  36   36 11378 5004 FO
  36   36 11379 5005 FO
  36   36 11381 5006 FO
  36   36 11382 5007 FO
  36   36 11383 5008 FO
  36   36 11384 5009 FO
  36   36 11385 5010 FO
  36   36 11387 5011 FO
  36   36 11388 5012 FO
  36   36 11389 5013 FO
  36   36 11390 5014 FO
  36   36 11391 5016 FO
  36   36 11392 5017 FO
  36   36 11394 5018 FO
  36   36 11395 5019 FO
  36   36 11396 5020 FO
  36   36 11397 5021 FO
  36   36 11398 5022 FO
  36   36 11399 5023 FO
  36   36 11401 5024 FO
  36   36 11402 5025 FO
  36   36 11403 5026 FO
  36   36 11404 5028 FO
  36   36 11405 5029 FO
  36   36 11406 5030 FO
  36   36 11408 5031 FO
  36   36 11409 5032 FO
  36   36 11410 5033 FO
  36   36 11411 5034 FO
  36   36 11412 5035 FO
  36   36 11413 5036 FO
  36   36 11415 5037 FO
  36   36 11416 5038 FO
  36   36 11417 5040 FO
  36   36 11418 5041 FO
  36   36 11419 5042 FO
  36   36 11420 5043 FO
  36   36 11422 5044 FO
  36   36 11423 5045 FO
  36   36 11424 5046 FO
  36   36 11425 5047 FO
  36   36 11426 5048 FO
  36   36 11427 5049 FO
  36   36 11429 5050 FO
  36   36 11430 5052 FO
  36   36 11431 5053 FO
  36   36 11432 5054 FO
  36   36 11433 5055 FO
  36   36 11434 5056 FO
  36   36 11436 5057 FO
  36   36 11437 5058 FO
  36   36 11438 5059 FO
  36   36 11439 5060 FO
  36   36 11440 5061 FO
  36   36 11441 5062 FO
  36   36 11443 5064 FO
  36   36 11444 5065 FO
  36   36 11445 5066 FO
  36   36 11446 5067 FO
  36   36 11447 5068 FO
  36   36 11448 5069 FO
  36   36 11450 5070 FO
  36   36 11451 5071 FO
  36   36 11452 5072 FO
  36   36 11453 5073 FO
  36   36 11454 5074 FO
  36   36 11455 5076 FO
  36   36 11457 5077 FO
  36   36 11458 5078 FO
  36   36 11459 5079 FO
  36   36 11460 5080 FO
  36   36 11461 5081 FO
  36   36 11462 5082 FO
  36   36 11464 5083 FO
  36   36 11465 5084 FO
  36   36 11466 5085 FO
  36   36 11467 5087 FO
  36   36 11468 5088 FO
  36   36 11469 5089 FO
  36   36 11471 5090 FO
  36   36 11472 5091 FO
  36   36 11473 5092 FO
  36   36 11474 5093 FO
  36   36 11475 5094 FO
  36   36 11476 5095 FO
  36   36 11478 5096 FO
  36   36 11479 5098 FO
  36   36 11480 5099 FO
  36   36 11481 5100 FO
  36   36 11482 5101 FO
  36   36 11483 5102 FO
  36   36 11485 5103 FO
  36   36 11486 5104 FO
  36   36 11487 5105 FO
  36   36 11488 5106 FO
  36   36 11489 5107 FO
  36   36 11490 5109 FO
  36   36 11492 5110 FO
  36   36 11493 5111 FO
  36   36 11494 5112 FO
  36   36 11495 5113 FO
  36   36 11496 5114 FO
  36   36 11497 5115 FO
  36   36 11499 5116 FO
  36   36 11500 5117 FO
  36   36 11501 5118 FO
  36   36 11502 5120 FO
  36   36 11503 5121 FO
  36   36 11504 5122 FO
  36   36 11506 5123 FO
  36   36 11507 5124 FO
  36   36 11508 5125 FO
  36   36 11509 5126 FO
  36   36 11510 5127 FO
  36   36 11511 5128 FO
  36   36 11513 5129 FO
  36   36 11514 5131 FO
  36   36 11515 5132 FO
  36   36 11516 5133 FO
  36   36 11517 5134 FO
  36   36 11518 5135 FO
  36   36 11520 5136 FO
  36   36 11521 5137 FO
  36   36 11522 5138 FO
  36   36 11523 5139 FO
  36   36 11524 5140 FO
  36   36 11525 5142 FO
  36   36 11527 5143 FO
  36   36 11528 5144 FO
  36   36 11529 5145 FO
  36   36 11530 5146 FO
  36   36 11531 5147 FO
  36   36 11532 5148 FO
  36   36 11534 5149 FO
  36   36 11535 5150 FO
  36   36 11536 5151 FO
  36   36 11537 5153 FO
  36   36 11538 5154 FO
  36   36 11539 5155 FO
  36   36 11541 5156 FO
  36   36 11542 5157 FO
  36   36 11543 5158 FO
  36   36 11544 5159 FO
  36   36 11545 5160 FO
  36   36 11546 5161 FO
  36   36 11548 5163 FO
  36   36 11549 5164 FO
  36   36 11550 5165 FO
  36   36 11551 5166 FO
  36   36 11552 5167 FO
  36   36 11553 5168 FO
  36   36 11555 5169 FO
  36   36 11556 5170 FO
  36   36 11557 5171 FO
  36   36 11558 5172 FO
  36   36 11559 5174 FO
  36   36 11560 5175 FO
  36   36 11562 5176 FO
  36   36 11563 5177 FO
  36   36 11564 5178 FO
  36   36 11565 5179 FO
  36   36 11566 5180 FO
  36   36 11567 5181 FO
  36   36 11569 5182 FO
  36   36 11570 5184 FO
  36   36 11571 5185 FO
  36   36 11572 5186 FO
  36   36 11573 5187 FO
  36   36 11574 5188 FO
  36   36 11576 5189 FO
  36   36 11577 5190 FO
  36   36 11578 5191 FO
  36   36 11579 5192 FO
  36   36 11580 5194 FO
  36   36 11581 5195 FO
  36   36 11583 5196 FO
  36   36 11584 5197 FO
  36   36 11585 5198 FO
  36   36 11586 5199 FO
  36   36 11587 5200 FO
  36   36 11588 5201 FO
  36   36 11590 5202 FO
  36   36 11591 5204 FO
  36   36 11592 5205 FO
  36   36 11593 5206 FO
  36   36 11594 5207 FO
  36   36 11595 5208 FO
  36   36 11597 5209 FO
  36   36 11598 5210 FO
  36   36 11599 5211 FO
  36   36 11600 5212 FO
  36   36 11601 5214 FO
  36   36 11602 5215 FO
  36   36 11604 5216 FO
  36   36 11605 5217 FO
  36   36 11606 5218 FO
  36   36 11607 5219 FO
  36   36 11608 5220 FO
  36   36 11609 5221 FO
  36   36 11611 5222 FO
  36   36 11612 5224 FO
  36   36 11613 5225 FO
  36   36 11614 5226 FO
  36   36 11615 5227 FO
  36   36 11616 5228 FO
  36   36 11618 5229 FO
  36   36 11619 5230 FO
  36   36 11620 5231 FO
  36   36 11621 5232 FO
  36   36 11622 5234 FO
  36   36 11623 5235 FO
  36   36 11625 5236 FO
  36   36 11626 5237 FO
  36   36 11627 5238 FO
  36   36 11628 5239 FO
  36   36 11629 5240 FO
  36   36 11630 5241 FO
  36   36 11632 5243 FO
  36   36 11633 5244 FO
  36   36 11634 5245 FO
  36   36 11635 5246 FO
  36   36 11636 5247 FO
  36   36 11637 5248 FO
  36   36 11639 5249 FO
  36   36 11640 5250 FO
  36   36 11641 5251 FO
  36   36 11642 5253 FO
  36   36 11643 5254 FO
  36   36 11644 5255 FO
  36   36 11646 5256 FO
  36   36 11647 5257 FO
  36   36 11648 5258 FO
  36   36 11649 5259 FO
  36   36 11650 5260 FO
  36   36 11651 5262 FO
  36   36 11653 5263 FO
  36   36 11654 5264 FO
  36   36 11655 5265 FO
  36   36 11656 5266 FO
  36   36 11657 5267 FO
  36   36 11658 5268 FO
  36   36 11660 5269 FO
  36   36 11661 5270 FO
  36   36 11662 5272 FO
  36   36 11663 5273 FO
  36   36 11664 5274 FO
  36   36 11665 5275 FO
  36   36 11667 5276 FO
  36   36 11668 5277 FO
  36   36 11669 5278 FO
  36   36 11670 5279 FO
  36   36 11671 5281 FO
  36   36 11672 5282 FO
  36   36 11674 5283 FO
  36   36 11675 5284 FO
  36   36 11676 5285 FO
  36   36 11677 5286 FO
  36   36 11678 5287 FO
  36   36 11679 5288 FO
  36   36 11681 5289 FO
  36   36 11682 5291 FO
  36   36 11683 5292 FO
  36   36 11684 5293 FO
  36   36 11685 5294 FO
  36   36 11686 5295 FO
  36   36 11688 5296 FO
  36   36 11689 5297 FO
  36   36 11690 5298 FO
  36   36 11691 5300 FO
  36   36 11692 5301 FO
  36   36 11693 5302 FO
  36   36 11695 5303 FO
  36   36 11696 5304 FO
  36   36 11697 5305 FO
  36   36 11698 5306 FO
  36   36 11699 5307 FO
  36   36 11700 5309 FO
  36   36 11702 5310 FO
  36   36 11703 5311 FO
  36   36 11704 5312 FO
  36   36 11705 5313 FO
  36   36 11706 5314 FO
  36   36 11707 5315 FO
  36   36 11709 5316 FO
  36   36 11710 5318 FO
  36   36 11711 5319 FO
  36   36 11712 5320 FO
  36   36 11713 5321 FO
  36   36 11714 5322 FO
  36   36 11716 5323 FO
  36   36 11717 5324 FO
  36   36 11718 5325 FO
  36   36 11719 5327 FO
  36   36 11720 5328 FO
  36   36 11721 5329 FO
  36   36 11723 5330 FO
  36   36 11724 5331 FO
  36   36 11725 5332 FO
  36   36 11726 5333 FO
  36   36 11727 5334 FO
  36   36 11728 5336 FO
  36   36 11730 5337 FO
  36   36 11731 5338 FO
  36   36 11732 5339 FO
  36   36 11733 5340 FO
  36   36 11734 5341 FO
  36   36 11735 5342 FO
  36   36 11737 5343 FO
  36   36 11738 5345 FO
  36   36 11739 5346 FO
  36   36 11740 5347 FO
  36   36 11741 5348 FO
  36   36 11742 5349 FO
  36   36 11744 5350 FO
  36   36 11745 5351 FO
  36   36 11746 5353 FO
  36   36 11747 5354 FO
  36   36 11748 5355 FO
  36   36 11749 5356 FO
  36   36 11751 5357 FO
  36   36 11752 5358 FO
  36   36 11753 5359 FO
  36   36 11754 5360 FO
  36   36 11755 5362 FO
  36   36 11756 5363 FO
  36   36 11758 5364 FO
  36   36 11759 5365 FO
  36   36 11760 5366 FO
  36   36 11761 5367 FO
  36   36 11762 5368 FO
  36   36 11763 5369 FO
  36   36 11765 5371 FO
  36   36 11766 5372 FO
  36   36 11767 5373 FO
  36   36 11768 5374 FO
  36   36 11769 5375 FO
  36   36 11770 5376 FO
  36   36 11772 5377 FO
  36   36 11773 5379 FO
  36   36 11774 5380 FO
  36   36 11775 5381 FO
  36   36 11776 5382 FO
  36   36 11777 5383 FO
  36   36 11779 5384 FO
  36   36 11780 5385 FO
  36   36 11781 5386 FO
  36   36 11782 5388 FO
  36   36 11783 5389 FO
  36   36 11784 5390 FO
  36   36 11786 5391 FO
  36   36 11787 5392 FO
  36   36 11788 5393 FO
  36   36 11789 5394 FO
  36   36 11790 5395 FO
  36   36 11791 5397 FO
  36   36 11793 5398 FO
  36   36 11794 5399 FO
  36   36 11795 5400 FO
  36   36 11796 5401 FO
  36   36 11797 5402 FO
  36   36 11798 5403 FO
  36   36 11800 5405 FO
  36   36 11801 5406 FO
  36   36 11802 5407 FO
  36   36 11803 5408 FO
  36   36 11804 5409 FO
  36   36 11805 5410 FO
  36   36 11807 5411 FO
  36   36 11808 5413 FO
  36   36 11809 5414 FO
  36   36 11810 5415 FO
  36   36 11811 5416 FO
  36   36 11812 5417 FO
  36   36 11814 5418 FO
  36   36 11815 5419 FO
  36   36 11816 5420 FO
  36   36 11817 5422 FO
  36   36 11818 5423 FO
  36   36 11819 5424 FO
  36   36 11821 5425 FO
  36   36 11822 5426 FO
  36   36 11823 5427 FO
  36   36 11824 5428 FO
  36   36 11825 5430 FO
  36   36 11826 5431 FO
  36   36 11828 5432 FO
  36   36 11829 5433 FO
  36   36 11830 5434 FO
  36   36 11831 5435 FO
  36   36 11832 5436 FO
  36   36 11834 5438 FO
  36   36 11835 5439 FO
  36   36 11836 5440 FO
  36   36 11837 5441 FO
  36   36 11838 5442 FO
  36   36 11839 5443 FO
  36   36 11841 5444 FO
  36   36 11842 5446 FO
  36   36 11843 5447 FO
  36   36 11844 5448 FO
  36   36 11845 5449 FO
  36   36 11846 5450 FO
  36   36 11848 5451 FO
  36   36 11849 5452 FO
  36   36 11850 5454 FO
  36   36 11851 5455 FO
  36   36 11852 5456 FO
  36   36 11853 5457 FO
  36   36 11855 5458 FO
  36   36 11856 5459 FO
  36   36 11857 5460 FO
  36   36 11858 5461 FO
  36   36 11859 5463 FO
  36   36 11860 5464 FO
  36   36 11862 5465 FO
  36   36 11863 5466 FO
  36   36 11864 5467 FO
  36   36 11865 5468 FO
  36   36 11866 5469 FO
  36   36 11867 5471 FO
  36   36 11869 5472 FO
  36   36 11870 5473 FO
  36   36 11871 5474 FO
  36   36 11872 5475 FO
  36   36 11873 5476 FO
  36   36 11874 5477 FO
  36   36 11876 5479 FO
  36   36 11877 5480 FO
  36   36 11878 5481 FO
  36   36 11879 5482 FO
  36   36 11880 5483 FO
  36   36 11881 5484 FO
  36   36 11883 5486 FO
  36   36 11884 5487 FO
  36   36 11885 5488 FO
  36   36 11886 5489 FO
  36   36 11887 5490 FO
  36   36 11888 5491 FO
  36   36 11890 5492 FO
  36   36 11891 5494 FO
  36   36 11892 5495 FO
  36   36 11893 5496 FO
  36   36 11894 5497 FO
  36   36 11895 5498 FO
  36   36 11897 5499 FO
  36   36 11898 5500 FO
  36   36 11899 5502 FO
  36   36 11900 5503 FO
  36   36 11901 5504 FO
  36   36 11902 5505 FO
  36   36 11904 5506 FO
  36   36 11905 5507 FO
  36   36 11906 5508 FO
  36   36 11907 5510 FO
  36   36 11908 5511 FO
  36   36 11909 5512 FO
  36   36 11911 5513 FO
  36   36 11912 5514 FO
  36   36 11913 5515 FO
  36   36 11914 5516 FO
  36   36 11915 5518 FO
  36   36 11916 5519 FO
  36   36 11918 5520 FO
  36   36 11919 5521 FO
  36   36 11920 5522 FO
  36   36 11921 5523 FO
  36   36 11922 5524 FO
  36   36 11923 5526 FO
  36   36 11925 5527 FO
  36   36 11926 5528 FO
  36   36 11927 5529 FO
  36   36 11928 5530 FO
  36   36 11929 5531 FO
  36   36 11930 5533 FO
  36   36 11932 5534 FO
  36   36 11933 5535 FO
  36   36 11934 5536 FO
  36   36 11935 5537 FO
  36   36 11936 5538 FO
  36   36 11937 5539 FO
  36   36 11939 5541 FO
  36   36 11940 5542 FO
  36   36 11941 5543 FO
  36   36 11942 5544 FO
  36   36 11943 5545 FO
  36   36 11944 5546 FO
  36   36 11946 5548 FO
  36   36 11947 5549 FO
  36   36 11948 5550 FO
  36   36 11949 5551 FO
  36   36 11950 5552 FO
  36   36 11951 5553 FO
  36   36 11953 5554 FO
  36   36 11954 5556 FO
  36   36 11955 5557 FO
  36   36 11956 5558 FO
  36   36 11957 5559 FO
  36   36 11958 5560 FO
  36   36 11960 5561 FO
  36   36 11961 5562 FO
  36   36 11962 5564 FO
  36   36 11963 5565 FO
  36   36 11964 5566 FO
  36   36 11965 5567 FO
  36   36 11967 5568 FO
  36   36 11968 5569 FO
  36   36 11969 5571 FO
  36   36 11970 5572 FO
  36   36 11971 5573 FO
  36   36 11972 5574 FO
  36   36 11974 5575 FO
  36   36 11975 5576 FO
  36   36 11976 5578 FO
  36   36 11977 5579 FO
  36   36 11978 5580 FO
  36   36 11979 5581 FO
  36   36 11981 5582 FO
  36   36 11982 5583 FO
  36   36 11983 5584 FO
  36   36 11984 5586 FO
  36   36 11985 5587 FO
  36   36 11986 5588 FO
  36   36 11988 5589 FO
  36   36 11989 5590 FO
  36   36 11990 5591 FO
  36   36 11991 5593 FO
  36   36 11992 5594 FO
  36   36 11993 5595 FO
  36   36 11995 5596 FO
  36   36 11996 5597 FO
  36   36 11997 5598 FO
  36   36 11998 5599 FO
  36   36 11999 5601 FO
  36   36 12000 5602 FO
  36   36 12002 5603 FO
  36   36 12003 5604 FO
  36   36 12004 5605 FO
  36   36 12005 5606 FO
  36   36 12006 5608 FO
  36   36 12007 5609 FO
  36   36 12009 5610 FO
  36   36 12010 5611 FO
  36   36 12011 5612 FO
  36   36 12012 5613 FO
  36   36 12013 5615 FO
  36   36 12014 5616 FO
  36   36 12016 5617 FO
  36   36 12017 5618 FO
  36   36 12018 5619 FO
  36   36 12019 5620 FO
  36   36 12020 5622 FO
  36   36 12021 5623 FO
  36   36 12023 5624 FO
  36   36 12024 5625 FO
  36   36 12025 5626 FO
  36   36 12026 5627 FO
  36   36 12027 5628 FO
  36   36 12028 5630 FO
  36   36 12030 5631 FO
  36   36 12031 5632 FO
  36   36 12032 5633 FO
  36   36 12033 5634 FO
  36   36 12034 5635 FO
  36   36 12035 5637 FO
  36   36 12037 5638 FO
  36   36 12038 5639 FO
  36   36 12039 5640 FO
  36   36 12040 5641 FO
  36   36 12041 5642 FO
  36   36 12042 5644 FO
  36   36 12044 5645 FO
  36   36 12045 5646 FO
  36   36 12046 5647 FO
  36   36 12047 5648 FO
  36   36 12048 5649 FO
  36   36 12049 5651 FO
  36   36 12051 5652 FO
  36   36 12052 5653 FO
  36   36 12053 5654 FO
  36   36 12054 5655 FO
  36   36 12055 5656 FO
  36   36 12056 5658 FO
  36   36 12058 5659 FO
  36   36 12059 5660 FO
  36   36 12060 5661 FO
  36   36 12061 5662 FO
  36   36 12062 5663 FO
  36   36 12063 5665 FO
  36   36 12065 5666 FO
  36   36 12066 5667 FO
  36   36 12067 5668 FO
  36   36 12068 5669 FO
  36   36 12069 5670 FO
  36   36 12070 5672 FO
  36   36 12072 5673 FO
  36   36 12073 5674 FO
  36   36 12074 5675 FO
  36   36 12075 5676 FO
  36   36 12076 5677 FO
  36   36 12077 5679 FO
  36   36 12079 5680 FO
  36   36 12080 5681 FO
  36   36 12081 5682 FO
  36   36 12082 5683 FO
  36   36 12083 5684 FO
  36   36 12084 5686 FO
  36   36 12086 5687 FO
  36   36 12087 5688 FO
  36   36 12088 5689 FO
  36   36 12089 5690 FO
  36   36 12090 5691 FO
  36   36 12091 5693 FO
  36   36 12093 5694 FO
  36   36 12094 5695 FO
  36   36 12095 5696 FO
  36   36 12096 5697 FO
  36   36 12097 5698 FO
  36   36 12098 5700 FO
  36   36 12100 5701 FO
  36   36 12101 5702 FO
  36   36 12102 5703 FO
  36   36 12103 5704 FO
  36   36 12104 5705 FO
  36   36 12105 5707 FO
  36   36 12107 5708 FO
  36   36 12108 5709 FO
  36   36 12109 5710 FO
  36   36 12110 5711 FO
  36   36 12111 5712 FO
  36   36 12112 5714 FO
  36   36 12114 5715 FO
  36   36 12115 5716 FO
  36   36 12116 5717 FO
  36   36 12117 5718 FO
  36   36 12118 5719 FO
  36   36 12119 5721 FO
  36   36 12121 5722 FO
  36   36 12122 5723 FO
  36   36 12123 5724 FO
  36   36 12124 5725 FO
  36   36 12125 5726 FO
  36   36 12126 5728 FO
  36   36 12128 5729 FO
  36   36 12129 5730 FO
  36   36 12130 5731 FO
  36   36 12131 5732 FO
  36   36 12132 5734 FO
  36   36 12133 5735 FO
  36   36 12135 5736 FO
  36   36 12136 5737 FO
  36   36 12137 5738 FO
  36   36 12138 5739 FO
  36   36 12139 5741 FO
  36   36 12140 5742 FO
  36   36 12142 5743 FO
  36   36 12143 5744 FO
  36   36 12144 5745 FO
  36   36 12145 5746 FO
  36   36 12146 5748 FO
  36   36 12147 5749 FO
  36   36 12149 5750 FO
  36   36 12150 5751 FO
  36   36 12151 5752 FO
  36   36 12152 5754 FO
  36   36 12153 5755 FO
  36   36 12154 5756 FO
  36   36 12156 5757 FO
  36   36 12157 5758 FO
  36   36 12158 5759 FO
  36   36 12159 5761 FO
  36   36 12160 5762 FO
  36   36 12161 5763 FO
  36   36 12163 5764 FO
  36   36 12164 5765 FO
  36   36 12165 5766 FO
  36   36 12166 5768 FO
  36   36 12167 5769 FO
  36   36 12168 5770 FO
  36   36 12170 5771 FO
  36   36 12171 5772 FO
  36   36 12172 5774 FO
  36   36 12173 5775 FO
  36   36 12174 5776 FO
  36   36 12175 5777 FO
  36   36 12177 5778 FO
  36   36 12178 5779 FO
  36   36 12179 5781 FO
  36   36 12180 5782 FO
  36   36 12181 5783 FO
  36   36 12182 5784 FO
  36   36 12184 5785 FO
  36   36 12185 5786 FO
  36   36 12186 5788 FO
  36   36 12187 5789 FO
  36   36 12188 5790 FO
  36   36 12189 5791 FO
  36   36 12191 5792 FO
  36   36 12192 5794 FO
  36   36 12193 5795 FO
  36   36 12194 5796 FO
  36   36 12195 5797 FO
  36   36 12196 5798 FO
  36   36 12198 5799 FO
  36   36 12199 5801 FO
  36   36 12200 5802 FO
  36   36 12201 5803 FO
  36   36 12202 5804 FO
  36   36 12203 5805 FO
  36   36 12205 5807 FO
  36   36 12206 5808 FO
  36   36 12207 5809 FO
  36   36 12208 5810 FO
  36   36 12209 5811 FO
  36   36 12210 5812 FO
  36   36 12212 5814 FO
  36   36 12213 5815 FO
  36   36 12214 5816 FO
  36   36 12215 5817 FO
  36   36 12216 5818 FO
  36   36 12217 5820 FO
  36   36 12219 5821 FO
  36   36 12220 5822 FO
  36   36 12221 5823 FO
  36   36 12222 5824 FO
  36   36 12223 5825 FO
  36   36 12224 5827 FO
  36   36 12226 5828 FO
  36   36 12227 5829 FO
  36   36 12228 5830 FO
  36   36 12229 5831 FO
  36   36 12230 5833 FO
  36   36 12231 5834 FO
  36   36 12233 5835 FO
  36   36 12234 5836 FO
  36   36 12235 5837 FO
  36   36 12236 5839 FO
  36   36 12237 5840 FO
  36   36 12238 5841 FO
  36   36 12240 5842 FO
  36   36 12241 5843 FO
  36   36 12242 5844 FO
  36   36 12243 5846 FO
  36   36 12244 5847 FO
  36   36 12245 5848 FO
  36   36 12247 5849 FO
  36   36 12248 5850 FO
  36   36 12249 5852 FO
  36   36 12250 5853 FO
  36   36 12251 5854 FO
  36   36 12252 5855 FO
  36   36 12254 5856 FO
  36   36 12255 5857 FO
  36   36 12256 5859 FO
  36   36 12257 5860 FO
  36   36 12258 5861 FO
  36   36 12259 5862 FO
  36   36 12261 5863 FO
  36   36 12262 5865 FO
  36   36 12263 5866 FO
  36   36 12264 5867 FO
  36   36 12265 5868 FO
  36   36 12266 5869 FO
  36   36 12268 5871 FO
  36   36 12269 5872 FO
  36   36 12270 5873 FO
  36   36 12271 5874 FO
  36   36 12272 5875 FO
  36   36 12273 5877 FO
  36   36 12275 5878 FO
  36   36 12276 5879 FO
  36   36 12277 5880 FO
  36   36 12278 5881 FO
  36   36 12279 5882 FO
  36   36 12280 5884 FO
  36   36 12282 5885 FO
  36   36 12283 5886 FO
  36   36 12284 5887 FO
  36   36 12285 5888 FO
  36   36 12286 5890 FO
  36   36 12288 5891 FO
  36   36 12289 5892 FO
  36   36 12290 5893 FO
  36   36 12291 5894 FO
  36   36 12292 5896 FO
  36   36 12293 5897 FO
  36   36 12295 5898 FO
  36   36 12296 5899 FO
  36   36 12297 5900 FO
  36   36 12298 5902 FO
  36   36 12299 5903 FO
  36   36 12300 5904 FO
  36   36 12302 5905 FO
  36   36 12303 5906 FO
  36   36 12304 5907 FO
  36   36 12305 5909 FO
  36   36 12306 5910 FO
  36   36 12307 5911 FO
  36   36 12309 5912 FO
  36   36 12310 5913 FO
  36   36 12311 5915 FO
  36   36 12312 5916 FO
  36   36 12313 5917 FO
  36   36 12314 5918 FO
  36   36 12316 5919 FO
  36   36 12317 5921 FO
  36   36 12318 5922 FO
  36   36 12319 5923 FO
  36   36 12320 5924 FO
  36   36 12321 5925 FO
  36   36 12323 5927 FO
  36   36 12324 5928 FO
  36   36 12325 5929 FO
  36   36 12326 5930 FO
  36   36 12327 5931 FO
  36   36 12328 5933 FO
  36   36 12330 5934 FO
  36   36 12331 5935 FO
  36   36 12332 5936 FO
  36   36 12333 5937 FO
  36   36 12334 5939 FO
  36   36 12335 5940 FO
  36   36 12337 5941 FO
  36   36 12338 5942 FO
  36   36 12339 5943 FO
  36   36 12340 5945 FO
  36   36 12341 5946 FO
  36   36 12342 5947 FO
  36   36 12344 5948 FO
  36   36 12345 5949 FO
  36   36 12346 5951 FO
  36   36 12347 5952 FO
  36   36 12348 5953 FO
  36   36 12349 5954 FO
  36   36 12351 5955 FO
  36   36 12352 5957 FO
  36   36 12353 5958 FO
  36   36 12354 5959 FO
  36   36 12355 5960 FO
  36   36 12356 5961 FO
  36   36 12358 5963 FO
  36   36 12359 5964 FO
  36   36 12360 5965 FO
  36   36 12361 5966 FO
  36   36 12362 5967 FO
  36   36 12363 5969 FO
  36   36 12365 5970 FO
  36   36 12366 5971 FO
  36   36 12367 5972 FO
  36   36 12368 5973 FO
  36   36 12369 5975 FO
  36   36 12370 5976 FO
  36   36 12372 5977 FO
  36   36 12373 5978 FO
  36   36 12374 5979 FO
  36   36 12375 5981 FO
  36   36 12376 5982 FO
  36   36 12377 5983 FO
  36   36 12379 5984 FO
  36   36 12380 5985 FO
  36   36 12381 5987 FO
  36   36 12382 5988 FO
  36   36 12383 5989 FO
  36   36 12384 5990 FO
  36   36 12386 5991 FO
  36   36 12387 5993 FO
  36   36 12388 5994 FO
  36   36 12389 5995 FO
  36   36 12390 5996 FO
  36   36 12391 5997 FO
  36   36 12393 5999 FO
  36   36 12394 6000 FO
  36   36 12395 6001 FO
  36   36 12396 6002 FO
  36   36 12397 6003 FO
  36   36 12398 6005 FO
  36   36 12400 6006 FO
gs 1958 619 11672 6731 rc
48 w
gr

48 w
0 sg
  36   36 10127 6003 PO
  36   36 10127 6003 FO
gs 1958 619 11672 6731 rc
gr

%%IncludeResource: font Helvetica
/Helvetica /WindowsLatin1Encoding 120 FMSR

1941 7392 mt 
( ) s
13613  661 mt 
( ) s
6 w
1 sg
0 678 4062 0 0 -678 9450 1379 4 MP
PP
-4062 0 0 678 4062 0 0 -678 9450 1379 5 MP stroke
4 w
DO
SO
6 w
9450  701 mt 13512  701 L
9450 1379 mt 13512 1379 L
13512 1379 mt 13512  701 L
9450 1379 mt 9450  701 L
9450 1379 mt 13512 1379 L
9450 1379 mt 9450  701 L
9450  701 mt 13512  701 L
9450 1379 mt 13512 1379 L
13512 1379 mt 13512  701 L
9450 1379 mt 9450  701 L
0 sg
%%IncludeResource: font Courier
/Courier /WindowsLatin1Encoding 360 FMSR

10047 1153 mt 
(Preferred Region) s
gs 9450 701 4063 679 rc
72 w
gs 9625 889 293 293 rc
c9
  36   36 9771 1035 FO
gr

c9
6 w
gr

c9
0 sg
%%IncludeResource: font Courier-Bold
/Courier-Bold /WindowsLatin1Encoding 360 FMSR

7430 5002 mt 
(\( 0.7, 0.2 \)) s

end %%Color Dict

eplot
%%EndObject

epage
end

showpage

%%Trailer
%%EOF
