%!PS-Adobe-3.0 EPSF-3.0
%%Creator: MATLAB, The MathWorks, Inc. Version 7.13.0.564 (R2011b). Operating System: Microsoft Windows XP.
%%Title: D:\DriveG\Sem2-2012\Program\ReferenceMetric-v3\metricfig\zdt2\zdt2-rnsgaii.eps
%%CreationDate: 02/20/2013  12:47:32
%%DocumentNeededFonts: Helvetica
%%+ Courier-Bold
%%+ Courier
%%DocumentProcessColors: Cyan Magenta Yellow Black
%%LanguageLevel: 2
%%Pages: 1
%%BoundingBox:  -191   208   787   632
%%EndComments

%%BeginProlog
% MathWorks dictionary
/MathWorks 160 dict begin
% definition operators
/bdef {bind def} bind def
/ldef {load def} bind def
/xdef {exch def} bdef
/xstore {exch store} bdef
% operator abbreviations
/c  /clip ldef
/cc /concat ldef
/cp /closepath ldef
/gr /grestore ldef
/gs /gsave ldef
/mt /moveto ldef
/np /newpath ldef
/cm /currentmatrix ldef
/sm /setmatrix ldef
/rm /rmoveto ldef
/rl /rlineto ldef
/s {show newpath} bdef
/sc {setcmykcolor} bdef
/sr /setrgbcolor ldef
/sg /setgray ldef
/w /setlinewidth ldef
/j /setlinejoin ldef
/cap /setlinecap ldef
/rc {rectclip} bdef
/rf {rectfill} bdef
% page state control
/pgsv () def
/bpage {/pgsv save def} bdef
/epage {pgsv restore} bdef
/bplot /gsave ldef
/eplot {stroke grestore} bdef
% orientation switch
/portraitMode 0 def /landscapeMode 1 def /rotateMode 2 def
% coordinate system mappings
/dpi2point 0 def
% font control
/FontSize 0 def
/FMS {/FontSize xstore findfont [FontSize 0 0 FontSize neg 0 0]
  makefont setfont} bdef
/ISOLatin1Encoding where {pop /WindowsLatin1Encoding 256 array bdef
ISOLatin1Encoding WindowsLatin1Encoding copy pop
/.notdef/.notdef/quotesinglbase/florin/quotedblbase/ellipsis/dagger
/daggerdbl/circumflex/perthousand/Scaron/guilsinglleft/OE/.notdef/.notdef
/.notdef/.notdef/quoteleft/quoteright/quotedblleft/quotedblright/bullet
/endash/emdash/tilde/trademark/scaron/guilsinglright/oe/.notdef/.notdef
/Ydieresis WindowsLatin1Encoding 128 32 getinterval astore pop}
{/WindowsLatin1Encoding StandardEncoding bdef} ifelse
/reencode {exch dup where {pop load} {pop StandardEncoding} ifelse
  exch dup 3 1 roll findfont dup length dict begin
  { 1 index /FID ne {def}{pop pop} ifelse } forall
  /Encoding exch def currentdict end definefont pop} bdef
/isroman {findfont /CharStrings get /Agrave known} bdef
/FMSR {3 1 roll 1 index dup isroman {reencode} {pop pop} ifelse
  exch FMS} bdef
/csm {1 dpi2point div -1 dpi2point div scale neg translate
 dup landscapeMode eq {pop -90 rotate}
  {rotateMode eq {90 rotate} if} ifelse} bdef
% line types: solid, dotted, dashed, dotdash
/SO { [] 0 setdash } bdef
/DO { [.5 dpi2point mul 4 dpi2point mul] 0 setdash } bdef
/DA { [6 dpi2point mul] 0 setdash } bdef
/DD { [.5 dpi2point mul 4 dpi2point mul 6 dpi2point mul 4
  dpi2point mul] 0 setdash } bdef
% macros for lines and objects
/L {lineto stroke} bdef
/MP {3 1 roll moveto 1 sub {rlineto} repeat} bdef
/AP {{rlineto} repeat} bdef
/PDlw -1 def
/W {/PDlw currentlinewidth def setlinewidth} def
/PP {closepath eofill} bdef
/DP {closepath stroke} bdef
/MR {4 -2 roll moveto dup  0 exch rlineto exch 0 rlineto
  neg 0 exch rlineto closepath} bdef
/FR {MR stroke} bdef
/PR {MR fill} bdef
/L1i {{currentfile picstr readhexstring pop} image} bdef
/tMatrix matrix def
/MakeOval {newpath tMatrix currentmatrix pop translate scale
0 0 1 0 360 arc tMatrix setmatrix} bdef
/FO {MakeOval stroke} bdef
/PO {MakeOval fill} bdef
/PD {currentlinewidth 2 div 0 360 arc fill
   PDlw -1 eq not {PDlw w /PDlw -1 def} if} def
/FA {newpath tMatrix currentmatrix pop translate scale
  0 0 1 5 -2 roll arc tMatrix setmatrix stroke} bdef
/PA {newpath tMatrix currentmatrix pop	translate 0 0 moveto scale
  0 0 1 5 -2 roll arc closepath tMatrix setmatrix fill} bdef
/FAn {newpath tMatrix currentmatrix pop translate scale
  0 0 1 5 -2 roll arcn tMatrix setmatrix stroke} bdef
/PAn {newpath tMatrix currentmatrix pop translate 0 0 moveto scale
  0 0 1 5 -2 roll arcn closepath tMatrix setmatrix fill} bdef
/vradius 0 def /hradius 0 def /lry 0 def
/lrx 0 def /uly 0 def /ulx 0 def /rad 0 def
/MRR {/vradius xdef /hradius xdef /lry xdef /lrx xdef /uly xdef
  /ulx xdef newpath tMatrix currentmatrix pop ulx hradius add uly
  vradius add translate hradius vradius scale 0 0 1 180 270 arc 
  tMatrix setmatrix lrx hradius sub uly vradius add translate
  hradius vradius scale 0 0 1 270 360 arc tMatrix setmatrix
  lrx hradius sub lry vradius sub translate hradius vradius scale
  0 0 1 0 90 arc tMatrix setmatrix ulx hradius add lry vradius sub
  translate hradius vradius scale 0 0 1 90 180 arc tMatrix setmatrix
  closepath} bdef
/FRR {MRR stroke } bdef
/PRR {MRR fill } bdef
/MlrRR {/lry xdef /lrx xdef /uly xdef /ulx xdef /rad lry uly sub 2 div def
  newpath tMatrix currentmatrix pop ulx rad add uly rad add translate
  rad rad scale 0 0 1 90 270 arc tMatrix setmatrix lrx rad sub lry rad
  sub translate rad rad scale 0 0 1 270 90 arc tMatrix setmatrix
  closepath} bdef
/FlrRR {MlrRR stroke } bdef
/PlrRR {MlrRR fill } bdef
/MtbRR {/lry xdef /lrx xdef /uly xdef /ulx xdef /rad lrx ulx sub 2 div def
  newpath tMatrix currentmatrix pop ulx rad add uly rad add translate
  rad rad scale 0 0 1 180 360 arc tMatrix setmatrix lrx rad sub lry rad
  sub translate rad rad scale 0 0 1 0 180 arc tMatrix setmatrix
  closepath} bdef
/FtbRR {MtbRR stroke } bdef
/PtbRR {MtbRR fill } bdef
/stri 6 array def /dtri 6 array def
/smat 6 array def /dmat 6 array def
/tmat1 6 array def /tmat2 6 array def /dif 3 array def
/asub {/ind2 exch def /ind1 exch def dup dup
  ind1 get exch ind2 get sub exch } bdef
/tri_to_matrix {
  2 0 asub 3 1 asub 4 0 asub 5 1 asub
  dup 0 get exch 1 get 7 -1 roll astore } bdef
/compute_transform {
  dmat dtri tri_to_matrix tmat1 invertmatrix 
  smat stri tri_to_matrix tmat2 concatmatrix } bdef
/ds {stri astore pop} bdef
/dt {dtri astore pop} bdef
/db {2 copy /cols xdef /rows xdef mul dup 3 mul string
  currentfile 
  3 index 0 eq {/ASCIIHexDecode filter}
  {/ASCII85Decode filter 3 index 2 eq {/RunLengthDecode filter} if }
  ifelse exch readstring pop
  dup 0 3 index getinterval /rbmap xdef
  dup 2 index dup getinterval /gbmap xdef
  1 index dup 2 mul exch getinterval /bbmap xdef pop pop}bdef
/it {gs np dtri aload pop moveto lineto lineto cp c
  cols rows 8 compute_transform 
  rbmap gbmap bbmap true 3 colorimage gr}bdef
/il {newpath moveto lineto stroke}bdef
currentdict end def
%%EndProlog

%%BeginSetup
MathWorks begin

0 cap

end
%%EndSetup

%%Page: 1 1
%%BeginPageSetup
%%PageBoundingBox:  -191   208   787   632
MathWorks begin
bpage
%%EndPageSetup

%%BeginObject: obj1
bplot

/dpi2point 12 def
portraitMode -2292 7584 csm

    0     0 11746  5078 rc
86 dict begin %Colortable dictionary
/c0 { 0.000000 0.000000 0.000000 sr} bdef
/c1 { 1.000000 1.000000 1.000000 sr} bdef
/c2 { 0.900000 0.000000 0.000000 sr} bdef
/c3 { 0.000000 0.820000 0.000000 sr} bdef
/c4 { 0.000000 0.000000 0.800000 sr} bdef
/c5 { 0.910000 0.820000 0.320000 sr} bdef
/c6 { 1.000000 0.260000 0.820000 sr} bdef
/c7 { 0.000000 0.820000 0.820000 sr} bdef
c0
1 j
1 sg
   0    0 11747 5079 rf
6 w
0 4601 8858 0 0 -4601 1539 4784 4 MP
PP
-8858 0 0 4601 8858 0 0 -4601 1539 4784 5 MP stroke
4 w
DO
SO
6 w
0 sg
1539  183 mt 10397  183 L
1539 4784 mt 10397 4784 L
10397 4784 mt 10397  183 L
1539 4784 mt 1539  183 L
1539 4784 mt 10397 4784 L
1539 4784 mt 1539  183 L
1539 4784 mt 1539 4695 L
1539  183 mt 1539  271 L
%%IncludeResource: font Helvetica
/Helvetica /WindowsLatin1Encoding 192 FMSR

1486 4996 mt 
(0) s
2424 4784 mt 2424 4695 L
2424  183 mt 2424  271 L
2291 4996 mt 
(0.1) s
3310 4784 mt 3310 4695 L
3310  183 mt 3310  271 L
3177 4996 mt 
(0.2) s
4196 4784 mt 4196 4695 L
4196  183 mt 4196  271 L
4063 4996 mt 
(0.3) s
5082 4784 mt 5082 4695 L
5082  183 mt 5082  271 L
4949 4996 mt 
(0.4) s
5968 4784 mt 5968 4695 L
5968  183 mt 5968  271 L
5835 4996 mt 
(0.5) s
6853 4784 mt 6853 4695 L
6853  183 mt 6853  271 L
6720 4996 mt 
(0.6) s
7739 4784 mt 7739 4695 L
7739  183 mt 7739  271 L
7606 4996 mt 
(0.7) s
8625 4784 mt 8625 4695 L
8625  183 mt 8625  271 L
8492 4996 mt 
(0.8) s
9511 4784 mt 9511 4695 L
9511  183 mt 9511  271 L
9378 4996 mt 
(0.9) s
10397 4784 mt 10397 4695 L
10397  183 mt 10397  271 L
10344 4996 mt 
(1) s
1539 4784 mt 1627 4784 L
10397 4784 mt 10308 4784 L
1398 4855 mt 
(0) s
1539 4323 mt 1627 4323 L
10397 4323 mt 10308 4323 L
1238 4394 mt 
(0.1) s
1539 3863 mt 1627 3863 L
10397 3863 mt 10308 3863 L
1238 3934 mt 
(0.2) s
1539 3403 mt 1627 3403 L
10397 3403 mt 10308 3403 L
1238 3474 mt 
(0.3) s
1539 2943 mt 1627 2943 L
10397 2943 mt 10308 2943 L
1238 3014 mt 
(0.4) s
1539 2483 mt 1627 2483 L
10397 2483 mt 10308 2483 L
1238 2554 mt 
(0.5) s
1539 2023 mt 1627 2023 L
10397 2023 mt 10308 2023 L
1238 2094 mt 
(0.6) s
1539 1563 mt 1627 1563 L
10397 1563 mt 10308 1563 L
1238 1634 mt 
(0.7) s
1539 1103 mt 1627 1103 L
10397 1103 mt 10308 1103 L
1238 1174 mt 
(0.8) s
1539  643 mt 1627  643 L
10397  643 mt 10308  643 L
1238  714 mt 
(0.9) s
1539  183 mt 1627  183 L
10397  183 mt 10308  183 L
1398  254 mt 
(1) s
1539  183 mt 10397  183 L
1539 4784 mt 10397 4784 L
10397 4784 mt 10397  183 L
1539 4784 mt 1539  183 L
gs 1539 183 8859 4602 rc
27.6 w
/c8 { 0.000000 0.000000 1.000000 sr} bdef
c8
1 1 1 1 1 1 1 1 1 1 1 1 1 1 1 1 
0 1 1 1 1 1 1 1 1 0 1 1 1 1 1 1 
1 1 0 1 1 1 1 1 1 1 1 1 1 1 1 1 
1 0 1 1 0 1 1 1 1 1 1 1 1 1 1 1 
1 1 1 1 1 1 1 1 1 1 1 1 1 1 1 1 
1 1 1 1 0 1 1 1 1 1 1 1 1 1 1 0 
1 1 1 1 1 1 0 1 1 1 1 1 1 1 1 1 
1 1 1 1 1 1 1 0 -1 0 2 2 1 1 1 1 
1 1 1 1 1 1 1 1 1 1 0 1 1 1 1 0 
1 1 1 1 1 1 1 1 1 1 0 1 1 1 1 1 
1 1 1 1 1 0 1 1 1 1 1 1 0 1 1 1 
1 1 1 1 1 1 1 1 1 1 1 1 1 0 -1 0 
2 2 1 1 1 1 1 1 1 1 1 1 1 1 1 1 
1 1 1 1 1 1 1 1 1 1 1 1 1 1 0 1 
1 1 1 1 1 1 1 0 1 1 1 1 1 1 1 1 
0 1 1 1 1 1 1 1 1 1 1 1 1 0 1 1 
1 1 0 1 1 1 1 1 1 1 1 1 1 1 1 1 
1 1 1 0 -1 0 2 2 1 1 1 1 1 1 1 1 
1 1 1 1 1 1 1 1 1 1 1 1 1 1 1 1 
1 1 1 1 0 1 1 1 1 1 1 0 1 1 1 1 
1 1 1 1 1 1 0 1 1 1 1 1 1 1 1 1 
1 0 1 1 1 1 1 1 0 1 1 1 1 1 1 1 
1 1 1 1 1 0 1 1 0 1 1 1 1 1 1 1 
1 1 1 1 1 1 1 1 1 0 -1 0 2 2 1 1 
1 1 1 1 1 1 1 1 1 1 1 1 1 1 1 1 
1 1 1 1 1 1 1 1 1 1 1 1 0 1 1 1 
1 0 1 1 1 1 1 1 1 1 1 1 0 1 1 1 
1 1 1 1 1 0 1 1 1 1 1 1 1 1 0 1 
1 1 1 1 1 1 1 1 1 0 1 1 1 1 1 1 
0 1 1 1 1 1 1 1 1 1 1 0 1 1 1 1 
1 1 0 1 1 1 1 1 1 1 1 1 1 1 1 0 
1 1 0 1 1 1 1 1 1 1 1 1 1 1 1 1 
1 1 1 0 -1 0 2 2 1 1 1 1 1 1 1 1 
1 1 1 1 1 0 -1 0 2 2 1 1 1 1 1 1 
1 1 1 1 1 1 1 1 1 1 1 1 1 1 1 1 
1 1 1 1 1 1 1 1 1 1 1 1 1 1 1 1 
1 1 1 1 1 1 0 1 1 1 1 0 1 1 1 1 
1 1 1 1 1 1 10126 4507 300 MP stroke
1 1 0 1 1 1 1 0 1 1 1 1 1 1 1 1 
1 1 1 1 0 1 1 1 1 0 1 1 1 1 1 1 
1 1 1 1 0 1 1 1 1 1 1 0 1 1 1 1 
1 1 1 1 1 1 0 1 1 1 1 1 1 0 1 1 
1 1 1 1 1 1 1 1 0 1 1 1 1 1 1 0 
1 1 1 1 1 1 1 1 1 1 0 1 1 1 1 1 
1 0 1 1 1 1 1 1 1 1 1 1 0 1 1 1 
1 1 1 0 1 1 1 1 1 1 1 1 0 1 1 1 
1 1 1 1 1 0 1 1 1 1 1 1 1 1 0 1 
1 1 1 1 1 1 1 0 1 1 1 1 1 1 1 1 
0 1 1 1 1 1 1 0 1 1 1 1 1 1 1 1 
1 1 0 1 1 1 1 1 1 0 1 1 1 1 1 1 
1 1 0 1 1 1 1 1 1 1 1 0 1 1 1 1 
1 1 1 1 0 1 1 1 1 1 1 0 1 1 1 1 
1 1 1 1 1 1 0 1 1 1 1 1 1 0 1 1 
1 1 1 1 1 1 1 1 0 1 1 1 1 0 1 1 
1 1 1 1 1 1 1 1 0 1 1 1 1 0 1 1 
1 1 1 1 1 1 1 1 1 1 0 1 1 1 1 0 
1 1 1 1 1 1 1 1 1 1 1 1 1 1 1 1 
1 1 1 1 1 1 1 1 1 1 1 1 1 1 1 1 
1 1 1 1 1 1 1 1 1 1 1 1 1 1 1 1 
1 1 1 1 1 1 1 1 1 0 -1 0 2 2 1 1 
1 1 1 1 1 1 1 1 1 0 1 1 0 1 1 1 
1 1 1 1 1 1 1 1 1 0 1 1 1 1 0 1 
1 1 1 1 1 1 1 1 1 0 1 1 1 1 0 1 
1 1 1 1 1 1 1 1 1 0 1 1 1 1 1 1 
0 1 1 1 1 1 1 1 1 0 1 1 1 1 1 1 
1 1 0 1 1 1 1 1 1 0 1 1 1 1 1 1 
1 1 1 1 0 1 1 1 1 0 1 1 1 1 1 1 
1 1 1 1 1 1 1 1 1 1 1 1 1 1 1 1 
1 1 1 1 1 1 1 1 1 1 1 1 1 1 1 1 
1 1 1 0 -1 0 2 2 1 1 1 1 1 1 1 1 
1 0 1 1 1 1 0 1 1 1 1 1 1 1 1 1 
1 0 1 1 1 1 0 1 1 1 1 1 1 1 1 0 
1 1 1 1 1 1 1 1 0 1 1 1 1 1 1 0 
1 1 1 1 1 1 1 1 1 1 1 1 1 1 1 1 
1 1 1 1 1 1 1 1 1 1 1 1 1 1 1 1 
1 1 1 1 1 1 9855 4238 300 MP stroke
1 0 -1 0 2 2 1 1 1 1 1 1 1 1 1 0 
1 1 1 1 0 1 1 1 1 1 1 1 1 1 1 0 
1 1 1 1 1 1 0 1 1 1 1 1 1 0 1 1 
1 1 1 1 1 1 1 1 1 1 1 1 1 1 1 1 
1 1 1 1 1 1 1 1 1 1 1 1 1 1 1 1 
1 1 1 0 1 1 0 1 1 1 1 1 1 1 1 1 
1 1 1 0 1 1 1 1 0 1 1 1 1 1 1 1 
1 0 1 1 1 1 1 1 1 1 0 1 1 1 1 0 
1 1 1 1 1 1 1 1 1 1 1 1 1 1 1 1 
1 1 1 1 1 1 1 1 1 0 -1 0 2 2 1 1 
1 1 1 1 1 1 1 0 1 1 1 1 0 1 1 1 
1 1 1 1 1 0 1 1 1 1 1 1 1 1 0 1 
1 1 1 0 1 1 1 1 1 1 1 1 1 1 1 0 
-1 0 2 2 1 1 1 1 1 1 1 1 1 0 1 1 
0 1 1 1 1 1 1 1 1 1 1 0 1 1 1 1 
1 1 0 1 1 1 1 1 1 0 1 1 1 1 1 1 
1 1 1 1 1 1 1 1 1 1 1 1 1 1 1 1 
1 0 1 1 0 1 1 1 1 1 1 1 1 1 1 0 
1 1 1 1 0 1 1 1 1 1 1 1 1 0 1 1 
1 1 1 1 1 1 1 1 1 1 1 1 1 1 1 1 
1 1 1 1 1 0 -1 0 2 2 1 1 1 1 1 1 
1 1 1 0 1 1 1 1 0 1 1 1 1 1 1 0 
1 1 1 1 1 1 1 1 0 1 1 1 1 0 1 1 
1 1 1 1 1 1 1 1 1 0 -1 0 2 2 1 1 
1 1 1 1 1 1 1 0 1 1 1 1 0 1 1 1 
1 1 1 0 1 1 1 1 1 1 1 1 1 1 1 1 
1 1 1 1 1 1 1 1 1 1 1 0 -1 0 2 2 
1 1 1 1 1 1 1 0 1 1 1 1 1 1 0 1 
1 1 1 1 1 0 1 1 1 1 1 1 1 1 1 1 
1 1 1 1 1 1 1 1 1 1 1 0 1 1 1 1 
0 1 1 1 1 1 1 1 1 0 1 1 1 1 1 1 
0 1 1 1 1 0 1 1 1 1 1 1 1 1 1 1 
1 0 -1 0 2 2 1 1 1 1 1 1 1 0 1 1 
1 1 1 1 0 1 1 1 1 1 1 0 1 1 1 1 
1 1 1 1 1 1 1 1 1 1 1 1 1 1 1 1 
1 0 1 1 0 1 1 1 1 1 1 1 1 0 1 1 
1 1 1 1 1 1 1 1 1 1 1 1 1 1 1 1 
1 1 1 0 1 1 9582 3977 300 MP stroke
0 1 1 1 1 1 1 1 1 0 1 1 1 1 1 1 
1 1 1 1 1 1 1 1 1 1 1 1 1 1 1 0 
-1 0 2 2 1 1 1 1 1 1 1 1 1 0 1 1 
1 1 0 1 1 1 1 1 1 0 1 1 1 1 1 1 
1 1 1 0 -1 0 2 2 1 1 1 1 1 1 1 0 
1 1 1 1 1 1 0 1 1 1 1 0 1 1 1 1 
1 1 1 1 1 1 1 1 1 1 1 1 1 1 1 1 
1 0 1 1 1 1 0 1 1 1 1 1 1 0 1 1 
1 1 1 1 1 1 1 1 1 1 1 1 1 1 1 1 
1 1 1 0 1 1 1 1 0 1 1 1 1 1 1 0 
1 1 1 1 1 1 1 1 1 0 -1 0 2 2 1 1 
1 1 1 1 1 0 1 1 1 1 0 1 1 1 1 1 
1 0 1 1 1 1 1 1 1 1 1 1 1 1 1 1 
1 1 1 1 1 0 1 1 1 1 1 1 0 1 1 1 
1 0 1 1 1 1 1 1 1 1 1 1 1 0 -1 0 
2 2 1 1 1 1 1 1 1 0 1 1 1 1 0 1 
1 1 1 0 1 1 1 1 1 1 1 1 1 1 1 0 
-1 0 2 2 1 1 1 1 1 1 1 0 1 1 1 1 
1 1 1 1 1 1 1 1 1 1 1 1 1 1 1 0 
1 1 0 1 1 1 1 1 1 0 1 1 1 1 1 1 
1 1 1 1 1 1 1 1 1 1 1 1 1 0 1 1 
1 1 0 1 1 1 1 1 1 0 1 1 1 1 1 1 
1 1 1 1 1 1 1 1 1 1 1 1 1 0 1 1 
1 1 1 1 0 1 1 1 1 0 1 1 1 1 1 1 
1 1 1 0 -1 0 2 2 1 1 1 1 1 0 1 1 
1 1 1 1 1 1 1 1 1 1 1 1 1 1 1 1 
1 0 1 1 1 1 0 1 1 1 1 1 1 0 1 1 
1 1 1 1 1 1 1 0 -1 0 2 2 1 1 1 1 
1 1 1 0 1 1 1 1 0 1 1 1 1 0 1 1 
1 1 1 1 1 1 1 0 1 1 0 1 1 1 1 1 
1 1 1 0 1 1 1 1 1 1 1 1 1 1 1 1 
1 1 1 1 1 0 1 1 1 1 1 1 0 1 1 1 
1 0 1 1 1 1 1 1 1 1 1 0 -1 0 2 2 
1 1 1 1 1 0 1 1 1 1 1 1 1 1 1 1 
1 1 1 1 1 1 1 1 1 0 1 1 1 1 0 1 
1 1 1 0 1 1 1 1 1 1 1 1 1 0 1 1 
0 1 1 1 1 1 1 0 1 1 1 1 1 1 1 1 
1 1 1 1 1 1 9308 3722 300 MP stroke
1 1 1 1 1 0 1 1 1 1 0 1 1 1 1 0 
1 1 1 1 1 1 1 1 1 0 1 1 0 1 1 1 
1 1 1 0 1 1 1 1 1 1 1 1 1 0 -1 0 
2 2 1 1 1 1 1 0 1 1 1 1 1 1 0 1 
1 1 1 0 1 1 1 1 1 1 1 1 1 0 1 1 
0 1 1 1 1 1 1 0 1 1 1 1 1 1 1 1 
1 0 -1 0 2 2 1 1 1 1 1 0 1 1 1 1 
1 1 1 1 1 1 1 1 1 1 1 1 1 0 1 1 
1 1 0 1 1 1 1 0 1 1 1 1 1 1 1 1 
1 0 1 1 0 1 1 1 1 1 1 0 1 1 1 1 
1 1 1 1 1 0 -1 0 2 2 1 1 1 1 1 0 
1 1 1 1 1 1 1 1 1 1 1 1 1 1 1 1 
1 0 1 1 1 1 0 1 1 1 1 0 1 1 1 1 
1 1 1 1 1 0 1 1 0 1 1 1 1 1 1 0 
1 1 1 1 1 1 1 1 1 0 -1 0 2 2 1 1 
1 1 1 0 1 1 1 1 1 1 1 0 -1 0 2 2 
1 1 1 1 1 0 1 1 1 1 1 1 1 1 1 1 
1 1 1 1 1 1 1 0 1 1 1 1 0 1 1 1 
1 0 1 1 1 1 1 1 1 1 1 0 1 1 0 1 
1 1 1 1 1 0 1 1 1 1 1 1 1 0 1 1 
0 1 1 1 1 1 1 0 1 1 1 1 1 1 1 1 
1 0 -1 0 2 2 1 1 1 1 1 0 1 1 1 1 
1 1 1 1 1 1 1 1 1 1 1 0 1 1 1 1 
1 1 1 1 1 1 1 1 1 1 1 1 1 0 1 1 
1 1 0 1 1 1 1 0 1 1 1 1 1 1 1 0 
1 1 1 1 0 1 1 1 1 0 1 1 1 1 1 1 
1 1 1 0 -1 0 2 2 1 1 1 0 1 1 1 1 
1 1 1 1 1 0 -1 0 2 2 1 1 1 1 1 0 
1 1 1 1 1 1 1 0 -1 0 2 2 1 1 1 1 
1 0 1 1 1 1 1 1 1 1 1 1 1 1 1 1 
1 0 1 1 1 1 1 1 1 1 1 1 1 1 1 1 
1 1 1 0 1 1 1 1 1 1 1 1 1 1 1 1 
1 1 1 0 1 1 1 1 1 1 1 1 1 1 1 1 
1 1 1 0 1 1 1 1 0 1 1 1 1 0 1 1 
1 1 1 1 1 0 1 1 0 1 1 1 1 1 1 0 
1 1 1 1 1 1 1 0 1 1 0 1 1 1 1 1 
1 0 1 1 1 1 1 1 1 0 1 1 0 1 1 1 
1 1 1 0 1 1 9035 3478 300 MP stroke
1 1 1 1 1 0 1 1 0 1 1 1 1 1 1 0 
1 1 1 1 1 1 1 0 -1 0 2 2 1 1 1 1 
1 0 1 1 1 1 1 1 1 0 -1 0 2 2 1 1 
1 1 1 0 1 1 1 1 1 1 1 0 -1 0 2 2 
1 1 1 1 1 0 1 1 1 1 1 1 1 0 -1 0 
2 2 1 1 1 1 1 0 1 1 1 1 1 1 1 1 
1 1 1 1 1 1 1 0 1 1 1 1 1 1 1 1 
1 1 1 1 1 0 1 1 1 1 1 1 1 1 1 1 
1 1 1 1 1 0 1 1 1 1 1 1 1 1 1 1 
1 1 1 1 1 0 1 1 1 1 1 1 1 1 1 1 
1 1 1 1 1 0 1 1 1 1 1 1 1 1 1 1 
1 1 1 0 1 1 1 1 1 1 1 1 1 1 1 1 
1 1 1 0 1 1 1 1 1 1 1 0 -1 0 2 2 
1 1 1 1 1 0 1 1 1 1 1 1 1 1 1 1 
1 1 1 0 1 1 1 1 1 1 1 1 1 1 1 1 
1 1 1 0 1 1 1 1 1 1 1 0 -1 0 2 2 
1 1 1 1 1 0 1 1 1 1 1 1 1 0 -1 0 
2 2 1 1 1 0 1 1 1 1 1 1 1 0 1 1 
0 1 1 1 1 1 1 0 1 1 1 1 1 1 1 0 
-1 0 2 2 1 1 1 0 1 1 1 1 1 1 1 0 
1 1 0 1 1 1 1 1 1 0 1 1 1 1 1 1 
1 0 1 1 0 1 1 1 1 0 1 1 1 1 1 1 
1 0 1 1 1 1 1 1 1 1 1 1 1 1 1 1 
1 0 1 1 0 1 1 1 1 0 1 1 1 1 1 1 
1 0 1 1 1 1 1 1 1 1 1 1 1 1 1 0 
1 1 1 1 1 1 1 1 1 1 1 1 1 0 1 1 
1 1 1 1 1 1 1 1 1 1 1 1 1 0 1 1 
1 1 1 1 1 1 1 1 1 1 1 0 1 1 1 1 
1 1 1 0 -1 0 2 2 1 1 1 0 1 1 1 1 
1 1 1 0 1 1 0 1 1 1 1 0 1 1 1 1 
1 1 1 1 1 0 1 1 0 1 1 1 1 0 1 1 
1 1 1 1 1 0 1 1 0 1 1 1 1 0 1 1 
1 1 1 1 1 0 1 1 1 1 1 1 1 1 1 1 
1 1 1 0 1 1 1 1 1 1 1 1 1 1 1 1 
1 0 1 1 1 1 1 1 1 0 -1 0 2 2 1 1 
1 0 1 1 1 1 1 1 1 0 -1 0 2 2 1 1 
1 0 1 1 1 1 1 1 1 0 1 1 0 1 1 1 
1 0 1 1 1 1 8756 3237 300 MP stroke
1 1 1 0 1 1 1 1 1 1 1 1 1 1 1 1 
1 0 1 1 1 1 1 1 1 1 1 1 1 1 1 0 
1 1 1 1 1 1 1 1 1 1 1 1 1 0 1 1 
1 1 1 1 1 0 -1 0 2 2 1 1 1 0 1 1 
1 1 1 1 1 0 1 1 0 1 1 1 1 0 1 1 
1 1 1 1 1 0 1 1 1 1 1 1 1 1 1 1 
1 1 1 0 1 1 1 1 1 1 1 1 1 1 1 0 
1 1 1 1 1 1 1 0 -1 0 2 2 1 1 1 0 
1 1 1 1 1 1 1 0 1 1 0 1 1 1 1 0 
1 1 1 1 1 1 1 0 1 1 1 1 1 1 1 1 
1 1 1 1 1 0 1 1 1 1 1 1 1 1 1 1 
1 0 1 1 1 1 1 1 1 0 -1 0 2 2 1 1 
1 0 1 1 1 1 1 1 1 0 1 1 0 1 1 1 
1 0 1 1 1 1 1 1 1 0 1 1 1 1 1 1 
1 1 1 1 1 0 1 1 1 1 1 1 1 1 1 1 
1 1 1 0 1 1 1 1 1 1 1 0 -1 0 2 2 
1 0 1 1 1 1 1 1 1 0 1 1 1 1 1 1 
1 1 1 1 1 1 1 0 1 1 1 1 1 1 1 1 
1 1 1 0 1 1 1 1 1 1 1 0 1 1 0 1 
1 1 1 0 1 1 1 1 1 1 1 0 1 1 0 1 
1 1 1 0 1 1 1 1 1 0 1 1 1 1 1 1 
1 1 1 1 1 1 1 0 1 1 1 1 1 1 1 0 
-1 0 2 2 1 0 1 1 1 1 1 1 1 0 1 1 
1 1 1 1 1 1 1 1 1 0 1 1 1 1 1 1 
1 1 1 1 1 1 1 0 1 1 1 1 1 1 1 0 
-1 0 2 2 1 0 1 1 1 1 1 1 1 0 1 1 
1 1 1 1 1 1 1 1 1 0 1 1 1 1 1 1 
1 0 -1 0 2 2 1 1 1 0 1 1 1 1 1 0 
1 1 0 1 1 1 1 0 1 1 1 1 1 1 1 0 
1 1 1 1 1 1 1 1 1 1 1 0 1 1 1 1 
1 1 1 0 -1 0 2 2 1 0 1 1 1 1 1 1 
1 0 1 1 1 1 1 1 1 1 1 1 1 0 1 1 
1 1 1 1 1 1 1 1 1 1 1 0 1 1 1 1 
1 0 1 1 0 1 1 1 1 0 1 1 1 1 1 0 
1 1 1 1 1 1 1 1 1 1 1 1 1 0 1 1 
1 1 1 0 1 1 0 1 1 1 1 0 1 1 1 1 
1 0 1 1 1 1 1 1 1 1 1 1 1 1 1 0 
1 1 1 1 1 0 8473 3003 300 MP stroke
-1 0 2 2 1 1 1 0 1 1 1 1 1 0 1 1 
1 1 1 1 1 1 1 1 1 0 1 1 1 1 1 1 
1 0 -1 0 2 2 1 1 1 0 1 1 1 1 1 0 
1 1 0 1 1 1 1 0 1 1 1 1 1 0 1 1 
1 1 1 1 1 1 1 1 1 0 1 1 1 1 1 1 
1 0 1 1 1 1 1 1 1 1 1 1 1 0 1 1 
1 1 1 0 -1 0 2 2 1 1 1 0 1 1 1 1 
1 0 1 1 0 1 1 1 1 0 1 1 1 1 1 0 
1 1 1 1 1 1 1 1 1 1 1 0 1 1 1 1 
1 1 1 0 1 1 1 1 1 1 1 1 1 1 1 0 
1 1 1 1 1 0 -1 0 2 2 1 1 1 0 1 1 
1 1 1 0 1 1 0 1 1 1 1 0 1 1 1 1 
1 0 1 1 1 1 1 1 1 1 1 1 1 0 1 1 
1 1 1 1 1 0 1 1 1 1 1 1 1 1 1 0 
1 1 1 1 1 1 1 0 -1 0 2 2 1 0 1 1 
1 1 1 1 1 0 1 1 1 1 1 1 1 1 1 1 
1 0 1 1 1 1 1 0 -1 0 2 2 1 0 1 1 
1 1 1 1 1 0 1 1 1 1 1 1 1 1 1 1 
1 0 1 1 1 1 1 0 1 1 1 1 1 1 1 1 
1 1 1 0 1 1 1 1 1 0 -1 0 2 2 1 1 
1 0 1 1 1 1 1 0 1 1 1 1 1 1 1 1 
1 1 1 0 1 1 1 1 1 0 -1 0 2 2 1 1 
1 0 1 1 1 1 1 0 1 1 1 1 1 1 1 1 
1 1 1 0 1 1 1 1 1 0 1 1 1 1 1 1 
1 1 1 1 1 0 1 1 1 1 1 1 1 1 1 0 
1 1 1 1 1 1 1 0 1 1 1 1 1 1 1 1 
1 0 1 1 1 1 1 1 1 0 -1 0 2 2 1 0 
1 1 1 1 1 0 1 1 1 1 1 1 1 1 1 1 
1 0 1 1 1 1 1 0 1 1 0 1 1 1 1 0 
1 1 1 1 1 0 1 1 1 1 1 0 -1 0 2 2 
1 1 1 0 1 1 1 1 1 0 1 1 1 1 1 1 
1 1 1 0 1 1 1 1 1 1 1 0 1 1 1 1 
1 1 1 1 1 0 1 1 1 1 1 1 1 1 1 1 
1 0 1 1 1 1 1 0 1 1 1 1 1 1 1 1 
1 1 1 0 1 1 1 1 1 0 1 1 1 1 1 1 
1 1 1 0 1 1 1 1 1 1 1 0 -1 0 2 2 
1 0 1 1 1 1 1 0 1 1 1 1 1 1 1 1 
1 1 1 0 1 1 8189 2776 300 MP stroke
1 1 1 0 1 1 1 1 1 1 1 1 1 0 1 1 
1 1 1 1 1 0 -1 0 2 2 1 0 1 1 1 1 
1 0 1 1 1 1 1 0 -1 0 2 2 1 0 1 1 
1 1 1 1 1 0 1 1 1 1 1 1 1 1 1 0 
1 1 1 1 1 0 1 1 1 1 1 1 1 1 1 1 
1 0 1 1 1 1 1 0 -1 0 2 2 1 0 1 1 
1 1 1 0 1 1 1 1 1 0 -1 0 2 2 1 1 
1 0 1 1 1 1 1 0 1 1 1 1 1 1 1 1 
1 0 1 1 1 1 1 0 1 1 1 1 1 1 1 1 
1 1 1 0 1 1 1 1 1 0 -1 0 2 2 1 0 
1 1 1 1 1 0 1 1 1 1 1 0 -1 0 2 2 
1 0 1 1 1 1 1 0 1 1 1 1 1 1 1 1 
1 1 1 0 1 1 1 1 1 0 1 1 1 1 1 1 
1 1 1 0 1 1 1 1 1 0 1 1 1 1 1 1 
1 1 1 1 1 0 1 1 1 1 1 0 -1 0 2 2 
1 0 1 1 1 1 1 0 1 1 1 1 1 1 1 1 
1 0 1 1 1 1 1 0 1 1 1 1 1 1 1 1 
1 0 1 1 1 1 1 1 1 0 1 1 1 1 1 1 
1 1 1 0 1 1 1 1 1 0 1 1 1 1 1 1 
1 1 1 0 1 1 1 1 1 0 -1 0 2 2 1 0 
1 1 1 1 1 0 1 1 1 1 1 0 -1 0 2 2 
1 0 1 1 1 1 1 0 1 1 1 1 1 1 1 1 
1 1 1 0 1 1 1 1 1 0 1 1 1 1 1 1 
1 1 1 0 1 1 1 1 1 0 1 1 1 1 1 1 
1 1 1 0 1 1 1 1 1 0 1 1 1 1 1 1 
1 1 1 0 1 1 1 1 1 0 1 1 1 1 1 1 
1 1 1 0 1 1 1 1 1 0 1 1 1 1 1 1 
1 1 1 0 1 1 1 1 1 0 1 1 1 1 1 1 
1 1 1 0 1 1 1 1 1 0 -1 0 2 2 1 0 
1 1 1 1 1 0 1 1 1 1 1 0 -1 0 2 2 
1 0 1 1 1 1 1 0 1 1 1 1 1 0 -1 0 
2 2 1 0 1 1 1 1 1 0 1 1 1 1 1 0 
-1 0 2 2 1 0 1 1 1 1 1 0 1 1 1 1 
1 1 1 1 1 0 1 1 1 1 1 0 1 1 1 1 
1 1 1 1 1 0 1 1 1 1 1 0 1 1 1 1 
1 1 1 1 1 0 1 1 1 1 1 0 1 1 1 1 
1 1 1 1 1 0 1 1 1 1 1 0 1 1 1 1 
1 1 1 1 1 0 7903 2558 300 MP stroke
1 1 1 1 1 0 1 1 1 1 1 1 1 1 1 0 
1 1 1 1 1 0 1 1 1 1 1 1 1 0 1 1 
1 1 1 0 1 1 1 1 1 1 1 1 1 0 1 1 
1 1 1 0 1 1 1 1 1 1 1 1 1 0 1 1 
1 1 1 0 1 1 1 1 1 1 1 1 1 0 1 1 
1 1 1 0 1 1 1 1 1 1 1 1 1 0 1 1 
1 0 1 1 1 1 1 1 1 1 1 0 1 1 1 1 
1 0 1 1 1 1 1 1 1 1 1 0 1 1 1 1 
1 0 1 1 1 1 1 1 1 1 1 0 1 1 1 1 
1 0 1 1 1 1 1 1 1 0 1 1 1 1 1 0 
1 1 1 1 1 1 1 1 1 0 1 1 1 1 1 0 
1 1 1 1 1 1 1 1 1 0 1 1 1 0 1 1 
1 1 1 1 1 1 1 0 1 1 1 1 1 0 1 1 
1 1 1 1 1 1 1 0 1 1 1 1 1 0 1 1 
1 0 -1 0 2 2 1 0 1 1 1 1 1 0 1 1 
1 1 1 1 1 1 1 0 1 1 1 1 1 0 1 1 
1 1 1 1 1 0 1 1 1 1 1 0 1 1 1 1 
1 0 -1 0 2 2 1 0 1 1 1 1 1 0 1 1 
1 1 1 0 1 1 1 1 1 1 1 0 1 1 1 1 
1 0 -1 0 2 2 1 0 1 1 1 1 1 0 1 1 
1 0 1 1 1 1 1 1 1 1 1 0 1 1 1 1 
1 0 1 1 1 1 1 1 1 1 1 0 1 1 1 0 
1 1 1 1 1 1 1 1 1 0 1 1 1 1 1 0 
1 1 1 1 1 1 1 0 1 1 1 1 1 0 1 1 
1 1 1 1 1 1 1 0 1 1 1 0 1 1 1 1 
1 0 -1 0 2 2 1 0 1 1 1 1 1 0 1 1 
1 1 1 0 1 1 1 1 1 1 1 0 1 1 1 1 
1 0 1 1 1 1 1 1 1 0 1 1 1 1 1 0 
1 1 1 1 1 1 1 1 1 0 1 1 1 1 1 0 
1 1 1 1 1 1 1 0 1 1 1 1 1 0 1 1 
1 1 1 1 1 0 1 1 1 1 1 0 1 1 1 1 
1 0 -1 0 2 2 1 0 1 1 1 0 1 1 1 1 
1 0 -1 0 2 2 1 0 1 1 1 1 1 0 1 1 
1 0 1 1 1 1 1 1 1 1 1 0 1 1 1 0 
1 1 1 1 1 1 1 1 1 0 1 1 1 1 1 0 
1 1 1 0 -1 0 2 2 1 0 1 1 1 1 1 0 
1 1 1 0 -1 0 2 2 1 0 1 1 1 1 1 0 
1 1 1 1 1 0 7612 2346 300 MP stroke
1 1 1 1 1 1 1 0 1 1 1 1 1 0 1 1 
1 1 1 1 1 0 1 1 1 1 1 0 1 1 1 1 
1 1 1 0 1 1 1 1 1 0 1 1 1 1 1 1 
1 0 1 1 1 1 1 0 1 1 1 1 1 0 1 1 
1 1 1 1 1 0 1 1 1 1 1 0 1 1 1 1 
1 1 1 0 1 1 1 1 1 0 1 1 1 0 -1 0 
2 2 1 0 1 1 1 1 1 0 1 1 1 0 -1 0 
2 2 1 0 1 1 1 1 1 0 1 1 1 0 1 1 
1 1 1 1 1 1 1 0 1 1 1 0 1 1 1 1 
1 1 1 1 1 0 1 1 1 0 1 1 1 1 1 0 
-1 0 2 2 1 0 1 1 1 0 1 1 1 1 1 0 
-1 0 2 2 1 0 1 1 1 0 1 1 1 1 1 0 
1 1 1 1 1 1 1 0 1 1 1 1 1 0 1 1 
1 1 1 1 1 0 1 1 1 1 1 0 1 1 1 0 
1 1 1 1 1 1 1 1 1 0 1 1 1 0 1 1 
1 1 1 1 1 1 1 0 1 1 1 0 1 1 1 1 
1 1 1 0 1 1 1 1 1 0 1 1 1 1 1 0 
1 1 1 1 1 1 1 0 1 1 1 0 1 1 1 1 
1 1 1 1 1 0 1 1 1 0 1 1 1 1 1 1 
1 1 1 0 1 1 1 0 1 1 1 1 1 0 1 1 
1 1 1 1 1 0 1 1 1 0 1 1 1 1 1 1 
1 1 1 0 1 1 1 0 1 1 1 1 1 0 1 1 
1 1 1 1 1 0 1 1 1 1 1 0 1 1 1 1 
1 1 1 0 1 1 1 0 1 1 1 1 1 1 1 0 
1 1 1 1 1 0 1 1 1 1 1 0 1 1 1 1 
1 1 1 0 1 1 1 0 1 1 1 1 1 1 1 0 
1 1 1 1 1 0 1 1 1 1 1 0 1 1 1 1 
1 1 1 0 1 1 1 0 1 1 1 1 1 1 1 0 
1 1 1 1 1 0 1 1 1 0 -1 0 2 2 1 0 
1 1 1 1 1 0 1 1 1 0 1 1 1 1 1 1 
1 0 1 1 1 1 1 0 1 1 1 0 -1 0 2 2 
1 0 1 1 1 0 1 1 1 1 1 0 1 1 1 1 
1 1 1 0 1 1 1 0 1 1 1 1 1 1 1 1 
1 0 1 1 1 0 1 1 1 1 1 0 1 1 1 1 
1 1 1 0 1 1 1 0 1 1 1 1 1 1 1 0 
1 1 1 1 1 0 1 1 1 0 -1 0 2 2 1 0 
1 1 1 0 1 1 1 1 1 0 1 1 1 1 1 1 
1 0 1 1 1 0 7320 2143 300 MP stroke
1 1 1 1 1 0 1 1 1 1 1 1 1 0 1 1 
1 0 1 1 1 1 1 1 1 0 1 1 1 1 1 0 
1 1 1 0 -1 0 2 2 1 0 1 1 1 0 1 1 
1 1 1 0 1 1 1 1 1 1 1 0 1 1 1 0 
1 1 1 1 1 0 1 1 1 1 1 1 1 0 1 1 
1 0 1 1 1 1 1 1 1 0 1 1 1 1 1 0 
1 1 1 0 1 1 1 1 1 1 1 0 1 1 1 0 
1 1 1 1 1 1 1 0 1 1 1 1 1 0 1 1 
1 0 1 1 1 1 1 1 1 0 1 1 1 1 1 0 
1 1 1 0 -1 0 2 2 1 0 1 1 1 0 1 1 
1 0 1 1 1 1 1 1 1 0 1 1 1 1 1 0 
1 1 1 0 -1 0 2 2 1 0 1 1 1 0 1 1 
1 1 1 0 1 1 1 1 1 0 1 1 1 1 1 0 
1 1 1 0 1 1 1 1 1 1 1 0 1 1 1 1 
1 0 1 1 1 1 1 1 1 0 1 1 1 0 1 1 
1 0 1 1 1 1 1 1 1 0 1 1 1 1 1 0 
1 1 1 0 -1 0 2 2 1 0 1 1 1 0 1 1 
1 0 1 1 1 1 1 1 1 0 1 1 1 1 1 0 
1 1 1 0 1 1 1 1 1 1 1 0 1 1 1 0 
1 1 1 1 1 1 1 0 1 1 1 1 1 0 1 1 
1 0 1 1 1 1 1 1 1 0 1 1 1 0 1 1 
1 1 1 0 1 1 1 1 1 0 1 1 1 1 1 0 
1 1 1 0 -1 0 2 2 1 0 1 1 1 0 1 1 
1 0 1 1 1 1 1 1 1 0 1 1 1 0 1 1 
1 1 1 0 1 1 1 1 1 1 1 0 1 1 1 0 
1 1 1 0 -1 0 2 2 1 0 1 1 1 0 1 1 
1 1 1 0 1 1 1 1 1 0 1 1 1 1 1 0 
1 1 1 0 1 1 1 1 1 1 1 0 1 1 1 0 
1 1 1 1 1 1 1 0 1 1 1 0 1 1 1 1 
1 0 1 1 1 1 1 0 1 1 1 1 1 0 1 1 
1 0 1 1 1 1 1 1 1 0 1 1 1 0 1 1 
1 1 1 1 1 0 1 1 1 0 1 1 1 1 1 0 
1 1 1 1 1 0 1 1 1 1 1 0 1 1 1 0 
1 1 1 1 1 1 1 0 1 1 1 0 1 1 1 0 
1 1 1 1 1 1 1 0 1 1 1 0 1 1 1 1 
1 1 1 0 1 1 1 0 1 1 1 1 1 0 1 1 
1 1 1 0 1 1 1 1 1 0 1 1 1 0 1 1 
1 1 1 1 1 0 7027 1949 300 MP stroke
1 1 1 0 1 1 1 0 1 1 1 1 1 1 1 0 
1 1 1 0 1 1 1 1 1 1 1 0 1 1 1 0 
1 1 1 1 1 0 1 1 1 1 1 0 1 1 1 1 
1 0 1 1 1 0 1 1 1 1 1 0 1 1 1 1 
1 0 1 1 1 0 1 1 1 1 1 1 1 0 1 1 
1 0 1 1 1 0 -1 0 2 2 1 0 1 1 1 0 
1 1 1 0 1 1 1 1 1 1 1 0 1 1 1 0 
1 1 1 0 1 1 1 1 1 1 1 0 1 1 1 0 
1 1 1 1 1 0 1 1 1 1 1 0 1 1 1 0 
1 1 1 1 1 0 1 1 1 1 1 0 1 1 1 1 
1 0 1 1 1 0 1 1 1 1 1 0 1 1 1 1 
1 0 1 1 1 0 1 1 1 1 1 1 1 0 1 1 
1 0 1 1 1 0 1 1 1 1 1 1 1 0 1 1 
1 0 1 1 1 1 1 0 1 1 1 1 1 0 1 1 
1 0 1 1 1 1 1 0 1 1 1 1 1 0 1 1 
1 0 1 1 1 1 1 1 1 0 1 1 1 0 1 1 
1 0 1 1 1 1 1 1 1 0 1 1 1 0 1 1 
1 0 1 1 1 1 1 1 1 0 1 1 1 0 1 1 
1 0 1 1 1 1 1 1 1 0 1 1 1 0 1 1 
1 0 1 1 1 1 1 1 1 0 1 1 1 0 1 1 
1 0 1 1 1 1 1 1 1 0 1 1 1 0 1 1 
1 1 1 0 1 1 1 0 1 1 1 1 1 0 1 1 
1 1 1 0 1 1 1 0 1 1 1 1 1 0 1 1 
1 1 1 0 1 1 1 0 1 1 1 1 1 0 1 1 
1 1 1 0 1 1 1 0 1 1 1 0 1 1 1 1 
1 1 1 0 1 1 1 0 1 1 1 0 1 1 1 1 
1 1 1 0 1 1 1 0 1 1 1 0 1 1 1 1 
1 1 1 0 1 1 1 0 1 1 1 0 1 1 1 1 
1 0 1 1 1 1 1 0 1 1 1 0 1 1 1 1 
1 0 1 1 1 0 1 1 1 1 1 0 1 1 1 1 
1 0 1 1 1 0 1 1 1 0 1 1 1 1 1 1 
1 0 1 1 1 0 1 1 1 0 1 1 1 1 1 1 
1 0 1 1 1 0 1 1 1 0 1 1 1 1 1 0 
1 1 1 1 1 0 1 1 1 0 1 1 1 1 1 0 
1 1 1 0 1 1 1 0 1 1 1 1 1 1 1 0 
1 1 1 0 1 1 1 0 1 1 1 1 1 1 1 0 
1 1 1 0 1 1 1 0 1 1 1 1 1 0 1 1 
1 0 1 1 1 1 6729 1762 300 MP stroke
1 0 1 1 1 1 1 0 1 1 1 0 1 1 1 0 
1 1 1 1 1 1 1 0 1 1 1 0 1 1 1 0 
1 1 1 1 1 0 1 1 1 0 1 1 1 1 1 0 
1 1 1 1 1 0 1 1 1 0 1 1 1 0 1 1 
1 1 1 0 1 1 1 1 1 0 1 1 1 0 1 1 
1 1 1 0 1 1 1 0 1 1 1 0 1 1 1 1 
1 1 1 0 1 1 1 0 1 1 1 0 1 1 1 0 
1 1 1 1 1 0 1 1 1 1 1 0 1 1 1 1 
1 0 1 1 1 0 1 1 1 0 1 1 1 0 1 1 
1 1 1 1 1 0 1 1 1 0 1 1 1 0 1 1 
1 1 1 0 1 1 1 0 1 1 1 0 1 1 1 1 
1 1 1 0 1 1 1 0 1 1 1 0 1 1 1 1 
1 0 1 1 1 0 1 1 1 0 1 1 1 1 1 1 
1 0 1 1 1 0 1 1 1 0 1 1 1 1 1 0 
1 1 1 0 1 1 1 0 1 1 1 0 1 1 1 1 
1 1 1 0 1 1 1 0 1 1 1 1 1 0 1 1 
1 0 1 1 1 0 1 1 1 0 1 1 1 1 1 0 
1 1 1 1 1 0 1 1 1 0 1 1 1 1 1 0 
1 1 1 0 1 1 1 0 1 1 1 1 1 0 1 1 
1 0 1 1 1 0 1 1 1 1 1 1 1 0 1 1 
1 0 1 1 1 0 1 1 1 1 1 0 1 1 1 0 
1 1 1 0 1 1 1 0 1 1 1 1 1 1 1 0 
1 1 1 0 1 1 1 0 1 1 1 1 1 0 1 1 
1 0 1 1 1 0 1 1 1 1 1 0 1 1 1 0 
1 1 1 0 1 1 1 1 1 0 1 1 1 1 1 0 
1 1 1 0 1 1 1 1 1 0 1 1 1 0 1 1 
1 0 1 1 1 0 1 1 1 1 1 0 1 1 1 0 
1 1 1 0 1 1 1 1 1 0 1 1 1 1 1 0 
1 1 1 0 1 1 1 1 1 0 1 1 1 0 1 1 
1 0 1 1 1 1 1 0 1 1 1 0 1 1 1 0 
1 1 1 0 1 1 1 1 1 0 1 1 1 0 1 1 
1 0 1 1 1 1 1 0 1 1 1 1 1 0 1 1 
1 0 1 1 1 1 1 0 1 1 1 0 1 1 1 0 
1 1 1 1 1 0 1 1 1 0 1 1 1 0 1 1 
1 0 1 1 1 1 1 0 1 1 1 0 1 1 1 0 
1 1 1 1 1 0 1 1 1 0 1 1 1 0 1 1 
1 1 1 0 1 1 1 0 1 1 1 0 1 1 1 1 
1 1 1 0 1 1 6430 1585 300 MP stroke
1 0 1 1 1 0 1 1 1 0 1 1 1 1 1 0 
1 1 1 0 1 1 1 0 1 1 1 1 1 0 1 1 
1 0 1 1 1 0 1 1 1 1 1 0 1 1 1 0 
1 1 1 0 1 1 1 0 1 1 1 1 1 0 1 1 
1 0 1 1 1 0 1 1 1 1 1 0 1 1 1 0 
1 1 1 0 1 1 1 0 1 1 1 1 1 0 1 1 
1 0 1 1 1 0 1 1 1 1 1 0 1 1 1 0 
1 1 1 0 1 1 1 1 1 0 1 1 1 0 1 1 
1 0 1 1 1 0 1 1 1 1 1 0 1 1 1 0 
1 1 1 0 1 1 1 1 1 0 1 1 1 0 1 1 
1 0 1 1 1 1 1 0 1 1 1 0 1 1 1 0 
1 1 1 0 1 1 1 1 1 0 1 1 1 0 1 1 
1 0 1 1 1 1 1 0 1 1 1 0 1 1 1 0 
1 1 1 0 1 1 1 1 1 0 1 1 1 0 1 1 
1 0 1 1 1 1 1 0 1 1 1 0 1 1 1 0 
1 1 1 1 1 0 1 1 1 0 1 1 1 0 1 1 
1 0 1 1 1 1 1 0 1 1 1 0 1 1 1 0 
1 1 1 1 1 0 1 1 1 0 1 1 1 0 1 1 
1 1 1 0 1 1 1 0 1 1 1 0 1 1 1 0 
1 1 1 1 1 0 1 1 1 0 1 1 1 0 1 1 
1 0 1 1 1 0 1 1 1 0 1 1 1 0 1 1 
1 1 1 0 1 1 1 0 1 1 1 0 1 1 1 0 
1 1 1 1 1 0 1 1 1 0 1 1 1 0 1 1 
1 1 1 0 1 1 1 0 1 1 1 0 1 1 1 1 
1 0 1 1 1 0 1 1 1 0 1 1 1 0 1 1 
1 1 1 0 1 0 1 1 1 0 1 1 1 0 1 1 
1 1 1 0 1 1 1 0 1 1 1 0 1 1 1 1 
1 0 1 1 1 0 1 1 1 0 1 1 1 1 1 0 
1 1 1 0 1 1 1 0 1 1 1 0 1 1 1 1 
1 0 1 0 1 1 1 0 1 1 1 0 1 1 1 1 
1 0 1 1 1 0 1 1 1 0 1 1 1 1 1 0 
1 1 1 0 1 1 1 0 1 1 1 1 1 0 1 1 
1 0 1 1 1 0 1 0 1 1 1 1 1 0 1 1 
1 0 1 1 1 0 1 1 1 0 1 1 1 1 1 0 
1 1 1 0 1 1 1 0 1 1 1 1 1 0 1 1 
1 0 1 0 1 1 1 0 1 1 1 1 1 0 1 1 
1 0 1 1 1 0 1 1 1 1 1 0 1 1 1 0 
1 1 1 0 1 1 6131 1419 300 MP stroke
1 0 1 1 1 0 1 1 1 0 1 1 1 0 1 1 
1 1 1 0 1 1 1 0 1 1 1 0 1 1 1 0 
1 1 1 1 1 0 1 1 1 0 1 0 1 1 1 0 
1 1 1 1 1 0 1 1 1 0 1 1 1 0 1 1 
1 1 1 0 1 1 1 0 1 1 1 0 1 0 1 1 
1 1 1 0 1 1 1 0 1 1 1 0 1 1 1 1 
1 0 1 1 1 0 1 1 1 0 1 0 1 1 1 1 
1 0 1 1 1 0 1 1 1 0 1 1 1 0 1 1 
1 1 1 0 1 1 1 0 1 0 1 1 1 1 1 0 
1 1 1 0 1 1 1 0 1 1 1 0 1 1 1 1 
1 0 1 1 1 0 1 0 1 1 1 0 1 1 1 1 
1 0 1 1 1 0 1 1 1 0 1 1 1 1 1 0 
1 0 1 1 1 0 1 1 1 0 1 1 1 1 1 0 
1 1 1 0 1 1 1 0 1 1 1 0 1 1 1 0 
1 1 1 0 1 1 1 0 1 1 1 1 1 0 1 1 
1 0 1 1 1 0 1 0 1 1 1 1 1 0 1 1 
1 0 1 1 1 0 1 1 1 1 1 0 1 0 1 1 
1 0 1 1 1 0 1 1 1 1 1 0 1 1 1 0 
1 1 1 0 1 0 1 1 1 1 1 0 1 1 1 0 
1 1 1 0 1 1 1 0 1 1 1 0 1 1 1 0 
1 1 1 0 1 1 1 1 1 0 1 1 1 0 1 1 
1 0 1 0 1 1 1 1 1 0 1 1 1 0 1 1 
1 0 1 1 1 0 1 1 1 0 1 1 1 0 1 1 
1 0 1 1 1 0 1 1 1 1 1 0 1 0 1 1 
1 0 1 1 1 0 1 1 1 1 1 0 1 1 1 0 
1 0 1 1 1 1 1 0 1 1 1 0 1 1 1 0 
1 1 1 0 1 1 1 0 1 1 1 0 1 1 1 0 
1 1 1 0 1 1 1 1 1 0 1 0 1 1 1 0 
1 1 1 0 1 1 1 1 1 0 1 0 1 1 1 0 
1 1 1 1 1 0 1 1 1 0 1 1 1 0 1 0 
1 1 1 1 1 0 1 1 1 0 1 1 1 0 1 1 
1 0 1 1 1 0 1 1 1 0 1 1 1 0 1 1 
1 0 1 1 1 0 1 1 1 0 1 1 1 0 1 1 
1 1 1 0 1 0 1 1 1 0 1 1 1 0 1 1 
1 1 1 0 1 0 1 1 1 0 1 1 1 0 1 1 
1 1 1 0 1 1 1 0 1 0 1 1 1 0 1 1 
1 1 1 0 1 1 1 0 1 0 1 1 1 0 1 1 
1 1 1 0 1 1 5832 1263 300 MP stroke
1 0 1 0 1 1 1 0 1 1 1 1 1 0 1 1 
1 0 1 0 1 1 1 0 1 1 1 1 1 0 1 1 
1 0 1 0 1 1 1 0 1 1 1 1 1 0 1 1 
1 0 1 0 1 1 1 1 1 0 1 1 1 0 1 1 
1 0 1 0 1 1 1 1 1 0 1 1 1 0 1 1 
1 0 1 0 1 1 1 1 1 0 1 1 1 0 1 1 
1 0 1 0 1 1 1 1 1 0 1 1 1 0 1 0 
1 1 1 0 1 1 1 1 1 0 1 1 1 0 1 0 
1 1 1 0 1 1 1 1 1 0 1 1 1 0 1 0 
1 1 1 0 1 1 1 1 1 0 1 0 1 1 1 0 
1 1 1 0 1 1 1 1 1 0 1 0 1 1 1 0 
1 1 1 1 1 0 1 0 1 1 1 0 1 1 1 0 
1 1 1 1 1 0 1 0 1 1 1 0 1 1 1 0 
1 1 1 0 1 1 1 0 1 1 1 0 1 1 1 0 
1 0 1 1 1 1 1 0 1 1 1 0 1 1 1 0 
1 1 1 0 1 1 1 0 1 1 1 0 1 0 1 1 
1 1 1 0 1 1 1 0 1 0 1 1 1 0 1 1 
1 1 1 0 1 0 1 1 1 0 1 1 1 0 1 1 
1 0 1 1 1 0 1 1 1 0 1 1 1 0 1 1 
1 0 1 1 1 0 1 1 1 0 1 1 1 0 1 1 
1 0 1 1 1 0 1 1 1 0 1 0 1 1 1 1 
1 0 1 1 1 0 1 0 1 1 1 0 1 1 1 1 
1 0 1 0 1 1 1 0 1 1 1 0 1 0 1 1 
1 1 1 0 1 1 1 0 1 0 1 1 1 1 1 0 
1 1 1 0 1 0 1 1 1 0 1 1 1 1 1 0 
1 0 1 1 1 0 1 1 1 0 1 1 1 0 1 1 
1 0 1 1 1 0 1 1 1 0 1 0 1 1 1 1 
1 0 1 1 1 0 1 0 1 1 1 1 1 0 1 0 
1 1 1 0 1 1 1 0 1 1 1 0 1 1 1 0 
1 1 1 0 1 1 1 0 1 0 1 1 1 1 1 0 
1 0 1 1 1 0 1 1 1 0 1 1 1 0 1 1 
1 0 1 1 1 0 1 1 1 0 1 1 1 0 1 1 
1 0 1 0 1 1 1 0 1 1 1 1 1 0 1 0 
1 1 1 0 1 1 1 0 1 1 1 0 1 1 1 0 
1 1 1 0 1 0 1 1 1 1 1 0 1 0 1 1 
1 0 1 1 1 0 1 1 1 0 1 1 1 0 1 1 
1 0 1 0 1 1 1 1 1 0 1 1 1 0 1 0 
1 1 1 0 1 1 5533 1118 300 MP stroke
1 0 1 1 1 0 1 1 1 0 1 1 1 0 1 0 
1 1 1 1 1 0 1 0 1 1 1 0 1 1 1 1 
1 0 1 0 1 1 1 0 1 1 1 0 1 0 1 1 
1 1 1 0 1 0 1 1 1 0 1 1 1 0 1 1 
1 0 1 1 1 0 1 1 1 0 1 0 1 1 1 1 
1 0 1 0 1 1 1 0 1 1 1 0 1 1 1 0 
1 1 1 0 1 1 1 0 1 0 1 1 1 1 1 0 
1 0 1 1 1 0 1 1 1 0 1 0 1 1 1 1 
1 0 1 1 1 0 1 0 1 1 1 0 1 1 1 0 
1 1 1 0 1 1 1 0 1 0 1 1 1 1 1 0 
1 0 1 1 1 0 1 1 1 0 1 1 1 0 1 1 
1 0 1 1 1 0 1 0 1 1 1 1 1 0 1 0 
1 1 1 0 1 1 1 0 1 0 1 1 1 1 1 0 
1 0 1 1 1 0 1 1 1 0 1 1 1 0 1 1 
1 0 1 0 1 1 1 0 1 1 1 0 1 1 1 0 
1 1 1 0 1 0 1 1 1 1 1 0 1 0 1 1 
1 0 1 1 1 0 1 0 1 1 1 1 1 0 1 0 
1 1 1 0 1 1 1 0 1 1 1 0 1 1 1 0 
1 0 1 1 1 0 1 1 1 0 1 1 1 0 1 1 
1 0 1 0 1 1 1 1 1 0 1 0 1 1 1 0 
1 1 1 0 1 0 1 1 1 1 1 0 1 0 1 1 
1 0 1 1 1 0 1 1 1 0 1 1 1 0 1 0 
1 1 1 0 1 1 1 0 1 1 1 0 1 1 1 0 
1 0 1 1 1 1 1 0 1 0 1 1 1 0 1 1 
1 0 1 0 1 1 1 1 1 0 1 0 1 1 1 0 
1 0 1 1 1 1 1 0 1 0 1 1 1 0 1 1 
1 0 1 1 1 0 1 1 1 0 1 0 1 1 1 0 
1 1 1 0 1 1 1 0 1 1 1 0 1 0 1 1 
1 0 1 1 1 0 1 1 1 0 1 0 1 1 1 0 
1 1 1 0 1 1 1 0 1 1 1 0 1 0 1 1 
1 1 1 0 1 0 1 1 1 0 1 0 1 1 1 0 
1 1 1 0 1 1 1 0 1 1 1 0 1 0 1 1 
1 1 1 0 1 0 1 1 1 0 1 0 1 1 1 0 
1 1 1 0 1 1 1 0 1 1 1 0 1 0 1 1 
1 0 1 1 1 0 1 1 1 0 1 0 1 1 1 1 
1 0 1 0 1 1 1 0 1 1 1 0 1 0 1 1 
1 0 1 1 1 0 1 1 1 0 1 0 1 1 1 1 
1 0 1 0 1 1 5234 983 300 MP stroke
1 0 1 0 1 1 1 1 1 0 1 0 1 1 1 0 
1 1 1 0 1 0 1 1 1 0 1 1 1 0 1 1 
1 0 1 0 1 1 1 0 1 1 1 0 1 1 1 0 
1 0 1 1 1 0 1 1 1 0 1 1 1 0 1 0 
1 1 1 0 1 1 1 0 1 1 1 0 1 0 1 1 
1 0 1 1 1 0 1 1 1 0 1 1 1 0 1 0 
1 1 1 0 1 1 1 0 1 1 1 0 1 0 1 1 
1 0 1 0 1 1 1 1 1 0 1 0 1 1 1 0 
1 0 1 1 1 1 1 0 1 0 1 1 1 0 1 0 
1 1 1 1 1 0 1 0 1 1 1 0 1 0 1 1 
1 0 1 1 1 0 1 1 1 0 1 0 1 1 1 0 
1 1 1 0 1 1 1 0 1 0 1 1 1 0 1 1 
1 0 1 1 1 0 1 0 1 1 1 0 1 1 1 0 
1 1 1 0 1 0 1 1 1 0 1 1 1 0 1 0 
1 1 1 0 1 1 1 0 1 1 1 0 1 0 1 1 
1 0 1 1 1 0 1 1 1 0 1 0 1 1 1 0 
1 1 1 0 1 0 1 1 1 0 1 1 1 0 1 1 
1 0 1 0 1 1 1 0 1 1 1 0 1 0 1 1 
1 0 1 1 1 0 1 0 1 1 1 0 1 1 1 0 
1 1 1 0 1 0 1 1 1 0 1 1 1 0 1 1 
1 0 1 0 1 1 1 0 1 0 1 1 1 1 1 0 
1 0 1 1 1 0 1 0 1 1 1 0 1 1 1 0 
1 1 1 0 1 0 1 1 1 0 1 0 1 1 1 1 
1 0 1 0 1 1 1 0 1 0 1 1 1 0 1 1 
1 0 1 1 1 0 1 0 1 1 1 0 1 1 1 0 
1 0 1 1 1 0 1 1 1 0 1 1 1 0 1 0 
1 1 1 0 1 0 1 1 1 0 1 1 1 0 1 1 
1 0 1 0 1 1 1 0 1 0 1 1 1 0 1 1 
1 0 1 1 1 0 1 0 1 1 1 0 1 1 1 0 
1 0 1 1 1 0 1 1 1 0 1 1 1 0 1 0 
1 1 1 0 1 0 1 1 1 0 1 1 1 0 1 1 
1 0 1 0 1 1 1 0 1 1 1 0 1 0 1 1 
1 0 1 0 1 1 1 1 1 0 1 0 1 1 1 0 
1 0 1 1 1 0 1 1 1 0 1 0 1 1 1 0 
1 1 1 0 1 0 1 1 1 0 1 1 1 0 1 0 
1 1 1 0 1 0 1 1 1 1 1 0 1 0 1 1 
1 0 1 0 1 1 1 0 1 1 1 0 1 0 1 1 
1 0 1 0 1 1 4935 859 300 MP stroke
1 1 1 0 1 0 1 1 1 0 1 0 1 1 1 0 
1 1 1 0 1 0 1 1 1 0 1 0 1 1 1 1 
1 0 1 0 1 1 1 0 1 0 1 1 1 0 1 1 
1 0 1 0 1 1 1 0 1 0 1 1 1 0 1 1 
1 0 1 1 1 0 1 0 1 1 1 0 1 1 1 0 
1 0 1 1 1 0 1 0 1 1 1 0 1 1 1 0 
1 0 1 1 1 0 1 0 1 1 1 1 1 0 1 0 
1 1 1 0 1 0 1 1 1 0 1 1 1 0 1 0 
1 1 1 0 1 0 1 1 1 0 1 1 1 0 1 0 
1 1 1 0 1 0 1 1 1 0 1 1 1 0 1 1 
1 0 1 0 1 1 1 0 1 1 1 0 1 0 1 1 
1 0 1 0 1 1 1 0 1 1 1 0 1 0 1 1 
1 0 1 0 1 1 1 0 1 1 1 0 1 0 1 1 
1 0 1 1 1 0 1 0 1 1 1 0 1 1 1 0 
1 0 1 1 1 0 1 1 1 0 1 0 1 1 1 0 
1 0 1 1 1 0 1 1 1 0 1 0 1 1 1 0 
1 0 1 1 1 0 1 1 1 0 1 0 1 1 1 0 
1 0 1 1 1 0 1 1 1 0 1 0 1 1 1 0 
1 0 1 1 1 0 1 1 1 0 1 0 1 1 1 0 
1 0 1 1 1 1 1 0 1 0 1 1 1 0 1 0 
1 1 1 0 1 1 1 0 1 0 1 1 1 0 1 0 
1 1 1 0 1 1 1 0 1 0 1 1 1 0 1 0 
1 1 1 0 1 1 1 0 1 0 1 1 1 0 1 0 
1 1 1 0 1 1 1 0 1 0 1 1 1 0 1 0 
1 1 1 0 1 1 1 0 1 0 1 1 1 0 1 0 
1 1 1 0 1 1 1 0 1 0 1 1 1 0 1 0 
1 1 1 0 1 1 1 0 1 0 1 1 1 0 1 0 
1 1 1 0 1 1 1 0 1 0 1 0 1 1 1 0 
1 1 1 0 1 0 1 1 1 0 1 0 1 1 1 0 
1 1 1 0 1 0 1 1 1 0 1 0 1 1 1 0 
1 1 1 0 1 0 1 1 1 0 1 0 1 1 1 0 
1 1 1 0 1 0 1 1 1 0 1 0 1 1 1 0 
1 1 1 0 1 0 1 1 1 0 1 0 1 1 1 0 
1 1 1 0 1 0 1 1 1 0 1 0 1 0 1 1 
1 0 1 1 1 0 1 0 1 1 1 0 1 1 1 0 
1 0 1 1 1 0 1 0 1 1 1 0 1 1 1 0 
1 0 1 1 1 0 1 0 1 1 1 0 1 1 1 0 
1 0 1 1 1 0 4636 745 300 MP stroke
1 0 1 0 1 1 1 0 1 1 1 0 1 0 1 1 
1 0 1 0 1 1 1 0 1 1 1 0 1 0 1 1 
1 0 1 0 1 1 1 0 1 1 1 0 1 0 1 0 
1 1 1 0 1 1 1 0 1 0 1 1 1 0 1 0 
1 1 1 0 1 1 1 0 1 0 1 1 1 0 1 0 
1 1 1 0 1 1 1 0 1 0 1 0 1 1 1 0 
1 0 1 1 1 0 1 1 1 0 1 0 1 1 1 0 
1 0 1 1 1 0 1 1 1 0 1 0 1 0 1 1 
1 0 1 1 1 0 1 0 1 1 1 0 1 0 1 1 
1 0 1 1 1 0 1 0 1 0 1 1 1 0 1 0 
1 1 1 0 1 1 1 0 1 0 1 1 1 0 1 0 
1 1 1 0 1 0 1 1 1 0 1 0 1 1 1 0 
1 1 1 0 1 0 1 1 1 0 1 0 1 1 1 0 
1 0 1 1 1 0 1 0 1 1 1 0 1 0 1 1 
1 0 1 1 1 0 1 0 1 1 1 0 1 0 1 1 
1 0 1 0 1 1 1 0 1 0 1 1 1 0 1 1 
1 0 1 0 1 0 1 1 1 0 1 0 1 1 1 0 
1 1 1 0 1 0 1 1 1 0 1 0 1 1 1 0 
1 0 1 1 1 0 1 0 1 1 1 0 1 1 1 0 
1 0 1 0 1 1 1 0 1 0 1 1 1 0 1 1 
1 0 1 0 1 0 1 1 1 0 1 0 1 1 1 0 
1 1 1 0 1 0 1 1 1 0 1 0 1 1 1 0 
1 0 1 1 1 0 1 0 1 1 1 0 1 0 1 1 
1 0 1 0 1 1 1 0 1 0 1 1 1 0 1 1 
1 0 1 0 1 0 1 1 1 0 1 1 1 0 1 0 
1 1 1 0 1 0 1 0 1 1 1 0 1 1 1 0 
1 0 1 1 1 0 1 0 1 1 1 0 1 0 1 1 
1 0 1 0 1 1 1 0 1 0 1 1 1 0 1 0 
1 1 1 0 1 0 1 1 1 0 1 0 1 1 1 0 
1 0 1 1 1 0 1 0 1 1 1 0 1 0 1 1 
1 0 1 0 1 1 1 0 1 0 1 1 1 0 1 0 
1 1 1 0 1 0 1 1 1 0 1 0 1 1 1 0 
1 0 1 1 1 0 1 0 1 1 1 0 1 0 1 1 
1 0 1 0 1 1 1 0 1 0 1 1 1 0 1 0 
1 1 1 0 1 0 1 1 1 0 1 0 1 1 1 0 
1 0 1 1 1 0 1 0 1 1 1 0 1 0 1 1 
1 0 1 0 1 1 1 0 1 0 1 1 1 0 1 0 
1 0 1 1 1 0 4337 642 300 MP stroke
1 1 1 0 1 0 1 1 1 0 1 0 1 1 1 0 
1 0 1 1 1 0 1 0 1 0 1 1 1 0 1 1 
1 0 1 0 1 0 1 1 1 0 1 0 1 1 1 0 
1 0 1 1 1 0 1 0 1 1 1 0 1 0 1 1 
1 0 1 0 1 1 1 0 1 0 1 1 1 0 1 0 
1 1 1 0 1 0 1 0 1 1 1 0 1 1 1 0 
1 0 1 0 1 1 1 0 1 0 1 1 1 0 1 0 
1 1 1 0 1 0 1 1 1 0 1 0 1 1 1 0 
1 0 1 1 1 0 1 0 1 1 1 0 1 0 1 1 
1 0 1 0 1 0 1 1 1 0 1 1 1 0 1 0 
1 0 1 1 1 0 1 0 1 1 1 0 1 0 1 1 
1 0 1 0 1 1 1 0 1 0 1 1 1 0 1 0 
1 0 1 1 1 0 1 1 1 0 1 0 1 0 1 1 
1 0 1 0 1 1 1 0 1 0 1 1 1 0 1 0 
1 1 1 0 1 0 1 1 1 0 1 0 1 0 1 1 
1 0 1 0 1 1 1 0 1 0 1 1 1 0 1 0 
1 1 1 0 1 0 1 1 1 0 1 0 1 0 1 1 
1 0 1 0 1 1 1 0 1 0 1 1 1 0 1 0 
1 1 1 0 1 0 1 1 1 0 1 0 1 0 1 1 
1 0 1 0 1 1 1 0 1 0 1 1 1 0 1 0 
1 0 1 1 1 0 1 1 1 0 1 0 1 0 1 1 
1 0 1 0 1 1 1 0 1 0 1 1 1 0 1 0 
1 0 1 1 1 0 1 0 1 1 1 0 1 0 1 1 
1 0 1 0 1 1 1 0 1 0 1 0 1 1 1 0 
1 1 1 0 1 0 1 0 1 1 1 0 1 0 1 0 
1 1 1 0 1 1 1 0 1 0 1 0 1 1 1 0 
1 0 1 1 1 0 1 0 1 0 1 1 1 0 1 0 
1 1 1 0 1 0 1 1 1 0 1 0 1 0 1 1 
1 0 1 0 1 1 1 0 1 0 1 1 1 0 1 0 
1 1 1 0 1 0 1 0 1 1 1 0 1 0 1 1 
1 0 1 0 1 1 1 0 1 0 1 0 1 1 1 0 
1 0 1 1 1 0 1 0 1 0 1 1 1 0 1 1 
1 0 1 0 1 0 1 1 1 0 1 0 1 1 1 0 
1 0 1 0 1 1 1 0 1 0 1 0 1 1 1 0 
1 1 1 0 1 0 1 0 1 1 1 0 1 0 1 1 
1 0 1 0 1 0 1 1 1 0 1 0 1 1 1 0 
1 0 1 0 1 1 1 0 1 0 1 1 1 0 1 0 
1 1 1 0 1 0 4038 549 300 MP stroke
1 0 1 1 1 0 1 0 1 1 1 0 1 0 1 0 
1 1 1 0 1 0 1 1 1 0 1 0 1 0 1 1 
1 0 1 1 1 0 1 0 1 0 1 1 1 0 1 0 
1 0 1 1 1 0 1 0 1 1 1 0 1 0 1 0 
1 1 1 0 1 0 1 1 1 0 1 0 1 0 1 1 
1 0 1 0 1 1 1 0 1 0 1 0 1 1 1 0 
1 0 1 1 1 0 1 0 1 1 1 0 1 0 1 0 
1 1 1 0 1 0 1 1 1 0 1 0 1 0 1 1 
1 0 1 0 1 1 1 0 1 0 1 0 1 1 1 0 
1 0 1 1 1 0 1 0 1 0 1 1 1 0 1 0 
1 1 1 0 1 0 1 0 1 1 1 0 1 0 1 1 
1 0 1 0 1 0 1 1 1 0 1 0 1 0 1 1 
1 0 1 0 1 1 1 0 1 0 1 0 1 1 1 0 
1 0 1 1 1 0 1 0 1 0 1 1 1 0 1 0 
1 1 1 0 1 0 1 0 1 1 1 0 1 0 1 1 
1 0 1 0 1 0 1 1 1 0 1 0 1 1 1 0 
1 0 1 0 1 1 1 0 1 0 1 0 1 1 1 0 
1 0 1 0 1 1 1 0 1 0 1 0 1 1 1 0 
1 0 1 1 1 0 1 0 1 0 1 1 1 0 1 0 
1 1 1 0 1 0 1 0 1 1 1 0 1 0 1 1 
1 0 1 0 1 0 1 1 1 0 1 0 1 1 1 0 
1 0 1 0 1 0 1 1 1 0 1 0 1 1 1 0 
1 0 1 0 1 1 1 0 1 0 1 1 1 0 1 0 
1 0 1 1 1 0 1 0 1 1 1 0 1 0 1 0 
1 1 1 0 1 0 1 0 1 1 1 0 1 0 1 0 
1 1 1 0 1 0 1 0 1 1 1 0 1 0 1 1 
1 0 1 0 1 0 1 1 1 0 1 0 1 0 1 1 
1 0 1 0 1 0 1 1 1 0 1 0 1 1 1 0 
1 0 1 0 1 1 1 0 1 0 1 0 1 1 1 0 
1 0 1 0 1 1 1 0 1 0 1 1 1 0 1 0 
1 0 1 1 1 0 1 0 1 0 1 1 1 0 1 0 
1 0 1 1 1 0 1 0 1 1 1 0 1 0 1 0 
1 1 1 0 1 0 1 0 1 1 1 0 1 0 1 0 
1 1 1 0 1 0 1 1 1 0 1 0 1 0 1 0 
1 1 1 0 1 0 1 1 1 0 1 0 1 0 1 1 
1 0 1 0 1 0 1 1 1 0 1 0 1 0 1 1 
1 0 1 0 1 1 1 0 1 0 1 0 1 0 1 1 
1 0 1 0 1 1 3739 466 300 MP stroke
1 0 1 0 1 0 1 1 1 0 1 0 1 0 1 1 
1 0 1 0 1 0 1 1 1 0 1 0 1 0 1 1 
1 0 1 0 1 0 1 1 1 0 1 0 1 1 1 0 
1 0 1 0 1 0 1 1 1 0 1 0 1 1 1 0 
1 0 1 0 1 0 1 1 1 0 1 0 1 1 1 0 
1 0 1 0 1 0 1 1 1 0 1 0 1 1 1 0 
1 0 1 0 1 0 1 1 1 0 1 0 1 1 1 0 
1 0 1 0 1 0 1 1 1 0 1 0 1 1 1 0 
1 0 1 0 1 0 1 1 1 0 1 0 1 1 1 0 
1 0 1 0 1 0 1 1 1 0 1 0 1 1 1 0 
1 0 1 0 1 0 1 1 1 0 1 0 1 1 1 0 
1 0 1 0 1 0 1 1 1 0 1 0 1 1 1 0 
1 0 1 0 1 1 1 0 1 0 1 0 1 1 1 0 
1 0 1 0 1 1 1 0 1 0 1 0 1 0 1 1 
1 0 1 0 1 1 1 0 1 0 1 0 1 0 1 1 
1 0 1 0 1 0 1 1 1 0 1 0 1 0 1 1 
1 0 1 0 1 0 1 1 1 0 1 0 1 0 1 1 
1 0 1 0 1 0 1 1 1 0 1 0 1 0 1 0 
1 1 1 0 1 0 1 0 1 1 1 0 1 0 1 0 
1 1 1 0 1 0 1 0 1 1 1 0 1 0 1 0 
1 0 1 1 1 0 1 0 1 1 1 0 1 0 1 0 
1 1 1 0 1 0 1 0 1 0 1 1 1 0 1 0 
1 0 1 1 1 0 1 0 1 0 1 1 1 0 1 0 
1 0 1 1 1 0 1 0 1 0 1 0 1 1 1 0 
1 0 1 0 1 1 1 0 1 0 1 0 1 0 1 1 
1 0 1 0 1 1 1 0 1 0 1 0 1 0 1 1 
1 0 1 0 1 0 1 1 1 0 1 0 1 0 1 1 
1 0 1 0 1 0 1 0 1 1 1 0 1 0 1 0 
1 1 1 0 1 0 1 0 1 1 1 0 1 0 1 0 
1 1 1 0 1 0 1 0 1 0 1 1 1 0 1 0 
1 0 1 1 1 0 1 0 1 0 1 0 1 1 1 0 
1 0 1 0 1 1 1 0 1 0 1 0 1 1 1 0 
1 0 1 0 1 0 1 1 1 0 1 0 1 0 1 1 
1 0 1 0 1 0 1 0 1 1 1 0 1 0 1 0 
1 1 1 0 1 0 1 0 1 0 1 1 1 0 1 0 
1 0 1 1 1 0 1 0 1 0 1 1 1 0 1 0 
1 0 1 0 1 1 1 0 1 0 1 0 1 1 1 0 
1 0 1 0 1 0 3440 395 300 MP stroke
1 1 1 0 1 0 1 0 1 1 1 0 1 0 1 0 
1 0 1 1 1 0 1 0 1 0 1 1 1 0 1 0 
1 0 1 1 1 0 1 0 1 0 1 0 1 1 1 0 
1 0 1 0 1 0 1 1 1 0 1 0 1 0 1 0 
1 1 1 0 1 0 1 0 1 1 1 0 1 0 1 0 
1 1 1 0 1 0 1 0 1 0 1 1 1 0 1 0 
1 0 1 1 1 0 1 0 1 0 1 0 1 0 1 1 
1 0 1 0 1 0 1 1 1 0 1 0 1 0 1 1 
1 0 1 0 1 0 1 0 1 1 1 0 1 0 1 0 
1 0 1 1 1 0 1 0 1 0 1 0 1 1 1 0 
1 0 1 0 1 1 1 0 1 0 1 0 1 1 1 0 
1 0 1 0 1 0 1 0 1 1 1 0 1 0 1 0 
1 1 1 0 1 0 1 0 1 0 1 1 1 0 1 0 
1 0 1 0 1 1 1 0 1 0 1 0 1 1 1 0 
1 0 1 0 1 0 1 1 1 0 1 0 1 0 1 0 
1 1 1 0 1 0 1 0 1 0 1 1 1 0 1 0 
1 0 1 0 1 1 1 0 1 0 1 0 1 1 1 0 
1 0 1 0 1 0 1 0 1 1 1 0 1 0 1 0 
1 1 1 0 1 0 1 0 1 0 1 1 1 0 1 0 
1 0 1 0 1 1 1 0 1 0 1 0 1 0 1 1 
1 0 1 0 1 0 1 0 1 1 1 0 1 0 1 0 
1 0 1 1 1 0 1 0 1 0 1 1 1 0 1 0 
1 0 1 0 1 0 1 1 1 0 1 0 1 0 1 1 
1 0 1 0 1 0 1 0 1 1 1 0 1 0 1 0 
1 0 1 0 1 1 1 0 1 0 1 0 1 1 1 0 
1 0 1 0 1 0 1 1 1 0 1 0 1 0 1 0 
1 0 1 1 1 0 1 0 1 0 1 1 1 0 1 0 
1 0 1 0 1 1 1 0 1 0 1 0 1 0 1 0 
1 1 1 0 1 0 1 0 1 0 1 1 1 0 1 0 
1 0 1 0 1 1 1 0 1 0 1 0 1 0 1 1 
1 0 1 0 1 0 1 0 1 1 1 0 1 0 1 0 
1 0 1 1 1 0 1 0 1 0 1 0 1 0 1 1 
1 0 1 0 1 0 1 1 1 0 1 0 1 0 1 0 
1 0 1 1 1 0 1 0 1 0 1 0 1 1 1 0 
1 0 1 0 1 0 1 1 1 0 1 0 1 0 1 0 
1 1 1 0 1 0 1 0 1 0 1 0 1 1 1 0 
1 0 1 0 1 0 1 1 1 0 1 0 1 0 1 0 
1 1 1 0 1 0 3141 333 300 MP stroke
1 0 1 0 1 0 1 1 1 0 1 0 1 0 1 0 
1 1 1 0 1 0 1 0 1 0 1 1 1 0 1 0 
1 0 1 0 1 0 1 1 1 0 1 0 1 0 1 0 
1 1 1 0 1 0 1 0 1 0 1 1 1 0 1 0 
1 0 1 0 1 0 1 1 1 0 1 0 1 0 1 0 
1 0 1 1 1 0 1 0 1 0 1 0 1 1 1 0 
1 0 1 0 1 0 1 1 1 0 1 0 1 0 1 0 
1 0 1 1 1 0 1 0 1 0 1 0 1 1 1 0 
1 0 1 0 1 0 1 0 1 1 1 0 1 0 1 0 
1 0 1 0 1 1 1 0 1 0 1 0 1 0 1 1 
1 0 1 0 1 0 1 0 1 0 1 1 1 0 1 0 
1 0 1 0 1 1 1 0 1 0 1 0 1 0 1 0 
1 1 1 0 1 0 1 0 1 0 1 0 1 1 1 0 
1 0 1 0 1 0 1 1 1 0 1 0 1 0 1 0 
1 0 1 1 1 0 1 0 1 0 1 0 1 0 1 1 
1 0 1 0 1 0 1 0 1 0 1 1 1 0 1 0 
1 0 1 0 1 1 1 0 1 0 1 0 1 0 1 0 
1 0 1 1 1 0 1 0 1 0 1 0 1 1 1 0 
1 0 1 0 1 0 1 0 1 1 1 0 1 0 1 0 
1 0 1 1 1 0 1 0 1 0 1 0 1 0 1 0 
1 1 1 0 1 0 1 0 1 0 1 0 1 1 1 0 
1 0 1 0 1 0 1 0 1 1 1 0 1 0 1 0 
1 0 1 1 1 0 1 0 1 0 1 0 1 0 1 1 
1 0 1 0 1 0 1 0 1 0 1 0 1 1 1 0 
1 0 1 0 1 0 1 0 1 1 1 0 1 0 1 0 
1 0 1 0 1 1 1 0 1 0 1 0 1 0 1 1 
1 0 1 0 1 0 1 0 1 0 1 0 1 1 1 0 
1 0 1 0 1 0 1 0 1 1 1 0 1 0 1 0 
1 0 1 0 1 1 1 0 1 0 1 0 1 0 1 0 
1 1 1 0 1 0 1 0 1 0 1 0 1 1 1 0 
1 0 1 0 1 0 1 0 1 0 1 1 1 0 1 0 
1 0 1 0 1 0 1 0 1 1 1 0 1 0 1 0 
1 0 1 0 1 1 1 0 1 0 1 0 1 0 1 0 
1 1 1 0 1 0 1 0 1 0 1 0 1 1 1 0 
1 0 1 0 1 0 1 0 1 1 1 0 1 0 1 0 
1 0 1 0 1 0 1 0 1 1 1 0 1 0 1 0 
1 0 1 0 1 1 1 0 1 0 1 0 1 0 1 0 
1 1 1 0 1 0 2842 282 300 MP stroke
1 0 1 0 1 0 1 0 1 1 1 0 1 0 1 0 
1 0 1 0 1 1 1 0 1 0 1 0 1 0 1 0 
1 0 1 1 1 0 1 0 1 0 1 0 1 0 1 0 
1 1 1 0 1 0 1 0 1 0 1 0 1 0 1 1 
1 0 1 0 1 0 1 0 1 0 1 1 1 0 1 0 
1 0 1 0 1 0 1 0 1 1 1 0 1 0 1 0 
1 0 1 0 1 1 1 0 1 0 1 0 1 0 1 0 
1 0 1 1 1 0 1 0 1 0 1 0 1 0 1 0 
1 1 1 0 1 0 1 0 1 0 1 0 1 0 1 1 
1 0 1 0 1 0 1 0 1 0 1 0 1 1 1 0 
1 0 1 0 1 0 1 0 1 0 1 1 1 0 1 0 
1 0 1 0 1 0 1 0 1 1 1 0 1 0 1 0 
1 0 1 0 1 0 1 1 1 0 1 0 1 0 1 0 
1 0 1 0 1 1 1 0 1 0 1 0 1 0 1 0 
1 0 1 1 1 0 1 0 1 0 1 0 1 0 1 0 
1 0 1 1 1 0 1 0 1 0 1 0 1 0 1 0 
1 1 1 0 1 0 1 0 1 0 1 0 1 0 1 1 
1 0 1 0 1 0 1 0 1 0 1 0 1 1 1 0 
1 0 1 0 1 0 1 0 1 0 1 1 1 0 1 0 
1 0 1 0 1 0 1 0 1 0 1 1 1 0 1 0 
1 0 1 0 1 0 1 0 1 1 1 0 1 0 1 0 
1 0 1 0 1 0 1 0 1 1 1 0 1 0 1 0 
1 0 1 0 1 0 1 1 1 0 1 0 1 0 1 0 
1 0 1 0 1 0 1 1 1 0 1 0 1 0 1 0 
1 0 1 0 1 0 1 1 1 0 1 0 1 0 1 0 
1 0 1 0 1 1 1 0 1 0 1 0 1 0 1 0 
1 0 1 0 1 1 1 0 1 0 1 0 1 0 1 0 
1 0 1 0 1 1 1 0 1 0 1 0 1 0 1 0 
1 0 1 0 1 1 1 0 1 0 1 0 1 0 1 0 
1 0 1 0 1 1 1 0 1 0 1 0 1 0 1 0 
1 0 1 0 1 1 1 0 1 0 1 0 1 0 1 0 
1 0 1 0 1 1 1 0 1 0 1 0 1 0 1 0 
1 0 1 0 1 1 1 0 1 0 1 0 1 0 1 0 
1 0 1 0 1 1 1 0 1 0 1 0 1 0 1 0 
1 0 1 0 1 0 1 1 1 0 1 0 1 0 1 0 
1 0 1 0 1 0 1 1 1 0 1 0 1 0 1 0 
1 0 1 0 1 0 1 0 1 1 1 0 1 0 1 0 
1 0 1 0 1 0 2543 242 300 MP stroke
1 0 1 1 1 0 1 0 1 0 1 0 1 0 1 0 
1 0 1 0 1 1 1 0 1 0 1 0 1 0 1 0 
1 0 1 0 1 1 1 0 1 0 1 0 1 0 1 0 
1 0 1 0 1 0 1 1 1 0 1 0 1 0 1 0 
1 0 1 0 1 0 1 1 1 0 1 0 1 0 1 0 
1 0 1 0 1 0 1 0 1 1 1 0 1 0 1 0 
1 0 1 0 1 0 1 0 1 0 1 1 1 0 1 0 
1 0 1 0 1 0 1 0 1 0 1 0 1 1 1 0 
1 0 1 0 1 0 1 0 1 0 1 0 1 0 1 0 
1 1 1 0 1 0 1 0 1 0 1 0 1 0 1 0 
1 0 1 1 1 0 1 0 1 0 1 0 1 0 1 0 
1 0 1 0 1 1 1 0 1 0 1 0 1 0 1 0 
1 0 1 0 1 0 1 1 1 0 1 0 1 0 1 0 
1 0 1 0 1 0 1 0 1 0 1 1 1 0 1 0 
1 0 1 0 1 0 1 0 1 0 1 0 1 0 1 1 
1 0 1 0 1 0 1 0 1 0 1 0 1 0 1 0 
1 1 1 0 1 0 1 0 1 0 1 0 1 0 1 0 
1 0 1 0 1 1 1 0 1 0 1 0 1 0 1 0 
1 0 1 0 1 0 1 0 1 1 1 0 1 0 1 0 
1 0 1 0 1 0 1 0 1 0 1 0 1 1 1 0 
1 0 1 0 1 0 1 0 1 0 1 0 1 0 1 0 
1 1 1 0 1 0 1 0 1 0 1 0 1 0 1 0 
1 0 1 0 1 1 1 0 1 0 1 0 1 0 1 0 
1 0 1 0 1 0 1 0 1 0 1 1 1 0 1 0 
1 0 1 0 1 0 1 0 1 0 1 0 1 0 1 1 
1 0 1 0 1 0 1 0 1 0 1 0 1 0 1 0 
1 0 1 0 1 1 1 0 1 0 1 0 1 0 1 0 
1 0 1 0 1 0 1 0 1 0 1 1 1 0 1 0 
1 0 1 0 1 0 1 0 1 0 1 0 1 0 1 1 
1 0 1 0 1 0 1 0 1 0 1 0 1 0 1 0 
1 0 1 0 1 0 1 1 1 0 1 0 1 0 1 0 
1 0 1 0 1 0 1 0 1 0 1 0 1 1 1 0 
1 0 1 0 1 0 1 0 1 0 1 0 1 0 1 0 
1 0 1 0 1 1 1 0 1 0 1 0 1 0 1 0 
1 0 1 0 1 0 1 0 1 0 1 1 1 0 1 0 
1 0 1 0 1 0 1 0 1 0 1 0 1 0 1 0 
1 0 1 1 1 0 1 0 1 0 1 0 1 0 1 0 
1 0 1 0 1 0 2244 212 300 MP stroke
1 0 1 0 1 1 1 0 1 0 1 0 1 0 1 0 
1 0 1 0 1 0 1 0 1 0 1 0 1 1 1 0 
1 0 1 0 1 0 1 0 1 0 1 0 1 0 1 0 
1 0 1 0 1 1 1 0 1 0 1 0 1 0 1 0 
1 0 1 0 1 0 1 0 1 0 1 0 1 0 1 1 
1 0 1 0 1 0 1 0 1 0 1 0 1 0 1 0 
1 0 1 0 1 0 1 0 1 1 1 0 1 0 1 0 
1 0 1 0 1 0 1 0 1 0 1 0 1 0 1 0 
1 0 1 1 1 0 1 0 1 0 1 0 1 0 1 0 
1 0 1 0 1 0 1 0 1 0 1 0 1 1 1 0 
1 0 1 0 1 0 1 0 1 0 1 0 1 0 1 0 
1 0 1 0 1 0 1 0 1 0 1 1 1 0 1 0 
1 0 1 0 1 0 1 0 1 0 1 0 1 0 1 0 
1 0 1 0 1 0 1 1 1 0 1 0 1 0 1 0 
1 0 1 0 1 0 1 0 1 0 1 0 1 0 1 0 
1 0 1 1 1 0 1 0 1 0 1 0 1 0 1 0 
1 0 1 0 1 0 1 0 1 0 1 0 1 0 1 0 
1 1 1 0 1 0 1 0 1 0 1 0 1 0 1 0 
1 0 1 0 1 0 1 0 1 0 1 0 1 0 1 1 
1 0 1 0 1 0 1 0 1 0 1 0 1 0 1 0 
1 0 1 0 1 0 1 0 1 0 1 0 1 0 1 1 
1 0 1 0 1 0 1 0 1 0 1 0 1 0 1 0 
1 0 1 0 1 0 1 0 1 0 1 0 1 0 1 1 
1 0 1 0 1 0 1 0 1 0 1 0 1 0 1 0 
1 0 1 0 1 0 1 0 1 0 1 0 1 0 1 0 
1 1 1 0 1 0 1 0 1 0 1 0 1 0 1 0 
1 0 1 0 1 0 1 0 1 0 1 0 1 0 1 0 
1 0 1 1 1 0 1 0 1 0 1 0 1 0 1 0 
1 0 1 0 1 0 1 0 1 0 1 0 1 0 1 0 
1 0 1 0 1 1 1 0 1 0 1 0 1 0 1 0 
1 0 1 0 1 0 1 0 1 0 1 0 1 0 1 0 
1 0 1 0 1 0 1 0 1 0 1 1 1 0 1 0 
1 0 1 0 1 0 1 0 1 0 1 0 1 0 1 0 
1 0 1 0 1 0 1 0 1 0 1 0 1 0 1 0 
1 1 1 0 1 0 1 0 1 0 1 0 1 0 1 0 
1 0 1 0 1 0 1 0 1 0 1 0 1 0 1 0 
1 0 1 0 1 0 1 0 1 1 1 0 1 0 1 0 
1 0 1 0 1 0 1945 192 300 MP stroke
1 0 1 0 1 0 1 0 1 0 1 0 1 0 1 0 
1 0 1 0 1 0 1 0 1 0 1 0 1 1 1 0 
1 0 1 0 1 0 1 0 1 0 1 0 1 0 1 0 
1 0 1 0 1 0 1 0 1 0 1 0 1 0 1 0 
1 0 1 0 1 0 1 0 1 0 1 1 1 0 1 0 
1 0 1 0 1 0 1 0 1 0 1 0 1 0 1 0 
1 0 1 0 1 0 1 0 1 0 1 0 1 0 1 0 
1 0 1 0 1 0 1 0 1 1 1 0 1 0 1 0 
1 0 1 0 1 0 1 0 1 0 1 0 1 0 1 0 
1 0 1 0 1 0 1 0 1 0 1 0 1 0 1 0 
1 0 1 0 1 0 1 0 1 0 1 0 1 1 1 0 
1 0 1 0 1 0 1 0 1 0 1 0 1 0 1 0 
1 0 1 0 1 0 1 0 1 0 1 0 1 0 1 0 
1 0 1 0 1 0 1 0 1 0 1 0 1 0 1 0 
1 0 1 0 1 1 1 0 1 0 1 0 1 0 1 0 
1 0 1 0 1 0 1 0 1 0 1 0 1 0 1 0 
1 0 1 0 1 0 1 0 1 0 1 0 1 0 1 0 
1 0 1 0 1 0 1 0 1 0 1 0 1 0 1 0 
1 0 1 1 1 0 1 0 1 0 1 0 1 0 1 0 
1 0 1 0 1 0 1 0 1 0 1 0 1 0 1 0 
1 0 1 0 1 0 1 0 1 0 1 0 1 0 1 0 
1 0 1 0 1 0 1 0 1 0 1 0 1 0 1 0 
1 0 1 0 1 0 1 0 1 1 1 0 1 0 1 0 
1 0 1 0 1 0 1 0 1 0 1 0 1 0 1 0 
1 0 1 0 1 0 1 0 1 0 1 0 1 0 1 0 
1 0 1 0 1 0 1 0 1 0 1 0 1 0 1 0 
1 0 1 0 1 0 1 0 1 0 1 0 1 0 1 0 
1 0 1 0 1 0 1 0 1 0 1 1 1 0 1 0 
1 0 1 0 1 0 1 0 1 0 1 0 1 0 1 0 
1 0 1 0 1 0 1 0 1 0 1 0 1 0 1 0 
1 0 1 0 1 0 1 0 1 0 1 0 1 0 1 0 
1 0 1 0 1 0 1 0 1 0 1 0 1 0 1 0 
1 0 1 0 1 0 1 0 1 0 1 0 1 0 1 0 
1 0 1 0 1 0 1 0 1 0 1 0 1 0 1 0 
1 0 1 0 1 0 1 1 1 0 1 0 1 0 1 0 
1 0 1 0 1 0 1 0 1 0 1 0 1 0 1 0 
1 0 1 0 1 0 1 0 1 0 1 0 1 0 1 0 
1 0 1 0 1 0 1646 183 300 MP stroke
1 0 1 0 1 0 1 0 1 0 1 0 1 0 1 0 
1 0 1 0 1 0 1 0 1 0 1 0 1 0 1 0 
1 0 1 0 1 0 1 0 1 0 1 0 1 0 1 0 
1 0 1 0 1 0 1 0 1 0 1 0 1 0 1 0 
1 0 1 0 1 0 1 0 1 0 1 0 1 0 1 0 
1 0 1 0 1 0 1 0 1 0 1 0 1 0 1 0 
1 0 1 0 1 0 1 0 1 0 1 0 1 0 1 0 
1 0 1 0 1 0 1 0 1 0 1 0 1 0 1 0 
1 0 1 0 1 0 1 0 1 0 1 0 1 0 1 0 
1 0 1 0 1 0 1 0 1 0 1 0 1 0 1 0 
1 0 1 0 1 0 1 0 1 0 1 0 1 0 1 0 
1 0 1 0 1 0 1 0 1 0 1 0 1 0 1 0 
1 0 1 0 1 0 1 0 1 0 1 0 1 0 1 0 
1 0 1 0 1 0 1539 183 108 MP stroke
72 w
gs 8417 2930 1194 1083 rc
/c9 { 0.000000 1.000000 1.000000 sr} bdef
c9
  36   36 8563 3076 FO
  36   36 8564 3077 FO
  36   36 8565 3077 FO
  36   36 8566 3078 FO
  36   36 8566 3079 FO
  36   36 8567 3079 FO
  36   36 8568 3080 FO
  36   36 8569 3081 FO
  36   36 8570 3082 FO
  36   36 8571 3082 FO
  36   36 8572 3083 FO
  36   36 8573 3084 FO
  36   36 8574 3085 FO
  36   36 8575 3086 FO
  36   36 8576 3087 FO
  36   36 8577 3088 FO
  36   36 8578 3088 FO
  36   36 8579 3089 FO
  36   36 8580 3090 FO
  36   36 8581 3090 FO
  36   36 8581 3091 FO
  36   36 8582 3092 FO
  36   36 8583 3093 FO
  36   36 8584 3093 FO
  36   36 8585 3094 FO
  36   36 8586 3095 FO
  36   36 8587 3096 FO
  36   36 8588 3096 FO
  36   36 8589 3097 FO
  36   36 8589 3098 FO
  36   36 8590 3098 FO
  36   36 8591 3099 FO
  36   36 8592 3100 FO
  36   36 8593 3101 FO
  36   36 8594 3101 FO
  36   36 8595 3102 FO
  36   36 8596 3103 FO
  36   36 8597 3104 FO
  36   36 8598 3105 FO
  36   36 8599 3106 FO
  36   36 8600 3107 FO
  36   36 8601 3107 FO
  36   36 8602 3108 FO
  36   36 8603 3109 FO
  36   36 8604 3109 FO
  36   36 8605 3110 FO
  36   36 8605 3111 FO
  36   36 8606 3112 FO
  36   36 8607 3112 FO
  36   36 8608 3113 FO
  36   36 8609 3114 FO
  36   36 8610 3115 FO
  36   36 8611 3115 FO
  36   36 8612 3116 FO
  36   36 8612 3117 FO
  36   36 8613 3118 FO
  36   36 8614 3118 FO
  36   36 8615 3119 FO
  36   36 8616 3120 FO
  36   36 8617 3121 FO
  36   36 8618 3121 FO
  36   36 8619 3122 FO
  36   36 8620 3123 FO
  36   36 8621 3124 FO
  36   36 8622 3125 FO
  36   36 8623 3126 FO
  36   36 8624 3126 FO
  36   36 8625 3127 FO
  36   36 8626 3128 FO
  36   36 8627 3129 FO
  36   36 8628 3129 FO
  36   36 8628 3130 FO
  36   36 8629 3131 FO
  36   36 8630 3132 FO
  36   36 8631 3132 FO
  36   36 8632 3133 FO
  36   36 8633 3134 FO
  36   36 8634 3135 FO
  36   36 8635 3135 FO
  36   36 8636 3136 FO
  36   36 8636 3137 FO
  36   36 8637 3137 FO
  36   36 8638 3138 FO
  36   36 8639 3139 FO
  36   36 8640 3140 FO
  36   36 8641 3140 FO
  36   36 8642 3141 FO
  36   36 8643 3142 FO
  36   36 8644 3143 FO
  36   36 8645 3144 FO
  36   36 8646 3145 FO
  36   36 8647 3146 FO
  36   36 8648 3146 FO
  36   36 8649 3147 FO
  36   36 8650 3148 FO
  36   36 8651 3149 FO
  36   36 8652 3150 FO
  36   36 8653 3151 FO
  36   36 8654 3151 FO
  36   36 8655 3152 FO
  36   36 8656 3153 FO
  36   36 8657 3154 FO
  36   36 8658 3154 FO
  36   36 8659 3155 FO
  36   36 8659 3156 FO
  36   36 8660 3157 FO
  36   36 8661 3157 FO
  36   36 8662 3158 FO
  36   36 8663 3159 FO
  36   36 8664 3160 FO
  36   36 8665 3160 FO
  36   36 8666 3161 FO
  36   36 8667 3162 FO
  36   36 8667 3163 FO
  36   36 8668 3163 FO
  36   36 8669 3164 FO
  36   36 8670 3165 FO
  36   36 8671 3166 FO
  36   36 8672 3166 FO
  36   36 8673 3167 FO
  36   36 8674 3168 FO
  36   36 8675 3169 FO
  36   36 8676 3170 FO
  36   36 8677 3171 FO
  36   36 8678 3171 FO
  36   36 8679 3172 FO
  36   36 8680 3173 FO
  36   36 8681 3174 FO
  36   36 8682 3174 FO
  36   36 8682 3175 FO
  36   36 8683 3176 FO
  36   36 8684 3177 FO
  36   36 8685 3177 FO
  36   36 8686 3178 FO
  36   36 8687 3179 FO
  36   36 8688 3180 FO
  36   36 8689 3180 FO
  36   36 8690 3181 FO
  36   36 8690 3182 FO
  36   36 8691 3183 FO
  36   36 8692 3183 FO
  36   36 8693 3184 FO
  36   36 8694 3185 FO
  36   36 8695 3186 FO
  36   36 8696 3186 FO
  36   36 8697 3187 FO
  36   36 8698 3188 FO
  36   36 8698 3189 FO
  36   36 8699 3189 FO
  36   36 8700 3190 FO
  36   36 8701 3191 FO
  36   36 8702 3192 FO
  36   36 8703 3192 FO
  36   36 8704 3193 FO
  36   36 8705 3194 FO
  36   36 8706 3195 FO
  36   36 8707 3196 FO
  36   36 8708 3197 FO
  36   36 8709 3197 FO
  36   36 8710 3198 FO
  36   36 8711 3199 FO
  36   36 8712 3200 FO
  36   36 8713 3200 FO
  36   36 8713 3201 FO
  36   36 8714 3202 FO
  36   36 8715 3203 FO
  36   36 8716 3203 FO
  36   36 8717 3204 FO
  36   36 8718 3205 FO
  36   36 8719 3206 FO
  36   36 8720 3206 FO
  36   36 8721 3207 FO
  36   36 8721 3208 FO
  36   36 8722 3209 FO
  36   36 8723 3209 FO
  36   36 8724 3210 FO
  36   36 8725 3211 FO
  36   36 8726 3212 FO
  36   36 8727 3212 FO
  36   36 8728 3213 FO
  36   36 8729 3214 FO
  36   36 8729 3215 FO
  36   36 8730 3215 FO
  36   36 8731 3216 FO
  36   36 8732 3217 FO
  36   36 8733 3218 FO
  36   36 8734 3218 FO
  36   36 8735 3219 FO
  36   36 8736 3220 FO
  36   36 8737 3221 FO
  36   36 8738 3222 FO
  36   36 8739 3223 FO
  36   36 8740 3224 FO
  36   36 8741 3224 FO
  36   36 8742 3225 FO
  36   36 8743 3226 FO
  36   36 8744 3227 FO
  36   36 8745 3228 FO
  36   36 8746 3229 FO
  36   36 8747 3230 FO
  36   36 8748 3230 FO
  36   36 8749 3231 FO
  36   36 8750 3232 FO
  36   36 8751 3233 FO
  36   36 8752 3233 FO
  36   36 8752 3234 FO
  36   36 8753 3235 FO
  36   36 8754 3236 FO
  36   36 8755 3236 FO
  36   36 8756 3237 FO
  36   36 8757 3238 FO
  36   36 8758 3239 FO
  36   36 8759 3239 FO
  36   36 8760 3240 FO
  36   36 8760 3241 FO
  36   36 8761 3242 FO
  36   36 8762 3242 FO
  36   36 8763 3243 FO
  36   36 8764 3244 FO
  36   36 8765 3245 FO
  36   36 8766 3245 FO
  36   36 8767 3246 FO
  36   36 8768 3247 FO
  36   36 8768 3248 FO
  36   36 8769 3248 FO
  36   36 8770 3249 FO
  36   36 8771 3250 FO
  36   36 8772 3251 FO
  36   36 8773 3251 FO
  36   36 8774 3252 FO
  36   36 8775 3253 FO
  36   36 8775 3254 FO
  36   36 8776 3254 FO
  36   36 8777 3255 FO
  36   36 8778 3256 FO
  36   36 8779 3257 FO
  36   36 8780 3257 FO
  36   36 8781 3258 FO
  36   36 8782 3259 FO
  36   36 8783 3260 FO
  36   36 8784 3261 FO
  36   36 8785 3262 FO
  36   36 8786 3263 FO
  36   36 8787 3263 FO
  36   36 8788 3264 FO
  36   36 8789 3265 FO
  36   36 8790 3266 FO
  36   36 8791 3266 FO
  36   36 8791 3267 FO
  36   36 8792 3268 FO
  36   36 8793 3269 FO
  36   36 8794 3269 FO
  36   36 8795 3270 FO
  36   36 8796 3271 FO
  36   36 8797 3272 FO
  36   36 8798 3272 FO
  36   36 8799 3273 FO
  36   36 8799 3274 FO
  36   36 8800 3275 FO
  36   36 8801 3275 FO
  36   36 8802 3276 FO
  36   36 8803 3277 FO
  36   36 8804 3278 FO
  36   36 8805 3278 FO
  36   36 8806 3279 FO
  36   36 8806 3280 FO
  36   36 8807 3281 FO
  36   36 8808 3281 FO
  36   36 8809 3282 FO
  36   36 8810 3283 FO
  36   36 8811 3284 FO
  36   36 8812 3285 FO
  36   36 8813 3285 FO
  36   36 8814 3286 FO
  36   36 8814 3287 FO
  36   36 8815 3288 FO
  36   36 8816 3288 FO
  36   36 8817 3289 FO
  36   36 8818 3290 FO
  36   36 8819 3291 FO
  36   36 8820 3291 FO
  36   36 8821 3292 FO
  36   36 8822 3293 FO
  36   36 8822 3294 FO
  36   36 8823 3294 FO
  36   36 8824 3295 FO
  36   36 8825 3296 FO
  36   36 8826 3297 FO
  36   36 8827 3297 FO
  36   36 8828 3298 FO
  36   36 8829 3299 FO
  36   36 8830 3300 FO
  36   36 8831 3301 FO
  36   36 8832 3302 FO
  36   36 8833 3303 FO
  36   36 8834 3303 FO
  36   36 8835 3304 FO
  36   36 8836 3305 FO
  36   36 8837 3306 FO
  36   36 8838 3307 FO
  36   36 8839 3308 FO
  36   36 8840 3309 FO
  36   36 8841 3310 FO
  36   36 8842 3310 FO
  36   36 8843 3311 FO
  36   36 8844 3312 FO
  36   36 8845 3313 FO
  36   36 8846 3314 FO
  36   36 8847 3315 FO
  36   36 8848 3316 FO
  36   36 8849 3316 FO
  36   36 8850 3317 FO
  36   36 8851 3318 FO
  36   36 8852 3319 FO
  36   36 8853 3319 FO
  36   36 8853 3320 FO
  36   36 8854 3321 FO
  36   36 8855 3322 FO
  36   36 8856 3322 FO
  36   36 8857 3323 FO
  36   36 8858 3324 FO
  36   36 8859 3325 FO
  36   36 8860 3325 FO
  36   36 8861 3326 FO
  36   36 8861 3327 FO
  36   36 8862 3328 FO
  36   36 8863 3328 FO
  36   36 8864 3329 FO
  36   36 8865 3330 FO
  36   36 8866 3331 FO
  36   36 8867 3332 FO
  36   36 8868 3332 FO
  36   36 8868 3333 FO
  36   36 8869 3334 FO
  36   36 8870 3335 FO
  36   36 8871 3335 FO
  36   36 8872 3336 FO
  36   36 8873 3337 FO
  36   36 8874 3338 FO
  36   36 8875 3338 FO
  36   36 8876 3339 FO
  36   36 8876 3340 FO
  36   36 8877 3341 FO
  36   36 8878 3341 FO
  36   36 8879 3342 FO
  36   36 8880 3343 FO
  36   36 8881 3344 FO
  36   36 8882 3344 FO
  36   36 8883 3345 FO
  36   36 8884 3346 FO
  36   36 8884 3347 FO
  36   36 8885 3348 FO
  36   36 8886 3348 FO
  36   36 8887 3349 FO
  36   36 8888 3350 FO
  36   36 8889 3351 FO
  36   36 8890 3351 FO
  36   36 8891 3352 FO
  36   36 8892 3353 FO
  36   36 8892 3354 FO
  36   36 8893 3354 FO
  36   36 8894 3355 FO
  36   36 8895 3356 FO
  36   36 8896 3357 FO
  36   36 8897 3357 FO
  36   36 8898 3358 FO
  36   36 8899 3359 FO
  36   36 8899 3360 FO
  36   36 8900 3361 FO
  36   36 8901 3361 FO
  36   36 8902 3362 FO
  36   36 8903 3363 FO
  36   36 8904 3364 FO
  36   36 8905 3364 FO
  36   36 8906 3365 FO
  36   36 8907 3366 FO
  36   36 8907 3367 FO
  36   36 8908 3367 FO
  36   36 8909 3368 FO
  36   36 8910 3369 FO
  36   36 8911 3370 FO
  36   36 8912 3370 FO
  36   36 8913 3371 FO
  36   36 8914 3372 FO
  36   36 8915 3373 FO
  36   36 8915 3374 FO
  36   36 8916 3374 FO
  36   36 8917 3375 FO
  36   36 8918 3376 FO
  36   36 8919 3377 FO
  36   36 8920 3377 FO
  36   36 8921 3378 FO
  36   36 8922 3379 FO
  36   36 8923 3380 FO
  36   36 8924 3381 FO
  36   36 8925 3382 FO
  36   36 8926 3383 FO
  36   36 8927 3384 FO
  36   36 8928 3384 FO
  36   36 8929 3385 FO
  36   36 8930 3386 FO
  36   36 8931 3387 FO
  36   36 8932 3388 FO
  36   36 8933 3389 FO
  36   36 8934 3390 FO
  36   36 8935 3390 FO
  36   36 8936 3391 FO
  36   36 8937 3392 FO
  36   36 8938 3393 FO
  36   36 8938 3394 FO
  36   36 8939 3394 FO
  36   36 8940 3395 FO
  36   36 8941 3396 FO
  36   36 8942 3397 FO
  36   36 8943 3397 FO
  36   36 8944 3398 FO
  36   36 8945 3399 FO
  36   36 8946 3400 FO
  36   36 8947 3401 FO
  36   36 8948 3402 FO
  36   36 8949 3403 FO
  36   36 8950 3404 FO
  36   36 8951 3404 FO
  36   36 8952 3405 FO
  36   36 8953 3406 FO
  36   36 8954 3407 FO
  36   36 8955 3408 FO
  36   36 8956 3409 FO
  36   36 8957 3410 FO
  36   36 8958 3410 FO
  36   36 8959 3411 FO
  36   36 8960 3412 FO
  36   36 8961 3413 FO
  36   36 8962 3414 FO
  36   36 8963 3415 FO
  36   36 8964 3416 FO
  36   36 8965 3417 FO
  36   36 8966 3417 FO
  36   36 8967 3418 FO
  36   36 8968 3419 FO
  36   36 8969 3420 FO
  36   36 8970 3421 FO
  36   36 8971 3422 FO
  36   36 8972 3423 FO
  36   36 8973 3424 FO
  36   36 8974 3424 FO
  36   36 8975 3425 FO
  36   36 8976 3426 FO
  36   36 8977 3427 FO
  36   36 8978 3428 FO
  36   36 8979 3429 FO
  36   36 8980 3430 FO
  36   36 8981 3431 FO
  36   36 8982 3431 FO
  36   36 8983 3432 FO
  36   36 8984 3433 FO
  36   36 8985 3434 FO
  36   36 8986 3435 FO
  36   36 8987 3436 FO
  36   36 8988 3437 FO
  36   36 8989 3437 FO
  36   36 8990 3438 FO
  36   36 8991 3439 FO
  36   36 8992 3440 FO
  36   36 8993 3441 FO
  36   36 8994 3442 FO
  36   36 8995 3443 FO
  36   36 8996 3444 FO
  36   36 8997 3444 FO
  36   36 8998 3445 FO
  36   36 8999 3446 FO
  36   36 9000 3447 FO
  36   36 9000 3448 FO
  36   36 9001 3448 FO
  36   36 9002 3449 FO
  36   36 9003 3450 FO
  36   36 9004 3451 FO
  36   36 9005 3451 FO
  36   36 9006 3452 FO
  36   36 9007 3453 FO
  36   36 9008 3454 FO
  36   36 9008 3455 FO
  36   36 9009 3455 FO
  36   36 9010 3456 FO
  36   36 9011 3457 FO
  36   36 9012 3458 FO
  36   36 9013 3458 FO
  36   36 9014 3459 FO
  36   36 9015 3460 FO
  36   36 9016 3461 FO
  36   36 9016 3462 FO
  36   36 9017 3462 FO
  36   36 9018 3463 FO
  36   36 9019 3464 FO
  36   36 9020 3465 FO
  36   36 9021 3465 FO
  36   36 9022 3466 FO
  36   36 9023 3467 FO
  36   36 9024 3468 FO
  36   36 9024 3469 FO
  36   36 9025 3469 FO
  36   36 9026 3470 FO
  36   36 9027 3471 FO
  36   36 9028 3472 FO
  36   36 9029 3472 FO
  36   36 9030 3473 FO
  36   36 9031 3474 FO
  36   36 9031 3475 FO
  36   36 9032 3476 FO
  36   36 9033 3476 FO
  36   36 9034 3477 FO
  36   36 9035 3478 FO
  36   36 9036 3479 FO
  36   36 9037 3479 FO
  36   36 9038 3480 FO
  36   36 9039 3481 FO
  36   36 9039 3482 FO
  36   36 9040 3483 FO
  36   36 9041 3483 FO
  36   36 9042 3484 FO
  36   36 9043 3485 FO
  36   36 9044 3486 FO
  36   36 9045 3486 FO
  36   36 9046 3487 FO
  36   36 9047 3488 FO
  36   36 9047 3489 FO
  36   36 9048 3490 FO
  36   36 9049 3490 FO
  36   36 9050 3491 FO
  36   36 9051 3492 FO
  36   36 9052 3493 FO
  36   36 9053 3493 FO
  36   36 9054 3494 FO
  36   36 9055 3495 FO
  36   36 9055 3496 FO
  36   36 9056 3497 FO
  36   36 9057 3497 FO
  36   36 9058 3498 FO
  36   36 9059 3499 FO
  36   36 9060 3500 FO
  36   36 9061 3500 FO
  36   36 9062 3501 FO
  36   36 9062 3502 FO
  36   36 9063 3503 FO
  36   36 9064 3504 FO
  36   36 9065 3504 FO
  36   36 9066 3505 FO
  36   36 9067 3506 FO
  36   36 9068 3507 FO
  36   36 9069 3508 FO
  36   36 9070 3508 FO
  36   36 9070 3509 FO
  36   36 9071 3510 FO
  36   36 9072 3511 FO
  36   36 9073 3511 FO
  36   36 9074 3512 FO
  36   36 9075 3513 FO
  36   36 9076 3514 FO
  36   36 9077 3515 FO
  36   36 9078 3515 FO
  36   36 9078 3516 FO
  36   36 9079 3517 FO
  36   36 9080 3518 FO
  36   36 9081 3518 FO
  36   36 9082 3519 FO
  36   36 9083 3520 FO
  36   36 9084 3521 FO
  36   36 9085 3522 FO
  36   36 9086 3522 FO
  36   36 9086 3523 FO
  36   36 9087 3524 FO
  36   36 9088 3525 FO
  36   36 9089 3526 FO
  36   36 9090 3526 FO
  36   36 9091 3527 FO
  36   36 9092 3528 FO
  36   36 9093 3529 FO
  36   36 9094 3530 FO
  36   36 9095 3531 FO
  36   36 9096 3532 FO
  36   36 9097 3533 FO
  36   36 9098 3533 FO
  36   36 9099 3534 FO
  36   36 9100 3535 FO
  36   36 9101 3536 FO
  36   36 9101 3537 FO
  36   36 9102 3537 FO
  36   36 9103 3538 FO
  36   36 9104 3539 FO
  36   36 9105 3540 FO
  36   36 9106 3540 FO
  36   36 9107 3541 FO
  36   36 9108 3542 FO
  36   36 9109 3543 FO
  36   36 9109 3544 FO
  36   36 9110 3544 FO
  36   36 9111 3545 FO
  36   36 9112 3546 FO
  36   36 9113 3547 FO
  36   36 9114 3548 FO
  36   36 9115 3548 FO
  36   36 9116 3549 FO
  36   36 9117 3550 FO
  36   36 9117 3551 FO
  36   36 9118 3551 FO
  36   36 9119 3552 FO
  36   36 9120 3553 FO
  36   36 9121 3554 FO
  36   36 9122 3555 FO
  36   36 9123 3555 FO
  36   36 9124 3556 FO
  36   36 9124 3557 FO
  36   36 9125 3558 FO
  36   36 9126 3559 FO
  36   36 9127 3559 FO
  36   36 9128 3560 FO
  36   36 9129 3561 FO
  36   36 9130 3562 FO
  36   36 9131 3562 FO
  36   36 9132 3563 FO
  36   36 9132 3564 FO
  36   36 9133 3565 FO
  36   36 9134 3566 FO
  36   36 9135 3566 FO
  36   36 9136 3567 FO
  36   36 9137 3568 FO
  36   36 9138 3569 FO
  36   36 9139 3570 FO
  36   36 9140 3570 FO
  36   36 9140 3571 FO
  36   36 9141 3572 FO
  36   36 9142 3573 FO
  36   36 9143 3574 FO
  36   36 9144 3574 FO
  36   36 9145 3575 FO
  36   36 9146 3576 FO
  36   36 9147 3577 FO
  36   36 9148 3577 FO
  36   36 9148 3578 FO
  36   36 9149 3579 FO
  36   36 9150 3580 FO
  36   36 9151 3581 FO
  36   36 9152 3581 FO
  36   36 9153 3582 FO
  36   36 9154 3583 FO
  36   36 9155 3584 FO
  36   36 9155 3585 FO
  36   36 9156 3585 FO
  36   36 9157 3586 FO
  36   36 9158 3587 FO
  36   36 9159 3588 FO
  36   36 9160 3589 FO
  36   36 9161 3589 FO
  36   36 9162 3590 FO
  36   36 9163 3591 FO
  36   36 9163 3592 FO
  36   36 9164 3593 FO
  36   36 9165 3593 FO
  36   36 9166 3594 FO
  36   36 9167 3595 FO
  36   36 9168 3596 FO
  36   36 9169 3596 FO
  36   36 9170 3597 FO
  36   36 9171 3598 FO
  36   36 9171 3599 FO
  36   36 9172 3600 FO
  36   36 9173 3600 FO
  36   36 9174 3601 FO
  36   36 9175 3602 FO
  36   36 9176 3603 FO
  36   36 9177 3604 FO
  36   36 9178 3604 FO
  36   36 9179 3605 FO
  36   36 9179 3606 FO
  36   36 9180 3607 FO
  36   36 9181 3608 FO
  36   36 9182 3608 FO
  36   36 9183 3609 FO
  36   36 9184 3610 FO
  36   36 9185 3611 FO
  36   36 9186 3612 FO
  36   36 9187 3613 FO
  36   36 9188 3614 FO
  36   36 9189 3615 FO
  36   36 9190 3616 FO
  36   36 9191 3616 FO
  36   36 9192 3617 FO
  36   36 9193 3618 FO
  36   36 9194 3619 FO
  36   36 9194 3620 FO
  36   36 9195 3620 FO
  36   36 9196 3621 FO
  36   36 9197 3622 FO
  36   36 9198 3623 FO
  36   36 9199 3623 FO
  36   36 9200 3624 FO
  36   36 9201 3625 FO
  36   36 9202 3626 FO
  36   36 9202 3627 FO
  36   36 9203 3627 FO
  36   36 9204 3628 FO
  36   36 9205 3629 FO
  36   36 9206 3630 FO
  36   36 9207 3631 FO
  36   36 9208 3631 FO
  36   36 9209 3632 FO
  36   36 9210 3633 FO
  36   36 9210 3634 FO
  36   36 9211 3635 FO
  36   36 9212 3635 FO
  36   36 9213 3636 FO
  36   36 9214 3637 FO
  36   36 9215 3638 FO
  36   36 9216 3639 FO
  36   36 9217 3639 FO
  36   36 9218 3640 FO
  36   36 9218 3641 FO
  36   36 9219 3642 FO
  36   36 9220 3643 FO
  36   36 9221 3643 FO
  36   36 9222 3644 FO
  36   36 9223 3645 FO
  36   36 9224 3646 FO
  36   36 9225 3647 FO
  36   36 9226 3648 FO
  36   36 9227 3649 FO
  36   36 9228 3650 FO
  36   36 9229 3651 FO
  36   36 9230 3651 FO
  36   36 9231 3652 FO
  36   36 9232 3653 FO
  36   36 9233 3654 FO
  36   36 9233 3655 FO
  36   36 9234 3655 FO
  36   36 9235 3656 FO
  36   36 9236 3657 FO
  36   36 9237 3658 FO
  36   36 9238 3659 FO
  36   36 9239 3659 FO
  36   36 9240 3660 FO
  36   36 9241 3661 FO
  36   36 9241 3662 FO
  36   36 9242 3663 FO
  36   36 9243 3663 FO
  36   36 9244 3664 FO
  36   36 9245 3665 FO
  36   36 9246 3666 FO
  36   36 9247 3667 FO
  36   36 9248 3667 FO
  36   36 9249 3668 FO
  36   36 9249 3669 FO
  36   36 9250 3670 FO
  36   36 9251 3671 FO
  36   36 9252 3671 FO
  36   36 9253 3672 FO
  36   36 9254 3673 FO
  36   36 9255 3674 FO
  36   36 9256 3675 FO
  36   36 9257 3676 FO
  36   36 9258 3677 FO
  36   36 9259 3678 FO
  36   36 9260 3679 FO
  36   36 9261 3679 FO
  36   36 9262 3680 FO
  36   36 9263 3681 FO
  36   36 9264 3682 FO
  36   36 9264 3683 FO
  36   36 9265 3683 FO
  36   36 9266 3684 FO
  36   36 9267 3685 FO
  36   36 9268 3686 FO
  36   36 9269 3687 FO
  36   36 9270 3687 FO
  36   36 9271 3688 FO
  36   36 9272 3689 FO
  36   36 9272 3690 FO
  36   36 9273 3691 FO
  36   36 9274 3691 FO
  36   36 9275 3692 FO
  36   36 9276 3693 FO
  36   36 9277 3694 FO
  36   36 9278 3695 FO
  36   36 9279 3695 FO
  36   36 9280 3696 FO
  36   36 9280 3697 FO
  36   36 9281 3698 FO
  36   36 9282 3699 FO
  36   36 9283 3700 FO
  36   36 9284 3700 FO
  36   36 9285 3701 FO
  36   36 9286 3702 FO
  36   36 9287 3703 FO
  36   36 9287 3704 FO
  36   36 9288 3704 FO
  36   36 9289 3705 FO
  36   36 9290 3706 FO
  36   36 9291 3707 FO
  36   36 9292 3708 FO
  36   36 9293 3708 FO
  36   36 9294 3709 FO
  36   36 9295 3710 FO
  36   36 9295 3711 FO
  36   36 9296 3712 FO
  36   36 9297 3712 FO
  36   36 9298 3713 FO
  36   36 9299 3714 FO
  36   36 9300 3715 FO
  36   36 9301 3716 FO
  36   36 9302 3716 FO
  36   36 9303 3717 FO
  36   36 9303 3718 FO
  36   36 9304 3719 FO
  36   36 9305 3720 FO
  36   36 9306 3720 FO
  36   36 9307 3721 FO
  36   36 9308 3722 FO
  36   36 9309 3723 FO
  36   36 9310 3724 FO
  36   36 9311 3724 FO
  36   36 9311 3725 FO
  36   36 9312 3726 FO
  36   36 9313 3727 FO
  36   36 9314 3728 FO
  36   36 9315 3729 FO
  36   36 9316 3729 FO
  36   36 9317 3730 FO
  36   36 9318 3731 FO
  36   36 9318 3732 FO
  36   36 9319 3733 FO
  36   36 9320 3733 FO
  36   36 9321 3734 FO
  36   36 9322 3735 FO
  36   36 9323 3736 FO
  36   36 9324 3737 FO
  36   36 9325 3737 FO
  36   36 9326 3738 FO
  36   36 9326 3739 FO
  36   36 9327 3740 FO
  36   36 9328 3741 FO
  36   36 9329 3741 FO
  36   36 9330 3742 FO
  36   36 9331 3743 FO
  36   36 9332 3744 FO
  36   36 9333 3745 FO
  36   36 9334 3746 FO
  36   36 9335 3747 FO
  36   36 9336 3748 FO
  36   36 9337 3749 FO
  36   36 9338 3750 FO
  36   36 9339 3750 FO
  36   36 9340 3751 FO
  36   36 9341 3752 FO
  36   36 9342 3753 FO
  36   36 9342 3754 FO
  36   36 9343 3754 FO
  36   36 9344 3755 FO
  36   36 9345 3756 FO
  36   36 9346 3757 FO
  36   36 9347 3758 FO
  36   36 9348 3758 FO
  36   36 9349 3759 FO
  36   36 9349 3760 FO
  36   36 9350 3761 FO
  36   36 9351 3762 FO
  36   36 9352 3763 FO
  36   36 9353 3763 FO
  36   36 9354 3764 FO
  36   36 9355 3765 FO
  36   36 9356 3766 FO
  36   36 9357 3767 FO
  36   36 9358 3768 FO
  36   36 9359 3769 FO
  36   36 9360 3770 FO
  36   36 9361 3771 FO
  36   36 9362 3771 FO
  36   36 9363 3772 FO
  36   36 9364 3773 FO
  36   36 9365 3774 FO
  36   36 9365 3775 FO
  36   36 9366 3776 FO
  36   36 9367 3776 FO
  36   36 9368 3777 FO
  36   36 9369 3778 FO
  36   36 9370 3779 FO
  36   36 9371 3780 FO
  36   36 9372 3780 FO
  36   36 9373 3781 FO
  36   36 9373 3782 FO
  36   36 9374 3783 FO
  36   36 9375 3784 FO
  36   36 9376 3784 FO
  36   36 9377 3785 FO
  36   36 9378 3786 FO
  36   36 9379 3787 FO
  36   36 9380 3788 FO
  36   36 9380 3789 FO
  36   36 9381 3789 FO
  36   36 9382 3790 FO
  36   36 9383 3791 FO
  36   36 9384 3792 FO
  36   36 9385 3793 FO
  36   36 9386 3793 FO
  36   36 9387 3794 FO
  36   36 9388 3795 FO
  36   36 9388 3796 FO
  36   36 9389 3797 FO
  36   36 9390 3798 FO
  36   36 9391 3798 FO
  36   36 9392 3799 FO
  36   36 9393 3800 FO
  36   36 9394 3801 FO
  36   36 9395 3802 FO
  36   36 9396 3802 FO
  36   36 9396 3803 FO
  36   36 9397 3804 FO
  36   36 9398 3805 FO
  36   36 9399 3806 FO
  36   36 9400 3807 FO
  36   36 9401 3807 FO
  36   36 9402 3808 FO
  36   36 9403 3809 FO
  36   36 9404 3810 FO
  36   36 9404 3811 FO
  36   36 9405 3811 FO
  36   36 9406 3812 FO
  36   36 9407 3813 FO
  36   36 9408 3814 FO
  36   36 9409 3815 FO
  36   36 9410 3815 FO
  36   36 9411 3816 FO
  36   36 9411 3817 FO
  36   36 9412 3818 FO
  36   36 9413 3819 FO
  36   36 9414 3820 FO
  36   36 9415 3820 FO
  36   36 9416 3821 FO
  36   36 9417 3822 FO
  36   36 9418 3823 FO
  36   36 9419 3824 FO
  36   36 9420 3825 FO
  36   36 9421 3826 FO
  36   36 9422 3827 FO
  36   36 9423 3828 FO
  36   36 9424 3829 FO
  36   36 9425 3829 FO
  36   36 9426 3830 FO
  36   36 9427 3831 FO
  36   36 9427 3832 FO
  36   36 9428 3833 FO
  36   36 9429 3834 FO
  36   36 9430 3834 FO
  36   36 9431 3835 FO
  36   36 9432 3836 FO
  36   36 9433 3837 FO
  36   36 9434 3838 FO
  36   36 9435 3838 FO
  36   36 9435 3839 FO
  36   36 9436 3840 FO
  36   36 9437 3841 FO
  36   36 9438 3842 FO
  36   36 9439 3843 FO
  36   36 9440 3843 FO
  36   36 9441 3844 FO
  36   36 9442 3845 FO
  36   36 9442 3846 FO
  36   36 9443 3847 FO
  36   36 9444 3847 FO
  36   36 9445 3848 FO
  36   36 9446 3849 FO
  36   36 9447 3850 FO
  36   36 9448 3851 FO
  36   36 9449 3852 FO
  36   36 9450 3852 FO
  36   36 9450 3853 FO
  36   36 9451 3854 FO
  36   36 9452 3855 FO
  36   36 9453 3856 FO
  36   36 9454 3856 FO
  36   36 9455 3857 FO
  36   36 9456 3858 FO
  36   36 9457 3859 FO
  36   36 9458 3860 FO
  36   36 9458 3861 FO
  36   36 9459 3861 FO
  36   36 9460 3862 FO
  36   36 9461 3863 FO
  36   36 9462 3864 FO
  36   36 9463 3865 FO
  36   36 9464 3866 FO
gr

c9
6 w
gs 8441 2954 274 268 rc
0 j
0 -94 -94 0 0 94 94 0 8515 3028 5 MP
/c10 { 1.000000 0.000000 0.000000 sr} bdef
c10
gs
PP
gr
DP
0 -94 -94 0 0 94 94 0 8517 3029 5 MP
gs
PP
gr
DP
0 -94 -94 0 0 94 94 0 8518 3031 5 MP
gs
PP
gr
DP
0 -94 -94 0 0 94 94 0 8522 3034 5 MP
gs
PP
gr
DP
0 -94 -94 0 0 94 94 0 8524 3036 5 MP
gs
PP
gr
DP
0 -94 -94 0 0 94 94 0 8526 3037 5 MP
gs
PP
gr
DP
0 -94 -94 0 0 94 94 0 8529 3039 5 MP
gs
PP
gr
DP
0 -94 -94 0 0 94 94 0 8531 3042 5 MP
gs
PP
gr
DP
0 -94 -94 0 0 94 94 0 8534 3043 5 MP
gs
PP
gr
DP
0 -94 -94 0 0 94 94 0 8535 3045 5 MP
gs
PP
gr
DP
0 -94 -94 0 0 94 94 0 8539 3048 5 MP
gs
PP
gr
DP
0 -94 -94 0 0 94 94 0 8541 3050 5 MP
gs
PP
gr
DP
0 -94 -94 0 0 94 94 0 8544 3052 5 MP
gs
PP
gr
DP
0 -94 -94 0 0 94 94 0 8546 3053 5 MP
gs
PP
gr
DP
gr

c10
48 w
gs 7593 3717 293 293 rc
0 sg
  48   48 7739 3863 PO
  48   48 7739 3863 FO
gr

0 sg
gr

48 w
%%IncludeResource: font Helvetica
/Helvetica /WindowsLatin1Encoding 120 FMSR

1522 4827 mt 
( ) s
10381  225 mt 
( ) s
6 w
1 sg
0 792 3789 0 0 -792 6508 1014 4 MP
PP
-3789 0 0 792 3789 0 0 -792 6508 1014 5 MP stroke
4 w
DO
SO
6 w
6508  222 mt 10297  222 L
6508 1014 mt 10297 1014 L
10297 1014 mt 10297  222 L
6508 1014 mt 6508  222 L
6508 1014 mt 10297 1014 L
6508 1014 mt 6508  222 L
6508  222 mt 10297  222 L
6508 1014 mt 10297 1014 L
10297 1014 mt 10297  222 L
6508 1014 mt 6508  222 L
0 sg
%%IncludeResource: font Courier
/Courier /WindowsLatin1Encoding 288 FMSR

7086  524 mt 
(Preferred Region) s
gs 6508 222 3790 793 rc
72 w
gs 6673 284 293 293 rc
c9
  36   36 6819  430 FO
gr

c9
gr

72 w
c9
0 sg
7086  899 mt 
(Obtained Soloutions) s
gs 6508 222 3790 793 rc
6 w
gs 6698 684 243 243 rc
0 j
0 -94 -94 0 0 94 94 0 6772 758 5 MP
c10
gs
PP
gr
DP
gr

c10
gr

6 w
c10
0 sg
%%IncludeResource: font Courier-Bold
/Courier-Bold /WindowsLatin1Encoding 288 FMSR

5523 3159 mt 
(\( 0.7 , 0.2 \)) s

end %%Color Dict

eplot
%%EndObject

epage
end

showpage

%%Trailer
%%EOF
