%!PS-Adobe-3.0 EPSF-3.0
%%BoundingBox: 63 127 630 510
%%Creator: (Quick PDF Library DVer)
%%DocumentProcessColors: (Cyan) (Magenta) (Yellow) (Black)
%%EndComments
%%DebenuPDFLibrary-Start
/c { curveto } def
/cm { concat } def
/cp { currentpoint } def
/f { fill } def
/f* { eofill } def
/h { closepath } def
/j { setlinejoin } def
/J { setlinecap } def
/l { lineto } def
/m { moveto } def
/M { setmiterlimit } def
/n { newpath } def
/q { gsave } def
/Q { grestore } def
/s { stroke } def
/w { setlinewidth } def
/W { clip } def
/W* { eoclip } def
%%DebenuPDFLibrary-End
q
n
0 0.0001 m
720 0.0001 l
720 540.0001 l
0 540.0001 l
h
W*
n
0 0 m
720 0 l
720 540 l
0 540 l
h
1 setgray
f*
Q
n
98.059 167.93 m
96.137 500.24 l
98.387 500.25 l
100.31 167.95 l
92.389 494.03 m
97.249 502.47 l
102.21 494.08 l
102.52 493.55 102.35 492.86 101.81 492.54 c
101.28 492.23 100.59 492.4 100.27 492.94 c
100.27 492.94 l
96.294 499.67 l
98.237 499.68 l
94.339 492.91 l
94.029 492.37 93.341 492.18 92.803 492.49 c
92.264 492.8 92.079 493.49 92.389 494.03 c
0 setgray
f
n
99.19 169.07 m
585.57 166.24 l
585.56 163.99 l
99.177 166.82 l
579.39 170.06 m
587.77 165.11 l
579.33 160.25 l
579.33 160.25 l
578.79 159.94 578.1 160.12 577.79 160.66 c
577.48 161.2 577.67 161.89 578.21 162.2 c
584.98 166.09 l
584.97 164.15 l
578.24 168.13 l
578.24 168.13 l
577.71 168.44 577.53 169.13 577.84 169.67 c
578.16 170.2 578.85 170.38 579.39 170.06 c
f
n
266.2564 434.1897 m
266.2564 433.9915 266.2459 433.8325 266.2251 433.7125 c
266.2042 433.5926 266.1808 433.4961 266.1547 433.4231 c
266.1286 433.3501 266.0947 433.3005 266.053 433.2745 c
266.0113 433.2484 265.9591 433.2354 265.8965 433.2354 c
265.8235 433.2354 265.7323 433.2588 265.6228 433.3058 c
265.5133 433.3527 265.3803 433.4048 265.2238 433.4622 c
265.0674 433.5196 264.8823 433.5717 264.6684 433.6186 c
264.4546 433.6656 264.2069 433.689 263.9253 433.689 c
263.5394 433.689 263.2109 433.6265 262.9397 433.5013 c
262.6686 433.3762 262.4495 433.1806 262.2827 432.9146 c
262.1158 432.6487 261.9958 432.3045 261.9228 431.8821 c
261.8498 431.4597 261.8133 430.946 261.8133 430.3411 c
261.8133 428.8079 l
264.9579 428.8079 l
265.0413 428.8079 265.1117 428.7897 265.1691 428.7532 c
265.2264 428.7167 265.2786 428.6541 265.3255 428.5655 c
265.3725 428.4768 265.409 428.3647 265.435 428.2291 c
265.4611 428.0935 265.4741 427.9266 265.4741 427.7285 c
265.4741 427.353 265.4272 427.0818 265.3333 426.915 c
265.2395 426.7481 265.1143 426.6646 264.9579 426.6646 c
261.8133 426.6646 l
261.8133 414.3211 l
261.8133 414.2377 261.7925 414.1673 261.7507 414.1099 c
261.709 414.0525 261.6386 414.003 261.5395 413.9613 c
261.4405 413.9196 261.3075 413.8883 261.1406 413.8674 c
260.9737 413.8466 260.7651 413.8361 260.5148 413.8361 c
260.2645 413.8361 260.0559 413.8466 259.889 413.8674 c
259.7222 413.8883 259.5892 413.9196 259.4901 413.9613 c
259.391 414.003 259.3206 414.0525 259.2789 414.1099 c
259.2372 414.1673 259.2163 414.2377 259.2163 414.3211 c
259.2163 426.6646 l
257.2295 426.6646 l
257.0626 426.6646 256.9374 426.7481 256.854 426.915 c
256.7706 427.0818 256.7288 427.353 256.7288 427.7285 c
256.7288 427.9266 256.7393 428.0935 256.7601 428.2291 c
256.781 428.3647 256.8123 428.4768 256.854 428.5655 c
256.8957 428.6541 256.9479 428.7167 257.0104 428.7532 c
257.073 428.7897 257.146 428.8079 257.2295 428.8079 c
259.2163 428.8079 l
259.2163 430.2629 l
259.2163 431.2433 259.3076 432.0855 259.4901 432.7895 c
259.6726 433.4935 259.9516 434.0697 260.3271 434.5182 c
260.7026 434.9667 261.1745 435.2978 261.7429 435.5116 c
262.3113 435.7254 262.9814 435.8323 263.7532 435.8323 c
264.1183 435.8323 264.4729 435.7984 264.8171 435.7307 c
265.1612 435.6629 265.4272 435.5899 265.6149 435.5116 c
265.8027 435.4334 265.9278 435.363 265.9904 435.3004 c
266.053 435.2379 266.1051 435.157 266.1469 435.0579 c
266.1886 434.9589 266.2173 434.8389 266.2329 434.6981 c
266.2485 434.5573 266.2564 434.3878 266.2564 434.1897 c
h
f
n
273.614 435.4882 m
272.6232 433.3918 271.8853 431.2407 271.4003 429.0348 c
270.9154 426.8289 270.6729 424.61 270.6729 422.378 c
270.6729 420.1357 270.9206 417.9141 271.416 415.7135 c
271.9114 413.5128 272.6337 411.3539 273.5828 409.2366 c
273.6349 409.1115 273.6636 409.0046 273.6688 408.9159 c
273.674 408.8273 273.6401 408.7543 273.5671 408.6969 c
273.4941 408.6395 273.382 408.5978 273.2308 408.5717 c
273.0795 408.5457 272.8735 408.5326 272.6128 408.5326 c
272.4251 408.5326 272.2634 408.5379 272.1278 408.5483 c
271.9922 408.5587 271.8749 408.5796 271.7758 408.6109 c
271.6767 408.6421 271.5959 408.6787 271.5333 408.7204 c
271.4707 408.7621 271.4238 408.809 271.3925 408.8612 c
270.8293 409.925 270.3339 411.0019 269.9063 412.0918 c
269.4787 413.1817 269.1188 414.2898 268.8268 415.4162 c
268.5348 416.5426 268.3158 417.6821 268.1697 418.8346 c
268.0237 419.987 267.9507 421.1526 267.9507 422.3311 c
267.9507 423.5097 268.0316 424.6726 268.1932 425.8198 c
268.3549 426.9671 268.5843 428.1066 268.8816 429.2382 c
269.1788 430.3698 269.5412 431.4832 269.9689 432.5783 c
270.3965 433.6734 270.8763 434.7581 271.4082 435.8323 c
271.4186 435.8741 271.4473 435.9106 271.4942 435.9419 c
271.5411 435.9731 271.6063 436.0044 271.6898 436.0357 c
271.7732 436.067 271.8879 436.0905 272.0339 436.1061 c
272.18 436.1218 272.3677 436.1296 272.5971 436.1296 c
272.837 436.1296 273.03 436.1139 273.176 436.0827 c
273.322 436.0514 273.4367 436.0096 273.5202 435.9575 c
273.6036 435.9054 273.6505 435.8376 273.661 435.7541 c
273.6714 435.6707 273.6558 435.582 273.614 435.4882 c
h
286.8109 418.154 m
286.8109 417.4344 286.6779 416.7929 286.412 416.2297 c
286.146 415.6665 285.7679 415.192 285.2777 414.8061 c
284.7875 414.4202 284.2035 414.1282 283.5255 413.93 c
282.8476 413.7318 282.1019 413.6328 281.2884 413.6328 c
280.7877 413.6328 280.3106 413.6719 279.8569 413.7501 c
279.4032 413.8283 278.9965 413.9274 278.6366 414.0473 c
278.2768 414.1673 277.9717 414.2924 277.7214 414.4228 c
277.4711 414.5532 277.2886 414.6705 277.1739 414.7748 c
277.0591 414.8791 276.9757 415.0251 276.9235 415.2129 c
276.8714 415.4006 276.8453 415.6561 276.8453 415.9794 c
276.8453 416.1776 276.8558 416.3445 276.8766 416.4801 c
276.8975 416.6156 276.9235 416.7252 276.9548 416.8086 c
276.9861 416.892 277.0305 416.952 277.0878 416.9885 c
277.1452 417.025 277.2104 417.0433 277.2834 417.0433 c
277.3981 417.0433 277.5676 416.9729 277.7918 416.8321 c
278.0161 416.6913 278.2924 416.5374 278.621 416.3705 c
278.9495 416.2037 279.338 416.0498 279.7865 415.909 c
280.235 415.7682 280.7512 415.6978 281.3353 415.6978 c
281.7734 415.6978 282.1697 415.7448 282.5243 415.8386 c
282.8789 415.9325 283.1866 416.0707 283.4473 416.2532 c
283.7081 416.4357 283.9088 416.6678 284.0496 416.9494 c
284.1904 417.231 284.2608 417.5647 284.2608 417.9506 c
284.2608 418.347 284.1591 418.6807 283.9558 418.9519 c
283.7524 419.2231 283.4838 419.4629 283.1501 419.6715 c
282.8163 419.8801 282.4409 420.0653 282.0237 420.2269 c
281.6065 420.3886 281.1763 420.5581 280.733 420.7354 c
280.2897 420.9127 279.8569 421.1134 279.4345 421.3377 c
279.0121 421.5619 278.634 421.8357 278.3003 422.159 c
277.9665 422.4823 277.698 422.8682 277.4946 423.3167 c
277.2912 423.7652 277.1895 424.3023 277.1895 424.9281 c
277.1895 425.4809 277.2964 426.0102 277.5102 426.516 c
277.724 427.0219 278.0447 427.4651 278.4724 427.8458 c
278.9 428.2265 279.4345 428.5316 280.0759 428.761 c
280.7173 428.9905 281.4657 429.1052 282.3209 429.1052 c
282.6964 429.1052 283.0719 429.0739 283.4473 429.0113 c
283.8228 428.9488 284.1618 428.8705 284.4642 428.7767 c
284.7667 428.6828 285.0248 428.5811 285.2386 428.4716 c
285.4524 428.3621 285.6141 428.2656 285.7236 428.1822 c
285.8331 428.0987 285.9061 428.0257 285.9426 427.9631 c
285.9791 427.9006 286.0052 427.8302 286.0208 427.7519 c
286.0365 427.6737 286.0521 427.5772 286.0678 427.4625 c
286.0834 427.3478 286.0912 427.207 286.0912 427.0401 c
286.0912 426.8628 286.0834 426.709 286.0678 426.5786 c
286.0521 426.4482 286.0261 426.3413 285.9896 426.2579 c
285.9531 426.1745 285.9087 426.1145 285.8566 426.078 c
285.8044 426.0415 285.7471 426.0232 285.6845 426.0232 c
285.5906 426.0232 285.455 426.0806 285.2777 426.1953 c
285.1004 426.31 284.871 426.4326 284.5894 426.563 c
284.3078 426.6933 283.9766 426.8159 283.5959 426.9306 c
283.2153 427.0453 282.7798 427.1027 282.2896 427.1027 c
281.8516 427.1027 281.4657 427.0532 281.1319 426.9541 c
280.7982 426.855 280.5244 426.7142 280.3106 426.5317 c
280.0968 426.3492 279.9351 426.1327 279.8256 425.8824 c
279.7161 425.6321 279.6613 425.3609 279.6613 425.0689 c
279.6613 424.6621 279.7656 424.3206 279.9742 424.0442 c
280.1828 423.7678 280.454 423.5253 280.7877 423.3167 c
281.1215 423.1081 281.5022 422.9204 281.9298 422.7535 c
282.3574 422.5866 282.7929 422.4146 283.2361 422.2372 c
283.6794 422.0599 284.1174 421.8618 284.5503 421.6428 c
284.9831 421.4237 285.3664 421.1578 285.7001 420.8449 c
286.0339 420.532 286.3024 420.1565 286.5058 419.7185 c
286.7092 419.2804 286.8109 418.7589 286.8109 418.154 c
h
302.6082 414.9938 m
302.6082 414.7957 302.5926 414.6288 302.5613 414.4932 c
302.53 414.3576 302.4883 414.2481 302.4362 414.1647 c
302.384 414.0812 302.324 414.0213 302.2562 413.9848 c
302.1884 413.9483 302.118 413.93 302.045 413.93 c
291.4693 413.93 l
291.3963 413.93 291.3285 413.9483 291.266 413.9848 c
291.2034 414.0213 291.1434 414.0812 291.086 414.1647 c
291.0287 414.2481 290.9844 414.3576 290.9531 414.4932 c
290.9218 414.6288 290.9061 414.7957 290.9061 414.9938 c
290.9061 415.1816 290.9218 415.3432 290.9531 415.4788 c
290.9844 415.6144 291.0235 415.7265 291.0704 415.8152 c
291.1173 415.9038 291.1747 415.9716 291.2425 416.0185 c
291.3103 416.0655 291.3859 416.0889 291.4693 416.0889 c
295.6934 416.0889 l
295.6934 431.4832 l
291.7822 429.1521 l
291.5841 429.0478 291.425 428.9853 291.3051 428.9644 c
291.1851 428.9435 291.0887 428.967 291.0156 429.0348 c
290.9426 429.1026 290.8931 429.2147 290.867 429.3712 c
290.8409 429.5276 290.8279 429.7258 290.8279 429.9656 c
290.8279 430.1429 290.8357 430.2942 290.8514 430.4193 c
290.867 430.5445 290.8905 430.6488 290.9218 430.7322 c
290.9531 430.8157 290.9974 430.8887 291.0548 430.9512 c
291.1121 431.0138 291.1877 431.0764 291.2816 431.139 c
295.9437 434.1271 l
295.9854 434.1584 296.0375 434.1845 296.1001 434.2053 c
296.1627 434.2262 296.2409 434.247 296.3348 434.2679 c
296.4287 434.2888 296.5382 434.3018 296.6633 434.307 c
296.7885 434.3122 296.9449 434.3148 297.1327 434.3148 c
297.383 434.3148 297.5916 434.3044 297.7584 434.2835 c
297.9253 434.2627 298.0557 434.234 298.1495 434.1975 c
298.2434 434.161 298.306 434.1141 298.3373 434.0567 c
298.3686 433.9993 298.3842 433.9394 298.3842 433.8768 c
298.3842 416.0889 l
302.045 416.0889 l
302.1285 416.0889 302.2067 416.0655 302.2797 416.0185 c
302.3527 415.9716 302.4127 415.9038 302.4596 415.8152 c
302.5066 415.7265 302.5431 415.6144 302.5691 415.4788 c
302.5952 415.3432 302.6082 415.1816 302.6082 414.9938 c
h
311.9689 422.3311 m
311.9689 421.1526 311.8959 419.987 311.7499 418.8346 c
311.6039 417.6821 311.3849 416.5426 311.0928 415.4162 c
310.8008 414.2898 310.4436 413.1817 310.0212 412.0918 c
309.5988 411.0019 309.106 409.925 308.5428 408.8612 c
308.5115 408.809 308.4646 408.7621 308.402 408.7204 c
308.3394 408.6787 308.2586 408.6421 308.1595 408.6109 c
308.0604 408.5796 307.9431 408.5587 307.8075 408.5483 c
307.6719 408.5379 307.5102 408.5326 307.3225 408.5326 c
307.0513 408.5326 306.8401 408.5457 306.6889 408.5717 c
306.5377 408.5978 306.4282 408.6395 306.3604 408.6969 c
306.2926 408.7543 306.2613 408.8273 306.2665 408.9159 c
306.2717 409.0046 306.3004 409.1115 306.3525 409.2366 c
307.3121 411.3434 308.0369 413.4998 308.5271 415.7057 c
309.0173 417.9115 309.2624 420.1357 309.2624 422.378 c
309.2624 424.61 309.0173 426.8289 308.5271 429.0348 c
308.0369 431.2407 307.3016 433.3918 306.3213 435.4882 c
306.2795 435.582 306.2639 435.6707 306.2743 435.7541 c
306.2847 435.8376 306.3317 435.9054 306.4151 435.9575 c
306.4986 436.0096 306.6133 436.0514 306.7593 436.0827 c
306.9053 436.1139 307.0983 436.1296 307.3381 436.1296 c
307.5572 436.1296 307.7397 436.1218 307.8857 436.1061 c
308.0317 436.0905 308.1491 436.067 308.2377 436.0357 c
308.3264 436.0044 308.3915 435.9731 308.4333 435.9419 c
308.475 435.9106 308.5063 435.8741 308.5271 435.8323 c
309.6014 433.6943 310.4436 431.4962 311.0537 429.2382 c
311.6639 426.9801 311.9689 424.6778 311.9689 422.3311 c
h
f
n
f
n
411.0064 295.1597 m
411.0064 294.9615 410.9959 294.8025 410.9751 294.6825 c
410.9542 294.5626 410.9308 294.4661 410.9047 294.3931 c
410.8786 294.3201 410.8447 294.2705 410.803 294.2445 c
410.7613 294.2184 410.7091 294.2054 410.6465 294.2054 c
410.5735 294.2054 410.4823 294.2288 410.3728 294.2758 c
410.2633 294.3227 410.1303 294.3748 409.9738 294.4322 c
409.8174 294.4896 409.6323 294.5417 409.4184 294.5886 c
409.2046 294.6356 408.9569 294.659 408.6753 294.659 c
408.2894 294.659 407.9609 294.5965 407.6897 294.4713 c
407.4186 294.3462 407.1995 294.1506 407.0327 293.8846 c
406.8658 293.6187 406.7458 293.2745 406.6728 292.8521 c
406.5998 292.4297 406.5633 291.916 406.5633 291.3111 c
406.5633 289.7779 l
409.7079 289.7779 l
409.7913 289.7779 409.8617 289.7597 409.9191 289.7232 c
409.9764 289.6867 410.0286 289.6241 410.0755 289.5355 c
410.1225 289.4468 410.159 289.3347 410.185 289.1991 c
410.2111 289.0635 410.2241 288.8966 410.2241 288.6985 c
410.2241 288.323 410.1772 288.0518 410.0833 287.885 c
409.9895 287.7181 409.8643 287.6346 409.7079 287.6346 c
406.5633 287.6346 l
406.5633 275.2911 l
406.5633 275.2077 406.5425 275.1373 406.5007 275.0799 c
406.459 275.0225 406.3886 274.973 406.2895 274.9313 c
406.1905 274.8896 406.0575 274.8583 405.8906 274.8374 c
405.7237 274.8166 405.5151 274.8061 405.2648 274.8061 c
405.0145 274.8061 404.8059 274.8166 404.639 274.8374 c
404.4722 274.8583 404.3392 274.8896 404.2401 274.9313 c
404.141 274.973 404.0706 275.0225 404.0289 275.0799 c
403.9872 275.1373 403.9663 275.2077 403.9663 275.2911 c
403.9663 287.6346 l
401.9795 287.6346 l
401.8126 287.6346 401.6874 287.7181 401.604 287.885 c
401.5206 288.0518 401.4788 288.323 401.4788 288.6985 c
401.4788 288.8966 401.4893 289.0635 401.5101 289.1991 c
401.531 289.3347 401.5623 289.4468 401.604 289.5355 c
401.6457 289.6241 401.6979 289.6867 401.7604 289.7232 c
401.823 289.7597 401.896 289.7779 401.9795 289.7779 c
403.9663 289.7779 l
403.9663 291.2329 l
403.9663 292.2133 404.0576 293.0555 404.2401 293.7595 c
404.4226 294.4635 404.7016 295.0397 405.0771 295.4882 c
405.4526 295.9367 405.9245 296.2678 406.4929 296.4816 c
407.0613 296.6954 407.7314 296.8023 408.5032 296.8023 c
408.8683 296.8023 409.2229 296.7684 409.5671 296.7007 c
409.9112 296.6329 410.1772 296.5599 410.3649 296.4816 c
410.5527 296.4034 410.6778 296.333 410.7404 296.2704 c
410.803 296.2079 410.8551 296.127 410.8969 296.0279 c
410.9386 295.9289 410.9673 295.8089 410.9829 295.6681 c
410.9985 295.5273 411.0064 295.3578 411.0064 295.1597 c
h
f
n
418.364 296.4582 m
417.3732 294.3618 416.6353 292.2107 416.1503 290.0048 c
415.6654 287.7989 415.4229 285.58 415.4229 283.348 c
415.4229 281.1057 415.6706 278.8841 416.166 276.6835 c
416.6614 274.4828 417.3837 272.3239 418.3328 270.2066 c
418.3849 270.0815 418.4136 269.9746 418.4188 269.8859 c
418.424 269.7973 418.3901 269.7243 418.3171 269.6669 c
418.2441 269.6095 418.132 269.5678 417.9808 269.5417 c
417.8295 269.5157 417.6235 269.5026 417.3628 269.5026 c
417.1751 269.5026 417.0134 269.5079 416.8778 269.5183 c
416.7422 269.5287 416.6249 269.5496 416.5258 269.5809 c
416.4267 269.6121 416.3459 269.6487 416.2833 269.6904 c
416.2207 269.7321 416.1738 269.779 416.1425 269.8312 c
415.5793 270.895 415.0839 271.9719 414.6563 273.0618 c
414.2287 274.1517 413.8688 275.2598 413.5768 276.3862 c
413.2848 277.5126 413.0658 278.6521 412.9197 279.8046 c
412.7737 280.957 412.7007 282.1226 412.7007 283.3011 c
412.7007 284.4797 412.7816 285.6426 412.9432 286.7898 c
413.1049 287.9371 413.3343 289.0766 413.6316 290.2082 c
413.9288 291.3398 414.2912 292.4532 414.7189 293.5483 c
415.1465 294.6434 415.6263 295.7281 416.1582 296.8023 c
416.1686 296.8441 416.1973 296.8806 416.2442 296.9119 c
416.2911 296.9431 416.3563 296.9744 416.4398 297.0057 c
416.5232 297.037 416.6379 297.0605 416.7839 297.0761 c
416.93 297.0918 417.1177 297.0996 417.3471 297.0996 c
417.587 297.0996 417.78 297.0839 417.926 297.0527 c
418.072 297.0214 418.1867 296.9796 418.2702 296.9275 c
418.3536 296.8754 418.4005 296.8076 418.411 296.7241 c
418.4214 296.6407 418.4058 296.552 418.364 296.4582 c
h
431.5609 279.124 m
431.5609 278.4044 431.4279 277.7629 431.162 277.1997 c
430.896 276.6365 430.5179 276.162 430.0277 275.7761 c
429.5375 275.3902 428.9535 275.0982 428.2755 274.9 c
427.5976 274.7018 426.8519 274.6028 426.0384 274.6028 c
425.5377 274.6028 425.0606 274.6419 424.6069 274.7201 c
424.1532 274.7983 423.7465 274.8974 423.3866 275.0173 c
423.0268 275.1373 422.7217 275.2624 422.4714 275.3928 c
422.2211 275.5232 422.0386 275.6405 421.9239 275.7448 c
421.8091 275.8491 421.7257 275.9951 421.6735 276.1829 c
421.6214 276.3706 421.5953 276.6261 421.5953 276.9494 c
421.5953 277.1476 421.6058 277.3145 421.6266 277.4501 c
421.6475 277.5856 421.6735 277.6952 421.7048 277.7786 c
421.7361 277.862 421.7805 277.922 421.8378 277.9585 c
421.8952 277.995 421.9604 278.0133 422.0334 278.0133 c
422.1481 278.0133 422.3176 277.9429 422.5418 277.8021 c
422.7661 277.6613 423.0424 277.5074 423.371 277.3405 c
423.6995 277.1737 424.088 277.0198 424.5365 276.879 c
424.985 276.7382 425.5012 276.6678 426.0853 276.6678 c
426.5234 276.6678 426.9197 276.7148 427.2743 276.8086 c
427.6289 276.9025 427.9366 277.0407 428.1973 277.2232 c
428.4581 277.4057 428.6588 277.6378 428.7996 277.9194 c
428.9404 278.201 429.0108 278.5347 429.0108 278.9206 c
429.0108 279.317 428.9091 279.6507 428.7058 279.9219 c
428.5024 280.1931 428.2338 280.4329 427.9001 280.6415 c
427.5663 280.8501 427.1909 281.0353 426.7737 281.1969 c
426.3565 281.3586 425.9263 281.5281 425.483 281.7054 c
425.0397 281.8827 424.6069 282.0834 424.1845 282.3077 c
423.7621 282.5319 423.384 282.8057 423.0503 283.129 c
422.7165 283.4523 422.448 283.8382 422.2446 284.2867 c
422.0412 284.7352 421.9395 285.2723 421.9395 285.8981 c
421.9395 286.4509 422.0464 286.9802 422.2602 287.486 c
422.474 287.9919 422.7947 288.4351 423.2224 288.8158 c
423.65 289.1965 424.1845 289.5016 424.8259 289.731 c
425.4673 289.9605 426.2157 290.0752 427.0709 290.0752 c
427.4464 290.0752 427.8219 290.0439 428.1973 289.9813 c
428.5728 289.9188 428.9118 289.8405 429.2142 289.7467 c
429.5167 289.6528 429.7748 289.5511 429.9886 289.4416 c
430.2024 289.3321 430.3641 289.2356 430.4736 289.1522 c
430.5831 289.0687 430.6561 288.9957 430.6926 288.9331 c
430.7291 288.8706 430.7552 288.8002 430.7708 288.7219 c
430.7865 288.6437 430.8021 288.5472 430.8178 288.4325 c
430.8334 288.3178 430.8412 288.177 430.8412 288.0101 c
430.8412 287.8328 430.8334 287.679 430.8178 287.5486 c
430.8021 287.4182 430.7761 287.3113 430.7396 287.2279 c
430.7031 287.1445 430.6587 287.0845 430.6066 287.048 c
430.5544 287.0115 430.4971 286.9932 430.4345 286.9932 c
430.3406 286.9932 430.205 287.0506 430.0277 287.1653 c
429.8504 287.28 429.621 287.4026 429.3394 287.533 c
429.0578 287.6633 428.7266 287.7859 428.3459 287.9006 c
427.9653 288.0153 427.5298 288.0727 427.0396 288.0727 c
426.6016 288.0727 426.2157 288.0232 425.8819 287.9241 c
425.5482 287.825 425.2744 287.6842 425.0606 287.5017 c
424.8468 287.3192 424.6851 287.1027 424.5756 286.8524 c
424.4661 286.6021 424.4113 286.3309 424.4113 286.0389 c
424.4113 285.6321 424.5156 285.2906 424.7242 285.0142 c
424.9328 284.7378 425.204 284.4953 425.5377 284.2867 c
425.8715 284.0781 426.2522 283.8904 426.6798 283.7235 c
427.1074 283.5566 427.5429 283.3846 427.9861 283.2072 c
428.4294 283.0299 428.8674 282.8318 429.3003 282.6128 c
429.7331 282.3937 430.1164 282.1278 430.4501 281.8149 c
430.7839 281.502 431.0524 281.1265 431.2558 280.6885 c
431.4592 280.2504 431.5609 279.7289 431.5609 279.124 c
h
447.3113 276.0577 m
447.3113 275.87 447.2983 275.7031 447.2722 275.5571 c
447.2461 275.4111 447.2096 275.2885 447.1627 275.1894 c
447.1158 275.0903 447.0532 275.0173 446.9749 274.9704 c
446.8967 274.9235 446.8107 274.9 446.7168 274.9 c
435.531 274.9 l
435.385 274.9 435.2572 274.9183 435.1477 274.9548 c
435.0382 274.9913 434.9443 275.0512 434.8661 275.1347 c
434.7879 275.2181 434.7305 275.338 434.694 275.4945 c
434.6575 275.6509 434.6392 275.8439 434.6392 276.0733 c
434.6392 276.2819 434.6471 276.4645 434.6627 276.6209 c
434.6783 276.7773 434.7122 276.9155 434.7644 277.0355 c
434.8165 277.1554 434.8817 277.2754 434.9599 277.3953 c
435.0382 277.5152 435.1399 277.643 435.265 277.7786 c
439.1918 281.94 l
440.0992 282.8996 440.8266 283.76 441.3742 284.5214 c
441.9218 285.2828 442.3442 285.9763 442.6414 286.6021 c
442.9387 287.2279 443.1342 287.7963 443.2281 288.3074 c
443.322 288.8184 443.3689 289.2982 443.3689 289.7467 c
443.3689 290.1951 443.2959 290.6201 443.1499 291.0217 c
443.0038 291.4232 442.7926 291.7752 442.5163 292.0777 c
442.2399 292.3802 441.8931 292.62 441.4759 292.7973 c
441.0587 292.9746 440.5789 293.0633 440.0366 293.0633 c
439.4004 293.0633 438.8294 292.9746 438.3235 292.7973 c
437.8177 292.62 437.3744 292.4271 436.9937 292.2185 c
436.6131 292.0099 436.2949 291.817 436.0394 291.6396 c
435.7839 291.4623 435.5936 291.3737 435.4684 291.3737 c
435.3954 291.3737 435.3302 291.3946 435.2728 291.4363 c
435.2155 291.478 435.1685 291.5458 435.132 291.6396 c
435.0955 291.7335 435.0669 291.8587 435.046 292.0151 c
435.0251 292.1716 435.0147 292.3593 435.0147 292.5783 c
435.0147 292.7348 435.0199 292.8704 435.0303 292.9851 c
435.0408 293.0998 435.059 293.1989 435.0851 293.2823 c
435.1112 293.3658 435.1451 293.444 435.1868 293.517 c
435.2285 293.59 435.312 293.6813 435.4371 293.7908 c
435.5623 293.9003 435.7787 294.0489 436.0864 294.2366 c
436.394 294.4244 436.7799 294.6095 437.2441 294.792 c
437.7082 294.9745 438.2192 295.1284 438.7772 295.2535 c
439.3352 295.3787 439.9219 295.4413 440.5372 295.4413 c
441.5176 295.4413 442.3755 295.3031 443.1108 295.0267 c
443.846 294.7503 444.4562 294.3722 444.9412 293.8925 c
445.4261 293.4127 445.7886 292.8547 446.0285 292.2185 c
446.2683 291.5823 446.3883 290.9044 446.3883 290.1847 c
446.3883 289.5381 446.3309 288.894 446.2162 288.2526 c
446.1015 287.6112 445.859 286.9176 445.4887 286.1719 c
445.1185 285.4262 444.5839 284.597 443.8852 283.6844 c
443.1864 282.7718 442.2581 281.721 441.1004 280.532 c
437.8933 277.1841 l
446.7012 277.1841 l
446.7846 277.1841 446.8654 277.1606 446.9437 277.1137 c
447.0219 277.0668 447.0897 276.9964 447.147 276.9025 c
447.2044 276.8086 447.2461 276.6913 447.2722 276.5505 c
447.2983 276.4097 447.3113 276.2454 447.3113 276.0577 c
h
456.7189 283.3011 m
456.7189 282.1226 456.6459 280.957 456.4999 279.8046 c
456.3539 278.6521 456.1349 277.5126 455.8428 276.3862 c
455.5508 275.2598 455.1936 274.1517 454.7712 273.0618 c
454.3488 271.9719 453.856 270.895 453.2928 269.8312 c
453.2615 269.779 453.2146 269.7321 453.152 269.6904 c
453.0894 269.6487 453.0086 269.6121 452.9095 269.5809 c
452.8104 269.5496 452.6931 269.5287 452.5575 269.5183 c
452.4219 269.5079 452.2602 269.5026 452.0725 269.5026 c
451.8013 269.5026 451.5901 269.5157 451.4389 269.5417 c
451.2877 269.5678 451.1782 269.6095 451.1104 269.6669 c
451.0426 269.7243 451.0113 269.7973 451.0165 269.8859 c
451.0217 269.9746 451.0504 270.0815 451.1025 270.2066 c
452.0621 272.3134 452.7869 274.4698 453.2771 276.6757 c
453.7673 278.8815 454.0124 281.1057 454.0124 283.348 c
454.0124 285.58 453.7673 287.7989 453.2771 290.0048 c
452.7869 292.2107 452.0516 294.3618 451.0713 296.4582 c
451.0295 296.552 451.0139 296.6407 451.0243 296.7241 c
451.0347 296.8076 451.0817 296.8754 451.1651 296.9275 c
451.2486 296.9796 451.3633 297.0214 451.5093 297.0527 c
451.6553 297.0839 451.8483 297.0996 452.0881 297.0996 c
452.3072 297.0996 452.4897 297.0918 452.6357 297.0761 c
452.7817 297.0605 452.8991 297.037 452.9877 297.0057 c
453.0764 296.9744 453.1415 296.9431 453.1833 296.9119 c
453.225 296.8806 453.2563 296.8441 453.2771 296.8023 c
454.3514 294.6643 455.1936 292.4662 455.8037 290.2082 c
456.4139 287.9501 456.7189 285.6478 456.7189 283.3011 c
h
f
n
f
n
242.81 408.91 m
242.81 411.39 244.4 413.41 246.36 413.41 c
248.31 413.41 249.9 411.39 249.9 408.91 c
249.9 406.42 248.31 404.41 246.36 404.41 c
244.4 404.41 242.81 406.42 242.81 408.91 c
f*
2 w
1 j
n
242.81 408.91 m
242.81 411.39 244.4 413.41 246.36 413.41 c
248.31 413.41 249.9 411.39 249.9 408.91 c
249.9 406.42 248.31 404.41 246.36 404.41 c
244.4 404.41 242.81 406.42 242.81 408.91 c
s
n
393.64 271.01 m
393.64 273.49 395.22 275.51 397.18 275.51 c
399.14 275.51 400.72 273.49 400.72 271.01 c
400.72 268.52 399.14 266.51 397.18 266.51 c
395.22 266.51 393.64 268.52 393.64 271.01 c
f*
n
393.64 271.01 m
393.64 273.49 395.22 275.51 397.18 275.51 c
399.14 275.51 400.72 273.49 400.72 271.01 c
400.72 268.52 399.14 266.51 397.18 266.51 c
395.22 266.51 393.64 268.52 393.64 271.01 c
s
n
91.1186 150.2282 m
91.1186 149.9987 91.1134 149.8058 91.103 149.6493 c
91.0926 149.4929 91.0717 149.3703 91.0404 149.2817 c
91.0091 149.193 90.97 149.1252 90.9231 149.0783 c
90.8761 149.0314 90.811 149.0079 90.7275 149.0079 c
90.6441 149.0079 90.5424 149.0314 90.4225 149.0783 c
90.3025 149.1252 90.1669 149.1722 90.0157 149.2191 c
89.8645 149.266 89.695 149.3104 89.5072 149.3521 c
89.3195 149.3938 89.1161 149.4146 88.8971 149.4146 c
88.6364 149.4146 88.3808 149.3625 88.1305 149.2582 c
87.8802 149.1539 87.6169 148.9818 87.3405 148.7419 c
87.0641 148.5021 86.7747 148.1839 86.4722 147.7876 c
86.1697 147.3913 85.836 146.9063 85.471 146.3327 c
85.471 137.0711 l
85.471 136.9877 85.4501 136.9173 85.4084 136.8599 c
85.3667 136.8025 85.2989 136.753 85.205 136.7113 c
85.1111 136.6696 84.9808 136.6383 84.8139 136.6174 c
84.647 136.5966 84.4332 136.5861 84.1725 136.5861 c
83.9222 136.5861 83.7136 136.5966 83.5467 136.6174 c
83.3798 136.6383 83.2468 136.6696 83.1477 136.7113 c
83.0487 136.753 82.9809 136.8025 82.9444 136.8599 c
82.9079 136.9173 82.8896 136.9877 82.8896 137.0711 c
82.8896 151.1512 l
82.8896 151.2346 82.9053 151.305 82.9365 151.3624 c
82.9678 151.4198 83.0304 151.4719 83.1243 151.5188 c
83.2181 151.5658 83.3381 151.5971 83.4841 151.6127 c
83.6301 151.6283 83.8231 151.6362 84.063 151.6362 c
84.2924 151.6362 84.4827 151.6283 84.634 151.6127 c
84.7852 151.5971 84.9025 151.5658 84.986 151.5188 c
85.0694 151.4719 85.1294 151.4198 85.1659 151.3624 c
85.2024 151.305 85.2206 151.2346 85.2206 151.1512 c
85.2206 149.1018 l
85.6065 149.665 85.969 150.1239 86.3079 150.4785 c
86.6469 150.8331 86.9676 151.1121 87.2701 151.3155 c
87.5725 151.5188 87.8724 151.6596 88.1696 151.7379 c
88.4669 151.8161 88.7667 151.8552 89.0692 151.8552 c
89.2048 151.8552 89.3586 151.8474 89.5307 151.8317 c
89.7028 151.8161 89.8827 151.7874 90.0705 151.7457 c
90.2582 151.704 90.4277 151.657 90.5789 151.6049 c
90.7301 151.5527 90.837 151.5006 90.8996 151.4484 c
90.9622 151.3963 91.0039 151.3467 91.0248 151.2998 c
91.0456 151.2529 91.0639 151.1929 91.0795 151.1199 c
91.0952 151.0469 91.1056 150.94 91.1108 150.7992 c
91.116 150.6584 91.1186 150.468 91.1186 150.2282 c
h
f
n
104.8131 151.3076 m
104.9591 151.2451 105.0269 151.1225 105.0164 150.94 c
105.006 150.7575 104.8808 150.4628 104.641 150.0561 c
104.4011 149.6389 104.2055 149.3834 104.0543 149.2895 c
103.9031 149.1956 103.7649 149.1956 103.6397 149.2895 c
100.3074 151.7144 l
100.7455 147.6155 l
100.7768 147.4591 100.709 147.3391 100.5421 147.2557 c
100.3752 147.1723 100.0519 147.1305 99.5721 147.1305 c
99.0924 147.1305 98.769 147.1723 98.6022 147.2557 c
98.4353 147.3391 98.3675 147.4591 98.3988 147.6155 c
98.8368 151.7144 l
95.5202 149.2895 l
95.395 149.1956 95.2542 149.1956 95.0978 149.2895 c
94.9414 149.3834 94.7432 149.6389 94.5033 150.0561 c
94.2634 150.4628 94.1409 150.7575 94.1357 150.94 c
94.1304 151.1225 94.2008 151.2451 94.3469 151.3076 c
98.1172 152.9816 l
94.3469 154.6399 l
94.2008 154.7129 94.1304 154.8407 94.1357 155.0232 c
94.1409 155.2057 94.2634 155.5004 94.5033 155.9071 c
94.7432 156.3139 94.9414 156.5642 95.0978 156.6581 c
95.2542 156.7519 95.395 156.7519 95.5202 156.6581 c
98.8368 154.2488 l
98.3988 158.332 l
98.3675 158.4989 98.4353 158.6241 98.6022 158.7075 c
98.769 158.7909 99.0924 158.8327 99.5721 158.8327 c
100.0519 158.8327 100.3752 158.7909 100.5421 158.7075 c
100.709 158.6241 100.7768 158.4989 100.7455 158.332 c
100.3074 154.2488 l
103.6397 156.6581 l
103.7649 156.7519 103.9031 156.7519 104.0543 156.6581 c
104.2055 156.5642 104.4011 156.3087 104.641 155.8915 c
104.8808 155.4952 105.006 155.2057 105.0164 155.0232 c
105.0269 154.8407 104.9591 154.7129 104.8131 154.6399 c
101.0427 152.9816 l
101.0427 152.9816 l
h
f
n
f
q
0.7874 w
n
246.41 411.02 m
97.249 411.02 l
s
Q
q
0.7874 w
n
245.44 165.83 m
246.36 404.41 l
s
Q
q
0.7874 w
n
393.64 274.11 m
97.249 274.11 l
s
Q
q
0.7874 w
n
397.18 167.94 m
397.18 274.12 l
s
Q
n
143.4728 225.4284 m
143.4728 224.783 143.3877 224.1889 143.2176 223.6462 c
143.0474 223.1035 142.7936 222.6356 142.4563 222.2425 c
142.1189 221.8494 141.6965 221.5428 141.189 221.3228 c
140.6815 221.1028 140.0933 220.9928 139.4244 220.9928 c
138.7732 220.9928 138.2055 221.0896 137.7215 221.2832 c
137.2374 221.4768 136.8341 221.7585 136.5114 222.1281 c
136.1887 222.4977 135.9481 222.9466 135.7897 223.4746 c
135.6313 224.0027 135.5521 224.6011 135.5521 225.27 c
135.5521 225.9154 135.6357 226.5094 135.8029 227.0521 c
135.9701 227.5948 136.2224 228.0627 136.5598 228.4558 c
136.8971 228.8489 137.3181 229.154 137.8227 229.3711 c
138.3272 229.5882 138.9169 229.6968 139.5916 229.6968 c
140.2429 229.6968 140.8105 229.5999 141.2946 229.4063 c
141.7786 229.2127 142.182 228.9311 142.5047 228.5615 c
142.8274 228.1918 143.0694 227.743 143.2308 227.2149 c
143.3921 226.6869 143.4728 226.0914 143.4728 225.4284 c
h
141.9414 225.3316 m
141.9414 225.7599 141.9018 226.1647 141.8226 226.5461 c
141.7434 226.9274 141.6129 227.2619 141.431 227.5494 c
141.2491 227.8369 141.0027 228.0642 140.6917 228.2314 c
140.3808 228.3986 139.9935 228.4822 139.53 228.4822 c
139.1017 228.4822 138.7336 228.406 138.4255 228.2534 c
138.1175 228.1009 137.8637 227.8853 137.6643 227.6066 c
137.4648 227.3279 137.3166 226.9979 137.2198 226.6165 c
137.123 226.2351 137.0746 225.8185 137.0746 225.3668 c
137.0746 224.9326 137.1142 224.5248 137.1934 224.1435 c
137.2726 223.7621 137.4046 223.4291 137.5895 223.1446 c
137.7743 222.86 138.0222 222.6341 138.3331 222.4669 c
138.6441 222.2997 139.0313 222.2161 139.4948 222.2161 c
139.9173 222.2161 140.284 222.2924 140.5949 222.4449 c
140.9059 222.5975 141.1611 222.8116 141.3606 223.0874 c
141.5601 223.3631 141.7068 223.6917 141.8006 224.0731 c
141.8945 224.4544 141.9414 224.8739 141.9414 225.3316 c
h
151.956 229.3183 m
151.956 229.2949 151.9545 229.2699 151.9516 229.2435 c
151.9486 229.2171 151.9442 229.1892 151.9384 229.1599 c
151.9325 229.1306 151.9251 229.0983 151.9163 229.0631 c
151.9075 229.0279 151.8973 228.9898 151.8855 228.9487 c
149.1837 221.424 l
149.1602 221.3595 149.1294 221.3067 149.0913 221.2656 c
149.0532 221.2245 148.996 221.1923 148.9197 221.1688 c
148.8434 221.1453 148.7466 221.1292 148.6293 221.1204 c
148.5119 221.1116 148.3652 221.1072 148.1892 221.1072 c
148.0132 221.1072 147.8665 221.1131 147.7492 221.1248 c
147.6318 221.1365 147.5365 221.1541 147.4632 221.1776 c
147.3898 221.2011 147.3326 221.2333 147.2915 221.2744 c
147.2505 221.3155 147.2182 221.3654 147.1947 221.424 c
144.5017 228.9487 l
144.4782 229.0191 144.4592 229.0807 144.4445 229.1335 c
144.4298 229.1863 144.421 229.2259 144.4181 229.2523 c
144.4151 229.2787 144.4137 229.3007 144.4137 229.3183 c
144.4137 229.3653 144.4254 229.4063 144.4489 229.4415 c
144.4724 229.4767 144.512 229.5046 144.5677 229.5251 c
144.6234 229.5457 144.6968 229.5589 144.7877 229.5647 c
144.8787 229.5706 144.9916 229.5735 145.1265 229.5735 c
145.2967 229.5735 145.4331 229.5691 145.5358 229.5603 c
145.6385 229.5515 145.7177 229.5354 145.7734 229.5119 c
145.8291 229.4885 145.8702 229.4591 145.8966 229.4239 c
145.923 229.3887 145.948 229.3447 145.9714 229.2919 c
148.2068 222.7617 l
148.242 222.6561 l
148.2684 222.7617 l
150.4774 229.2919 l
150.4892 229.3447 150.5097 229.3887 150.539 229.4239 c
150.5684 229.4591 150.6109 229.4885 150.6666 229.5119 c
150.7224 229.5354 150.7986 229.5515 150.8955 229.5603 c
150.9923 229.5691 151.1199 229.5735 151.2783 229.5735 c
151.4132 229.5735 151.5247 229.5706 151.6127 229.5647 c
151.7007 229.5589 151.7697 229.5442 151.8195 229.5207 c
151.8694 229.4973 151.9046 229.4694 151.9251 229.4371 c
151.9457 229.4049 151.956 229.3653 151.956 229.3183 c
h
160.2587 225.6836 m
160.2587 225.4548 160.2015 225.292 160.0871 225.1952 c
159.9727 225.0983 159.8421 225.0499 159.6954 225.0499 c
154.503 225.0499 l
154.503 224.6099 154.547 224.2139 154.635 223.8618 c
154.723 223.5098 154.8697 223.2076 155.075 222.9554 c
155.2804 222.7031 155.5473 222.5095 155.8759 222.3745 c
156.2045 222.2396 156.6064 222.1721 157.0816 222.1721 c
157.4571 222.1721 157.7915 222.2029 158.0849 222.2645 c
158.3782 222.3261 158.632 222.395 158.8462 222.4713 c
159.0603 222.5476 159.2363 222.6165 159.3742 222.6781 c
159.5121 222.7397 159.6162 222.7705 159.6866 222.7705 c
159.7277 222.7705 159.7644 222.7603 159.7966 222.7397 c
159.8289 222.7192 159.8538 222.6884 159.8714 222.6473 c
159.889 222.6063 159.9022 222.5491 159.911 222.4757 c
159.9198 222.4024 159.9242 222.3129 159.9242 222.2073 c
159.9242 222.131 159.9213 222.065 159.9154 222.0093 c
159.9096 221.9535 159.9022 221.9037 159.8934 221.8597 c
159.8846 221.8157 159.87 221.7761 159.8494 221.7409 c
159.8289 221.7056 159.8025 221.6719 159.7702 221.6396 c
159.738 221.6074 159.6426 221.5546 159.4842 221.4812 c
159.3258 221.4079 159.1204 221.336 158.8682 221.2656 c
158.6159 221.1952 158.324 221.1321 157.9925 221.0764 c
157.661 221.0207 157.3075 220.9928 156.932 220.9928 c
156.2807 220.9928 155.7101 221.0837 155.2202 221.2656 c
154.7303 221.4475 154.3182 221.7174 153.9837 222.0753 c
153.6493 222.4332 153.397 222.882 153.2269 223.4218 c
153.0567 223.9616 152.9716 224.5894 152.9716 225.3052 c
152.9716 225.9858 153.0596 226.5974 153.2357 227.1401 c
153.4117 227.6828 153.6654 228.1434 153.9969 228.5219 c
154.3284 228.9003 154.7289 229.1907 155.1982 229.3931 c
155.6676 229.5955 156.1927 229.6968 156.7736 229.6968 c
157.3955 229.6968 157.925 229.597 158.3621 229.3975 c
158.7992 229.198 159.1586 228.9296 159.4402 228.5923 c
159.7218 228.2549 159.9287 227.8589 160.0607 227.4042 c
160.1927 226.9494 160.2587 226.4639 160.2587 225.9476 c
160.2587 225.9476 l
h
158.7977 226.1148 m
158.8154 226.8776 158.6467 227.476 158.2917 227.9102 c
157.9367 228.3444 157.4102 228.5615 156.712 228.5615 c
156.3541 228.5615 156.0402 228.494 155.7703 228.359 c
155.5004 228.2241 155.2745 228.0451 155.0926 227.8222 c
154.9107 227.5992 154.7699 227.3396 154.6702 227.0433 c
154.5704 226.747 154.5147 226.4375 154.503 226.1148 c
154.503 226.1148 l
h
167.1048 228.7815 m
167.1048 228.6524 167.1019 228.5439 167.096 228.4558 c
167.0902 228.3678 167.0784 228.2989 167.0608 228.249 c
167.0432 228.1992 167.0212 228.161 166.9948 228.1346 c
166.9684 228.1082 166.9318 228.095 166.8848 228.095 c
166.8379 228.095 166.7807 228.1082 166.7132 228.1346 c
166.6457 228.161 166.5695 228.1874 166.4844 228.2138 c
166.3993 228.2402 166.304 228.2652 166.1984 228.2886 c
166.0928 228.3121 165.9783 228.3238 165.8551 228.3238 c
165.7085 228.3238 165.5647 228.2945 165.4239 228.2358 c
165.2831 228.1772 165.1349 228.0803 164.9795 227.9454 c
164.824 227.8105 164.6612 227.6315 164.491 227.4086 c
164.3209 227.1856 164.1331 226.9128 163.9278 226.5901 c
163.9278 221.38 l
163.9278 221.3331 163.916 221.2935 163.8926 221.2612 c
163.8691 221.2289 163.831 221.2011 163.7781 221.1776 c
163.7253 221.1541 163.652 221.1365 163.5581 221.1248 c
163.4643 221.1131 163.344 221.1072 163.1973 221.1072 c
163.0565 221.1072 162.9391 221.1131 162.8453 221.1248 c
162.7514 221.1365 162.6766 221.1541 162.6208 221.1776 c
162.5651 221.2011 162.527 221.2289 162.5064 221.2612 c
162.4859 221.2935 162.4756 221.3331 162.4756 221.38 c
162.4756 229.3007 l
162.4756 229.3477 162.4844 229.3873 162.502 229.4195 c
162.5196 229.4518 162.5548 229.4811 162.6076 229.5075 c
162.6604 229.5339 162.7279 229.5515 162.8101 229.5603 c
162.8922 229.5691 163.0007 229.5735 163.1357 229.5735 c
163.2648 229.5735 163.3718 229.5691 163.4569 229.5603 c
163.542 229.5515 163.608 229.5339 163.6549 229.5075 c
163.7019 229.4811 163.7356 229.4518 163.7561 229.4195 c
163.7767 229.3873 163.7869 229.3477 163.7869 229.3007 c
163.7869 228.1478 l
164.004 228.4646 164.2079 228.7228 164.3986 228.9223 c
164.5893 229.1218 164.7697 229.2787 164.9399 229.3931 c
165.11 229.5075 165.2787 229.5867 165.4459 229.6308 c
165.6131 229.6748 165.7818 229.6968 165.9519 229.6968 c
166.0282 229.6968 166.1148 229.6924 166.2116 229.6836 c
166.3084 229.6748 166.4096 229.6586 166.5152 229.6352 c
166.6208 229.6117 166.7161 229.5853 166.8012 229.5559 c
166.8863 229.5266 166.9464 229.4973 166.9816 229.4679 c
167.0168 229.4386 167.0403 229.4107 167.052 229.3843 c
167.0638 229.3579 167.074 229.3242 167.0828 229.2831 c
167.0916 229.2421 167.0975 229.1819 167.1004 229.1027 c
167.1034 229.0235 167.1048 228.9164 167.1048 228.7815 c
h
170.2181 221.38 m
170.2181 221.3331 170.2064 221.2935 170.1829 221.2612 c
170.1595 221.2289 170.1213 221.2011 170.0685 221.1776 c
170.0157 221.1541 169.9424 221.1365 169.8485 221.1248 c
169.7546 221.1131 169.6344 221.1072 169.4877 221.1072 c
169.3469 221.1072 169.2295 221.1131 169.1356 221.1248 c
169.0418 221.1365 168.967 221.1541 168.9112 221.1776 c
168.8555 221.2011 168.8173 221.2289 168.7968 221.2612 c
168.7763 221.2935 168.766 221.3331 168.766 221.38 c
168.766 233.1379 l
168.766 233.1848 168.7763 233.2259 168.7968 233.2611 c
168.8173 233.2963 168.8555 233.3256 168.9112 233.3491 c
168.967 233.3726 169.0418 233.3902 169.1356 233.4019 c
169.2295 233.4136 169.3469 233.4195 169.4877 233.4195 c
169.6344 233.4195 169.7546 233.4136 169.8485 233.4019 c
169.9424 233.3902 170.0157 233.3726 170.0685 233.3491 c
170.1213 233.3256 170.1595 233.2963 170.1829 233.2611 c
170.2064 233.2259 170.2181 233.1848 170.2181 233.1379 c
170.2181 233.1379 l
h
178.7883 221.3712 m
178.7883 221.3008 178.7649 221.248 178.7179 221.2128 c
178.671 221.1776 178.6065 221.1512 178.5243 221.1336 c
178.4422 221.116 178.3219 221.1072 178.1635 221.1072 c
178.0109 221.1072 177.8892 221.116 177.7982 221.1336 c
177.7073 221.1512 177.6413 221.1776 177.6002 221.2128 c
177.5592 221.248 177.5386 221.3008 177.5386 221.3712 c
177.5386 222.1633 l
177.1925 221.7937 176.8067 221.5062 176.3813 221.3008 c
175.956 221.0955 175.5056 220.9928 175.0304 220.9928 c
174.6138 220.9928 174.2369 221.0471 173.8995 221.1556 c
173.5621 221.2641 173.2746 221.4211 173.037 221.6264 c
172.7994 221.8318 172.6146 222.0841 172.4826 222.3833 c
172.3506 222.6825 172.2846 223.0228 172.2846 223.4042 c
172.2846 223.8501 172.3755 224.2373 172.5574 224.5659 c
172.7393 224.8945 173.0004 225.1673 173.3407 225.3844 c
173.681 225.6015 174.0975 225.7643 174.5904 225.8728 c
175.0832 225.9814 175.6377 226.0356 176.2537 226.0356 c
177.345 226.0356 l
177.345 226.6517 l
177.345 226.9568 177.3127 227.2267 177.2482 227.4614 c
177.1837 227.696 177.0795 227.8911 176.9358 228.0466 c
176.792 228.2021 176.6057 228.3194 176.3769 228.3986 c
176.1481 228.4778 175.8665 228.5175 175.532 228.5175 c
175.1741 228.5175 174.8529 228.4749 174.5684 228.3898 c
174.2838 228.3048 174.0344 228.2109 173.8203 228.1082 c
173.6061 228.0055 173.4272 227.9117 173.2834 227.8266 c
173.1397 227.7415 173.0326 227.699 172.9622 227.699 c
172.9153 227.699 172.8742 227.7107 172.839 227.7342 c
172.8038 227.7577 172.773 227.7929 172.7466 227.8398 c
172.7202 227.8867 172.7011 227.9469 172.6894 228.0202 c
172.6777 228.0935 172.6718 228.1742 172.6718 228.2622 c
172.6718 228.4089 172.6821 228.5248 172.7026 228.6099 c
172.7231 228.6949 172.773 228.7756 172.8522 228.8519 c
172.9314 228.9282 173.0678 229.0176 173.2614 229.1203 c
173.4551 229.223 173.678 229.3169 173.9303 229.4019 c
174.1826 229.487 174.4584 229.5574 174.7576 229.6132 c
175.0568 229.6689 175.359 229.6968 175.6641 229.6968 c
176.2332 229.6968 176.7172 229.6322 177.1162 229.5031 c
177.5152 229.3741 177.8379 229.1848 178.0843 228.9355 c
178.3307 228.6861 178.5096 228.3766 178.6211 228.007 c
178.7326 227.6374 178.7883 227.2061 178.7883 226.7133 c
178.7883 226.7133 l
h
177.345 224.9883 m
176.1041 224.9883 l
175.7051 224.9883 175.359 224.9546 175.0656 224.8871 c
174.7722 224.8197 174.5288 224.7199 174.3351 224.5879 c
174.1415 224.4559 173.9992 224.2975 173.9083 224.1127 c
173.8174 223.9278 173.7719 223.7152 173.7719 223.4746 c
173.7719 223.0639 173.9024 222.7368 174.1635 222.4933 c
174.4246 222.2498 174.7898 222.1281 175.2592 222.1281 c
175.6406 222.1281 175.9941 222.2249 176.3197 222.4185 c
176.6453 222.6121 176.9871 222.9084 177.345 223.3074 c
177.345 223.3074 l
h
188.742 225.4636 m
188.742 224.7713 188.6671 224.1493 188.5175 223.5978 c
188.3679 223.0463 188.1479 222.5784 187.8575 222.1941 c
187.567 221.8098 187.2077 221.5135 186.7794 221.3052 c
186.3511 221.0969 185.8612 220.9928 185.3096 220.9928 c
185.075 220.9928 184.8579 221.0163 184.6584 221.0632 c
184.4589 221.1101 184.2638 221.1835 184.0731 221.2832 c
183.8825 221.383 183.6932 221.5091 183.5055 221.6616 c
183.3177 221.8142 183.1183 221.9931 182.907 222.1985 c
182.907 218.2381 l
182.907 218.1912 182.8953 218.1501 182.8718 218.1149 c
182.8484 218.0797 182.8102 218.0504 182.7574 218.0269 c
182.7046 218.0035 182.6313 217.9859 182.5374 217.9741 c
182.4435 217.9624 182.3232 217.9565 182.1766 217.9565 c
182.0358 217.9565 181.9184 217.9624 181.8245 217.9741 c
181.7307 217.9859 181.6559 218.0035 181.6001 218.0269 c
181.5444 218.0504 181.5062 218.0797 181.4857 218.1149 c
181.4652 218.1501 181.4549 218.1912 181.4549 218.2381 c
181.4549 229.3007 l
181.4549 229.3535 181.4637 229.3961 181.4813 229.4283 c
181.4989 229.4606 181.5341 229.4885 181.5869 229.5119 c
181.6397 229.5354 181.7072 229.5515 181.7893 229.5603 c
181.8715 229.5691 181.9712 229.5735 182.0886 229.5735 c
182.2118 229.5735 182.313 229.5691 182.3922 229.5603 c
182.4714 229.5515 182.5374 229.5354 182.5902 229.5119 c
182.643 229.4885 182.6797 229.4606 182.7002 229.4283 c
182.7207 229.3961 182.731 229.3535 182.731 229.3007 c
182.731 228.2358 l
182.9716 228.4822 183.2033 228.6964 183.4263 228.8783 c
183.6492 229.0602 183.8737 229.2112 184.0995 229.3315 c
184.3254 229.4518 184.5572 229.5427 184.7948 229.6043 c
185.0324 229.666 185.2832 229.6968 185.5473 229.6968 c
186.1223 229.6968 186.6122 229.5853 187.017 229.3623 c
187.4218 229.1394 187.7519 228.8343 188.0071 228.447 c
188.2623 228.0598 188.4486 227.6095 188.5659 227.0961 c
188.6833 226.5827 188.742 226.0386 188.742 225.4636 c
h
187.2106 225.2964 m
187.2106 225.7012 187.1798 226.0928 187.1182 226.4713 c
187.0566 226.8497 186.951 227.1856 186.8014 227.479 c
186.6518 227.7723 186.4508 228.007 186.1985 228.183 c
185.9462 228.359 185.6323 228.447 185.2568 228.447 c
185.0691 228.447 184.8843 228.4192 184.7024 228.3634 c
184.5205 228.3077 184.3357 228.2197 184.1479 228.0994 c
183.9602 227.9791 183.7636 227.8207 183.5583 227.6242 c
183.3529 227.4276 183.1359 227.1856 182.907 226.8981 c
182.907 223.7474 l
183.306 223.2605 183.6844 222.8879 184.0423 222.6297 c
184.4002 222.3716 184.7757 222.2425 185.1688 222.2425 c
185.5326 222.2425 185.845 222.3305 186.1061 222.5065 c
186.3672 222.6825 186.5784 222.9172 186.7398 223.2106 c
186.9011 223.5039 187.0199 223.8325 187.0962 224.1963 c
187.1725 224.56 187.2106 224.9267 187.2106 225.2964 c
h
f
n
f
n
100.08 167.94 m
242.81 167.94 l
242.81 271.01 l
100.08 271.01 l
h
0.867 setgray
f*
n
100.08 167.94 m
242.81 167.94 l
242.81 271.01 l
100.08 271.01 l
h
0.635 setgray
s
n
138.2097 216.1733 m
138.2097 215.0252 138.0583 213.9684 137.7557 213.0029 c
137.453 212.0374 137.0015 211.205 136.4014 210.5057 c
135.8012 209.8064 135.0497 209.261 134.1469 208.8696 c
133.244 208.4782 132.1977 208.2825 131.0078 208.2825 c
129.8493 208.2825 128.8394 208.4548 127.9783 208.7992 c
127.1172 209.1436 126.3997 209.6446 125.8256 210.3022 c
125.2515 210.9598 124.8236 211.7582 124.5418 212.6976 c
124.26 213.637 124.1191 214.7016 124.1191 215.8915 c
124.1191 217.0396 124.2678 218.0964 124.5653 219.0619 c
124.8627 220.0273 125.3115 220.8597 125.9117 221.559 c
126.5119 222.2583 127.2608 222.8011 128.1584 223.1873 c
129.056 223.5735 130.105 223.7666 131.3053 223.7666 c
132.4638 223.7666 133.4737 223.5943 134.3348 223.2499 c
135.1959 222.9055 135.9134 222.4045 136.4875 221.7469 c
137.0616 221.0893 137.4921 220.2909 137.7791 219.3515 c
138.0662 218.4121 138.2097 217.3527 138.2097 216.1733 c
h
135.4855 216.0011 m
135.4855 216.763 135.415 217.4832 135.2741 218.1616 c
135.1332 218.8401 134.901 219.435 134.5774 219.9464 c
134.2539 220.4579 133.8155 220.8623 133.2623 221.1598 c
132.7091 221.4573 132.0202 221.606 131.1957 221.606 c
130.4337 221.606 129.7788 221.4703 129.2308 221.1989 c
128.6829 220.9276 128.2314 220.544 127.8766 220.0482 c
127.5217 219.5524 127.2581 218.9653 127.0859 218.2869 c
126.9137 217.6084 126.8276 216.8674 126.8276 216.0637 c
126.8276 215.2913 126.898 214.5659 127.039 213.8875 c
127.1799 213.209 127.4147 212.6167 127.7435 212.1105 c
128.0723 211.6043 128.5132 211.2024 129.0664 210.905 c
129.6196 210.6075 130.3085 210.4588 131.1331 210.4588 c
131.8846 210.4588 132.5369 210.5944 133.0901 210.8658 c
133.6433 211.1372 134.0973 211.5182 134.4522 212.0087 c
134.8071 212.4993 135.068 213.0838 135.235 213.7622 c
135.402 214.4407 135.4855 215.1869 135.4855 216.0011 c
h
153.4613 223.0933 m
153.4613 223.0516 153.4586 223.0072 153.4534 222.9603 c
153.4482 222.9133 153.4404 222.8637 153.4299 222.8115 c
153.4195 222.7593 153.4065 222.7019 153.3908 222.6393 c
153.3751 222.5767 153.3569 222.5088 153.336 222.4358 c
148.5295 209.0497 l
148.4878 208.9349 148.433 208.8409 148.3651 208.7679 c
148.2973 208.6948 148.1955 208.6374 148.0598 208.5957 c
147.9242 208.5539 147.7519 208.5252 147.5432 208.5095 c
147.3344 208.4939 147.0735 208.4861 146.7604 208.4861 c
146.4473 208.4861 146.1863 208.4965 145.9776 208.5174 c
145.7688 208.5382 145.5992 208.5696 145.4687 208.6113 c
145.3383 208.6531 145.2365 208.7105 145.1634 208.7835 c
145.0904 208.8566 145.033 208.9453 144.9912 209.0497 c
140.2004 222.4358 l
140.1587 222.561 140.1247 222.6706 140.0986 222.7646 c
140.0726 222.8585 140.0569 222.929 140.0517 222.9759 c
140.0465 223.0229 140.0438 223.062 140.0438 223.0933 c
140.0438 223.1768 140.0647 223.2499 140.1065 223.3125 c
140.1482 223.3752 140.2187 223.4247 140.3178 223.4613 c
140.417 223.4978 140.5475 223.5213 140.7092 223.5317 c
140.871 223.5422 141.0719 223.5474 141.312 223.5474 c
141.6147 223.5474 141.8574 223.5395 142.04 223.5239 c
142.2227 223.5082 142.3636 223.4795 142.4627 223.4378 c
142.5619 223.396 142.635 223.3438 142.6819 223.2812 c
142.7289 223.2186 142.7733 223.1403 142.815 223.0464 c
146.7917 211.4294 l
146.8543 211.2416 l
146.9013 211.4294 l
150.831 223.0464 l
150.8519 223.1403 150.8884 223.2186 150.9406 223.2812 c
150.9928 223.3438 151.0685 223.396 151.1676 223.4378 c
151.2668 223.4795 151.4025 223.5082 151.5747 223.5239 c
151.7469 223.5395 151.9739 223.5474 152.2557 223.5474 c
152.4958 223.5474 152.6941 223.5422 152.8507 223.5317 c
153.0072 223.5213 153.1299 223.4952 153.2186 223.4534 c
153.3073 223.4117 153.3699 223.3621 153.4065 223.3047 c
153.443 223.2473 153.4613 223.1768 153.4613 223.0933 c
h
168.1032 216.6273 m
168.1032 216.2202 168.0015 215.9306 167.7979 215.7584 c
167.5944 215.5862 167.3622 215.5001 167.1012 215.5001 c
157.864 215.5001 l
157.864 214.7172 157.9423 214.0127 158.0989 213.3865 c
158.2554 212.7602 158.5164 212.2227 158.8817 211.7739 c
159.247 211.3251 159.7219 210.9806 160.3064 210.7406 c
160.8909 210.5005 161.6059 210.3805 162.4513 210.3805 c
163.1193 210.3805 163.7143 210.4353 164.2361 210.5449 c
164.758 210.6545 165.2094 210.7771 165.5904 210.9128 c
165.9714 211.0485 166.2845 211.1711 166.5298 211.2807 c
166.7751 211.3903 166.9603 211.4451 167.0856 211.4451 c
167.1586 211.4451 167.2239 211.4268 167.2813 211.3903 c
167.3387 211.3538 167.383 211.299 167.4144 211.2259 c
167.4457 211.1528 167.4692 211.0511 167.4848 210.9206 c
167.5005 210.7901 167.5083 210.631 167.5083 210.4431 c
167.5083 210.3074 167.5031 210.19 167.4926 210.0908 c
167.4822 209.9917 167.4692 209.903 167.4535 209.8247 c
167.4378 209.7464 167.4117 209.6759 167.3752 209.6133 c
167.3387 209.5507 167.2917 209.4907 167.2343 209.4333 c
167.1769 209.3759 167.0073 209.2819 166.7255 209.1515 c
166.4437 209.021 166.0784 208.8931 165.6295 208.7679 c
165.1807 208.6426 164.6615 208.5304 164.0717 208.4313 c
163.482 208.3321 162.8532 208.2825 162.1852 208.2825 c
161.0266 208.2825 160.0116 208.4443 159.14 208.7679 c
158.2685 209.0914 157.5353 209.5716 156.9403 210.2082 c
156.3454 210.8449 155.8966 211.6434 155.5939 212.6037 c
155.2912 213.5639 155.1399 214.6807 155.1399 215.9541 c
155.1399 217.1648 155.2964 218.253 155.6095 219.2184 c
155.9227 220.1839 156.3741 221.0032 156.9638 221.6765 c
157.5535 222.3497 158.2659 222.8663 159.1009 223.2264 c
159.9359 223.5865 160.87 223.7666 161.9034 223.7666 c
163.0097 223.7666 163.9517 223.5891 164.7293 223.2342 c
165.5069 222.8794 166.1462 222.4019 166.6472 221.8017 c
167.1482 221.2015 167.5161 220.497 167.751 219.6881 c
167.9858 218.8792 168.1032 218.0155 168.1032 217.097 c
168.1032 217.097 l
h
165.5043 217.3945 m
165.5356 218.7513 165.2355 219.816 164.6041 220.5883 c
163.9726 221.3607 163.0358 221.7469 161.7938 221.7469 c
161.1571 221.7469 160.5987 221.6269 160.1185 221.3868 c
159.6384 221.1468 159.2366 220.8284 158.913 220.4318 c
158.5894 220.0352 158.3389 219.5733 158.1615 219.0462 c
157.9841 218.5191 157.8849 217.9685 157.864 217.3945 c
157.864 217.3945 l
h
180.2823 222.1383 m
180.2823 221.9087 180.2771 221.7156 180.2666 221.559 c
180.2562 221.4025 180.2353 221.2798 180.204 221.1911 c
180.1727 221.1024 180.1336 221.0345 180.0866 220.9876 c
180.0396 220.9406 179.9744 220.9171 179.8909 220.9171 c
179.8074 220.9171 179.7056 220.9406 179.5856 220.9876 c
179.4656 221.0345 179.3299 221.0815 179.1785 221.1285 c
179.0272 221.1755 178.8576 221.2198 178.6697 221.2616 c
178.4818 221.3033 178.2783 221.3242 178.0591 221.3242 c
177.7982 221.3242 177.5424 221.272 177.2919 221.1676 c
177.0414 221.0632 176.7779 220.891 176.5013 220.651 c
176.2247 220.4109 175.9351 220.0926 175.6324 219.6959 c
175.3297 219.2993 174.9957 218.814 174.6304 218.2399 c
174.6304 208.9714 l
174.6304 208.8879 174.6095 208.8175 174.5678 208.76 c
174.526 208.7026 174.4582 208.6531 174.3642 208.6113 c
174.2703 208.5696 174.1398 208.5382 173.9728 208.5174 c
173.8058 208.4965 173.5919 208.4861 173.3309 208.4861 c
173.0804 208.4861 172.8717 208.4965 172.7047 208.5174 c
172.5377 208.5382 172.4046 208.5696 172.3054 208.6113 c
172.2063 208.6531 172.1384 208.7026 172.1019 208.76 c
172.0654 208.8175 172.0471 208.8879 172.0471 208.9714 c
172.0471 223.062 l
172.0471 223.1455 172.0628 223.216 172.0941 223.2734 c
172.1254 223.3308 172.188 223.383 172.2819 223.43 c
172.3759 223.4769 172.4959 223.5082 172.642 223.5239 c
172.7882 223.5395 172.9813 223.5474 173.2213 223.5474 c
173.4509 223.5474 173.6414 223.5395 173.7928 223.5239 c
173.9441 223.5082 174.0615 223.4769 174.145 223.43 c
174.2285 223.383 174.2886 223.3308 174.3251 223.2734 c
174.3616 223.216 174.3799 223.1455 174.3799 223.062 c
174.3799 221.0111 l
174.7661 221.5747 175.1288 222.0339 175.468 222.3888 c
175.8072 222.7437 176.1282 223.0229 176.4309 223.2264 c
176.7335 223.43 177.0336 223.5709 177.3311 223.6491 c
177.6286 223.7274 177.9286 223.7666 178.2313 223.7666 c
178.367 223.7666 178.521 223.7587 178.6932 223.7431 c
178.8654 223.7274 179.0454 223.6987 179.2333 223.657 c
179.4212 223.6152 179.5908 223.5682 179.7421 223.5161 c
179.8935 223.4639 180.0005 223.4117 180.0631 223.3595 c
180.1257 223.3073 180.1675 223.2577 180.1884 223.2108 c
180.2092 223.1638 180.2275 223.1038 180.2431 223.0307 c
180.2588 222.9577 180.2692 222.8507 180.2745 222.7098 c
180.2797 222.5689 180.2823 222.3784 180.2823 222.1383 c
h
185.8207 208.9714 m
185.8207 208.8879 185.7998 208.8175 185.7581 208.76 c
185.7163 208.7026 185.6485 208.6531 185.5546 208.6113 c
185.4606 208.5696 185.3302 208.5382 185.1632 208.5174 c
184.9962 208.4965 184.7822 208.4861 184.5213 208.4861 c
184.2708 208.4861 184.062 208.4965 183.895 208.5174 c
183.728 208.5382 183.5949 208.5696 183.4958 208.6113 c
183.3966 208.6531 183.3288 208.7026 183.2922 208.76 c
183.2557 208.8175 183.2374 208.8879 183.2374 208.9714 c
183.2374 229.8882 l
183.2374 229.9717 183.2557 230.0447 183.2922 230.1073 c
183.3288 230.17 183.3966 230.2222 183.4958 230.2639 c
183.5949 230.3057 183.728 230.337 183.895 230.3578 c
184.062 230.3787 184.2708 230.3892 184.5213 230.3892 c
184.7822 230.3892 184.9962 230.3787 185.1632 230.3578 c
185.3302 230.337 185.4606 230.3057 185.5546 230.2639 c
185.6485 230.2222 185.7163 230.17 185.7581 230.1073 c
185.7998 230.0447 185.8207 229.9717 185.8207 229.8882 c
185.8207 229.8882 l
h
201.2271 208.9558 m
201.2271 208.8305 201.1853 208.7366 201.1018 208.6739 c
201.0183 208.6113 200.9035 208.5643 200.7574 208.533 c
200.6113 208.5017 200.3973 208.4861 200.1155 208.4861 c
199.8441 208.4861 199.6275 208.5017 199.4658 208.533 c
199.304 208.5643 199.1866 208.6113 199.1135 208.6739 c
199.0404 208.7366 199.0039 208.8305 199.0039 208.9558 c
199.0039 210.3648 l
198.3881 209.7073 197.7018 209.1958 196.9451 208.8305 c
196.1884 208.4652 195.3873 208.2825 194.5419 208.2825 c
193.8008 208.2825 193.1302 208.3791 192.53 208.5722 c
191.9299 208.7653 191.4185 209.0445 190.9957 209.4098 c
190.573 209.7751 190.2442 210.2239 190.0094 210.7562 c
189.7745 211.2885 189.6571 211.8939 189.6571 212.5723 c
189.6571 213.3656 189.8189 214.0545 190.1425 214.639 c
190.466 215.2235 190.9305 215.7088 191.5359 216.095 c
192.1413 216.4812 192.8823 216.7708 193.7591 216.9639 c
194.6358 217.157 195.6222 217.2536 196.7181 217.2536 c
198.6595 217.2536 l
198.6595 218.3495 l
198.6595 218.8922 198.6021 219.3724 198.4873 219.7899 c
198.3724 220.2074 198.1872 220.5544 197.9315 220.831 c
197.6757 221.1076 197.3443 221.3164 196.9373 221.4573 c
196.5302 221.5982 196.0292 221.6686 195.4343 221.6686 c
194.7976 221.6686 194.2261 221.593 193.7199 221.4416 c
193.2137 221.2903 192.7701 221.1233 192.3891 220.9406 c
192.0082 220.758 191.6898 220.591 191.4341 220.4396 c
191.1784 220.2883 190.9879 220.2126 190.8627 220.2126 c
190.7792 220.2126 190.7061 220.2335 190.6435 220.2752 c
190.5808 220.317 190.526 220.3796 190.4791 220.4631 c
190.4321 220.5466 190.3982 220.6536 190.3773 220.784 c
190.3564 220.9145 190.346 221.058 190.346 221.2146 c
190.346 221.4755 190.3643 221.6817 190.4008 221.833 c
190.4373 221.9844 190.526 222.1279 190.667 222.2636 c
190.8079 222.3992 191.0505 222.5584 191.395 222.7411 c
191.7394 222.9237 192.136 223.0907 192.5848 223.2421 c
193.0337 223.3934 193.5242 223.5187 194.0565 223.6178 c
194.5888 223.717 195.1264 223.7666 195.6691 223.7666 c
196.6816 223.7666 197.5427 223.6518 198.2524 223.4221 c
198.9622 223.1925 199.5362 222.8559 199.9746 222.4123 c
200.413 221.9687 200.7313 221.4181 200.9296 220.7606 c
201.1279 220.103 201.2271 219.3358 201.2271 218.4591 c
201.2271 218.4591 l
h
198.6595 215.3905 m
196.4519 215.3905 l
195.7422 215.3905 195.1264 215.3305 194.6045 215.2104 c
194.0826 215.0904 193.6495 214.913 193.305 214.6781 c
192.9606 214.4433 192.7075 214.1615 192.5457 213.8327 c
192.3839 213.5039 192.303 213.1255 192.303 212.6976 c
192.303 211.967 192.5353 211.3851 192.9997 210.9519 c
193.4642 210.5188 194.1139 210.3022 194.9489 210.3022 c
195.6274 210.3022 196.2562 210.4744 196.8355 210.8188 c
197.4148 211.1633 198.0228 211.6904 198.6595 212.4001 c
198.6595 212.4001 l
h
218.9342 216.2359 m
218.9342 215.0043 218.8011 213.8979 218.535 212.9168 c
218.2688 211.9357 217.8774 211.1033 217.3607 210.4196 c
216.8441 209.736 216.2048 209.2089 215.4428 208.8383 c
214.6809 208.4678 213.8094 208.2825 212.8283 208.2825 c
212.4108 208.2825 212.0246 208.3243 211.6697 208.4078 c
211.3148 208.4913 210.9678 208.6218 210.6285 208.7992 c
210.2893 208.9766 209.9527 209.201 209.6187 209.4724 c
209.2847 209.7438 208.9298 210.0621 208.5541 210.4274 c
208.5541 203.3821 l
208.5541 203.2986 208.5332 203.2256 208.4915 203.1629 c
208.4497 203.1003 208.3819 203.0481 208.2879 203.0064 c
208.194 202.9646 208.0635 202.9333 207.8965 202.9124 c
207.7295 202.8916 207.5156 202.8811 207.2546 202.8811 c
207.0041 202.8811 206.7954 202.8916 206.6284 202.9124 c
206.4614 202.9333 206.3283 202.9646 206.2291 203.0064 c
206.13 203.0481 206.0621 203.1003 206.0256 203.1629 c
205.9891 203.2256 205.9708 203.2986 205.9708 203.3821 c
205.9708 223.062 l
205.9708 223.156 205.9865 223.2316 206.0178 223.289 c
206.0491 223.3465 206.1117 223.396 206.2057 223.4378 c
206.2996 223.4795 206.4196 223.5082 206.5658 223.5239 c
206.7119 223.5395 206.8893 223.5474 207.0981 223.5474 c
207.3173 223.5474 207.4973 223.5395 207.6382 223.5239 c
207.7791 223.5082 207.8965 223.4795 207.9905 223.4378 c
208.0844 223.396 208.1496 223.3465 208.1862 223.289 c
208.2227 223.2316 208.241 223.156 208.241 223.062 c
208.241 221.1676 l
208.6689 221.606 209.0812 221.987 209.4778 222.3105 c
209.8744 222.6341 210.2737 222.9029 210.6755 223.1168 c
211.0774 223.3308 211.4896 223.4926 211.9124 223.6022 c
212.3351 223.7118 212.7813 223.7666 213.251 223.7666 c
214.2738 223.7666 215.1454 223.5682 215.8656 223.1716 c
216.5858 222.775 217.1729 222.2322 217.6269 221.5434 c
218.0809 220.8545 218.4123 220.0534 218.6211 219.1401 c
218.8298 218.2269 218.9342 217.2588 218.9342 216.2359 c
h
216.21 215.9384 m
216.21 216.6586 216.1552 217.3553 216.0456 218.0285 c
215.936 218.7018 215.7481 219.2993 215.482 219.8212 c
215.2158 220.3431 214.8583 220.7606 214.4095 221.0737 c
213.9607 221.3868 213.4023 221.5434 212.7343 221.5434 c
212.4003 221.5434 212.0715 221.4938 211.748 221.3946 c
211.4244 221.2955 211.0956 221.1389 210.7616 220.925 c
210.4276 220.711 210.078 220.4292 209.7127 220.0795 c
209.3473 219.7299 208.9612 219.2993 208.5541 218.7879 c
208.5541 213.1829 l
209.2638 212.3166 209.9371 211.6538 210.5738 211.1946 c
211.2104 210.7353 211.8784 210.5057 212.5778 210.5057 c
213.2249 210.5057 213.7807 210.6623 214.2451 210.9754 c
214.7096 211.2885 215.0854 211.706 215.3724 212.2279 c
215.6594 212.7498 215.8708 213.3343 216.0065 213.9814 c
216.1422 214.6285 216.21 215.2809 216.21 215.9384 c
h
0 setgray
f
n
f
n
605.6428 135.044 m
605.163 132.7808 604.4277 131.0938 603.4369 129.983 c
602.4461 128.8723 601.1997 128.3169 599.6979 128.3169 c
599.2598 128.3169 598.9156 128.343 598.6653 128.3951 c
598.9313 129.7718 l
599.0356 129.7405 599.2807 129.7249 599.6666 129.7249 c
600.1359 129.7249 600.5375 129.8448 600.8712 130.0847 c
601.205 130.3246 601.5152 130.7418 601.8021 131.3363 c
602.0889 131.9308 602.3522 132.7547 602.5921 133.8081 c
605.9557 148.6861 l
603.3118 148.6861 l
603.5464 149.7655 l
604.2452 149.8073 604.7484 149.8646 605.0561 149.9376 c
605.3638 150.0106 605.6037 150.1202 605.7758 150.2662 c
605.9479 150.4122 606.0939 150.6025 606.2138 150.8372 c
606.3338 151.0719 606.4876 151.5021 606.6753 152.1279 c
607.2281 154.0052 608.0807 155.4158 609.2332 156.3597 c
610.3857 157.3036 611.8537 157.7755 613.6371 157.7755 c
614.6593 157.7755 615.5406 157.6921 616.2811 157.5252 c
615.6709 154.8657 l
614.2942 154.8657 l
614.1482 155.4602 613.9579 155.8878 613.7232 156.1485 c
613.4885 156.4093 613.1417 156.5396 612.6828 156.5396 c
612.0883 156.5396 611.5851 156.3754 611.1731 156.0468 c
610.7612 155.7183 610.4092 155.2307 610.1171 154.5841 c
609.8251 153.9374 609.5539 153.0665 609.3036 151.9714 c
608.9125 150.2662 l
612.9331 150.2662 l
612.589 148.6861 l
608.5527 148.6861 l
608.5527 148.6861 l
h
f
n
619.7951 130.6724 m
620.1531 130.6724 620.4388 130.6857 620.6521 130.7124 c
620.8653 130.7391 621.0424 130.7981 621.1833 130.8895 c
621.3243 130.9809 621.4442 131.1199 621.5433 131.3065 c
621.6423 131.4932 621.7565 131.7502 621.886 132.0778 c
622.9486 132.0778 l
622.9105 131.537 622.8744 130.9923 622.8401 130.4439 c
622.8058 129.8954 622.7696 129.3508 622.7315 128.81 c
613.0539 128.81 l
613.0539 129.4041 l
613.2367 129.8155 613.45 130.2211 613.6938 130.621 c
613.9375 131.0209 614.2117 131.4265 614.5164 131.8378 c
614.8211 132.2492 615.1677 132.6738 615.5562 133.1118 c
615.9446 133.5498 616.375 134.0049 616.8473 134.4772 c
617.5633 135.1932 618.146 135.8045 618.5954 136.311 c
619.0448 136.8176 619.399 137.2689 619.658 137.665 c
619.917 138.0611 620.0941 138.4267 620.1893 138.7619 c
620.2845 139.097 620.3321 139.455 620.3321 139.8359 c
620.3321 140.2244 620.2769 140.5824 620.1665 140.9099 c
620.056 141.2374 619.8979 141.5155 619.6923 141.744 c
619.4866 141.9725 619.2257 142.1515 618.9096 142.281 c
618.5935 142.4105 618.2298 142.4752 617.8185 142.4752 c
617.1101 142.4752 616.5159 142.2829 616.036 141.8982 c
615.5562 141.5136 615.1829 140.9556 614.9163 140.2244 c
613.4195 140.2244 l
613.4195 142.4524 l
614.3945 142.8561 615.2915 143.1494 616.1103 143.3322 c
616.9292 143.515 617.6661 143.6064 618.3212 143.6064 c
619.1134 143.6064 619.7894 143.5169 620.3493 143.3379 c
620.9091 143.1589 621.3643 142.917 621.7146 142.6123 c
622.065 142.3077 622.3183 141.942 622.4745 141.5155 c
622.6306 141.0889 622.7087 140.6281 622.7087 140.1329 c
622.7087 139.8359 622.6877 139.5598 622.6458 139.3046 c
622.604 139.0494 622.5316 138.798 622.4288 138.5505 c
622.3259 138.3029 622.1907 138.0535 622.0231 137.8021 c
621.8556 137.5507 621.6461 137.2841 621.3947 137.0023 c
621.2043 136.7585 620.9567 136.4767 620.6521 136.1568 c
620.3474 135.8369 620.0141 135.4941 619.6523 135.1285 c
619.2905 134.7628 618.9115 134.382 618.5154 133.9859 c
618.1193 133.5898 617.7347 133.1975 617.3614 132.809 c
616.9882 132.4205 616.6454 132.0435 616.3331 131.6779 c
616.0208 131.3122 615.7656 130.9771 615.5676 130.6724 c
615.5676 130.6724 l
h
f
n
f
n
73.5108 472.894 m
73.031 470.6308 72.2957 468.9438 71.3049 467.833 c
70.3141 466.7223 69.0677 466.1669 67.5659 466.1669 c
67.1278 466.1669 66.7836 466.193 66.5333 466.2451 c
66.7993 467.6218 l
66.9036 467.5905 67.1487 467.5749 67.5346 467.5749 c
68.0039 467.5749 68.4055 467.6948 68.7392 467.9347 c
69.073 468.1746 69.3832 468.5918 69.6701 469.1863 c
69.9569 469.7808 70.2202 470.6047 70.4601 471.6581 c
73.8237 486.5361 l
71.1798 486.5361 l
71.4144 487.6155 l
72.1132 487.6573 72.6164 487.7146 72.9241 487.7876 c
73.2318 487.8606 73.4717 487.9702 73.6438 488.1162 c
73.8159 488.2622 73.9619 488.4525 74.0818 488.6872 c
74.2018 488.9219 74.3556 489.3521 74.5433 489.9779 c
75.0961 491.8552 75.9487 493.2658 77.1012 494.2097 c
78.2537 495.1536 79.7217 495.6255 81.5051 495.6255 c
82.5273 495.6255 83.4086 495.5421 84.1491 495.3752 c
83.5389 492.7157 l
82.1622 492.7157 l
82.0162 493.3102 81.8259 493.7378 81.5912 493.9985 c
81.3565 494.2593 81.0097 494.3896 80.5508 494.3896 c
79.9563 494.3896 79.4531 494.2254 79.0411 493.8968 c
78.6292 493.5683 78.2772 493.0807 77.9851 492.4341 c
77.6931 491.7874 77.4219 490.9165 77.1716 489.8214 c
76.7805 488.1162 l
80.8011 488.1162 l
80.457 486.5361 l
76.4207 486.5361 l
76.4207 486.5361 l
h
f
n
87.0002 469.6964 m
87.0002 469.4603 87.0079 469.2565 87.0231 469.0851 c
87.0383 468.9137 87.0631 468.769 87.0974 468.6509 c
87.1316 468.5329 87.1773 468.432 87.2345 468.3482 c
87.2916 468.2644 87.3583 468.192 87.4344 468.1311 c
87.5258 468.0397 87.6477 467.9692 87.8001 467.9197 c
87.9524 467.8702 88.1466 467.8283 88.3828 467.794 c
88.6189 467.7597 88.9026 467.7331 89.234 467.714 c
89.5653 467.695 89.9633 467.6817 90.428 467.674 c
90.428 466.68 l
81.3673 466.68 l
81.3673 467.674 l
81.8168 467.6893 82.1976 467.7064 82.5099 467.7255 c
82.8222 467.7445 83.0888 467.7712 83.3097 467.8054 c
83.5306 467.8397 83.7077 467.8778 83.841 467.9197 c
83.9743 467.9616 84.0905 468.013 84.1895 468.0739 c
84.2961 468.1425 84.3876 468.2168 84.4637 468.2967 c
84.5399 468.3767 84.6008 468.4777 84.6465 468.5995 c
84.6922 468.7214 84.7284 468.8699 84.7551 469.0451 c
84.7817 469.2203 84.7951 469.4374 84.7951 469.6964 c
84.7951 477.8887 l
84.7951 478.1858 84.7379 478.3952 84.6237 478.5171 c
84.5094 478.639 84.3457 478.6999 84.1324 478.6999 c
83.8962 478.6999 83.5459 478.578 83.0812 478.3343 c
82.6166 478.0905 82.0148 477.7287 81.2759 477.2488 c
81.1769 477.424 81.0855 477.5992 81.0017 477.7744 c
80.9179 477.9496 80.8303 478.1286 80.7389 478.3114 c
81.6834 478.8294 82.6185 479.3455 83.5439 479.8596 c
84.4694 480.3738 85.4083 480.8861 86.3604 481.3964 c
87.0574 481.3964 l
87.0421 480.9775 87.0307 480.6023 87.0231 480.271 c
87.0155 479.9396 87.0098 479.6178 87.006 479.3055 c
87.0022 478.9932 87.0002 478.6847 87.0002 478.38 c
87.0002 478.38 l
h
f
n
f
n
94.414 167.94 m
94.414 169.51 95.684 170.78 97.249 170.78 c
98.815 170.78 100.08 169.51 100.08 167.94 c
100.08 166.38 98.815 165.11 97.249 165.11 c
95.684 165.11 94.414 166.38 94.414 167.94 c
f*
n
94.414 167.94 m
94.414 169.51 95.684 170.78 97.249 170.78 c
98.815 170.78 100.08 169.51 100.08 167.94 c
100.08 166.38 98.815 165.11 97.249 165.11 c
95.684 165.11 94.414 166.38 94.414 167.94 c
s
2.25 w
n
100.08 167.94 m
242.81 167.94 l
s
2.25 w
n
99.254 169.95 m
100.08 274.11 l
s
%%EOF
