%!PS-Adobe-3.0 EPSF-3.0
%%Creator: MATLAB, The MathWorks, Inc. Version 7.14.0.739 (R2012a). Operating System: Microsoft Windows 7.
%%Title: F:\Sem2-2015\Rsearch\DrawPlots\selectedplots\objective_value\dtlz2-pbi.eps
%%CreationDate: 12/10/2016  12:12:04
%%DocumentNeededFonts: Helvetica
%%DocumentProcessColors: Cyan Magenta Yellow Black
%%LanguageLevel: 2
%%Pages: 1
%%BoundingBox:    98   242   512   549
%%EndComments

%%BeginProlog
% MathWorks dictionary
/MathWorks 160 dict begin
% definition operators
/bdef {bind def} bind def
/ldef {load def} bind def
/xdef {exch def} bdef
/xstore {exch store} bdef
% operator abbreviations
/c  /clip ldef
/cc /concat ldef
/cp /closepath ldef
/gr /grestore ldef
/gs /gsave ldef
/mt /moveto ldef
/np /newpath ldef
/cm /currentmatrix ldef
/sm /setmatrix ldef
/rm /rmoveto ldef
/rl /rlineto ldef
/s {show newpath} bdef
/sc {setcmykcolor} bdef
/sr /setrgbcolor ldef
/sg /setgray ldef
/w /setlinewidth ldef
/j /setlinejoin ldef
/cap /setlinecap ldef
/rc {rectclip} bdef
/rf {rectfill} bdef
% page state control
/pgsv () def
/bpage {/pgsv save def} bdef
/epage {pgsv restore} bdef
/bplot /gsave ldef
/eplot {stroke grestore} bdef
% orientation switch
/portraitMode 0 def /landscapeMode 1 def /rotateMode 2 def
% coordinate system mappings
/dpi2point 0 def
% font control
/FontSize 0 def
/FMS {/FontSize xstore findfont [FontSize 0 0 FontSize neg 0 0]
  makefont setfont} bdef
/ISOLatin1Encoding where {pop /WindowsLatin1Encoding 256 array bdef
ISOLatin1Encoding WindowsLatin1Encoding copy pop
/.notdef/.notdef/quotesinglbase/florin/quotedblbase/ellipsis/dagger
/daggerdbl/circumflex/perthousand/Scaron/guilsinglleft/OE/.notdef/.notdef
/.notdef/.notdef/quoteleft/quoteright/quotedblleft/quotedblright/bullet
/endash/emdash/tilde/trademark/scaron/guilsinglright/oe/.notdef/.notdef
/Ydieresis WindowsLatin1Encoding 128 32 getinterval astore pop}
{/WindowsLatin1Encoding StandardEncoding bdef} ifelse
/reencode {exch dup where {pop load} {pop StandardEncoding} ifelse
  exch dup 3 1 roll findfont dup length dict begin
  { 1 index /FID ne {def}{pop pop} ifelse } forall
  /Encoding exch def currentdict end definefont pop} bdef
/isroman {findfont /CharStrings get /Agrave known} bdef
/FMSR {3 1 roll 1 index dup isroman {reencode} {pop pop} ifelse
  exch FMS} bdef
/csm {1 dpi2point div -1 dpi2point div scale neg translate
 dup landscapeMode eq {pop -90 rotate}
  {rotateMode eq {90 rotate} if} ifelse} bdef
% line types: solid, dotted, dashed, dotdash
/SO { [] 0 setdash } bdef
/DO { [.5 dpi2point mul 4 dpi2point mul] 0 setdash } bdef
/DA { [6 dpi2point mul] 0 setdash } bdef
/DD { [.5 dpi2point mul 4 dpi2point mul 6 dpi2point mul 4
  dpi2point mul] 0 setdash } bdef
% macros for lines and objects
/L {lineto stroke} bdef
/MP {3 1 roll moveto 1 sub {rlineto} repeat} bdef
/AP {{rlineto} repeat} bdef
/PDlw -1 def
/W {/PDlw currentlinewidth def setlinewidth} def
/PP {closepath eofill} bdef
/DP {closepath stroke} bdef
/MR {4 -2 roll moveto dup  0 exch rlineto exch 0 rlineto
  neg 0 exch rlineto closepath} bdef
/FR {MR stroke} bdef
/PR {MR fill} bdef
/L1i {{currentfile picstr readhexstring pop} image} bdef
/tMatrix matrix def
/MakeOval {newpath tMatrix currentmatrix pop translate scale
0 0 1 0 360 arc tMatrix setmatrix} bdef
/FO {MakeOval stroke} bdef
/PO {MakeOval fill} bdef
/PD {currentlinewidth 2 div 0 360 arc fill
   PDlw -1 eq not {PDlw w /PDlw -1 def} if} def
/FA {newpath tMatrix currentmatrix pop translate scale
  0 0 1 5 -2 roll arc tMatrix setmatrix stroke} bdef
/PA {newpath tMatrix currentmatrix pop	translate 0 0 moveto scale
  0 0 1 5 -2 roll arc closepath tMatrix setmatrix fill} bdef
/FAn {newpath tMatrix currentmatrix pop translate scale
  0 0 1 5 -2 roll arcn tMatrix setmatrix stroke} bdef
/PAn {newpath tMatrix currentmatrix pop translate 0 0 moveto scale
  0 0 1 5 -2 roll arcn closepath tMatrix setmatrix fill} bdef
/vradius 0 def /hradius 0 def /lry 0 def
/lrx 0 def /uly 0 def /ulx 0 def /rad 0 def
/MRR {/vradius xdef /hradius xdef /lry xdef /lrx xdef /uly xdef
  /ulx xdef newpath tMatrix currentmatrix pop ulx hradius add uly
  vradius add translate hradius vradius scale 0 0 1 180 270 arc 
  tMatrix setmatrix lrx hradius sub uly vradius add translate
  hradius vradius scale 0 0 1 270 360 arc tMatrix setmatrix
  lrx hradius sub lry vradius sub translate hradius vradius scale
  0 0 1 0 90 arc tMatrix setmatrix ulx hradius add lry vradius sub
  translate hradius vradius scale 0 0 1 90 180 arc tMatrix setmatrix
  closepath} bdef
/FRR {MRR stroke } bdef
/PRR {MRR fill } bdef
/MlrRR {/lry xdef /lrx xdef /uly xdef /ulx xdef /rad lry uly sub 2 div def
  newpath tMatrix currentmatrix pop ulx rad add uly rad add translate
  rad rad scale 0 0 1 90 270 arc tMatrix setmatrix lrx rad sub lry rad
  sub translate rad rad scale 0 0 1 270 90 arc tMatrix setmatrix
  closepath} bdef
/FlrRR {MlrRR stroke } bdef
/PlrRR {MlrRR fill } bdef
/MtbRR {/lry xdef /lrx xdef /uly xdef /ulx xdef /rad lrx ulx sub 2 div def
  newpath tMatrix currentmatrix pop ulx rad add uly rad add translate
  rad rad scale 0 0 1 180 360 arc tMatrix setmatrix lrx rad sub lry rad
  sub translate rad rad scale 0 0 1 0 180 arc tMatrix setmatrix
  closepath} bdef
/FtbRR {MtbRR stroke } bdef
/PtbRR {MtbRR fill } bdef
/stri 6 array def /dtri 6 array def
/smat 6 array def /dmat 6 array def
/tmat1 6 array def /tmat2 6 array def /dif 3 array def
/asub {/ind2 exch def /ind1 exch def dup dup
  ind1 get exch ind2 get sub exch } bdef
/tri_to_matrix {
  2 0 asub 3 1 asub 4 0 asub 5 1 asub
  dup 0 get exch 1 get 7 -1 roll astore } bdef
/compute_transform {
  dmat dtri tri_to_matrix tmat1 invertmatrix 
  smat stri tri_to_matrix tmat2 concatmatrix } bdef
/ds {stri astore pop} bdef
/dt {dtri astore pop} bdef
/db {2 copy /cols xdef /rows xdef mul dup 3 mul string
  currentfile 
  3 index 0 eq {/ASCIIHexDecode filter}
  {/ASCII85Decode filter 3 index 2 eq {/RunLengthDecode filter} if }
  ifelse exch readstring pop
  dup 0 3 index getinterval /rbmap xdef
  dup 2 index dup getinterval /gbmap xdef
  1 index dup 2 mul exch getinterval /bbmap xdef pop pop}bdef
/it {gs np dtri aload pop moveto lineto lineto cp c
  cols rows 8 compute_transform 
  rbmap gbmap bbmap true 3 colorimage gr}bdef
/il {newpath moveto lineto stroke}bdef
currentdict end def
%%EndProlog

%%BeginSetup
MathWorks begin

0 cap

end
%%EndSetup

%%Page: 1 1
%%BeginPageSetup
%%PageBoundingBox:    98   242   512   549
MathWorks begin
bpage
%%EndPageSetup

%%BeginObject: obj1
bplot

/dpi2point 12 def
portraitMode 1176 6588 csm

    0     0  4968  3681 rc
285 dict begin %Colortable dictionary
/c0 { 0.000000 0.000000 0.000000 sr} bdef
/c1 { 1.000000 1.000000 1.000000 sr} bdef
/c2 { 0.900000 0.000000 0.000000 sr} bdef
/c3 { 0.000000 0.820000 0.000000 sr} bdef
/c4 { 0.000000 0.000000 0.800000 sr} bdef
/c5 { 0.910000 0.820000 0.320000 sr} bdef
/c6 { 1.000000 0.260000 0.820000 sr} bdef
/c7 { 0.000000 0.820000 0.820000 sr} bdef
c0
1 j
1 sg
   0    0 4969 3682 rf
6 w
0 3000 3850 0 0 -3000 646 3276 4 MP
PP
-3850 0 0 3000 3850 0 0 -3000 646 3276 5 MP stroke
4 w
DO
SO
6 w
0 sg
 646 3276 mt 4496 3276 L
 646 3276 mt  646  276 L
 646 3276 mt  646 3237 L
%%IncludeResource: font Helvetica
/Helvetica /WindowsLatin1Encoding 120 FMSR

 613 3421 mt 
(1) s
1073 3276 mt 1073 3237 L
1040 3421 mt 
(2) s
1501 3276 mt 1501 3237 L
1468 3421 mt 
(3) s
1929 3276 mt 1929 3237 L
1896 3421 mt 
(4) s
2357 3276 mt 2357 3237 L
2324 3421 mt 
(5) s
2784 3276 mt 2784 3237 L
2751 3421 mt 
(6) s
3212 3276 mt 3212 3237 L
3179 3421 mt 
(7) s
3640 3276 mt 3640 3237 L
3607 3421 mt 
(8) s
4068 3276 mt 4068 3237 L
4035 3421 mt 
(9) s
4496 3276 mt 4496 3237 L
4430 3421 mt 
(10) s
 646 3276 mt  684 3276 L
 545 3320 mt 
(0) s
 646 2976 mt  684 2976 L
 445 3020 mt 
(0.1) s
 646 2676 mt  684 2676 L
 445 2720 mt 
(0.2) s
 646 2376 mt  684 2376 L
 445 2420 mt 
(0.3) s
 646 2076 mt  684 2076 L
 445 2120 mt 
(0.4) s
 646 1776 mt  684 1776 L
 445 1820 mt 
(0.5) s
 646 1475 mt  684 1475 L
 445 1519 mt 
(0.6) s
 646 1176 mt  684 1176 L
 445 1220 mt 
(0.7) s
 646  876 mt  684  876 L
 445  920 mt 
(0.8) s
 646  576 mt  684  576 L
 445  620 mt 
(0.9) s
 646  276 mt  684  276 L
 545  320 mt 
(1) s
gs 646 276 3851 3001 rc
/c8 { 0.850713 0.560560 0.929609 sr} bdef
c8
428 516 428 -56 428 336 428 -585 427 574 428 -419 428 877 428 -1459 
427 -103 646 2363 10 MP stroke
/c9 { 0.696667 0.582791 0.815397 sr} bdef
c9
428 993 428 -1742 428 51 428 1773 427 -375 428 -544 428 -499 428 542 
427 581 646 1223 10 MP stroke
/c10 { 0.879014 0.988912 0.000522 sr} bdef
c10
428 -465 428 1174 428 -877 428 -618 427 1567 428 -746 428 441 428 -248 
427 -209 646 1727 10 MP stroke
/c11 { 0.865439 0.612566 0.989950 sr} bdef
c11
428 -402 428 -456 428 -734 428 1830 427 -135 428 242 428 518 428 -855 
427 -1006 646 2505 10 MP stroke
/c12 { 0.527680 0.479523 0.801348 sr} bdef
c12
428 352 428 305 428 -103 428 -1072 427 1629 428 -819 428 692 428 -914 
427 -292 646 2198 10 MP stroke
/c13 { 0.227843 0.498094 0.900852 sr} bdef
c13
428 -515 428 1002 428 272 428 -289 427 30 428 -927 428 1123 428 -772 
427 -177 646 2093 10 MP stroke
/c14 { 0.574661 0.845178 0.738640 sr} bdef
c14
428 1500 428 -1518 428 444 428 -164 427 377 428 274 428 -441 428 -417 
427 -151 646 2204 10 MP stroke
/c15 { 0.585987 0.246735 0.666416 sr} bdef
c15
428 958 428 -1095 428 1958 428 -1345 427 560 428 -372 428 170 428 -592 
427 745 646 1416 10 MP stroke
/c16 { 0.083483 0.625960 0.660945 sr} bdef
c16
428 -293 428 827 428 -117 428 -1379 427 1627 428 1045 428 -1460 428 -104 
427 7 646 1833 10 MP stroke
/c17 { 0.729752 0.890752 0.982303 sr} bdef
c17
428 684 428 81 428 1131 428 -1180 427 303 428 -171 428 -1038 428 806 
427 539 646 1333 10 MP stroke
/c18 { 0.769029 0.581446 0.928313 sr} bdef
c18
428 859 428 115 428 191 428 -1299 427 1599 428 -676 428 -300 428 88 
427 -37 646 1789 10 MP stroke
/c19 { 0.580090 0.016983 0.120860 sr} bdef
c19
428 -423 428 1159 428 -620 428 -893 427 1675 428 -1198 428 1173 428 -550 
427 -58 646 1589 10 MP stroke
/c20 { 0.862711 0.484297 0.844856 sr} bdef
c20
428 -1671 428 1898 428 -1383 428 -798 427 1192 428 -1345 428 1856 428 -1262 
427 -344 646 2603 10 MP stroke
/c21 { 0.209405 0.552291 0.629883 sr} bdef
c21
428 -37 428 934 428 -337 428 -855 427 1626 428 -1795 428 2028 428 -670 
427 -242 646 1567 10 MP stroke
/c22 { 0.031991 0.614713 0.362411 sr} bdef
c22
428 -683 428 744 428 -487 428 -540 427 1346 428 182 428 -965 428 -54 
427 -101 646 1971 10 MP stroke
/c23 { 0.049533 0.489570 0.192510 sr} bdef
c23
428 -126 428 518 428 -363 428 38 427 1252 428 -717 428 584 428 -214 
427 -501 646 1661 10 MP stroke
/c24 { 0.123084 0.205494 0.146515 sr} bdef
c24
428 -515 428 1002 428 272 428 -289 427 30 428 -927 428 1123 428 -772 
427 -177 646 2093 10 MP stroke
/c25 { 0.189072 0.042652 0.635198 sr} bdef
c25
428 -866 428 1438 428 -857 428 -916 427 1451 428 123 428 -674 428 -201 
427 -395 646 2310 10 MP stroke
/c26 { 0.281867 0.538597 0.695163 sr} bdef
c26
428 1022 428 -410 428 -999 428 1453 427 -406 428 -542 428 979 428 -993 
427 -921 646 2900 10 MP stroke
/c27 { 0.499116 0.535801 0.445183 sr} bdef
c27
428 -237 428 -107 428 437 428 1619 427 -1249 428 208 428 -854 428 570 
427 -478 646 2079 10 MP stroke
/c28 { 0.123932 0.490357 0.852998 sr} bdef
c28
428 -37 428 934 428 -337 428 -855 427 1626 428 -1795 428 2028 428 -670 
427 -242 646 1567 10 MP stroke
/c29 { 0.873927 0.270294 0.208461 sr} bdef
c29
428 1072 428 -1178 428 18 428 -1082 427 981 428 -305 428 530 428 -1205 
427 -56 646 2677 10 MP stroke
/c30 { 0.564980 0.640312 0.417029 sr} bdef
c30
428 228 428 -129 428 -32 428 1232 427 -4 428 350 428 -1593 428 1216 
427 -661 646 1762 10 MP stroke
/c31 { 0.205976 0.947933 0.082071 sr} bdef
c31
428 984 428 -1135 428 -104 428 -313 427 890 428 63 428 -395 428 -316 
427 -294 646 2281 10 MP stroke
/c32 { 0.105709 0.142041 0.166460 sr} bdef
c32
428 -657 428 1775 428 -2186 428 726 427 1189 428 -150 428 -1243 428 1097 
427 -845 646 2067 10 MP stroke
/c33 { 0.620959 0.573710 0.052078 sr} bdef
c33
428 924 428 -572 428 46 428 -44 427 1230 428 252 428 -115 428 -742 
427 -363 646 1935 10 MP stroke
/c34 { 0.931201 0.728662 0.737842 sr} bdef
c34
428 352 428 305 428 -103 428 -1072 427 1629 428 -819 428 692 428 -914 
427 -292 646 2198 10 MP stroke
/c35 { 0.063405 0.860441 0.934405 sr} bdef
c35
428 -351 428 727 428 -1357 428 1093 427 706 428 -914 428 1247 428 -424 
427 -815 646 1940 10 MP stroke
/c36 { 0.984398 0.858939 0.785559 sr} bdef
c36
428 -37 428 934 428 -337 428 -855 427 1626 428 -1795 428 2028 428 -670 
427 -242 646 1567 10 MP stroke
/c37 { 0.513377 0.177602 0.398589 sr} bdef
c37
428 1141 428 -1146 428 514 428 -477 427 1384 428 584 428 -681 428 -909 
427 -49 646 2062 10 MP stroke
/c38 { 0.133931 0.030890 0.939142 sr} bdef
c38
428 442 428 -290 428 260 428 1148 427 -25 428 -71 428 -898 428 1595 
427 -1545 646 1996 10 MP stroke
/c39 { 0.301306 0.295534 0.332936 sr} bdef
c39
428 574 428 -156 428 -863 428 808 427 -304 428 -182 428 654 428 -1617 
427 -357 646 3093 10 MP stroke
/c40 { 0.467068 0.648198 0.025228 sr} bdef
c40
428 1360 428 -661 428 124 428 688 427 304 428 -1224 428 838 428 830 
427 -704 646 1376 10 MP stroke
/c41 { 0.842207 0.559033 0.854100 sr} bdef
c41
428 451 428 -721 428 -184 428 -511 427 757 428 -74 428 -153 428 -598 
427 -165 646 2464 10 MP stroke
/c42 { 0.347879 0.446027 0.054239 sr} bdef
c42
428 1031 428 -639 428 -47 428 -808 427 1715 428 188 428 594 428 -2251 
427 -45 646 2572 10 MP stroke
/c43 { 0.177108 0.662808 0.330829 sr} bdef
c43
428 277 428 -647 428 935 428 -809 427 642 428 -1353 428 1334 428 160 
427 -64 646 1328 10 MP stroke
/c44 { 0.898486 0.118155 0.988418 sr} bdef
c44
428 -365 428 1386 428 -1565 428 84 427 1217 428 -1666 428 1576 428 -331 
427 -253 646 1695 10 MP stroke
/c45 { 0.539982 0.706917 0.999492 sr} bdef
c45
428 206 428 256 428 206 428 1026 427 381 428 -1626 428 -223 428 2737 
427 0 646 276 10 MP stroke
/c46 { 0.287849 0.414523 0.464840 sr} bdef
c46
428 1360 428 -661 428 124 428 688 427 304 428 -1224 428 838 428 830 
427 -704 646 1376 10 MP stroke
/c47 { 0.763957 0.818204 0.100222 sr} bdef
c47
428 225 428 -318 428 -167 428 185 427 725 428 -968 428 1544 428 -2039 
427 -299 646 2756 10 MP stroke
/c48 { 0.178117 0.359635 0.056705 sr} bdef
c48
428 56 428 342 428 312 428 78 427 436 428 -530 428 -329 428 1599 
427 -1433 646 1810 10 MP stroke
/c49 { 0.521886 0.335849 0.175669 sr} bdef
c49
428 305 428 395 428 -38 428 -594 427 758 428 881 428 -1026 428 -333 
427 7 646 1876 10 MP stroke
/c50 { 0.208947 0.905154 0.675391 sr} bdef
c50
428 -402 428 1467 428 -1401 428 -308 427 1452 428 -815 428 475 428 -132 
427 -392 646 1860 10 MP stroke
/c51 { 0.468468 0.912132 0.104012 sr} bdef
c51
428 248 428 433 428 775 428 277 427 -952 428 -1286 428 1431 428 -301 
427 -179 646 1953 10 MP stroke
/c52 { 0.745546 0.736267 0.561861 sr} bdef
c52
428 984 428 -1135 428 -104 428 -313 427 890 428 63 428 -395 428 -316 
427 -294 646 2281 10 MP stroke
/c53 { 0.184194 0.597211 0.299937 sr} bdef
c53
428 228 428 -129 428 -32 428 1232 427 -4 428 350 428 -1593 428 1216 
427 -661 646 1762 10 MP stroke
/c54 { 0.134123 0.212602 0.894942 sr} bdef
c54
428 1007 428 -293 428 -77 428 1118 427 47 428 -1084 428 876 428 705 
427 -1302 646 1867 10 MP stroke
/c55 { 0.071453 0.242487 0.053754 sr} bdef
c55
428 -189 428 1108 428 -1412 428 608 427 708 428 -1163 428 591 428 446 
427 -367 646 1564 10 MP stroke
/c56 { 0.441722 0.013283 0.897191 sr} bdef
c56
428 855 428 -397 428 409 428 819 427 -618 428 -672 428 -106 428 426 
427 722 646 1083 10 MP stroke
/c57 { 0.196658 0.093371 0.307367 sr} bdef
c57
428 924 428 -572 428 46 428 -44 427 1230 428 252 428 -115 428 -742 
427 -363 646 1935 10 MP stroke
/c58 { 0.456058 0.101669 0.995390 sr} bdef
c58
428 -310 428 -712 428 744 428 -798 427 574 428 -669 428 775 428 -828 
427 -289 646 2462 10 MP stroke
/c59 { 0.332093 0.297347 0.062045 sr} bdef
c59
428 1166 428 -954 428 1830 428 -1761 427 491 428 -222 428 408 428 -1238 
427 325 646 2273 10 MP stroke
/c60 { 0.298244 0.046351 0.505428 sr} bdef
c60
428 -402 428 -456 428 -734 428 1830 427 -135 428 242 428 518 428 -855 
427 -1006 646 2505 10 MP stroke
/c61 { 0.761426 0.631070 0.089892 sr} bdef
c61
428 -157 428 1362 428 -391 428 -1815 427 1892 428 -412 428 -767 428 -48 
427 -225 646 2405 10 MP stroke
/c62 { 0.080862 0.777241 0.905135 sr} bdef
c62
428 1417 428 -1177 428 286 428 -371 427 480 428 250 428 -337 428 -493 
427 -286 646 2338 10 MP stroke
/c63 { 0.533772 0.109154 0.825809 sr} bdef
c63
428 -189 428 1108 428 -1412 428 608 427 708 428 -1163 428 591 428 446 
427 -367 646 1564 10 MP stroke
/c64 { 0.338098 0.293973 0.746313 sr} bdef
c64
428 1166 428 -954 428 1830 428 -1761 427 491 428 -222 428 408 428 -1238 
427 325 646 2273 10 MP stroke
/c65 { 0.010337 0.048447 0.667916 sr} bdef
c65
428 248 428 433 428 775 428 277 427 -952 428 -1286 428 1431 428 -301 
427 -179 646 1953 10 MP stroke
/c66 { 0.603468 0.526102 0.729709 sr} bdef
c66
428 1737 428 -1269 428 1442 428 -1203 427 858 428 456 428 -221 428 -1276 
427 -37 646 2374 10 MP stroke
/c67 { 0.707253 0.781377 0.287977 sr} bdef
c67
428 -310 428 -712 428 744 428 -798 427 574 428 -669 428 775 428 -828 
427 -289 646 2462 10 MP stroke
/c68 { 0.692532 0.556670 0.396521 sr} bdef
c68
428 605 428 -856 428 -75 428 1400 427 -150 428 520 428 -1769 428 1452 
427 -682 646 1762 10 MP stroke
/c69 { 0.061591 0.780176 0.337584 sr} bdef
c69
428 -310 428 -712 428 744 428 -798 427 574 428 -669 428 775 428 -828 
427 -289 646 2462 10 MP stroke
/c70 { 0.607866 0.741254 0.104813 sr} bdef
c70
428 1360 428 -661 428 124 428 688 427 304 428 -1224 428 838 428 830 
427 -704 646 1376 10 MP stroke
/c71 { 0.127888 0.549540 0.485229 sr} bdef
c71
428 122 428 -175 428 -214 428 1903 427 -250 428 628 428 -1888 428 1247 
427 -785 646 1890 10 MP stroke
/c72 { 0.890476 0.798960 0.734341 sr} bdef
c72
428 403 428 -217 428 391 428 613 427 456 428 823 428 -1551 428 480 
427 -72 646 1434 10 MP stroke
/c73 { 0.051332 0.072885 0.088527 sr} bdef
c73
428 56 428 342 428 312 428 78 427 436 428 -530 428 -329 428 1599 
427 -1433 646 1810 10 MP stroke
/c74 { 0.798351 0.943008 0.683716 sr} bdef
c74
428 984 428 -1135 428 -104 428 -313 427 890 428 63 428 -395 428 -316 
427 -294 646 2281 10 MP stroke
/c75 { 0.132083 0.722725 0.110353 sr} bdef
c75
428 117 428 372 428 -1029 428 157 427 504 428 -639 428 641 428 -284 
427 -721 646 2383 10 MP stroke
/c76 { 0.117493 0.640718 0.328814 sr} bdef
c76
428 1253 428 -597 428 286 428 -116 427 666 428 -18 428 882 428 -1333 
427 -554 646 2266 10 MP stroke
/c77 { 0.653812 0.749131 0.583186 sr} bdef
c77
428 303 428 447 428 -634 428 -460 427 2163 428 -829 428 -520 428 71 
427 -104 646 1716 10 MP stroke
/c78 { 0.740032 0.234827 0.734958 sr} bdef
c78
428 -423 428 1159 428 -620 428 -893 427 1675 428 -1198 428 1173 428 -550 
427 -58 646 1589 10 MP stroke
/c79 { 0.970599 0.866930 0.086235 sr} bdef
c79
428 1385 428 -1812 428 -42 428 -130 427 767 428 353 428 -973 428 95 
427 -299 646 2317 10 MP stroke
/c80 { 0.366437 0.369199 0.685028 sr} bdef
c80
428 254 428 -206 428 285 428 1748 427 -946 428 -221 428 -681 428 675 
427 -511 646 1971 10 MP stroke
/c81 { 0.597942 0.789364 0.367653 sr} bdef
c81
428 -848 428 267 428 497 428 1575 427 -1395 428 388 428 63 428 -714 
427 -330 646 2297 10 MP stroke
/c82 { 0.206028 0.086667 0.771934 sr} bdef
c82
428 -414 428 788 428 765 428 -1586 427 637 428 163 428 -1085 428 90 
427 447 646 1880 10 MP stroke
/c83 { 0.205675 0.388272 0.551779 sr} bdef
c83
428 56 428 342 428 312 428 78 427 436 428 -530 428 -329 428 1599 
427 -1433 646 1810 10 MP stroke
/c84 { 0.228953 0.641941 0.484480 sr} bdef
c84
428 -1844 428 1450 428 -229 428 -831 427 986 428 597 428 518 428 -2511 
427 6 646 2922 10 MP stroke
/c85 { 0.151846 0.781932 0.100606 sr} bdef
c85
428 -657 428 1775 428 -2186 428 726 427 1189 428 -150 428 -1243 428 1097 
427 -845 646 2067 10 MP stroke
/c86 { 0.294066 0.237373 0.530872 sr} bdef
c86
428 -423 428 1159 428 -620 428 -893 427 1675 428 -1198 428 1173 428 -550 
427 -58 646 1589 10 MP stroke
/c87 { 0.091499 0.405315 0.104846 sr} bdef
c87
428 -683 428 744 428 -487 428 -540 427 1346 428 182 428 -965 428 -54 
427 -101 646 1971 10 MP stroke
/c88 { 0.112284 0.784428 0.291570 sr} bdef
c88
428 -146 428 459 428 -55 428 -1098 427 1255 428 -333 428 427 428 -1054 
427 -42 646 2193 10 MP stroke
/c89 { 0.603533 0.964423 0.432485 sr} bdef
c89
428 -402 428 -456 428 -734 428 1830 427 -135 428 242 428 518 428 -855 
427 -1006 646 2505 10 MP stroke
/c90 { 0.694752 0.758099 0.432642 sr} bdef
c90
428 -848 428 267 428 497 428 1575 427 -1395 428 388 428 63 428 -714 
427 -330 646 2297 10 MP stroke
/c91 { 0.655498 0.109755 0.933760 sr} bdef
c91
428 -126 428 518 428 -363 428 38 427 1252 428 -717 428 584 428 -214 
427 -501 646 1661 10 MP stroke
/c92 { 0.187461 0.266179 0.797830 sr} bdef
c92
428 693 428 561 428 -96 428 -2126 427 1821 428 -1375 428 1484 428 -900 
427 131 646 1945 10 MP stroke
/c93 { 0.487604 0.768958 0.396007 sr} bdef
c93
428 392 428 96 428 405 428 -1070 427 471 428 -759 428 1411 428 -1813 
427 -1 646 2666 10 MP stroke
/c94 { 0.272939 0.037235 0.673295 sr} bdef
c94
428 -2850 428 1823 428 -1676 428 1115 427 544 428 -48 428 -1640 428 1360 
427 13 646 1697 10 MP stroke
/c95 { 0.429564 0.451739 0.609857 sr} bdef
c95
428 -136 428 593 428 -1186 428 1130 427 689 428 -899 428 1408 428 -640 
427 -817 646 1946 10 MP stroke
/c96 { 0.059403 0.315811 0.772722 sr} bdef
c96
428 -402 428 1467 428 -1401 428 -308 427 1452 428 -815 428 475 428 -132 
427 -392 646 1860 10 MP stroke
/c97 { 0.696433 0.125332 0.130151 sr} bdef
c97
428 178 428 802 428 -575 428 -732 427 555 428 -851 428 1353 428 -1495 
427 54 646 2451 10 MP stroke
/c98 { 0.092352 0.007820 0.423109 sr} bdef
c98
428 -1656 428 2172 428 -2023 428 -768 427 1895 428 -109 428 -422 428 -249 
427 -539 646 2583 10 MP stroke
/c99 { 0.655573 0.722923 0.531209 sr} bdef
c99
428 -520 428 -67 428 1098 428 830 427 -749 428 -468 428 -920 428 494 
427 25 646 2033 10 MP stroke
/c100 { 0.108818 0.631766 0.126500 sr} bdef
c100
428 924 428 -572 428 46 428 -44 427 1230 428 252 428 -115 428 -742 
427 -363 646 1935 10 MP stroke
/c101 { 0.134303 0.098594 0.142027 sr} bdef
c101
428 1031 428 -639 428 -47 428 -808 427 1715 428 188 428 594 428 -2251 
427 -45 646 2572 10 MP stroke
/c102 { 0.168251 0.196249 0.317480 sr} bdef
c102
428 2563 428 -638 428 -726 428 -9 427 604 428 -979 428 974 428 -273 
427 -144 646 1811 10 MP stroke
/c103 { 0.316429 0.217563 0.251042 sr} bdef
c103
428 388 428 777 428 154 428 -1585 427 1200 428 538 428 -1098 428 -258 
427 371 646 1822 10 MP stroke
/c104 { 0.892922 0.703223 0.555738 sr} bdef
c104
428 277 428 -647 428 935 428 -809 427 642 428 -1353 428 1334 428 160 
427 -64 646 1328 10 MP stroke
/c105 { 0.184434 0.212031 0.077347 sr} bdef
c105
428 392 428 96 428 405 428 -1070 427 471 428 -759 428 1411 428 -1813 
427 -1 646 2666 10 MP stroke
/c106 { 0.913800 0.706715 0.557789 sr} bdef
c106
428 -1202 428 1917 428 -1172 428 -1315 427 2031 428 -626 428 11 428 -394 
427 328 646 1750 10 MP stroke
/c107 { 0.313429 0.166204 0.622497 sr} bdef
c107
428 -1844 428 1450 428 -229 428 -831 427 986 428 597 428 518 428 -2511 
427 6 646 2922 10 MP stroke
/c108 { 0.987935 0.170432 0.257792 sr} bdef
c108
428 -39 428 628 428 -361 428 -853 427 1438 428 -167 428 -139 428 -240 
427 -12 646 1658 10 MP stroke
/c109 { 0.396799 0.073995 0.684096 sr} bdef
c109
428 248 428 433 428 775 428 277 427 -952 428 -1286 428 1431 428 -301 
427 -179 646 1953 10 MP stroke
/c110 { 0.402388 0.982835 0.402184 sr} bdef
c110
428 -746 428 1754 428 -1226 428 138 427 1231 428 -2111 428 1996 428 -142 
427 -71 646 1245 10 MP stroke
/c111 { 0.620672 0.154370 0.381345 sr} bdef
c111
428 -1671 428 1898 428 -1383 428 -798 427 1192 428 -1345 428 1856 428 -1262 
427 -344 646 2603 10 MP stroke
/c112 { 0.161134 0.758112 0.871111 sr} bdef
c112
428 749 428 -1767 428 2096 428 -496 427 -102 428 504 428 -370 428 -585 
427 175 646 1886 10 MP stroke
/c113 { 0.350777 0.685536 0.294149 sr} bdef
c113
428 299 428 -373 428 502 428 479 427 -88 428 -781 428 1071 428 -1093 
427 256 646 1772 10 MP stroke
/c114 { 0.530629 0.832423 0.597490 sr} bdef
c114
428 -657 428 1775 428 -2186 428 726 427 1189 428 -150 428 -1243 428 1097 
427 -845 646 2067 10 MP stroke
/c115 { 0.335311 0.299225 0.452593 sr} bdef
c115
428 -683 428 744 428 -487 428 -540 427 1346 428 182 428 -965 428 -54 
427 -101 646 1971 10 MP stroke
/c116 { 0.422646 0.359606 0.558319 sr} bdef
c116
428 -465 428 1174 428 -877 428 -618 427 1567 428 -746 428 441 428 -248 
427 -209 646 1727 10 MP stroke
/c117 { 0.742545 0.424335 0.429356 sr} bdef
c117
428 988 428 -1269 428 198 428 1424 427 -380 428 803 428 -2039 428 915 
427 -624 646 2253 10 MP stroke
/c118 { 0.124873 0.024434 0.290185 sr} bdef
c118
428 -1935 428 876 428 -1319 428 725 427 552 428 197 428 -1462 428 727 
427 -25 646 2002 10 MP stroke
/c119 { 0.317521 0.653690 0.956936 sr} bdef
c119
428 129 428 -369 428 -212 428 1596 427 298 428 264 428 -917 428 348 
427 -960 646 2124 10 MP stroke
/c120 { 0.935731 0.457886 0.240478 sr} bdef
c120
428 1062 428 -993 428 454 428 663 427 288 428 682 428 -2430 428 1176 
427 72 646 1596 10 MP stroke
/c121 { 0.763898 0.759327 0.740648 sr} bdef
c121
428 -423 428 1159 428 -620 428 -893 427 1675 428 -1198 428 1173 428 -550 
427 -58 646 1589 10 MP stroke
/c122 { 0.743688 0.105920 0.681560 sr} bdef
c122
428 -683 428 744 428 -487 428 -540 427 1346 428 182 428 -965 428 -54 
427 -101 646 1971 10 MP stroke
/c123 { 0.463261 0.212163 0.098519 sr} bdef
c123
428 988 428 -1269 428 198 428 1424 427 -380 428 803 428 -2039 428 915 
427 -624 646 2253 10 MP stroke
/c124 { 0.823574 0.175010 0.163570 sr} bdef
c124
428 -351 428 727 428 -1357 428 1093 427 706 428 -914 428 1247 428 -424 
427 -815 646 1940 10 MP stroke
/c125 { 0.665987 0.894389 0.516558 sr} bdef
c125
428 -1212 428 386 428 71 428 -1282 427 1406 428 -855 428 894 428 -1018 
427 -465 646 2693 10 MP stroke
/c126 { 0.702702 0.153590 0.953457 sr} bdef
c126
428 -189 428 1108 428 -1412 428 608 427 708 428 -1163 428 591 428 446 
427 -367 646 1564 10 MP stroke
/c127 { 0.540884 0.679734 0.036563 sr} bdef
c127
428 -1844 428 1450 428 -229 428 -831 427 986 428 597 428 518 428 -2511 
427 6 646 2922 10 MP stroke
/c128 { 0.809204 0.748619 0.120187 sr} bdef
c128
428 352 428 305 428 -103 428 -1072 427 1629 428 -819 428 692 428 -914 
427 -292 646 2198 10 MP stroke
/c129 { 0.525045 0.325834 0.546449 sr} bdef
c129
428 -1935 428 876 428 -1319 428 725 427 552 428 197 428 -1462 428 727 
427 -25 646 2002 10 MP stroke
/c130 { 0.398881 0.415093 0.180738 sr} bdef
c130
428 299 428 -373 428 502 428 479 427 -88 428 -781 428 1071 428 -1093 
427 256 646 1772 10 MP stroke
/c131 { 0.255387 0.020536 0.923676 sr} bdef
c131
428 605 428 -856 428 -75 428 1400 427 -150 428 520 428 -1769 428 1452 
427 -682 646 1762 10 MP stroke
/c132 { 0.653700 0.932614 0.163512 sr} bdef
c132
428 1357 428 -960 428 1415 428 -1648 427 1433 428 809 428 -1261 428 -753 
427 682 646 1726 10 MP stroke
/c133 { 0.921097 0.794658 0.577394 sr} bdef
c133
428 -536 428 602 428 -1322 428 1676 427 822 428 -93 428 -599 428 529 
427 -1072 646 1990 10 MP stroke
/c134 { 0.440036 0.257614 0.751946 sr} bdef
c134
428 -365 428 1386 428 -1565 428 84 427 1217 428 -1666 428 1576 428 -331 
427 -253 646 1695 10 MP stroke
/c135 { 0.228669 0.064187 0.767330 sr} bdef
c135
428 122 428 -175 428 -214 428 1903 427 -250 428 628 428 -1888 428 1247 
427 -785 646 1890 10 MP stroke
/c136 { 0.671202 0.715213 0.642061 sr} bdef
c136
428 -189 428 1108 428 -1412 428 608 427 708 428 -1163 428 591 428 446 
427 -367 646 1564 10 MP stroke
/c137 { 0.419048 0.390762 0.816140 sr} bdef
c137
428 228 428 -129 428 -32 428 1232 427 -4 428 350 428 -1593 428 1216 
427 -661 646 1762 10 MP stroke
/c138 { 0.317428 0.814540 0.789074 sr} bdef
c138
428 299 428 -373 428 502 428 479 427 -88 428 -781 428 1071 428 -1093 
427 256 646 1772 10 MP stroke
/c139 { 0.852264 0.505637 0.635661 sr} bdef
c139
428 -189 428 1108 428 -1412 428 608 427 708 428 -1163 428 591 428 446 
427 -367 646 1564 10 MP stroke
/c140 { 0.950894 0.443964 0.060019 sr} bdef
c140
428 1141 428 -1146 428 514 428 -477 427 1384 428 584 428 -681 428 -909 
427 -49 646 2062 10 MP stroke
/c141 { 0.866750 0.631189 0.355074 sr} bdef
c141
428 658 428 -163 428 137 428 19 427 -196 428 33 428 -375 428 -371 
427 185 646 2056 10 MP stroke
/c142 { 0.997003 0.224171 0.652451 sr} bdef
c142
428 -402 428 1467 428 -1401 428 -308 427 1452 428 -815 428 475 428 -132 
427 -392 646 1860 10 MP stroke
/c143 { 0.604991 0.387245 0.142187 sr} bdef
c143
428 -351 428 727 428 -1357 428 1093 427 706 428 -914 428 1247 428 -424 
427 -815 646 1940 10 MP stroke
/c144 { 0.025135 0.421112 0.184100 sr} bdef
c144
428 993 428 -1742 428 51 428 1773 427 -375 428 -544 428 -499 428 542 
427 581 646 1223 10 MP stroke
/c145 { 0.725775 0.370363 0.841560 sr} bdef
c145
428 1022 428 -410 428 -999 428 1453 427 -406 428 -542 428 979 428 -993 
427 -921 646 2900 10 MP stroke
/c146 { 0.734230 0.571026 0.176855 sr} bdef
c146
428 248 428 433 428 775 428 277 427 -952 428 -1286 428 1431 428 -301 
427 -179 646 1953 10 MP stroke
/c147 { 0.957384 0.265322 0.924581 sr} bdef
c147
428 1737 428 -1269 428 1442 428 -1203 427 858 428 456 428 -221 428 -1276 
427 -37 646 2374 10 MP stroke
/c148 { 0.223770 0.373564 0.087500 sr} bdef
c148
428 -515 428 1002 428 272 428 -289 427 30 428 -927 428 1123 428 -772 
427 -177 646 2093 10 MP stroke
/c149 { 0.640117 0.180617 0.045051 sr} bdef
c149
428 684 428 81 428 1131 428 -1180 427 303 428 -171 428 -1038 428 806 
427 539 646 1333 10 MP stroke
/c150 { 0.723173 0.347438 0.660617 sr} bdef
c150
428 1166 428 -954 428 1830 428 -1761 427 491 428 -222 428 408 428 -1238 
427 325 646 2273 10 MP stroke
/c151 { 0.383869 0.627347 0.021650 sr} bdef
c151
428 605 428 -856 428 -75 428 1400 427 -150 428 520 428 -1769 428 1452 
427 -682 646 1762 10 MP stroke
/c152 { 0.910570 0.800559 0.745847 sr} bdef
c152
428 855 428 -397 428 409 428 819 427 -618 428 -672 428 -106 428 426 
427 722 646 1083 10 MP stroke
/c153 { 0.813113 0.383306 0.617279 sr} bdef
c153
428 -916 428 185 428 511 428 -1098 427 1020 428 -802 428 506 428 -13 
427 -761 646 2321 10 MP stroke
/c154 { 0.575495 0.530052 0.275070 sr} bdef
c154
428 -316 428 -1182 428 616 428 38 427 324 428 -409 428 436 428 -825 
427 -426 646 2598 10 MP stroke
/c155 { 0.248629 0.451639 0.227713 sr} bdef
c155
428 254 428 -206 428 285 428 1748 427 -946 428 -221 428 -681 428 675 
427 -511 646 1971 10 MP stroke
/c156 { 0.804450 0.986104 0.029992 sr} bdef
c156
428 800 428 -827 428 1173 428 -1226 427 635 428 -65 428 -448 428 -504 
427 254 646 2116 10 MP stroke
/c157 { 0.535664 0.087077 0.802091 sr} bdef
c157
428 -365 428 1386 428 -1565 428 84 427 1217 428 -1666 428 1576 428 -331 
427 -253 646 1695 10 MP stroke
/c158 { 0.989145 0.066946 0.939398 sr} bdef
c158
428 230 428 230 428 -1002 428 370 427 1981 428 -381 428 -1277 428 109 
427 133 646 1692 10 MP stroke
/c159 { 0.018178 0.683839 0.783736 sr} bdef
c159
428 1253 428 -597 428 286 428 -116 427 666 428 -18 428 882 428 -1333 
427 -554 646 2266 10 MP stroke
/c160 { 0.534138 0.885359 0.899005 sr} bdef
c160
428 0 428 498 428 4 428 -413 427 290 428 320 428 -1175 428 229 
427 261 646 1799 10 MP stroke
/c161 { 0.625938 0.137869 0.217802 sr} bdef
c161
428 -683 428 744 428 -487 428 -540 427 1346 428 182 428 -965 428 -54 
427 -101 646 1971 10 MP stroke
/c162 { 0.182141 0.041820 0.106942 sr} bdef
c162
428 924 428 -572 428 46 428 -44 427 1230 428 252 428 -115 428 -742 
427 -363 646 1935 10 MP stroke
/c163 { 0.616443 0.939661 0.354456 sr} bdef
c163
428 442 428 -290 428 260 428 1148 427 -25 428 -71 428 -898 428 1595 
427 -1545 646 1996 10 MP stroke
/c164 { 0.410629 0.984349 0.945579 sr} bdef
c164
428 605 428 -856 428 -75 428 1400 427 -150 428 520 428 -1769 428 1452 
427 -682 646 1762 10 MP stroke
/c165 { 0.676645 0.988302 0.766831 sr} bdef
c165
428 -189 428 1108 428 -1412 428 608 427 708 428 -1163 428 591 428 446 
427 -367 646 1564 10 MP stroke
/c166 { 0.336699 0.662382 0.244165 sr} bdef
c166
428 1737 428 -1269 428 1442 428 -1203 427 858 428 456 428 -221 428 -1276 
427 -37 646 2374 10 MP stroke
/c167 { 0.295507 0.680178 0.527847 sr} bdef
c167
428 1007 428 -293 428 -77 428 1118 427 47 428 -1084 428 876 428 705 
427 -1302 646 1867 10 MP stroke
/c168 { 0.411594 0.602638 0.750520 sr} bdef
c168
428 -683 428 744 428 -487 428 -540 427 1346 428 182 428 -965 428 -54 
427 -101 646 1971 10 MP stroke
/c169 { 0.583533 0.551793 0.583571 sr} bdef
c169
428 399 428 427 428 -260 428 1047 427 487 428 -1512 428 1180 428 930 
427 -788 646 1145 10 MP stroke
/c170 { 0.511820 0.082593 0.719570 sr} bdef
c170
428 403 428 -217 428 391 428 613 427 456 428 823 428 -1551 428 480 
427 -72 646 1434 10 MP stroke
/c171 { 0.996156 0.354534 0.971259 sr} bdef
c171
428 -2218 428 1261 428 -1042 428 850 427 -319 428 -379 428 -709 428 812 
427 49 646 1971 10 MP stroke
/c172 { 0.346449 0.886544 0.454695 sr} bdef
c172
428 958 428 -1095 428 1958 428 -1345 427 560 428 -372 428 170 428 -592 
427 745 646 1416 10 MP stroke
/c173 { 0.413427 0.217732 0.125655 sr} bdef
c173
428 1500 428 -1518 428 444 428 -164 427 377 428 274 428 -441 428 -417 
427 -151 646 2204 10 MP stroke
/c174 { 0.308915 0.726104 0.782872 sr} bdef
c174
428 920 428 -360 428 1140 428 -1167 427 580 428 -145 428 -98 428 -697 
427 296 646 1935 10 MP stroke
/c175 { 0.693788 0.009802 0.843213 sr} bdef
c175
428 -464 428 1564 428 -1743 428 -274 427 1385 428 -576 428 101 428 -203 
427 -450 646 2223 10 MP stroke
/c176 { 0.922332 0.770954 0.042660 sr} bdef
c176
428 -402 428 -456 428 -734 428 1830 427 -135 428 242 428 518 428 -855 
427 -1006 646 2505 10 MP stroke
/c177 { 0.378186 0.704340 0.729513 sr} bdef
c177
428 1062 428 -993 428 454 428 663 427 288 428 682 428 -2430 428 1176 
427 72 646 1596 10 MP stroke
/c178 { 0.224277 0.269055 0.673031 sr} bdef
c178
428 392 428 96 428 405 428 -1070 427 471 428 -759 428 1411 428 -1813 
427 -1 646 2666 10 MP stroke
/c179 { 0.477492 0.623716 0.236445 sr} bdef
c179
428 -146 428 459 428 -55 428 -1098 427 1255 428 -333 428 427 428 -1054 
427 -42 646 2193 10 MP stroke
/c180 { 0.177124 0.829643 0.766922 sr} bdef
c180
428 442 428 -290 428 260 428 1148 427 -25 428 -71 428 -898 428 1595 
427 -1545 646 1996 10 MP stroke
/c181 { 0.934478 0.107889 0.182228 sr} bdef
c181
428 -146 428 459 428 -55 428 -1098 427 1255 428 -333 428 427 428 -1054 
427 -42 646 2193 10 MP stroke
/c182 { 0.099095 0.489764 0.193245 sr} bdef
c182
428 442 428 -290 428 260 428 1148 427 -25 428 -71 428 -898 428 1595 
427 -1545 646 1996 10 MP stroke
/c183 { 0.895892 0.099090 0.044166 sr} bdef
c183
428 984 428 -1135 428 -104 428 -313 427 890 428 63 428 -395 428 -316 
427 -294 646 2281 10 MP stroke
/c184 { 0.557295 0.772495 0.311940 sr} bdef
c184
428 669 428 -861 428 -218 428 430 427 275 428 -668 428 1237 428 -1928 
427 -332 646 2983 10 MP stroke
/c185 { 0.178982 0.338956 0.210146 sr} bdef
c185
428 392 428 96 428 405 428 -1070 427 471 428 -759 428 1411 428 -1813 
427 -1 646 2666 10 MP stroke
/c186 { 0.510153 0.906364 0.628924 sr} bdef
c186
428 206 428 256 428 206 428 1026 427 381 428 -1626 428 -223 428 2737 
427 0 646 276 10 MP stroke
/c187 { 0.101534 0.390855 0.054617 sr} bdef
c187
428 -1844 428 1450 428 -229 428 -831 427 986 428 597 428 518 428 -2511 
427 6 646 2922 10 MP stroke
/c188 { 0.501283 0.431721 0.997560 sr} bdef
c188
428 -237 428 -107 428 437 428 1619 427 -1249 428 208 428 -854 428 570 
427 -478 646 2079 10 MP stroke
/c189 { 0.811603 0.485652 0.894448 sr} bdef
c189
428 352 428 305 428 -103 428 -1072 427 1629 428 -819 428 692 428 -914 
427 -292 646 2198 10 MP stroke
/c190 { 0.137547 0.390005 0.927356 sr} bdef
c190
428 1731 428 -1674 428 604 428 1095 427 -219 428 545 428 -1523 428 918 
427 -684 646 2037 10 MP stroke
/c191 { 0.917494 0.713574 0.618337 sr} bdef
c191
428 684 428 81 428 1131 428 -1180 427 303 428 -171 428 -1038 428 806 
427 539 646 1333 10 MP stroke
/c192 { 0.343288 0.936027 0.124774 sr} bdef
c192
428 -37 428 934 428 -337 428 -855 427 1626 428 -1795 428 2028 428 -670 
427 -242 646 1567 10 MP stroke
/c193 { 0.730585 0.646477 0.833152 sr} bdef
c193
428 605 428 -856 428 -75 428 1400 427 -150 428 520 428 -1769 428 1452 
427 -682 646 1762 10 MP stroke
/c194 { 0.398282 0.749822 0.835221 sr} bdef
c194
428 -423 428 1159 428 -620 428 -893 427 1675 428 -1198 428 1173 428 -550 
427 -58 646 1589 10 MP stroke
/c195 { 0.322460 0.552262 0.979129 sr} bdef
c195
428 305 428 395 428 -38 428 -594 427 758 428 881 428 -1026 428 -333 
427 7 646 1876 10 MP stroke
/c196 { 0.549309 0.330424 0.619472 sr} bdef
c196
428 1417 428 -1177 428 286 428 -371 427 480 428 250 428 -337 428 -493 
427 -286 646 2338 10 MP stroke
/c197 { 0.360637 0.756510 0.413901 sr} bdef
c197
428 -515 428 1002 428 272 428 -289 427 30 428 -927 428 1123 428 -772 
427 -177 646 2093 10 MP stroke
/c198 { 0.492345 0.694743 0.972734 sr} bdef
c198
428 1141 428 -1146 428 514 428 -477 427 1384 428 584 428 -681 428 -909 
427 -49 646 2062 10 MP stroke
/c199 { 0.327755 0.837803 0.739072 sr} bdef
c199
428 749 428 -1767 428 2096 428 -496 427 -102 428 504 428 -370 428 -585 
427 175 646 1886 10 MP stroke
/c200 { 0.954174 0.031923 0.356869 sr} bdef
c200
428 1417 428 -1177 428 286 428 -371 427 480 428 250 428 -337 428 -493 
427 -286 646 2338 10 MP stroke
/c201 { 0.662654 0.281502 0.230383 sr} bdef
c201
428 352 428 305 428 -103 428 -1072 427 1629 428 -819 428 692 428 -914 
427 -292 646 2198 10 MP stroke
/c202 { 0.711129 0.624573 0.590609 sr} bdef
c202
428 -1245 428 2231 428 -1929 428 -1029 427 2079 428 -872 428 786 428 -550 
427 -675 646 2466 10 MP stroke
/c203 { 0.660438 0.047555 0.348785 sr} bdef
c203
428 303 428 447 428 -634 428 -460 427 2163 428 -829 428 -520 428 71 
427 -104 646 1716 10 MP stroke
/c204 { 0.451341 0.240905 0.715045 sr} bdef
c204
428 1022 428 -410 428 -999 428 1453 427 -406 428 -542 428 979 428 -993 
427 -921 646 2900 10 MP stroke
/c205 { 0.856182 0.281508 0.731051 sr} bdef
c205
428 988 428 -1269 428 198 428 1424 427 -380 428 803 428 -2039 428 915 
427 -624 646 2253 10 MP stroke
/c206 { 0.137763 0.836723 0.138602 sr} bdef
c206
428 -365 428 1386 428 -1565 428 84 427 1217 428 -1666 428 1576 428 -331 
427 -253 646 1695 10 MP stroke
/c207 { 0.588209 0.366157 0.806760 sr} bdef
c207
428 516 428 -56 428 336 428 -585 427 574 428 -419 428 877 428 -1459 
427 -103 646 2363 10 MP stroke
gr

c207

end %%Color Dict

eplot
%%EndObject

epage
end

showpage

%%Trailer
%%EOF
