%!PS-Adobe-3.0 EPSF-3.0
%%Creator: MATLAB, The MathWorks, Inc. Version 7.14.0.739 (R2012a). Operating System: Microsoft Windows 7.
%%Title: F:\Sem2-2015\Rsearch\DrawPlots\selectedplots\objective_value\WFG7-pbi.eps
%%CreationDate: 12/10/2016  12:12:19
%%DocumentNeededFonts: Helvetica
%%DocumentProcessColors: Cyan Magenta Yellow Black
%%LanguageLevel: 2
%%Pages: 1
%%BoundingBox:    96   240   515   551
%%EndComments

%%BeginProlog
% MathWorks dictionary
/MathWorks 160 dict begin
% definition operators
/bdef {bind def} bind def
/ldef {load def} bind def
/xdef {exch def} bdef
/xstore {exch store} bdef
% operator abbreviations
/c  /clip ldef
/cc /concat ldef
/cp /closepath ldef
/gr /grestore ldef
/gs /gsave ldef
/mt /moveto ldef
/np /newpath ldef
/cm /currentmatrix ldef
/sm /setmatrix ldef
/rm /rmoveto ldef
/rl /rlineto ldef
/s {show newpath} bdef
/sc {setcmykcolor} bdef
/sr /setrgbcolor ldef
/sg /setgray ldef
/w /setlinewidth ldef
/j /setlinejoin ldef
/cap /setlinecap ldef
/rc {rectclip} bdef
/rf {rectfill} bdef
% page state control
/pgsv () def
/bpage {/pgsv save def} bdef
/epage {pgsv restore} bdef
/bplot /gsave ldef
/eplot {stroke grestore} bdef
% orientation switch
/portraitMode 0 def /landscapeMode 1 def /rotateMode 2 def
% coordinate system mappings
/dpi2point 0 def
% font control
/FontSize 0 def
/FMS {/FontSize xstore findfont [FontSize 0 0 FontSize neg 0 0]
  makefont setfont} bdef
/ISOLatin1Encoding where {pop /WindowsLatin1Encoding 256 array bdef
ISOLatin1Encoding WindowsLatin1Encoding copy pop
/.notdef/.notdef/quotesinglbase/florin/quotedblbase/ellipsis/dagger
/daggerdbl/circumflex/perthousand/Scaron/guilsinglleft/OE/.notdef/.notdef
/.notdef/.notdef/quoteleft/quoteright/quotedblleft/quotedblright/bullet
/endash/emdash/tilde/trademark/scaron/guilsinglright/oe/.notdef/.notdef
/Ydieresis WindowsLatin1Encoding 128 32 getinterval astore pop}
{/WindowsLatin1Encoding StandardEncoding bdef} ifelse
/reencode {exch dup where {pop load} {pop StandardEncoding} ifelse
  exch dup 3 1 roll findfont dup length dict begin
  { 1 index /FID ne {def}{pop pop} ifelse } forall
  /Encoding exch def currentdict end definefont pop} bdef
/isroman {findfont /CharStrings get /Agrave known} bdef
/FMSR {3 1 roll 1 index dup isroman {reencode} {pop pop} ifelse
  exch FMS} bdef
/csm {1 dpi2point div -1 dpi2point div scale neg translate
 dup landscapeMode eq {pop -90 rotate}
  {rotateMode eq {90 rotate} if} ifelse} bdef
% line types: solid, dotted, dashed, dotdash
/SO { [] 0 setdash } bdef
/DO { [.5 dpi2point mul 4 dpi2point mul] 0 setdash } bdef
/DA { [6 dpi2point mul] 0 setdash } bdef
/DD { [.5 dpi2point mul 4 dpi2point mul 6 dpi2point mul 4
  dpi2point mul] 0 setdash } bdef
% macros for lines and objects
/L {lineto stroke} bdef
/MP {3 1 roll moveto 1 sub {rlineto} repeat} bdef
/AP {{rlineto} repeat} bdef
/PDlw -1 def
/W {/PDlw currentlinewidth def setlinewidth} def
/PP {closepath eofill} bdef
/DP {closepath stroke} bdef
/MR {4 -2 roll moveto dup  0 exch rlineto exch 0 rlineto
  neg 0 exch rlineto closepath} bdef
/FR {MR stroke} bdef
/PR {MR fill} bdef
/L1i {{currentfile picstr readhexstring pop} image} bdef
/tMatrix matrix def
/MakeOval {newpath tMatrix currentmatrix pop translate scale
0 0 1 0 360 arc tMatrix setmatrix} bdef
/FO {MakeOval stroke} bdef
/PO {MakeOval fill} bdef
/PD {currentlinewidth 2 div 0 360 arc fill
   PDlw -1 eq not {PDlw w /PDlw -1 def} if} def
/FA {newpath tMatrix currentmatrix pop translate scale
  0 0 1 5 -2 roll arc tMatrix setmatrix stroke} bdef
/PA {newpath tMatrix currentmatrix pop	translate 0 0 moveto scale
  0 0 1 5 -2 roll arc closepath tMatrix setmatrix fill} bdef
/FAn {newpath tMatrix currentmatrix pop translate scale
  0 0 1 5 -2 roll arcn tMatrix setmatrix stroke} bdef
/PAn {newpath tMatrix currentmatrix pop translate 0 0 moveto scale
  0 0 1 5 -2 roll arcn closepath tMatrix setmatrix fill} bdef
/vradius 0 def /hradius 0 def /lry 0 def
/lrx 0 def /uly 0 def /ulx 0 def /rad 0 def
/MRR {/vradius xdef /hradius xdef /lry xdef /lrx xdef /uly xdef
  /ulx xdef newpath tMatrix currentmatrix pop ulx hradius add uly
  vradius add translate hradius vradius scale 0 0 1 180 270 arc 
  tMatrix setmatrix lrx hradius sub uly vradius add translate
  hradius vradius scale 0 0 1 270 360 arc tMatrix setmatrix
  lrx hradius sub lry vradius sub translate hradius vradius scale
  0 0 1 0 90 arc tMatrix setmatrix ulx hradius add lry vradius sub
  translate hradius vradius scale 0 0 1 90 180 arc tMatrix setmatrix
  closepath} bdef
/FRR {MRR stroke } bdef
/PRR {MRR fill } bdef
/MlrRR {/lry xdef /lrx xdef /uly xdef /ulx xdef /rad lry uly sub 2 div def
  newpath tMatrix currentmatrix pop ulx rad add uly rad add translate
  rad rad scale 0 0 1 90 270 arc tMatrix setmatrix lrx rad sub lry rad
  sub translate rad rad scale 0 0 1 270 90 arc tMatrix setmatrix
  closepath} bdef
/FlrRR {MlrRR stroke } bdef
/PlrRR {MlrRR fill } bdef
/MtbRR {/lry xdef /lrx xdef /uly xdef /ulx xdef /rad lrx ulx sub 2 div def
  newpath tMatrix currentmatrix pop ulx rad add uly rad add translate
  rad rad scale 0 0 1 180 360 arc tMatrix setmatrix lrx rad sub lry rad
  sub translate rad rad scale 0 0 1 0 180 arc tMatrix setmatrix
  closepath} bdef
/FtbRR {MtbRR stroke } bdef
/PtbRR {MtbRR fill } bdef
/stri 6 array def /dtri 6 array def
/smat 6 array def /dmat 6 array def
/tmat1 6 array def /tmat2 6 array def /dif 3 array def
/asub {/ind2 exch def /ind1 exch def dup dup
  ind1 get exch ind2 get sub exch } bdef
/tri_to_matrix {
  2 0 asub 3 1 asub 4 0 asub 5 1 asub
  dup 0 get exch 1 get 7 -1 roll astore } bdef
/compute_transform {
  dmat dtri tri_to_matrix tmat1 invertmatrix 
  smat stri tri_to_matrix tmat2 concatmatrix } bdef
/ds {stri astore pop} bdef
/dt {dtri astore pop} bdef
/db {2 copy /cols xdef /rows xdef mul dup 3 mul string
  currentfile 
  3 index 0 eq {/ASCIIHexDecode filter}
  {/ASCII85Decode filter 3 index 2 eq {/RunLengthDecode filter} if }
  ifelse exch readstring pop
  dup 0 3 index getinterval /rbmap xdef
  dup 2 index dup getinterval /gbmap xdef
  1 index dup 2 mul exch getinterval /bbmap xdef pop pop}bdef
/it {gs np dtri aload pop moveto lineto lineto cp c
  cols rows 8 compute_transform 
  rbmap gbmap bbmap true 3 colorimage gr}bdef
/il {newpath moveto lineto stroke}bdef
currentdict end def
%%EndProlog

%%BeginSetup
MathWorks begin

0 cap

end
%%EndSetup

%%Page: 1 1
%%BeginPageSetup
%%PageBoundingBox:    96   240   515   551
MathWorks begin
bpage
%%EndPageSetup

%%BeginObject: obj1
bplot

/dpi2point 12 def
portraitMode 1152 6612 csm

    0     0  5039  3726 rc
285 dict begin %Colortable dictionary
/c0 { 0.000000 0.000000 0.000000 sr} bdef
/c1 { 1.000000 1.000000 1.000000 sr} bdef
/c2 { 0.900000 0.000000 0.000000 sr} bdef
/c3 { 0.000000 0.820000 0.000000 sr} bdef
/c4 { 0.000000 0.000000 0.800000 sr} bdef
/c5 { 0.910000 0.820000 0.320000 sr} bdef
/c6 { 1.000000 0.260000 0.820000 sr} bdef
/c7 { 0.000000 0.820000 0.820000 sr} bdef
c0
1 j
1 sg
   0    0 5040 3727 rf
6 w
0 3037 3906 0 0 -3037 654 3316 4 MP
PP
-3906 0 0 3037 3906 0 0 -3037 654 3316 5 MP stroke
4 w
DO
SO
6 w
0 sg
 654 3316 mt 4560 3316 L
 654 3316 mt  654  279 L
 654 3316 mt  654 3276 L
%%IncludeResource: font Helvetica
/Helvetica /WindowsLatin1Encoding 120 FMSR

 621 3461 mt 
(1) s
1088 3316 mt 1088 3276 L
1055 3461 mt 
(2) s
1522 3316 mt 1522 3276 L
1489 3461 mt 
(3) s
1956 3316 mt 1956 3276 L
1923 3461 mt 
(4) s
2390 3316 mt 2390 3276 L
2357 3461 mt 
(5) s
2824 3316 mt 2824 3276 L
2791 3461 mt 
(6) s
3258 3316 mt 3258 3276 L
3225 3461 mt 
(7) s
3692 3316 mt 3692 3276 L
3659 3461 mt 
(8) s
4126 3316 mt 4126 3276 L
4093 3461 mt 
(9) s
4560 3316 mt 4560 3276 L
4494 3461 mt 
(10) s
 654 3316 mt  694 3316 L
 387 3360 mt 
(0.96) s
 654 2978 mt  694 2978 L
 320 3022 mt 
(0.965) s
 654 2641 mt  694 2641 L
 387 2685 mt 
(0.97) s
 654 2303 mt  694 2303 L
 320 2347 mt 
(0.975) s
 654 1966 mt  694 1966 L
 387 2010 mt 
(0.98) s
 654 1628 mt  694 1628 L
 320 1672 mt 
(0.985) s
 654 1291 mt  694 1291 L
 387 1335 mt 
(0.99) s
 654  953 mt  694  953 L
 320  997 mt 
(0.995) s
 654  616 mt  694  616 L
 554  660 mt 
(1) s
 654  279 mt  694  279 L
 320  323 mt 
(1.005) s
gs 655 279 3906 3038 rc
/c8 { 0.882865 0.511890 0.376203 sr} bdef
c8
434 -453 434 -669 434 1072 434 -1471 434 1513 434 -720 434 5 434 289 
433 727 655 670 10 MP stroke
/c9 { 0.883762 0.245762 0.164003 sr} bdef
c9
434 -361 434 -307 434 -99 434 -425 434 1200 434 -280 434 22 434 -115 
433 778 655 681 10 MP stroke
/c10 { 0.658604 0.255618 0.157603 sr} bdef
c10
434 549 434 711 434 -953 434 275 434 634 434 -897 434 586 434 101 
433 495 655 703 10 MP stroke
/c11 { 0.276606 0.298709 0.005904 sr} bdef
c11
434 -384 434 -918 434 -98 434 178 434 1291 434 -105 434 -144 434 -592 
433 1053 655 678 10 MP stroke
/c12 { 0.228652 0.670118 0.981666 sr} bdef
c12
434 13 434 -313 434 -1073 434 297 434 928 434 -506 434 322 434 88 
433 579 655 687 10 MP stroke
/c13 { 0.256149 0.619173 0.971829 sr} bdef
c13
434 -252 434 523 434 -930 434 -552 434 1471 434 244 434 146 434 -737 
433 841 655 701 10 MP stroke
/c14 { 0.492171 0.301027 0.597097 sr} bdef
c14
434 567 434 -372 434 172 434 -366 434 794 434 -1042 434 480 434 -20 
433 881 655 669 10 MP stroke
/c15 { 0.543383 0.129771 0.552219 sr} bdef
c15
434 52 434 -55 434 -364 434 -747 434 1405 434 176 434 -169 434 -209 
433 694 655 697 10 MP stroke
/c16 { 0.149064 0.258549 0.528712 sr} bdef
c16
434 -238 434 -924 434 -711 434 736 434 906 434 -38 434 -228 434 364 
433 295 655 709 10 MP stroke
/c17 { 0.813377 0.718534 0.500819 sr} bdef
c17
434 -566 434 -267 434 330 434 -644 434 1447 434 -494 434 113 434 -636 
433 1198 655 664 10 MP stroke
/c18 { 0.893981 0.950717 0.462355 sr} bdef
c18
434 30 434 -106 434 -208 434 -357 434 911 434 -728 434 566 434 -518 
433 1114 655 662 10 MP stroke
/c19 { 0.287597 0.926367 0.496328 sr} bdef
c19
434 -487 434 119 434 -753 434 -348 434 1397 434 -366 434 91 434 128 
433 521 655 693 10 MP stroke
/c20 { 0.877330 0.213238 0.114401 sr} bdef
c20
434 69 434 53 434 -235 434 107 434 772 434 -533 434 338 434 132 
433 374 655 711 10 MP stroke
/c21 { 0.124316 0.574103 0.466372 sr} bdef
c21
434 -606 434 244 434 1167 434 -447 434 456 434 -898 434 358 434 -770 
433 1551 655 643 10 MP stroke
/c22 { 0.374039 0.754615 0.455602 sr} bdef
c22
434 -489 434 275 434 168 434 -53 434 673 434 -1105 434 297 434 278 
433 728 655 673 10 MP stroke
/c23 { 0.706028 0.929508 0.820466 sr} bdef
c23
434 -344 434 -89 434 32 434 -1380 434 1911 434 -943 434 825 434 -1099 
433 1430 655 652 10 MP stroke
/c24 { 0.039848 0.966189 0.887968 sr} bdef
c24
434 -411 434 858 434 -406 434 -213 434 693 434 -645 434 737 434 -397 
433 762 655 691 10 MP stroke
/c25 { 0.638774 0.010954 0.977259 sr} bdef
c25
434 -621 434 263 434 -338 434 -913 434 1682 434 -193 434 267 434 -261 
433 549 655 705 10 MP stroke
/c26 { 0.385528 0.399659 0.510288 sr} bdef
c26
434 -180 434 -483 434 -28 434 -992 434 1612 434 -918 434 66 434 -647 
433 1729 655 616 10 MP stroke
/c27 { 0.551630 0.958893 0.855401 sr} bdef
c27
434 -191 434 153 434 -366 434 -510 434 1253 434 -627 434 189 434 156 
433 600 655 687 10 MP stroke
/c28 { 0.476705 0.877816 0.389878 sr} bdef
c28
434 -568 434 145 434 363 434 -1591 434 1876 434 -622 434 436 434 -1286 
433 1707 655 641 10 MP stroke
/c29 { 0.049163 0.307435 0.320210 sr} bdef
c29
434 -962 434 1231 434 -256 434 -111 434 754 434 -803 434 66 434 773 
433 190 655 707 10 MP stroke
/c30 { 0.461296 0.488134 0.706741 sr} bdef
c30
434 -133 434 -805 434 -403 434 -255 434 1150 434 181 434 52 434 -582 
433 980 655 677 10 MP stroke
/c31 { 0.367297 0.941439 0.268188 sr} bdef
c31
434 -143 434 327 434 -180 434 -1778 434 1927 434 -440 434 -335 434 512 
433 637 655 675 10 MP stroke
/c32 { 0.745396 0.909073 0.584553 sr} bdef
c32
434 -487 434 119 434 -753 434 -348 434 1397 434 -366 434 91 434 128 
433 521 655 693 10 MP stroke
/c33 { 0.906503 0.056683 0.556736 sr} bdef
c33
434 -361 434 -307 434 -99 434 -425 434 1200 434 -280 434 22 434 -115 
433 778 655 681 10 MP stroke
/c34 { 0.002961 0.153156 0.407491 sr} bdef
c34
434 -347 434 245 434 -452 434 403 434 512 434 -467 434 270 434 -116 
433 735 655 686 10 MP stroke
/c35 { 0.233446 0.535314 0.311606 sr} bdef
c35
434 493 434 -104 434 -1094 434 565 434 589 434 -594 434 468 434 -601 
433 1178 655 663 10 MP stroke
/c36 { 0.708634 0.587061 0.239191 sr} bdef
c36
434 -453 434 -669 434 1072 434 -1471 434 1513 434 -720 434 5 434 289 
433 727 655 670 10 MP stroke
/c37 { 0.064059 0.003369 0.189073 sr} bdef
c37
434 -487 434 119 434 -753 434 -348 434 1397 434 -366 434 91 434 128 
433 521 655 693 10 MP stroke
/c38 { 0.491204 0.616469 0.122776 sr} bdef
c38
434 -164 434 -683 434 -154 434 72 434 875 434 -181 434 -291 434 442 
433 477 655 690 10 MP stroke
/c39 { 0.133032 0.314181 0.087855 sr} bdef
c39
434 -555 434 513 434 212 434 -1403 434 1971 434 -711 434 438 434 -1312 
433 1625 655 653 10 MP stroke
/c40 { 0.408793 0.282319 0.630590 sr} bdef
c40
434 -347 434 245 434 -452 434 403 434 512 434 -467 434 270 434 -116 
433 735 655 686 10 MP stroke
/c41 { 0.219755 0.654254 0.193468 sr} bdef
c41
434 -361 434 -307 434 -99 434 -425 434 1200 434 -280 434 22 434 -115 
433 778 655 681 10 MP stroke
/c42 { 0.094600 0.918360 0.558240 sr} bdef
c42
434 -517 434 360 434 -261 434 11 434 633 434 -335 434 264 434 255 
433 316 655 709 10 MP stroke
/c43 { 0.417641 0.110447 0.552744 sr} bdef
c43
434 -487 434 119 434 -753 434 -348 434 1397 434 -366 434 91 434 128 
433 521 655 693 10 MP stroke
/c44 { 0.111281 0.236022 0.138654 sr} bdef
c44
434 -422 434 1408 434 -445 434 -668 434 899 434 -694 434 145 434 315 
433 613 655 685 10 MP stroke
/c45 { 0.328240 0.346442 0.928757 sr} bdef
c45
434 -383 434 59 434 -49 434 -1139 434 1921 434 -660 434 346 434 -1440 
433 1857 655 636 10 MP stroke
/c46 { 0.888317 0.790044 0.074470 sr} bdef
c46
434 -373 434 967 434 -2120 434 884 434 850 434 -502 434 -128 434 835 
433 132 655 709 10 MP stroke
/c47 { 0.419797 0.396724 0.412931 sr} bdef
c47
434 -361 434 -307 434 -99 434 -425 434 1200 434 -280 434 22 434 -115 
433 778 655 681 10 MP stroke
/c48 { 0.973954 0.237895 0.108576 sr} bdef
c48
434 169 434 662 434 -480 434 -947 434 1060 434 -1032 434 1207 434 -823 
433 1148 655 667 10 MP stroke
/c49 { 0.800029 0.044813 0.959956 sr} bdef
c49
434 -381 434 -857 434 229 434 -205 434 952 434 -63 434 -101 434 199 
433 476 655 696 10 MP stroke
/c50 { 0.801644 0.960596 0.765749 sr} bdef
c50
434 -577 434 773 434 -548 434 -659 434 1315 434 -194 434 -39 434 322 
433 318 655 709 10 MP stroke
/c51 { 0.608232 0.989042 0.562556 sr} bdef
c51
434 -577 434 773 434 -548 434 -659 434 1315 434 -194 434 -39 434 322 
433 318 655 709 10 MP stroke
/c52 { 0.495888 0.253041 0.195961 sr} bdef
c52
434 -133 434 -805 434 -403 434 -255 434 1150 434 181 434 52 434 -582 
433 980 655 677 10 MP stroke
/c53 { 0.492735 0.710884 0.987619 sr} bdef
c53
434 -119 434 -2057 434 1564 434 -1185 434 1472 434 -492 434 -83 434 -635 
433 1518 655 633 10 MP stroke
/c54 { 0.334620 0.220165 0.345280 sr} bdef
c54
434 -517 434 360 434 -261 434 11 434 633 434 -335 434 264 434 255 
433 316 655 709 10 MP stroke
/c55 { 0.091606 0.631601 0.378188 sr} bdef
c55
434 -404 434 -1611 434 1545 434 -702 434 1063 434 -314 434 -21 434 34 
433 655 655 686 10 MP stroke
/c56 { 0.887363 0.426527 0.890774 sr} bdef
c56
434 493 434 -104 434 -1094 434 565 434 589 434 -594 434 468 434 -601 
433 1178 655 663 10 MP stroke
/c57 { 0.224230 0.796930 0.858281 sr} bdef
c57
434 -621 434 263 434 -338 434 -913 434 1682 434 -193 434 267 434 -261 
433 549 655 705 10 MP stroke
/c58 { 0.427096 0.588860 0.091699 sr} bdef
c58
434 -110 434 -902 434 683 434 -704 434 1296 434 -978 434 21 434 -362 
433 1455 655 632 10 MP stroke
/c59 { 0.250583 0.593771 0.520579 sr} bdef
c59
434 -645 434 810 434 -255 434 -1927 434 2429 434 -627 434 282 434 -703 
433 1163 655 669 10 MP stroke
/c60 { 0.914054 0.663293 0.499653 sr} bdef
c60
434 -416 434 -690 434 177 434 -582 434 1378 434 -166 434 -113 434 -251 
433 906 655 675 10 MP stroke
/c61 { 0.634803 0.086360 0.040807 sr} bdef
c61
434 169 434 662 434 -480 434 -947 434 1060 434 -1032 434 1207 434 -823 
433 1148 655 667 10 MP stroke
/c62 { 0.751564 0.323757 0.066491 sr} bdef
c62
434 1128 434 -1239 434 111 434 -195 434 1204 434 -752 434 807 434 -1420 
433 1535 655 663 10 MP stroke
/c63 { 0.923257 0.054361 0.067943 sr} bdef
c63
434 -328 434 -918 434 359 434 -555 434 1230 434 -365 434 -248 434 52 
433 938 655 661 10 MP stroke
/c64 { 0.573534 0.439199 0.027369 sr} bdef
c64
434 340 434 -277 434 -567 434 -107 434 1090 434 -647 434 723 434 -851 
433 1124 655 674 10 MP stroke
/c65 { 0.049699 0.238553 0.127301 sr} bdef
c65
434 -517 434 1587 434 -1470 434 -448 434 1346 434 25 434 -124 434 668 
433 -122 655 741 10 MP stroke
/c66 { 0.630329 0.476414 0.109997 sr} bdef
c66
434 111 434 212 434 -437 434 962 434 52 434 -907 434 277 434 567 
433 351 655 701 10 MP stroke
/c67 { 0.435432 0.901879 0.565834 sr} bdef
c67
434 -313 434 -363 434 -1144 434 782 434 865 434 -255 434 781 434 -1059 
433 984 655 691 10 MP stroke
/c68 { 0.730644 0.980960 0.588209 sr} bdef
c68
434 -361 434 -307 434 -99 434 -425 434 1200 434 -280 434 22 434 -115 
433 778 655 681 10 MP stroke
/c69 { 0.503161 0.531594 0.606287 sr} bdef
c69
434 -395 434 -1311 434 1708 434 -1663 434 1589 434 -609 434 213 434 -230 
433 930 655 668 10 MP stroke
/c70 { 0.764317 0.600624 0.722586 sr} bdef
c70
434 -606 434 244 434 1167 434 -447 434 456 434 -898 434 358 434 -770 
433 1551 655 643 10 MP stroke
/c71 { 0.435215 0.646525 0.176695 sr} bdef
c71
434 -411 434 858 434 -406 434 -213 434 693 434 -645 434 737 434 -397 
433 762 655 691 10 MP stroke
/c72 { 0.876476 0.251690 0.356484 sr} bdef
c72
434 -487 434 119 434 -753 434 -348 434 1397 434 -366 434 91 434 128 
433 521 655 693 10 MP stroke
/c73 { 0.303346 0.967760 0.192292 sr} bdef
c73
434 275 434 -227 434 -219 434 267 434 674 434 -853 434 190 434 77 
433 818 655 675 10 MP stroke
/c74 { 0.097864 0.693790 0.096024 sr} bdef
c74
434 13 434 -313 434 -1073 434 297 434 928 434 -506 434 322 434 88 
433 579 655 687 10 MP stroke
/c75 { 0.199386 0.607055 0.709711 sr} bdef
c75
434 -234 434 -301 434 98 434 -1528 434 1796 434 -354 434 -372 434 194 
433 939 655 657 10 MP stroke
/c76 { 0.890528 0.602642 0.862453 sr} bdef
c76
434 -419 434 -173 434 -244 434 -581 434 1420 434 -435 434 111 434 88 
433 578 655 690 10 MP stroke
/c77 { 0.675957 0.784999 0.536648 sr} bdef
c77
434 -308 434 803 434 -1045 434 -356 434 1301 434 -302 434 -103 434 464 
433 306 655 706 10 MP stroke
/c78 { 0.004447 0.198611 0.438725 sr} bdef
c78
434 -133 434 -805 434 -403 434 -255 434 1150 434 181 434 52 434 -582 
433 980 655 677 10 MP stroke
/c79 { 0.558291 0.385129 0.646859 sr} bdef
c79
434 -416 434 -690 434 177 434 -582 434 1378 434 -166 434 -113 434 -251 
433 906 655 675 10 MP stroke
/c80 { 0.585674 0.766331 0.174635 sr} bdef
c80
434 -538 434 18 434 442 434 -1590 434 1743 434 -487 434 597 434 -1582 
433 1826 655 639 10 MP stroke
/c81 { 0.503115 0.382675 0.977198 sr} bdef
c81
434 -452 434 1408 434 -712 434 -881 434 1207 434 -678 434 798 434 -429 
433 742 655 693 10 MP stroke
/c82 { 0.936084 0.892737 0.443530 sr} bdef
c82
434 30 434 -106 434 -208 434 -357 434 911 434 -728 434 566 434 -518 
433 1114 655 662 10 MP stroke
/c83 { 0.751527 0.909403 0.373318 sr} bdef
c83
434 -511 434 -44 434 1218 434 -1398 434 1828 434 -750 434 183 434 -29 
433 503 655 709 10 MP stroke
/c84 { 0.116291 0.525121 0.341125 sr} bdef
c84
434 -411 434 858 434 -406 434 -213 434 693 434 -645 434 737 434 -397 
433 762 655 691 10 MP stroke
/c85 { 0.849403 0.186232 0.208745 sr} bdef
c85
434 -453 434 -669 434 1072 434 -1471 434 1513 434 -720 434 5 434 289 
433 727 655 670 10 MP stroke
/c86 { 0.530431 0.084285 0.240770 sr} bdef
c86
434 -217 434 -725 434 -745 434 1256 434 529 434 -637 434 560 434 -810 
433 1154 655 671 10 MP stroke
/c87 { 0.634553 0.111076 0.607345 sr} bdef
c87
434 -347 434 245 434 -452 434 403 434 512 434 -467 434 270 434 -116 
433 735 655 686 10 MP stroke
/c88 { 0.889758 0.490686 0.313508 sr} bdef
c88
434 493 434 -104 434 -1094 434 565 434 589 434 -594 434 468 434 -601 
433 1178 655 663 10 MP stroke
/c89 { 0.762140 0.954526 0.645884 sr} bdef
c89
434 -411 434 858 434 -406 434 -213 434 693 434 -645 434 737 434 -397 
433 762 655 691 10 MP stroke
/c90 { 0.485320 0.438182 0.186382 sr} bdef
c90
434 -535 434 -767 434 1501 434 -1782 434 1646 434 -569 434 185 434 -27 
433 716 655 681 10 MP stroke
/c91 { 0.443134 0.488120 0.861131 sr} bdef
c91
434 358 434 -180 434 -706 434 -23 434 1082 434 -754 434 463 434 -597 
433 1178 655 663 10 MP stroke
/c92 { 0.716456 0.620333 0.089774 sr} bdef
c92
434 -291 434 -181 434 -640 434 -1119 434 2002 434 -260 434 -444 434 580 
433 454 655 687 10 MP stroke
/c93 { 0.111761 0.575589 0.461657 sr} bdef
c93
434 -608 434 121 434 111 434 1461 434 -413 434 -723 434 411 434 205 
433 429 655 707 10 MP stroke
/c94 { 0.545449 0.038012 0.579286 sr} bdef
c94
434 -234 434 -301 434 98 434 -1528 434 1796 434 -354 434 -372 434 194 
433 939 655 657 10 MP stroke
/c95 { 0.628978 0.481927 0.160527 sr} bdef
c95
434 52 434 -55 434 -364 434 -747 434 1405 434 176 434 -169 434 -209 
433 694 655 697 10 MP stroke
/c96 { 0.754379 0.793496 0.291369 sr} bdef
c96
434 -240 434 -788 434 -396 434 -42 434 1062 434 -281 434 -328 434 438 
433 636 655 673 10 MP stroke
/c97 { 0.507608 0.237992 0.192685 sr} bdef
c97
434 -261 434 -1088 434 -676 434 884 434 974 434 -4 434 -34 434 -1089 
433 1433 655 661 10 MP stroke
/c98 { 0.808697 0.066673 0.195862 sr} bdef
c98
434 -142 434 -81 434 -16 434 -581 434 1053 434 -855 434 977 434 -915 
433 1199 655 665 10 MP stroke
/c99 { 0.974782 0.575090 0.583214 sr} bdef
c99
434 -240 434 -788 434 -396 434 -42 434 1062 434 -281 434 -328 434 438 
433 636 655 673 10 MP stroke
/c100 { 0.950022 0.100039 0.878734 sr} bdef
c100
434 1098 434 -929 434 -455 434 -339 434 1248 434 -344 434 469 434 -790 
433 1077 655 679 10 MP stroke
/c101 { 0.891451 0.214037 0.166952 sr} bdef
c101
434 -487 434 119 434 -753 434 -348 434 1397 434 -366 434 91 434 128 
433 521 655 693 10 MP stroke
/c102 { 0.646125 0.180344 0.116550 sr} bdef
c102
434 -217 434 -725 434 -745 434 1256 434 529 434 -637 434 560 434 -810 
433 1154 655 671 10 MP stroke
/c103 { 0.365334 0.402375 0.089810 sr} bdef
c103
434 -645 434 810 434 -255 434 -1927 434 2429 434 -627 434 282 434 -703 
433 1163 655 669 10 MP stroke
/c104 { 0.683768 0.546894 0.985959 sr} bdef
c104
434 -645 434 810 434 -255 434 -1927 434 2429 434 -627 434 282 434 -703 
433 1163 655 669 10 MP stroke
/c105 { 0.212750 0.918991 0.665162 sr} bdef
c105
434 340 434 -277 434 -567 434 -107 434 1090 434 -647 434 723 434 -851 
433 1124 655 674 10 MP stroke
/c106 { 0.743478 0.378457 0.474768 sr} bdef
c106
434 -423 434 -57 434 -754 434 -313 434 1424 434 -135 434 -544 434 790 
433 257 655 699 10 MP stroke
/c107 { 0.106262 0.883784 0.445103 sr} bdef
c107
434 -129 434 -70 434 593 434 -321 434 594 434 -860 434 413 434 457 
433 324 655 702 10 MP stroke
/c108 { 0.668228 0.728216 0.285643 sr} bdef
c108
434 -454 434 -280 434 730 434 -1777 434 1971 434 -333 434 306 434 -335 
433 661 655 698 10 MP stroke
/c109 { 0.593687 0.370530 0.795638 sr} bdef
c109
434 30 434 -106 434 -208 434 -357 434 911 434 -728 434 566 434 -518 
433 1114 655 662 10 MP stroke
/c110 { 0.073534 0.992738 0.776029 sr} bdef
c110
434 30 434 -106 434 -208 434 -357 434 911 434 -728 434 566 434 -518 
433 1114 655 662 10 MP stroke
/c111 { 0.007370 0.888948 0.864125 sr} bdef
c111
434 -252 434 523 434 -930 434 -552 434 1471 434 244 434 146 434 -737 
433 841 655 701 10 MP stroke
/c112 { 0.697594 0.884992 0.465645 sr} bdef
c112
434 -291 434 -1381 434 1882 434 -2070 434 2188 434 -423 434 -259 434 -624 
433 1355 655 655 10 MP stroke
/c113 { 0.371558 0.083022 0.997219 sr} bdef
c113
434 -234 434 -301 434 98 434 -1528 434 1796 434 -354 434 -372 434 194 
433 939 655 657 10 MP stroke
/c114 { 0.869830 0.000070 0.679977 sr} bdef
c114
434 -217 434 -86 434 1188 434 -2185 434 1855 434 -785 434 457 434 284 
433 300 655 708 10 MP stroke
/c115 { 0.654880 0.411813 0.476368 sr} bdef
c115
434 -606 434 244 434 1167 434 -447 434 456 434 -898 434 358 434 -770 
433 1551 655 643 10 MP stroke
/c116 { 0.388271 0.452057 0.026760 sr} bdef
c116
434 -487 434 119 434 -753 434 -348 434 1397 434 -366 434 91 434 128 
433 521 655 693 10 MP stroke
/c117 { 0.425286 0.105805 0.043111 sr} bdef
c117
434 -252 434 523 434 -930 434 -552 434 1471 434 244 434 146 434 -737 
433 841 655 701 10 MP stroke
/c118 { 0.556122 0.611287 0.738832 sr} bdef
c118
434 -381 434 -857 434 229 434 -205 434 952 434 -63 434 -101 434 199 
433 476 655 696 10 MP stroke
/c119 { 0.256919 0.726259 0.713253 sr} bdef
c119
434 -627 434 422 434 -198 434 -417 434 1088 434 -1133 434 712 434 -397 
433 1058 655 661 10 MP stroke
/c120 { 0.503765 0.892770 0.779385 sr} bdef
c120
434 -223 434 -234 434 -261 434 -905 434 1653 434 48 434 410 434 -726 
433 733 655 705 10 MP stroke
/c121 { 0.494860 0.761507 0.667045 sr} bdef
c121
434 -416 434 -690 434 177 434 -582 434 1378 434 -166 434 -113 434 -251 
433 906 655 675 10 MP stroke
/c122 { 0.978112 0.117071 0.869323 sr} bdef
c122
434 -416 434 -690 434 177 434 -582 434 1378 434 -166 434 -113 434 -251 
433 906 655 675 10 MP stroke
/c123 { 0.567855 0.120151 0.970329 sr} bdef
c123
434 -645 434 810 434 -255 434 -1927 434 2429 434 -627 434 282 434 -703 
433 1163 655 669 10 MP stroke
/c124 { 0.839967 0.062317 0.278073 sr} bdef
c124
434 -228 434 -701 434 59 434 -60 434 867 434 -59 434 -237 434 53 
433 728 655 682 10 MP stroke
/c125 { 0.409630 0.626809 0.919103 sr} bdef
c125
434 -319 434 -354 434 748 434 -1781 434 1888 434 -279 434 240 434 -175 
433 568 655 701 10 MP stroke
/c126 { 0.415152 0.711500 0.970875 sr} bdef
c126
434 -511 434 -44 434 1218 434 -1398 434 1828 434 -750 434 183 434 -29 
433 503 655 709 10 MP stroke
/c127 { 0.435472 0.635382 0.901555 sr} bdef
c127
434 -411 434 858 434 -406 434 -213 434 693 434 -645 434 737 434 -397 
433 762 655 691 10 MP stroke
/c128 { 0.871584 0.142716 0.200598 sr} bdef
c128
434 -962 434 1231 434 -256 434 -111 434 754 434 -803 434 66 434 773 
433 190 655 707 10 MP stroke
/c129 { 0.620928 0.775029 0.246811 sr} bdef
c129
434 -787 434 -10 434 936 434 -1595 434 2128 434 -664 434 57 434 -28 
433 575 655 700 10 MP stroke
/c130 { 0.369452 0.341097 0.456390 sr} bdef
c130
434 832 434 -834 434 -63 434 -417 434 1321 434 -257 434 527 434 -1380 
433 1411 655 674 10 MP stroke
/c131 { 0.170824 0.745606 0.097978 sr} bdef
c131
434 -361 434 -307 434 -99 434 -425 434 1200 434 -280 434 22 434 -115 
433 778 655 681 10 MP stroke
/c132 { 0.890269 0.082094 0.781523 sr} bdef
c132
434 -787 434 -10 434 936 434 -1595 434 2128 434 -664 434 57 434 -28 
433 575 655 700 10 MP stroke
/c133 { 0.848678 0.450877 0.605325 sr} bdef
c133
434 -252 434 523 434 -930 434 -552 434 1471 434 244 434 146 434 -737 
433 841 655 701 10 MP stroke
/c134 { 0.354470 0.759095 0.589441 sr} bdef
c134
434 -577 434 773 434 -548 434 -659 434 1315 434 -194 434 -39 434 322 
433 318 655 709 10 MP stroke
/c135 { 0.611570 0.843171 0.456988 sr} bdef
c135
434 315 434 -347 434 -213 434 -158 434 771 434 -589 434 496 434 -547 
433 1111 655 665 10 MP stroke
/c136 { 0.882790 0.493573 0.622851 sr} bdef
c136
434 37 434 48 434 -1897 434 1034 434 1096 434 -409 434 238 434 -813 
433 1201 655 672 10 MP stroke
/c137 { 0.562165 0.721661 0.546770 sr} bdef
c137
434 -110 434 -902 434 683 434 -704 434 1296 434 -978 434 21 434 -362 
433 1455 655 632 10 MP stroke
/c138 { 0.784441 0.446353 0.911908 sr} bdef
c138
434 -471 434 717 434 -1148 434 -225 434 1344 434 240 434 -527 434 839 
433 -120 655 736 10 MP stroke
/c139 { 0.086587 0.998937 0.727581 sr} bdef
c139
434 -228 434 -701 434 59 434 -60 434 867 434 -59 434 -237 434 53 
433 728 655 682 10 MP stroke
/c140 { 0.558407 0.142824 0.837637 sr} bdef
c140
434 -535 434 -767 434 1501 434 -1782 434 1646 434 -569 434 185 434 -27 
433 716 655 681 10 MP stroke
/c141 { 0.725247 0.417380 0.273171 sr} bdef
c141
434 -308 434 803 434 -1045 434 -356 434 1301 434 -302 434 -103 434 464 
433 306 655 706 10 MP stroke
/c142 { 0.314708 0.581696 0.689358 sr} bdef
c142
434 -217 434 -725 434 -745 434 1256 434 529 434 -637 434 560 434 -810 
433 1154 655 671 10 MP stroke
/c143 { 0.863868 0.210859 0.506752 sr} bdef
c143
434 -328 434 -918 434 359 434 -555 434 1230 434 -365 434 -248 434 52 
433 938 655 661 10 MP stroke
/c144 { 0.425050 0.239700 0.757523 sr} bdef
c144
434 -621 434 263 434 -338 434 -913 434 1682 434 -193 434 267 434 -261 
433 549 655 705 10 MP stroke
/c145 { 0.791912 0.385880 0.318054 sr} bdef
c145
434 -119 434 -2057 434 1564 434 -1185 434 1472 434 -492 434 -83 434 -635 
433 1518 655 633 10 MP stroke
/c146 { 0.480925 0.278506 0.158036 sr} bdef
c146
434 -234 434 -301 434 98 434 -1528 434 1796 434 -354 434 -372 434 194 
433 939 655 657 10 MP stroke
/c147 { 0.395408 0.285456 0.243051 sr} bdef
c147
434 1353 434 -455 434 -555 434 -587 434 1194 434 -380 434 366 434 -16 
433 485 655 707 10 MP stroke
/c148 { 0.642520 0.956924 0.186336 sr} bdef
c148
434 -400 434 -624 434 -318 434 310 434 991 434 -420 434 -86 434 -375 
433 1166 655 657 10 MP stroke
/c149 { 0.909517 0.568740 0.193516 sr} bdef
c149
434 -328 434 -918 434 359 434 -555 434 1230 434 -365 434 -248 434 52 
433 938 655 661 10 MP stroke
/c150 { 0.704238 0.651579 0.331897 sr} bdef
c150
434 -347 434 245 434 -452 434 403 434 512 434 -467 434 270 434 -116 
433 735 655 686 10 MP stroke
/c151 { 0.521569 0.024763 0.022273 sr} bdef
c151
434 -192 434 -497 434 1125 434 -1733 434 1450 434 -919 434 326 434 -93 
433 1035 655 655 10 MP stroke
/c152 { 0.798524 0.107812 0.688807 sr} bdef
c152
434 -677 434 -714 434 1995 434 -2412 434 2100 434 -150 434 52 434 -473 
433 804 655 695 10 MP stroke
/c153 { 0.775026 0.791494 0.709469 sr} bdef
c153
434 942 434 -1555 434 547 434 -1102 434 1755 434 145 434 -424 434 -518 
433 1104 655 676 10 MP stroke
/c154 { 0.946538 0.298020 0.995821 sr} bdef
c154
434 1098 434 -1345 434 439 434 -734 434 1261 434 -569 434 414 434 -683 
433 1167 655 668 10 MP stroke
/c155 { 0.554447 0.656088 0.945349 sr} bdef
c155
434 -361 434 -307 434 -99 434 -425 434 1200 434 -280 434 22 434 -115 
433 778 655 681 10 MP stroke
/c156 { 0.224637 0.981518 0.170622 sr} bdef
c156
434 -416 434 -690 434 177 434 -582 434 1378 434 -166 434 -113 434 -251 
433 906 655 675 10 MP stroke
/c157 { 0.941060 0.956960 0.175015 sr} bdef
c157
434 -143 434 327 434 -180 434 -1778 434 1927 434 -440 434 -335 434 512 
433 637 655 675 10 MP stroke
/c158 { 0.054310 0.268208 0.546010 sr} bdef
c158
434 1098 434 -1345 434 439 434 -734 434 1261 434 -569 434 414 434 -683 
433 1167 655 668 10 MP stroke
/c159 { 0.775186 0.603759 0.316096 sr} bdef
c159
434 -347 434 245 434 -452 434 403 434 512 434 -467 434 270 434 -116 
433 735 655 686 10 MP stroke
/c160 { 0.433353 0.842779 0.626133 sr} bdef
c160
434 -606 434 244 434 1167 434 -447 434 456 434 -898 434 358 434 -770 
433 1551 655 643 10 MP stroke
/c161 { 0.272548 0.514534 0.888401 sr} bdef
c161
434 -416 434 -690 434 177 434 -582 434 1378 434 -166 434 -113 434 -251 
433 906 655 675 10 MP stroke
/c162 { 0.174296 0.820068 0.181192 sr} bdef
c162
434 -228 434 -701 434 59 434 -60 434 867 434 -59 434 -237 434 53 
433 728 655 682 10 MP stroke
/c163 { 0.097264 0.031315 0.010176 sr} bdef
c163
434 -328 434 -918 434 359 434 -555 434 1230 434 -365 434 -248 434 52 
433 938 655 661 10 MP stroke
/c164 { 0.967447 0.888038 0.049685 sr} bdef
c164
434 -518 434 -34 434 508 434 -1378 434 1826 434 -522 434 317 434 -1025 
433 1405 655 660 10 MP stroke
/c165 { 0.670207 0.976621 0.220266 sr} bdef
c165
434 -404 434 -1611 434 1545 434 -702 434 1063 434 -314 434 -21 434 34 
433 655 655 686 10 MP stroke
/c166 { 0.084059 0.358865 0.733183 sr} bdef
c166
434 -517 434 360 434 -261 434 11 434 633 434 -335 434 264 434 255 
433 316 655 709 10 MP stroke
/c167 { 0.602144 0.451371 0.912804 sr} bdef
c167
434 251 434 -202 434 15 434 -1117 434 1280 434 -699 434 1042 434 -968 
433 1145 655 671 10 MP stroke
/c168 { 0.003177 0.510080 0.144461 sr} bdef
c168
434 340 434 -277 434 -567 434 -107 434 1090 434 -647 434 723 434 -851 
433 1124 655 674 10 MP stroke
/c169 { 0.504650 0.568215 0.642170 sr} bdef
c169
434 1098 434 -929 434 -455 434 -339 434 1248 434 -344 434 469 434 -790 
433 1077 655 679 10 MP stroke
/c170 { 0.206934 0.340187 0.327474 sr} bdef
c170
434 -347 434 245 434 -452 434 403 434 512 434 -467 434 270 434 -116 
433 735 655 686 10 MP stroke
/c171 { 0.614965 0.591190 0.687924 sr} bdef
c171
434 -454 434 -280 434 730 434 -1777 434 1971 434 -333 434 306 434 -335 
433 661 655 698 10 MP stroke
/c172 { 0.166438 0.652227 0.768638 sr} bdef
c172
434 -423 434 -57 434 -754 434 -313 434 1424 434 -135 434 -544 434 790 
433 257 655 699 10 MP stroke
/c173 { 0.395766 0.396264 0.692120 sr} bdef
c173
434 -435 434 -1650 434 1983 434 -1964 434 2213 434 189 434 -570 434 -732 
433 1246 655 672 10 MP stroke
/c174 { 0.237673 0.948883 0.135752 sr} bdef
c174
434 1098 434 -1345 434 439 434 -734 434 1261 434 -569 434 414 434 -683 
433 1167 655 668 10 MP stroke
/c175 { 0.511515 0.041431 0.312410 sr} bdef
c175
434 -395 434 -1311 434 1708 434 -1663 434 1589 434 -609 434 213 434 -230 
433 930 655 668 10 MP stroke
/c176 { 0.321770 0.948322 0.207341 sr} bdef
c176
434 -535 434 -767 434 1501 434 -1782 434 1646 434 -569 434 185 434 -27 
433 716 655 681 10 MP stroke
/c177 { 0.489343 0.444675 0.820848 sr} bdef
c177
434 -119 434 -2057 434 1564 434 -1185 434 1472 434 -492 434 -83 434 -635 
433 1518 655 633 10 MP stroke
/c178 { 0.017480 0.788515 0.540790 sr} bdef
c178
434 -422 434 1408 434 -445 434 -668 434 899 434 -694 434 145 434 315 
433 613 655 685 10 MP stroke
/c179 { 0.045476 0.513850 0.445624 sr} bdef
c179
434 -454 434 -280 434 730 434 -1777 434 1971 434 -333 434 306 434 -335 
433 661 655 698 10 MP stroke
/c180 { 0.491365 0.659889 0.505370 sr} bdef
c180
434 -517 434 1587 434 -1470 434 -448 434 1346 434 25 434 -124 434 668 
433 -122 655 741 10 MP stroke
/c181 { 0.741860 0.943850 0.799325 sr} bdef
c181
434 -328 434 -918 434 359 434 -555 434 1230 434 -365 434 -248 434 52 
433 938 655 661 10 MP stroke
/c182 { 0.437726 0.090313 0.933568 sr} bdef
c182
434 -454 434 -280 434 730 434 -1777 434 1971 434 -333 434 306 434 -335 
433 661 655 698 10 MP stroke
/c183 { 0.378376 0.758922 0.803793 sr} bdef
c183
434 -113 434 -678 434 1218 434 -1742 434 1448 434 -843 434 204 434 -13 
433 1012 655 655 10 MP stroke
/c184 { 0.804236 0.595794 0.324987 sr} bdef
c184
434 -164 434 -683 434 -154 434 72 434 875 434 -181 434 -291 434 442 
433 477 655 690 10 MP stroke
/c185 { 0.748348 0.476472 0.515591 sr} bdef
c185
434 -419 434 -173 434 -244 434 -581 434 1420 434 -435 434 111 434 88 
433 578 655 690 10 MP stroke
/c186 { 0.480095 0.424017 0.176018 sr} bdef
c186
434 1128 434 -1239 434 111 434 -195 434 1204 434 -752 434 807 434 -1420 
433 1535 655 663 10 MP stroke
/c187 { 0.280557 0.877671 0.873855 sr} bdef
c187
434 -291 434 -1381 434 1882 434 -2070 434 2188 434 -423 434 -259 434 -624 
433 1355 655 655 10 MP stroke
/c188 { 0.489587 0.606282 0.717687 sr} bdef
c188
434 -361 434 -307 434 -99 434 -425 434 1200 434 -280 434 22 434 -115 
433 778 655 681 10 MP stroke
/c189 { 0.140023 0.583054 0.195000 sr} bdef
c189
434 -423 434 114 434 277 434 -1667 434 1987 434 -225 434 267 434 -187 
433 466 655 711 10 MP stroke
/c190 { 0.063338 0.063902 0.939866 sr} bdef
c190
434 -240 434 -788 434 -396 434 -42 434 1062 434 -281 434 -328 434 438 
433 636 655 673 10 MP stroke
/c191 { 0.520184 0.150116 0.646592 sr} bdef
c191
434 -404 434 -1611 434 1545 434 -702 434 1063 434 -314 434 -21 434 34 
433 655 655 686 10 MP stroke
/c192 { 0.583782 0.312334 0.672144 sr} bdef
c192
434 -621 434 263 434 -338 434 -913 434 1682 434 -193 434 267 434 -261 
433 549 655 705 10 MP stroke
/c193 { 0.397056 0.219516 0.240821 sr} bdef
c193
434 -535 434 -767 434 1501 434 -1782 434 1646 434 -569 434 185 434 -27 
433 716 655 681 10 MP stroke
/c194 { 0.386376 0.033501 0.346723 sr} bdef
c194
434 -552 434 547 434 -476 434 -1298 434 1664 434 -105 434 222 434 -372 
433 796 655 686 10 MP stroke
/c195 { 0.552042 0.558440 0.066815 sr} bdef
c195
434 -217 434 -725 434 -745 434 1256 434 529 434 -637 434 560 434 -810 
433 1154 655 671 10 MP stroke
/c196 { 0.581940 0.475858 0.661935 sr} bdef
c196
434 -234 434 -301 434 98 434 -1528 434 1796 434 -354 434 -372 434 194 
433 939 655 657 10 MP stroke
/c197 { 0.786098 0.190028 0.961509 sr} bdef
c197
434 -202 434 -614 434 -1059 434 999 434 914 434 67 434 -146 434 -1040 
433 1431 655 663 10 MP stroke
/c198 { 0.535061 0.914518 0.645664 sr} bdef
c198
434 -313 434 -363 434 -1144 434 782 434 865 434 -255 434 781 434 -1059 
433 984 655 691 10 MP stroke
/c199 { 0.153469 0.052182 0.015051 sr} bdef
c199
434 -119 434 -2057 434 1564 434 -1185 434 1472 434 -492 434 -83 434 -635 
433 1518 655 633 10 MP stroke
/c200 { 0.196363 0.527712 0.147672 sr} bdef
c200
434 1128 434 -1239 434 111 434 -195 434 1204 434 -752 434 807 434 -1420 
433 1535 655 663 10 MP stroke
/c201 { 0.073134 0.554839 0.981283 sr} bdef
c201
434 -568 434 145 434 363 434 -1591 434 1876 434 -622 434 436 434 -1286 
433 1707 655 641 10 MP stroke
/c202 { 0.162861 0.156598 0.163671 sr} bdef
c202
434 -202 434 -614 434 -1059 434 999 434 914 434 67 434 -146 434 -1040 
433 1431 655 663 10 MP stroke
/c203 { 0.078490 0.718401 0.446265 sr} bdef
c203
434 -487 434 119 434 -753 434 -348 434 1397 434 -366 434 91 434 128 
433 521 655 693 10 MP stroke
/c204 { 0.510119 0.605144 0.883071 sr} bdef
c204
434 -347 434 245 434 -452 434 403 434 512 434 -467 434 270 434 -116 
433 735 655 686 10 MP stroke
/c205 { 0.121916 0.290255 0.062342 sr} bdef
c205
434 -549 434 181 434 -974 434 886 434 676 434 -324 434 -43 434 -329 
433 997 655 673 10 MP stroke
/c206 { 0.143533 0.067965 0.185087 sr} bdef
c206
434 69 434 53 434 -235 434 107 434 772 434 -533 434 338 434 132 
433 374 655 711 10 MP stroke
/c207 { 0.768677 0.897677 0.518272 sr} bdef
c207
434 52 434 -55 434 -364 434 -747 434 1405 434 176 434 -169 434 -209 
433 694 655 697 10 MP stroke
gr

c207

end %%Color Dict

eplot
%%EndObject

epage
end

showpage

%%Trailer
%%EOF
