%!PS-Adobe-3.0 EPSF-3.0
%%Creator: MATLAB, The MathWorks, Inc. Version 7.13.0.564 (R2011b). Operating System: Microsoft Windows XP.
%%Title: D:\DriveG\Sem2-2012\Program\ReferenceMetric-v3\metricfig\zdt1\zdt1-rnsgaii.eps
%%CreationDate: 02/27/2013  12:26:15
%%DocumentNeededFonts: Helvetica
%%+ Courier-Bold
%%+ Courier
%%DocumentProcessColors: Cyan Magenta Yellow Black
%%LanguageLevel: 2
%%Pages: 1
%%BoundingBox:  -329    79   926   761
%%EndComments

%%BeginProlog
% MathWorks dictionary
/MathWorks 160 dict begin
% definition operators
/bdef {bind def} bind def
/ldef {load def} bind def
/xdef {exch def} bdef
/xstore {exch store} bdef
% operator abbreviations
/c  /clip ldef
/cc /concat ldef
/cp /closepath ldef
/gr /grestore ldef
/gs /gsave ldef
/mt /moveto ldef
/np /newpath ldef
/cm /currentmatrix ldef
/sm /setmatrix ldef
/rm /rmoveto ldef
/rl /rlineto ldef
/s {show newpath} bdef
/sc {setcmykcolor} bdef
/sr /setrgbcolor ldef
/sg /setgray ldef
/w /setlinewidth ldef
/j /setlinejoin ldef
/cap /setlinecap ldef
/rc {rectclip} bdef
/rf {rectfill} bdef
% page state control
/pgsv () def
/bpage {/pgsv save def} bdef
/epage {pgsv restore} bdef
/bplot /gsave ldef
/eplot {stroke grestore} bdef
% orientation switch
/portraitMode 0 def /landscapeMode 1 def /rotateMode 2 def
% coordinate system mappings
/dpi2point 0 def
% font control
/FontSize 0 def
/FMS {/FontSize xstore findfont [FontSize 0 0 FontSize neg 0 0]
  makefont setfont} bdef
/ISOLatin1Encoding where {pop /WindowsLatin1Encoding 256 array bdef
ISOLatin1Encoding WindowsLatin1Encoding copy pop
/.notdef/.notdef/quotesinglbase/florin/quotedblbase/ellipsis/dagger
/daggerdbl/circumflex/perthousand/Scaron/guilsinglleft/OE/.notdef/.notdef
/.notdef/.notdef/quoteleft/quoteright/quotedblleft/quotedblright/bullet
/endash/emdash/tilde/trademark/scaron/guilsinglright/oe/.notdef/.notdef
/Ydieresis WindowsLatin1Encoding 128 32 getinterval astore pop}
{/WindowsLatin1Encoding StandardEncoding bdef} ifelse
/reencode {exch dup where {pop load} {pop StandardEncoding} ifelse
  exch dup 3 1 roll findfont dup length dict begin
  { 1 index /FID ne {def}{pop pop} ifelse } forall
  /Encoding exch def currentdict end definefont pop} bdef
/isroman {findfont /CharStrings get /Agrave known} bdef
/FMSR {3 1 roll 1 index dup isroman {reencode} {pop pop} ifelse
  exch FMS} bdef
/csm {1 dpi2point div -1 dpi2point div scale neg translate
 dup landscapeMode eq {pop -90 rotate}
  {rotateMode eq {90 rotate} if} ifelse} bdef
% line types: solid, dotted, dashed, dotdash
/SO { [] 0 setdash } bdef
/DO { [.5 dpi2point mul 4 dpi2point mul] 0 setdash } bdef
/DA { [6 dpi2point mul] 0 setdash } bdef
/DD { [.5 dpi2point mul 4 dpi2point mul 6 dpi2point mul 4
  dpi2point mul] 0 setdash } bdef
% macros for lines and objects
/L {lineto stroke} bdef
/MP {3 1 roll moveto 1 sub {rlineto} repeat} bdef
/AP {{rlineto} repeat} bdef
/PDlw -1 def
/W {/PDlw currentlinewidth def setlinewidth} def
/PP {closepath eofill} bdef
/DP {closepath stroke} bdef
/MR {4 -2 roll moveto dup  0 exch rlineto exch 0 rlineto
  neg 0 exch rlineto closepath} bdef
/FR {MR stroke} bdef
/PR {MR fill} bdef
/L1i {{currentfile picstr readhexstring pop} image} bdef
/tMatrix matrix def
/MakeOval {newpath tMatrix currentmatrix pop translate scale
0 0 1 0 360 arc tMatrix setmatrix} bdef
/FO {MakeOval stroke} bdef
/PO {MakeOval fill} bdef
/PD {currentlinewidth 2 div 0 360 arc fill
   PDlw -1 eq not {PDlw w /PDlw -1 def} if} def
/FA {newpath tMatrix currentmatrix pop translate scale
  0 0 1 5 -2 roll arc tMatrix setmatrix stroke} bdef
/PA {newpath tMatrix currentmatrix pop	translate 0 0 moveto scale
  0 0 1 5 -2 roll arc closepath tMatrix setmatrix fill} bdef
/FAn {newpath tMatrix currentmatrix pop translate scale
  0 0 1 5 -2 roll arcn tMatrix setmatrix stroke} bdef
/PAn {newpath tMatrix currentmatrix pop translate 0 0 moveto scale
  0 0 1 5 -2 roll arcn closepath tMatrix setmatrix fill} bdef
/vradius 0 def /hradius 0 def /lry 0 def
/lrx 0 def /uly 0 def /ulx 0 def /rad 0 def
/MRR {/vradius xdef /hradius xdef /lry xdef /lrx xdef /uly xdef
  /ulx xdef newpath tMatrix currentmatrix pop ulx hradius add uly
  vradius add translate hradius vradius scale 0 0 1 180 270 arc 
  tMatrix setmatrix lrx hradius sub uly vradius add translate
  hradius vradius scale 0 0 1 270 360 arc tMatrix setmatrix
  lrx hradius sub lry vradius sub translate hradius vradius scale
  0 0 1 0 90 arc tMatrix setmatrix ulx hradius add lry vradius sub
  translate hradius vradius scale 0 0 1 90 180 arc tMatrix setmatrix
  closepath} bdef
/FRR {MRR stroke } bdef
/PRR {MRR fill } bdef
/MlrRR {/lry xdef /lrx xdef /uly xdef /ulx xdef /rad lry uly sub 2 div def
  newpath tMatrix currentmatrix pop ulx rad add uly rad add translate
  rad rad scale 0 0 1 90 270 arc tMatrix setmatrix lrx rad sub lry rad
  sub translate rad rad scale 0 0 1 270 90 arc tMatrix setmatrix
  closepath} bdef
/FlrRR {MlrRR stroke } bdef
/PlrRR {MlrRR fill } bdef
/MtbRR {/lry xdef /lrx xdef /uly xdef /ulx xdef /rad lrx ulx sub 2 div def
  newpath tMatrix currentmatrix pop ulx rad add uly rad add translate
  rad rad scale 0 0 1 180 360 arc tMatrix setmatrix lrx rad sub lry rad
  sub translate rad rad scale 0 0 1 0 180 arc tMatrix setmatrix
  closepath} bdef
/FtbRR {MtbRR stroke } bdef
/PtbRR {MtbRR fill } bdef
/stri 6 array def /dtri 6 array def
/smat 6 array def /dmat 6 array def
/tmat1 6 array def /tmat2 6 array def /dif 3 array def
/asub {/ind2 exch def /ind1 exch def dup dup
  ind1 get exch ind2 get sub exch } bdef
/tri_to_matrix {
  2 0 asub 3 1 asub 4 0 asub 5 1 asub
  dup 0 get exch 1 get 7 -1 roll astore } bdef
/compute_transform {
  dmat dtri tri_to_matrix tmat1 invertmatrix 
  smat stri tri_to_matrix tmat2 concatmatrix } bdef
/ds {stri astore pop} bdef
/dt {dtri astore pop} bdef
/db {2 copy /cols xdef /rows xdef mul dup 3 mul string
  currentfile 
  3 index 0 eq {/ASCIIHexDecode filter}
  {/ASCII85Decode filter 3 index 2 eq {/RunLengthDecode filter} if }
  ifelse exch readstring pop
  dup 0 3 index getinterval /rbmap xdef
  dup 2 index dup getinterval /gbmap xdef
  1 index dup 2 mul exch getinterval /bbmap xdef pop pop}bdef
/it {gs np dtri aload pop moveto lineto lineto cp c
  cols rows 8 compute_transform 
  rbmap gbmap bbmap true 3 colorimage gr}bdef
/il {newpath moveto lineto stroke}bdef
currentdict end def
%%EndProlog

%%BeginSetup
MathWorks begin

0 cap

end
%%EndSetup

%%Page: 1 1
%%BeginPageSetup
%%PageBoundingBox:  -329    79   926   761
MathWorks begin
bpage
%%EndPageSetup

%%BeginObject: obj1
bplot

/dpi2point 12 def
portraitMode -3948 9132 csm

    0     0 15060  8176 rc
86 dict begin %Colortable dictionary
/c0 { 0.000000 0.000000 0.000000 sr} bdef
/c1 { 1.000000 1.000000 1.000000 sr} bdef
/c2 { 0.900000 0.000000 0.000000 sr} bdef
/c3 { 0.000000 0.820000 0.000000 sr} bdef
/c4 { 0.000000 0.000000 0.800000 sr} bdef
/c5 { 0.910000 0.820000 0.320000 sr} bdef
/c6 { 1.000000 0.260000 0.820000 sr} bdef
/c7 { 0.000000 0.820000 0.820000 sr} bdef
c0
1 j
1 sg
   0    0 15061 8177 rf
6 w
0 7408 11357 0 0 -7408 1973 7703 4 MP
PP
-11357 0 0 7408 11357 0 0 -7408 1973 7703 5 MP stroke
4 w
DO
SO
6 w
0 sg
1973  295 mt 13330  295 L
1973 7703 mt 13330 7703 L
13330 7703 mt 13330  295 L
1973 7703 mt 1973  295 L
1973 7703 mt 13330 7703 L
1973 7703 mt 1973  295 L
1973 7703 mt 1973 7589 L
1973  295 mt 1973  408 L
%%IncludeResource: font Helvetica
/Helvetica /WindowsLatin1Encoding 192 FMSR

1920 7915 mt 
(0) s
3108 7703 mt 3108 7589 L
3108  295 mt 3108  408 L
2975 7915 mt 
(0.1) s
4244 7703 mt 4244 7589 L
4244  295 mt 4244  408 L
4111 7915 mt 
(0.2) s
5380 7703 mt 5380 7589 L
5380  295 mt 5380  408 L
5247 7915 mt 
(0.3) s
6515 7703 mt 6515 7589 L
6515  295 mt 6515  408 L
6382 7915 mt 
(0.4) s
7651 7703 mt 7651 7589 L
7651  295 mt 7651  408 L
7518 7915 mt 
(0.5) s
8787 7703 mt 8787 7589 L
8787  295 mt 8787  408 L
8654 7915 mt 
(0.6) s
9922 7703 mt 9922 7589 L
9922  295 mt 9922  408 L
9789 7915 mt 
(0.7) s
11058 7703 mt 11058 7589 L
11058  295 mt 11058  408 L
10925 7915 mt 
(0.8) s
12194 7703 mt 12194 7589 L
12194  295 mt 12194  408 L
12061 7915 mt 
(0.9) s
13330 7703 mt 13330 7589 L
13330  295 mt 13330  408 L
13277 7915 mt 
(1) s
1973 7703 mt 2086 7703 L
13330 7703 mt 13216 7703 L
1832 7774 mt 
(0) s
1973 6962 mt 2086 6962 L
13330 6962 mt 13216 6962 L
1672 7033 mt 
(0.1) s
1973 6221 mt 2086 6221 L
13330 6221 mt 13216 6221 L
1672 6292 mt 
(0.2) s
1973 5480 mt 2086 5480 L
13330 5480 mt 13216 5480 L
1672 5551 mt 
(0.3) s
1973 4739 mt 2086 4739 L
13330 4739 mt 13216 4739 L
1672 4810 mt 
(0.4) s
1973 3999 mt 2086 3999 L
13330 3999 mt 13216 3999 L
1672 4070 mt 
(0.5) s
1973 3258 mt 2086 3258 L
13330 3258 mt 13216 3258 L
1672 3329 mt 
(0.6) s
1973 2517 mt 2086 2517 L
13330 2517 mt 13216 2517 L
1672 2588 mt 
(0.7) s
1973 1776 mt 2086 1776 L
13330 1776 mt 13216 1776 L
1672 1847 mt 
(0.8) s
1973 1035 mt 2086 1035 L
13330 1035 mt 13216 1035 L
1672 1106 mt 
(0.9) s
1973  295 mt 2086  295 L
13330  295 mt 13216  295 L
1832  366 mt 
(1) s
1973  295 mt 13330  295 L
1973 7703 mt 13330 7703 L
13330 7703 mt 13330  295 L
1973 7703 mt 1973  295 L
gs 1973 295 11358 7409 rc
27.6 w
/c8 { 0.000000 0.000000 1.000000 sr} bdef
c8
12 4 11 4 12 4 11 3 11 4 12 4 11 3 11 4 
12 4 11 4 11 3 12 4 11 4 11 4 12 3 11 4 
12 4 11 3 11 4 12 4 11 4 11 3 12 4 11 4 
11 4 12 3 11 4 11 4 12 4 11 3 12 4 11 4 
11 4 12 4 11 3 11 4 12 4 11 4 11 3 12 4 
11 4 11 4 12 4 11 3 12 4 11 4 11 4 12 3 
11 4 11 4 12 4 11 4 11 3 12 4 11 4 11 4 
12 4 11 4 12 3 11 4 11 4 12 4 11 4 11 3 
12 4 11 4 11 4 12 4 11 4 11 3 12 4 11 4 
12 4 11 4 11 4 12 4 11 3 11 4 12 4 11 4 
11 4 12 4 11 4 11 3 12 4 11 4 12 4 11 4 
11 4 12 4 11 4 11 3 12 4 11 4 11 4 12 4 
11 4 11 4 12 4 11 4 12 4 11 3 11 4 12 4 
11 4 11 4 12 4 11 4 11 4 12 4 11 4 11 4 
12 4 11 4 12 3 11 4 11 4 12 4 11 4 11 4 
12 4 11 4 11 4 12 4 11 4 11 4 12 4 11 4 
12 4 11 4 11 4 12 4 11 4 11 4 12 4 11 4 
11 4 12 4 11 4 11 4 12 4 11 4 12 4 11 4 
11 4 12 4 11 4 11 4 12 4 11 4 11 4 12 4 
11 4 11 4 12 4 11 4 12 4 11 4 11 4 12 4 
11 4 11 4 12 4 11 4 11 4 12 4 11 4 11 4 
12 4 11 4 12 5 11 4 11 4 12 4 11 4 11 4 
12 4 11 4 11 4 12 4 11 4 11 4 12 5 11 4 
12 4 11 4 11 4 12 4 11 4 11 4 12 4 11 5 
11 4 12 4 11 4 11 4 12 4 11 4 12 4 11 5 
11 4 12 4 11 4 11 4 12 4 11 4 11 5 12 4 
11 4 11 4 12 4 11 4 12 5 11 4 11 4 12 4 
11 4 11 5 12 4 11 4 11 4 12 4 11 5 11 4 
12 4 11 4 12 4 11 5 11 4 12 4 11 4 11 4 
12 5 11 4 11 4 12 4 11 5 11 4 12 4 11 4 
12 5 11 4 11 4 12 4 11 5 11 4 12 4 11 4 
11 5 12 4 11 4 11 5 12 4 11 4 12 4 11 5 
11 4 12 4 11 5 11 4 12 4 11 5 11 4 12 4 
11 4 11 5 12 4 11 4 12 5 11 4 11 4 12 5 
11 4 11 4 12 5 11 4 11 5 12 4 11 4 11 5 
12 4 11 4 12 5 11 4 11 4 12 5 11 4 11 5 
12 4 11 4 11 5 12 4 11 5 11 4 12 4 11 5 
12 4 11 5 11 4 9934 6497 300 MP stroke
12 5 11 4 11 4 12 5 11 4 11 5 12 4 11 5 
11 4 12 4 11 5 12 4 11 5 11 4 12 5 11 4 
11 5 12 4 11 5 11 4 12 5 11 4 11 5 12 4 
11 5 12 4 11 5 11 4 12 5 11 4 11 5 12 4 
11 5 11 4 12 5 11 4 11 5 12 5 11 4 12 5 
11 4 11 5 12 4 11 5 11 4 12 5 11 5 11 4 
12 5 11 4 11 5 12 5 11 4 12 5 11 4 11 5 
12 5 11 4 11 5 12 4 11 5 11 5 12 4 11 5 
11 5 12 4 11 5 12 5 11 4 11 5 12 5 11 4 
11 5 12 5 11 4 11 5 12 5 11 4 11 5 12 5 
11 4 12 5 11 5 11 5 12 4 11 5 11 5 12 4 
11 5 11 5 12 5 11 4 11 5 12 5 11 5 12 4 
11 5 11 5 12 5 11 5 11 4 12 5 11 5 11 5 
12 4 11 5 11 5 12 5 11 5 12 4 11 5 11 5 
12 5 11 5 11 5 12 4 11 5 11 5 12 5 11 5 
11 5 12 5 11 4 12 5 11 5 11 5 12 5 11 5 
11 5 12 5 11 5 11 4 12 5 11 5 11 5 12 5 
11 5 12 5 11 5 11 5 12 5 11 5 11 5 12 5 
11 5 11 5 12 5 11 5 11 5 12 5 11 5 12 5 
11 5 11 5 12 5 11 5 11 5 12 5 11 5 11 5 
12 5 11 5 11 5 12 5 11 5 12 5 11 5 11 5 
12 5 11 5 11 5 12 5 11 6 11 5 12 5 11 5 
11 5 12 5 11 5 12 5 11 6 11 5 12 5 11 5 
11 5 12 5 11 5 11 6 12 5 11 5 11 5 12 5 
11 6 12 5 11 5 11 5 12 5 11 6 11 5 12 5 
11 5 11 5 12 6 11 5 11 5 12 6 11 5 11 5 
12 5 11 6 12 5 11 5 11 5 12 6 11 5 11 5 
12 6 11 5 11 5 12 6 11 5 11 5 12 6 11 5 
12 6 11 5 11 5 12 6 11 5 11 5 12 6 11 5 
11 6 12 5 11 5 11 6 12 5 11 6 12 5 11 6 
11 5 12 6 11 5 11 6 12 5 11 6 11 5 12 6 
11 5 11 6 12 5 11 6 12 5 11 6 11 5 12 6 
11 5 11 6 12 5 11 6 11 6 12 5 11 6 11 5 
12 6 11 6 12 5 11 6 11 5 12 6 11 6 11 5 
12 6 11 6 11 5 12 6 11 6 11 5 12 6 11 6 
12 6 11 5 11 6 12 6 11 5 11 6 12 6 11 6 
11 6 12 5 11 6 11 6 12 6 11 5 12 6 11 6 
11 6 12 6 11 6 6538 4991 300 MP stroke
11 5 12 6 11 6 11 6 12 6 11 6 11 6 12 6 
11 5 12 6 11 6 11 6 12 6 11 6 11 6 12 6 
11 6 11 6 12 6 11 6 11 6 12 6 11 6 12 6 
11 6 11 6 12 6 11 6 11 6 12 6 11 6 11 6 
12 6 11 7 11 6 12 6 11 6 12 6 11 6 11 6 
12 7 11 6 11 6 12 6 11 6 11 6 12 7 11 6 
11 6 12 6 11 7 12 6 11 6 11 6 12 7 11 6 
11 6 12 7 11 6 11 6 12 7 11 6 11 6 12 7 
11 6 12 6 11 7 11 6 12 7 11 6 11 6 12 7 
11 6 11 7 12 6 11 7 11 6 12 7 11 6 12 7 
11 6 11 7 12 6 11 7 11 7 12 6 11 7 11 6 
12 7 11 7 11 6 12 7 11 7 12 6 11 7 11 7 
12 6 11 7 11 7 12 6 11 7 11 7 12 7 11 7 
11 6 12 7 11 7 12 7 11 7 11 6 12 7 11 7 
11 7 12 7 11 7 11 7 12 7 11 7 11 7 12 7 
11 7 12 7 11 7 11 7 12 7 11 7 11 7 12 7 
11 7 11 7 12 7 11 7 11 7 12 7 11 8 12 7 
11 7 11 7 12 7 11 8 11 7 12 7 11 7 11 8 
12 7 11 7 11 8 12 7 11 7 12 8 11 7 11 7 
12 8 11 7 11 8 12 7 11 8 11 7 12 8 11 7 
11 8 12 7 11 8 12 7 11 8 11 8 12 7 11 8 
11 8 12 7 11 8 11 8 12 7 11 8 11 8 12 8 
11 8 12 7 11 8 11 8 12 8 11 8 11 8 12 8 
11 8 11 8 12 8 11 8 11 8 12 8 11 8 12 8 
11 8 11 8 12 8 11 8 11 8 12 9 11 8 11 8 
12 8 11 9 11 8 12 8 11 8 12 9 11 8 11 9 
12 8 11 8 11 9 12 8 11 9 11 8 12 9 11 9 
11 8 12 9 11 8 12 9 11 9 11 9 12 8 11 9 
11 9 12 9 11 9 11 8 12 9 11 9 11 9 12 9 
11 9 12 9 11 9 11 9 12 9 11 9 11 10 12 9 
11 9 11 9 12 10 11 9 11 9 12 10 11 9 12 9 
11 10 11 9 12 10 11 9 11 10 12 10 11 9 11 10 
12 10 11 9 11 10 12 10 11 10 12 10 11 10 11 10 
12 10 11 10 11 10 12 10 11 10 11 10 12 10 11 11 
11 10 12 10 11 11 12 10 11 10 11 11 12 10 11 11 
11 11 12 10 11 11 11 11 12 11 11 10 11 11 12 11 
11 11 12 11 11 11 11 12 12 11 11 11 11 11 12 12 
11 11 11 11 12 12 3142 2672 300 MP stroke
11 12 11 11 12 12 11 12 12 11 11 12 11 12 12 12 
11 12 11 12 12 13 11 12 11 12 12 12 11 13 11 12 
12 13 11 13 12 12 11 13 11 13 12 13 11 13 11 13 
12 14 11 13 11 13 12 14 11 13 11 14 12 14 11 14 
12 14 11 14 11 14 12 14 11 14 11 15 12 14 11 15 
11 15 12 15 11 15 11 15 12 15 11 16 12 15 11 16 
11 16 12 16 11 16 11 17 12 16 11 17 11 16 12 17 
11 18 11 17 12 18 11 17 12 18 11 18 11 19 12 19 
11 18 11 20 12 19 11 20 11 20 12 20 11 20 11 21 
12 21 11 22 12 22 11 22 11 23 12 23 11 24 11 24 
12 25 11 25 11 26 12 26 11 28 11 28 12 28 11 30 
12 31 11 32 11 33 12 35 11 36 11 38 12 40 11 43 
11 46 12 50 11 55 11 63 12 74 11 97 11 234 1973 295 104 MP stroke
48 w
gs 8653 5906 2176 1008 rc
/c9 { 0.000000 1.000000 1.000000 sr} bdef
c9
  36   36 8775 6028 FO
  36   36 8787 6033 FO
  36   36 8798 6037 FO
  36   36 8809 6042 FO
  36   36 8821 6047 FO
  36   36 8832 6052 FO
  36   36 8843 6057 FO
  36   36 8855 6061 FO
  36   36 8866 6066 FO
  36   36 8878 6071 FO
  36   36 8889 6076 FO
  36   36 8900 6080 FO
  36   36 8912 6085 FO
  36   36 8923 6090 FO
  36   36 8934 6095 FO
  36   36 8946 6099 FO
  36   36 8957 6104 FO
  36   36 8968 6109 FO
  36   36 8980 6113 FO
  36   36 8991 6118 FO
  36   36 9002 6123 FO
  36   36 9014 6128 FO
  36   36 9025 6132 FO
  36   36 9037 6137 FO
  36   36 9048 6142 FO
  36   36 9059 6146 FO
  36   36 9071 6151 FO
  36   36 9082 6156 FO
  36   36 9093 6160 FO
  36   36 9105 6165 FO
  36   36 9116 6170 FO
  36   36 9127 6174 FO
  36   36 9139 6179 FO
  36   36 9150 6184 FO
  36   36 9161 6188 FO
  36   36 9173 6193 FO
  36   36 9184 6198 FO
  36   36 9196 6202 FO
  36   36 9207 6207 FO
  36   36 9218 6212 FO
  36   36 9230 6216 FO
  36   36 9241 6221 FO
  36   36 9252 6226 FO
  36   36 9264 6230 FO
  36   36 9275 6235 FO
  36   36 9286 6239 FO
  36   36 9298 6244 FO
  36   36 9309 6249 FO
  36   36 9320 6253 FO
  36   36 9332 6258 FO
  36   36 9343 6262 FO
  36   36 9355 6267 FO
  36   36 9366 6272 FO
  36   36 9377 6276 FO
  36   36 9389 6281 FO
  36   36 9400 6285 FO
  36   36 9411 6290 FO
  36   36 9423 6295 FO
  36   36 9434 6299 FO
  36   36 9445 6304 FO
  36   36 9457 6308 FO
  36   36 9468 6313 FO
  36   36 9479 6317 FO
  36   36 9491 6322 FO
  36   36 9502 6326 FO
  36   36 9514 6331 FO
  36   36 9525 6336 FO
  36   36 9536 6340 FO
  36   36 9548 6345 FO
  36   36 9559 6349 FO
  36   36 9570 6354 FO
  36   36 9582 6358 FO
  36   36 9593 6363 FO
  36   36 9604 6367 FO
  36   36 9616 6372 FO
  36   36 9627 6376 FO
  36   36 9638 6381 FO
  36   36 9650 6385 FO
  36   36 9661 6390 FO
  36   36 9673 6394 FO
  36   36 9684 6399 FO
  36   36 9695 6403 FO
  36   36 9707 6408 FO
  36   36 9718 6412 FO
  36   36 9729 6417 FO
  36   36 9741 6421 FO
  36   36 9752 6426 FO
  36   36 9763 6430 FO
  36   36 9775 6435 FO
  36   36 9786 6439 FO
  36   36 9797 6444 FO
  36   36 9809 6448 FO
  36   36 9820 6453 FO
  36   36 9832 6457 FO
  36   36 9843 6461 FO
  36   36 9854 6466 FO
  36   36 9866 6470 FO
  36   36 9877 6475 FO
  36   36 9888 6479 FO
  36   36 9900 6484 FO
  36   36 9911 6488 FO
  36   36 9922 6492 FO
  36   36 9934 6497 FO
  36   36 9945 6501 FO
  36   36 9956 6506 FO
  36   36 9968 6510 FO
  36   36 9979 6515 FO
  36   36 9991 6519 FO
  36   36 10002 6523 FO
  36   36 10013 6528 FO
  36   36 10025 6532 FO
  36   36 10036 6537 FO
  36   36 10047 6541 FO
  36   36 10059 6545 FO
  36   36 10070 6550 FO
  36   36 10081 6554 FO
  36   36 10093 6559 FO
  36   36 10104 6563 FO
  36   36 10115 6567 FO
  36   36 10127 6572 FO
  36   36 10138 6576 FO
  36   36 10150 6580 FO
  36   36 10161 6585 FO
  36   36 10172 6589 FO
  36   36 10184 6593 FO
  36   36 10195 6598 FO
  36   36 10206 6602 FO
  36   36 10218 6607 FO
  36   36 10229 6611 FO
  36   36 10240 6615 FO
  36   36 10252 6620 FO
  36   36 10263 6624 FO
  36   36 10274 6628 FO
  36   36 10286 6633 FO
  36   36 10297 6637 FO
  36   36 10309 6641 FO
  36   36 10320 6646 FO
  36   36 10331 6650 FO
  36   36 10343 6654 FO
  36   36 10354 6658 FO
  36   36 10365 6663 FO
  36   36 10377 6667 FO
  36   36 10388 6671 FO
  36   36 10399 6676 FO
  36   36 10411 6680 FO
  36   36 10422 6684 FO
  36   36 10433 6689 FO
  36   36 10445 6693 FO
  36   36 10456 6697 FO
  36   36 10468 6701 FO
  36   36 10479 6706 FO
  36   36 10490 6710 FO
  36   36 10502 6714 FO
  36   36 10513 6719 FO
  36   36 10524 6723 FO
  36   36 10536 6727 FO
  36   36 10547 6731 FO
  36   36 10558 6736 FO
  36   36 10570 6740 FO
  36   36 10581 6744 FO
  36   36 10592 6748 FO
  36   36 10604 6753 FO
  36   36 10615 6757 FO
  36   36 10627 6761 FO
  36   36 10638 6765 FO
  36   36 10649 6770 FO
  36   36 10661 6774 FO
  36   36 10672 6778 FO
  36   36 10683 6782 FO
  36   36 10695 6787 FO
  36   36 10706 6791 FO
gr

c9
gs 9359 6167 471 393 rc
0 j
0 -94 -94 0 0 94 94 0 9541 6314 5 MP
/c10 { 1.000000 0.000000 0.000000 sr} bdef
c10
gs
PP
gr
DP
0 -94 -94 0 0 94 94 0 9539 6313 5 MP
gs
PP
gr
DP
0 -94 -94 0 0 94 94 0 9536 6312 5 MP
gs
PP
gr
DP
0 -94 -94 0 0 94 94 0 9546 6316 5 MP
gs
PP
gr
DP
0 -94 -94 0 0 94 94 0 9550 6317 5 MP
gs
PP
gr
DP
0 -94 -94 0 0 94 94 0 9553 6318 5 MP
gs
PP
gr
DP
0 -94 -94 0 0 94 94 0 9526 6308 5 MP
gs
PP
gr
DP
0 -94 -94 0 0 94 94 0 9558 6320 5 MP
gs
PP
gr
DP
0 -94 -94 0 0 94 94 0 9560 6321 5 MP
gs
PP
gr
DP
0 -94 -94 0 0 94 94 0 9561 6322 5 MP
gs
PP
gr
DP
0 -94 -94 0 0 94 94 0 9564 6323 5 MP
gs
PP
gr
DP
0 -94 -94 0 0 94 94 0 9565 6323 5 MP
gs
PP
gr
DP
0 -94 -94 0 0 94 94 0 9536 6312 5 MP
gs
PP
gr
DP
0 -94 -94 0 0 94 94 0 9568 6324 5 MP
gs
PP
gr
DP
0 -94 -94 0 0 94 94 0 9536 6312 5 MP
gs
PP
gr
DP
0 -94 -94 0 0 94 94 0 9571 6326 5 MP
gs
PP
gr
DP
0 -94 -94 0 0 94 94 0 9506 6300 5 MP
gs
PP
gr
DP
0 -94 -94 0 0 94 94 0 9576 6328 5 MP
gs
PP
gr
DP
0 -94 -94 0 0 94 94 0 9546 6316 5 MP
gs
PP
gr
DP
0 -94 -94 0 0 94 94 0 9579 6329 5 MP
gs
PP
gr
DP
0 -94 -94 0 0 94 94 0 9546 6316 5 MP
gs
PP
gr
DP
0 -94 -94 0 0 94 94 0 9550 6317 5 MP
gs
PP
gr
DP
0 -94 -94 0 0 94 94 0 9583 6330 5 MP
gs
PP
gr
DP
0 -94 -94 0 0 94 94 0 9553 6318 5 MP
gs
PP
gr
DP
0 -94 -94 0 0 94 94 0 9585 6331 5 MP
gs
PP
gr
DP
0 -94 -94 0 0 94 94 0 9588 6332 5 MP
gs
PP
gr
DP
0 -94 -94 0 0 94 94 0 9526 6308 5 MP
gs
PP
gr
DP
0 -94 -94 0 0 94 94 0 9591 6334 5 MP
gs
PP
gr
DP
0 -94 -94 0 0 94 94 0 9526 6308 5 MP
gs
PP
gr
DP
0 -94 -94 0 0 94 94 0 9558 6320 5 MP
gs
PP
gr
DP
0 -94 -94 0 0 94 94 0 9593 6335 5 MP
gs
PP
gr
DP
0 -94 -94 0 0 94 94 0 9599 6337 5 MP
gs
PP
gr
DP
0 -94 -94 0 0 94 94 0 9558 6320 5 MP
gs
PP
gr
DP
0 -94 -94 0 0 94 94 0 9482 6290 5 MP
gs
PP
gr
DP
0 -94 -94 0 0 94 94 0 9561 6322 5 MP
gs
PP
gr
DP
0 -94 -94 0 0 94 94 0 9605 6339 5 MP
gs
PP
gr
DP
0 -94 -94 0 0 94 94 0 9607 6340 5 MP
gs
PP
gr
DP
0 -94 -94 0 0 94 94 0 9561 6322 5 MP
gs
PP
gr
DP
0 -94 -94 0 0 94 94 0 9612 6342 5 MP
gs
PP
gr
DP
0 -94 -94 0 0 94 94 0 9561 6322 5 MP
gs
PP
gr
DP
gr

c10
240 w
gs 9320 5619 1205 1205 rc
120 W
0 sg
9922 6221 PD
gr

0 sg
gr

240 w
%%IncludeResource: font Helvetica
/Helvetica /WindowsLatin1Encoding 120 FMSR

1956 7746 mt 
( ) s
13314  337 mt 
( ) s
6 w
1 sg
0 1128 4394 0 0 -1128 8736 1576 4 MP
PP
-4394 0 0 1128 4394 0 0 -1128 8736 1576 5 MP stroke
4 w
DO
SO
6 w
8736  448 mt 13130  448 L
8736 1576 mt 13130 1576 L
13130 1576 mt 13130  448 L
8736 1576 mt 8736  448 L
8736 1576 mt 13130 1576 L
8736 1576 mt 8736  448 L
8736  448 mt 13130  448 L
8736 1576 mt 13130 1576 L
13130 1576 mt 13130  448 L
8736 1576 mt 8736  448 L
0 sg
%%IncludeResource: font Courier
/Courier /WindowsLatin1Encoding 360 FMSR

9325  860 mt 
(Preferred Region) s
gs 8736 448 4395 1129 rc
48 w
gs 8931 620 245 245 rc
c9
  36   36 9053  742 FO
gr

c9
gr

48 w
c9
0 sg
9325 1399 mt 
(Obtained Solutions) s
gs 8736 448 4395 1129 rc
gs 8883 1111 341 341 rc
0 j
0 -94 -94 0 0 94 94 0 9006 1234 5 MP
c10
gs
PP
gr
DP
gr

c10
6 w
gr

6 w
c10
0 sg
%%IncludeResource: font Courier-Bold
/Courier-Bold /WindowsLatin1Encoding 360 FMSR

9310 5786 mt 
(\(0.7,0.2\)) s

end %%Color Dict

eplot
%%EndObject

epage
end

showpage

%%Trailer
%%EOF
