%!PS-Adobe-3.0 EPSF-3.0
%%Creator: MATLAB, The MathWorks, Inc. Version 7.13.0.564 (R2011b). Operating System: Microsoft Windows XP.
%%Title: D:\DriveG\Sem2-2012\Program\ReferenceMetric-v3\metricfig\zdt1\zdt1-te.eps
%%CreationDate: 02/20/2013  11:56:37
%%DocumentNeededFonts: Helvetica
%%+ Courier-Bold
%%+ Courier
%%DocumentProcessColors: Cyan Magenta Yellow Black
%%LanguageLevel: 2
%%Pages: 1
%%BoundingBox:  -191   208   787   632
%%EndComments

%%BeginProlog
% MathWorks dictionary
/MathWorks 160 dict begin
% definition operators
/bdef {bind def} bind def
/ldef {load def} bind def
/xdef {exch def} bdef
/xstore {exch store} bdef
% operator abbreviations
/c  /clip ldef
/cc /concat ldef
/cp /closepath ldef
/gr /grestore ldef
/gs /gsave ldef
/mt /moveto ldef
/np /newpath ldef
/cm /currentmatrix ldef
/sm /setmatrix ldef
/rm /rmoveto ldef
/rl /rlineto ldef
/s {show newpath} bdef
/sc {setcmykcolor} bdef
/sr /setrgbcolor ldef
/sg /setgray ldef
/w /setlinewidth ldef
/j /setlinejoin ldef
/cap /setlinecap ldef
/rc {rectclip} bdef
/rf {rectfill} bdef
% page state control
/pgsv () def
/bpage {/pgsv save def} bdef
/epage {pgsv restore} bdef
/bplot /gsave ldef
/eplot {stroke grestore} bdef
% orientation switch
/portraitMode 0 def /landscapeMode 1 def /rotateMode 2 def
% coordinate system mappings
/dpi2point 0 def
% font control
/FontSize 0 def
/FMS {/FontSize xstore findfont [FontSize 0 0 FontSize neg 0 0]
  makefont setfont} bdef
/ISOLatin1Encoding where {pop /WindowsLatin1Encoding 256 array bdef
ISOLatin1Encoding WindowsLatin1Encoding copy pop
/.notdef/.notdef/quotesinglbase/florin/quotedblbase/ellipsis/dagger
/daggerdbl/circumflex/perthousand/Scaron/guilsinglleft/OE/.notdef/.notdef
/.notdef/.notdef/quoteleft/quoteright/quotedblleft/quotedblright/bullet
/endash/emdash/tilde/trademark/scaron/guilsinglright/oe/.notdef/.notdef
/Ydieresis WindowsLatin1Encoding 128 32 getinterval astore pop}
{/WindowsLatin1Encoding StandardEncoding bdef} ifelse
/reencode {exch dup where {pop load} {pop StandardEncoding} ifelse
  exch dup 3 1 roll findfont dup length dict begin
  { 1 index /FID ne {def}{pop pop} ifelse } forall
  /Encoding exch def currentdict end definefont pop} bdef
/isroman {findfont /CharStrings get /Agrave known} bdef
/FMSR {3 1 roll 1 index dup isroman {reencode} {pop pop} ifelse
  exch FMS} bdef
/csm {1 dpi2point div -1 dpi2point div scale neg translate
 dup landscapeMode eq {pop -90 rotate}
  {rotateMode eq {90 rotate} if} ifelse} bdef
% line types: solid, dotted, dashed, dotdash
/SO { [] 0 setdash } bdef
/DO { [.5 dpi2point mul 4 dpi2point mul] 0 setdash } bdef
/DA { [6 dpi2point mul] 0 setdash } bdef
/DD { [.5 dpi2point mul 4 dpi2point mul 6 dpi2point mul 4
  dpi2point mul] 0 setdash } bdef
% macros for lines and objects
/L {lineto stroke} bdef
/MP {3 1 roll moveto 1 sub {rlineto} repeat} bdef
/AP {{rlineto} repeat} bdef
/PDlw -1 def
/W {/PDlw currentlinewidth def setlinewidth} def
/PP {closepath eofill} bdef
/DP {closepath stroke} bdef
/MR {4 -2 roll moveto dup  0 exch rlineto exch 0 rlineto
  neg 0 exch rlineto closepath} bdef
/FR {MR stroke} bdef
/PR {MR fill} bdef
/L1i {{currentfile picstr readhexstring pop} image} bdef
/tMatrix matrix def
/MakeOval {newpath tMatrix currentmatrix pop translate scale
0 0 1 0 360 arc tMatrix setmatrix} bdef
/FO {MakeOval stroke} bdef
/PO {MakeOval fill} bdef
/PD {currentlinewidth 2 div 0 360 arc fill
   PDlw -1 eq not {PDlw w /PDlw -1 def} if} def
/FA {newpath tMatrix currentmatrix pop translate scale
  0 0 1 5 -2 roll arc tMatrix setmatrix stroke} bdef
/PA {newpath tMatrix currentmatrix pop	translate 0 0 moveto scale
  0 0 1 5 -2 roll arc closepath tMatrix setmatrix fill} bdef
/FAn {newpath tMatrix currentmatrix pop translate scale
  0 0 1 5 -2 roll arcn tMatrix setmatrix stroke} bdef
/PAn {newpath tMatrix currentmatrix pop translate 0 0 moveto scale
  0 0 1 5 -2 roll arcn closepath tMatrix setmatrix fill} bdef
/vradius 0 def /hradius 0 def /lry 0 def
/lrx 0 def /uly 0 def /ulx 0 def /rad 0 def
/MRR {/vradius xdef /hradius xdef /lry xdef /lrx xdef /uly xdef
  /ulx xdef newpath tMatrix currentmatrix pop ulx hradius add uly
  vradius add translate hradius vradius scale 0 0 1 180 270 arc 
  tMatrix setmatrix lrx hradius sub uly vradius add translate
  hradius vradius scale 0 0 1 270 360 arc tMatrix setmatrix
  lrx hradius sub lry vradius sub translate hradius vradius scale
  0 0 1 0 90 arc tMatrix setmatrix ulx hradius add lry vradius sub
  translate hradius vradius scale 0 0 1 90 180 arc tMatrix setmatrix
  closepath} bdef
/FRR {MRR stroke } bdef
/PRR {MRR fill } bdef
/MlrRR {/lry xdef /lrx xdef /uly xdef /ulx xdef /rad lry uly sub 2 div def
  newpath tMatrix currentmatrix pop ulx rad add uly rad add translate
  rad rad scale 0 0 1 90 270 arc tMatrix setmatrix lrx rad sub lry rad
  sub translate rad rad scale 0 0 1 270 90 arc tMatrix setmatrix
  closepath} bdef
/FlrRR {MlrRR stroke } bdef
/PlrRR {MlrRR fill } bdef
/MtbRR {/lry xdef /lrx xdef /uly xdef /ulx xdef /rad lrx ulx sub 2 div def
  newpath tMatrix currentmatrix pop ulx rad add uly rad add translate
  rad rad scale 0 0 1 180 360 arc tMatrix setmatrix lrx rad sub lry rad
  sub translate rad rad scale 0 0 1 0 180 arc tMatrix setmatrix
  closepath} bdef
/FtbRR {MtbRR stroke } bdef
/PtbRR {MtbRR fill } bdef
/stri 6 array def /dtri 6 array def
/smat 6 array def /dmat 6 array def
/tmat1 6 array def /tmat2 6 array def /dif 3 array def
/asub {/ind2 exch def /ind1 exch def dup dup
  ind1 get exch ind2 get sub exch } bdef
/tri_to_matrix {
  2 0 asub 3 1 asub 4 0 asub 5 1 asub
  dup 0 get exch 1 get 7 -1 roll astore } bdef
/compute_transform {
  dmat dtri tri_to_matrix tmat1 invertmatrix 
  smat stri tri_to_matrix tmat2 concatmatrix } bdef
/ds {stri astore pop} bdef
/dt {dtri astore pop} bdef
/db {2 copy /cols xdef /rows xdef mul dup 3 mul string
  currentfile 
  3 index 0 eq {/ASCIIHexDecode filter}
  {/ASCII85Decode filter 3 index 2 eq {/RunLengthDecode filter} if }
  ifelse exch readstring pop
  dup 0 3 index getinterval /rbmap xdef
  dup 2 index dup getinterval /gbmap xdef
  1 index dup 2 mul exch getinterval /bbmap xdef pop pop}bdef
/it {gs np dtri aload pop moveto lineto lineto cp c
  cols rows 8 compute_transform 
  rbmap gbmap bbmap true 3 colorimage gr}bdef
/il {newpath moveto lineto stroke}bdef
currentdict end def
%%EndProlog

%%BeginSetup
MathWorks begin

0 cap

end
%%EndSetup

%%Page: 1 1
%%BeginPageSetup
%%PageBoundingBox:  -191   208   787   632
MathWorks begin
bpage
%%EndPageSetup

%%BeginObject: obj1
bplot

/dpi2point 12 def
portraitMode -2292 7584 csm

    0     0 11746  5078 rc
86 dict begin %Colortable dictionary
/c0 { 0.000000 0.000000 0.000000 sr} bdef
/c1 { 1.000000 1.000000 1.000000 sr} bdef
/c2 { 0.900000 0.000000 0.000000 sr} bdef
/c3 { 0.000000 0.820000 0.000000 sr} bdef
/c4 { 0.000000 0.000000 0.800000 sr} bdef
/c5 { 0.910000 0.820000 0.320000 sr} bdef
/c6 { 1.000000 0.260000 0.820000 sr} bdef
/c7 { 0.000000 0.820000 0.820000 sr} bdef
c0
1 j
1 sg
   0    0 11747 5079 rf
6 w
0 4601 8858 0 0 -4601 1539 4784 4 MP
PP
-8858 0 0 4601 8858 0 0 -4601 1539 4784 5 MP stroke
4 w
DO
SO
6 w
0 sg
1539  183 mt 10397  183 L
1539 4784 mt 10397 4784 L
10397 4784 mt 10397  183 L
1539 4784 mt 1539  183 L
1539 4784 mt 10397 4784 L
1539 4784 mt 1539  183 L
1539 4784 mt 1539 4695 L
1539  183 mt 1539  271 L
%%IncludeResource: font Helvetica
/Helvetica /WindowsLatin1Encoding 192 FMSR

1486 4996 mt 
(0) s
2424 4784 mt 2424 4695 L
2424  183 mt 2424  271 L
2291 4996 mt 
(0.1) s
3310 4784 mt 3310 4695 L
3310  183 mt 3310  271 L
3177 4996 mt 
(0.2) s
4196 4784 mt 4196 4695 L
4196  183 mt 4196  271 L
4063 4996 mt 
(0.3) s
5082 4784 mt 5082 4695 L
5082  183 mt 5082  271 L
4949 4996 mt 
(0.4) s
5968 4784 mt 5968 4695 L
5968  183 mt 5968  271 L
5835 4996 mt 
(0.5) s
6853 4784 mt 6853 4695 L
6853  183 mt 6853  271 L
6720 4996 mt 
(0.6) s
7739 4784 mt 7739 4695 L
7739  183 mt 7739  271 L
7606 4996 mt 
(0.7) s
8625 4784 mt 8625 4695 L
8625  183 mt 8625  271 L
8492 4996 mt 
(0.8) s
9511 4784 mt 9511 4695 L
9511  183 mt 9511  271 L
9378 4996 mt 
(0.9) s
10397 4784 mt 10397 4695 L
10397  183 mt 10397  271 L
10344 4996 mt 
(1) s
1539 4784 mt 1627 4784 L
10397 4784 mt 10308 4784 L
1398 4855 mt 
(0) s
1539 4323 mt 1627 4323 L
10397 4323 mt 10308 4323 L
1238 4394 mt 
(0.1) s
1539 3863 mt 1627 3863 L
10397 3863 mt 10308 3863 L
1238 3934 mt 
(0.2) s
1539 3403 mt 1627 3403 L
10397 3403 mt 10308 3403 L
1238 3474 mt 
(0.3) s
1539 2943 mt 1627 2943 L
10397 2943 mt 10308 2943 L
1238 3014 mt 
(0.4) s
1539 2483 mt 1627 2483 L
10397 2483 mt 10308 2483 L
1238 2554 mt 
(0.5) s
1539 2023 mt 1627 2023 L
10397 2023 mt 10308 2023 L
1238 2094 mt 
(0.6) s
1539 1563 mt 1627 1563 L
10397 1563 mt 10308 1563 L
1238 1634 mt 
(0.7) s
1539 1103 mt 1627 1103 L
10397 1103 mt 10308 1103 L
1238 1174 mt 
(0.8) s
1539  643 mt 1627  643 L
10397  643 mt 10308  643 L
1238  714 mt 
(0.9) s
1539  183 mt 1627  183 L
10397  183 mt 10308  183 L
1398  254 mt 
(1) s
1539  183 mt 10397  183 L
1539 4784 mt 10397 4784 L
10397 4784 mt 10397  183 L
1539 4784 mt 1539  183 L
gs 1539 183 8859 4602 rc
27.6 w
/c8 { 0.000000 0.000000 1.000000 sr} bdef
c8
9 3 9 2 9 2 9 3 9 2 9 2 9 3 8 2 
9 2 9 3 9 2 9 2 9 3 9 2 8 2 9 2 
9 3 9 2 9 2 9 3 9 2 8 2 9 3 9 2 
9 2 9 3 9 2 9 2 8 3 9 2 9 2 9 3 
9 2 9 2 9 3 8 2 9 2 9 3 9 2 9 2 
9 3 9 2 8 3 9 2 9 2 9 3 9 2 9 2 
9 3 8 2 9 2 9 3 9 2 9 2 9 3 9 2 
8 3 9 2 9 2 9 3 9 2 9 2 9 3 8 2 
9 3 9 2 9 2 9 3 9 2 9 2 8 3 9 2 
9 3 9 2 9 2 9 3 9 2 8 3 9 2 9 2 
9 3 9 2 9 3 9 2 8 2 9 3 9 2 9 3 
9 2 9 2 9 3 8 2 9 3 9 2 9 3 9 2 
9 2 9 3 8 2 9 3 9 2 9 2 9 3 9 2 
9 3 8 2 9 3 9 2 9 2 9 3 9 2 9 3 
8 2 9 3 9 2 9 3 9 2 9 2 9 3 8 2 
9 3 9 2 9 3 9 2 9 3 9 2 8 3 9 2 
9 3 9 2 9 2 9 3 9 2 8 3 9 2 9 3 
9 2 9 3 9 2 9 3 8 2 9 3 9 2 9 3 
9 2 9 3 9 2 8 3 9 2 9 3 9 2 9 3 
9 2 9 3 8 2 9 3 9 2 9 3 9 2 9 3 
9 2 8 3 9 2 9 3 9 2 9 3 9 2 9 3 
9 2 8 3 9 2 9 3 9 2 9 3 9 2 9 3 
8 3 9 2 9 3 9 2 9 3 9 2 9 3 8 2 
9 3 9 2 9 3 9 2 9 3 9 3 8 2 9 3 
9 2 9 3 9 2 9 3 9 3 8 2 9 3 9 2 
9 3 9 2 9 3 9 3 8 2 9 3 9 2 9 3 
9 2 9 3 9 3 8 2 9 3 9 2 9 3 9 3 
9 2 9 3 8 2 9 3 9 3 9 2 9 3 9 2 
9 3 8 3 9 2 9 3 9 3 9 2 9 3 9 2 
8 3 9 3 9 2 9 3 9 3 9 2 9 3 8 2 
9 3 9 3 9 2 9 3 9 3 9 2 8 3 9 3 
9 2 9 3 9 3 9 2 9 3 8 3 9 2 9 3 
9 3 9 2 9 3 9 3 8 2 9 3 9 3 9 2 
9 3 9 3 9 2 8 3 9 3 9 2 9 3 9 3 
9 2 9 3 8 3 9 3 9 2 9 3 9 3 9 2 
9 3 8 3 9 3 9 2 9 3 9 3 9 2 9 3 
8 3 9 3 9 2 9 3 9 3 9 3 9 2 8 3 
9 3 9 3 9 2 7748 4035 300 MP stroke
9 3 9 3 9 3 8 2 9 3 9 3 9 3 9 2 
9 3 9 3 8 3 9 2 9 3 9 3 9 3 9 2 
9 3 8 3 9 3 9 3 9 2 9 3 9 3 9 3 
8 3 9 2 9 3 9 3 9 3 9 3 9 2 8 3 
9 3 9 3 9 3 9 2 9 3 9 3 9 3 8 3 
9 3 9 2 9 3 9 3 9 3 9 3 8 3 9 3 
9 2 9 3 9 3 9 3 9 3 8 3 9 2 9 3 
9 3 9 3 9 3 9 3 8 3 9 3 9 2 9 3 
9 3 9 3 9 3 8 3 9 3 9 3 9 3 9 2 
9 3 9 3 8 3 9 3 9 3 9 3 9 3 9 3 
9 3 8 3 9 3 9 2 9 3 9 3 9 3 9 3 
8 3 9 3 9 3 9 3 9 3 9 3 9 3 8 3 
9 3 9 3 9 3 9 3 9 3 9 3 8 3 9 3 
9 2 9 3 9 3 9 3 9 3 8 3 9 3 9 3 
9 3 9 3 9 3 9 3 8 3 9 3 9 3 9 3 
9 3 9 4 9 3 8 3 9 3 9 3 9 3 9 3 
9 3 9 3 8 3 9 3 9 3 9 3 9 3 9 3 
9 3 8 3 9 3 9 3 9 3 9 4 9 3 9 3 
8 3 9 3 9 3 9 3 9 3 9 3 9 3 8 3 
9 4 9 3 9 3 9 3 9 3 9 3 8 3 9 3 
9 3 9 4 9 3 9 3 9 3 8 3 9 3 9 3 
9 4 9 3 9 3 9 3 8 3 9 3 9 4 9 3 
9 3 9 3 9 3 8 3 9 4 9 3 9 3 9 3 
9 3 9 4 8 3 9 3 9 3 9 4 9 3 9 3 
9 3 8 3 9 4 9 3 9 3 9 3 9 4 9 3 
8 3 9 3 9 4 9 3 9 3 9 3 9 4 9 3 
8 3 9 4 9 3 9 3 9 3 9 4 9 3 8 3 
9 4 9 3 9 3 9 4 9 3 9 3 8 3 9 4 
9 3 9 3 9 4 9 3 9 4 8 3 9 3 9 4 
9 3 9 3 9 4 9 3 8 3 9 4 9 3 9 4 
9 3 9 3 9 4 8 3 9 4 9 3 9 3 9 4 
9 3 9 4 8 3 9 3 9 4 9 3 9 4 9 3 
9 4 8 3 9 4 9 3 9 4 9 3 9 3 9 4 
8 3 9 4 9 3 9 4 9 3 9 4 9 3 8 4 
9 3 9 4 9 3 9 4 9 4 9 3 8 4 9 3 
9 4 9 3 9 4 9 3 9 4 8 4 9 3 9 4 
9 3 9 4 9 3 9 4 8 4 9 3 9 4 9 3 
9 4 9 4 9 3 5099 3100 300 MP stroke
8 4 9 4 9 3 9 4 9 4 9 3 9 4 8 3 
9 4 9 4 9 3 9 4 9 4 9 4 8 3 9 4 
9 4 9 3 9 4 9 4 9 4 8 3 9 4 9 4 
9 3 9 4 9 4 9 4 8 3 9 4 9 4 9 4 
9 4 9 3 9 4 8 4 9 4 9 4 9 3 9 4 
9 4 9 4 8 4 9 4 9 3 9 4 9 4 9 4 
9 4 8 4 9 4 9 4 9 3 9 4 9 4 9 4 
8 4 9 4 9 4 9 4 9 4 9 4 9 4 8 4 
9 4 9 4 9 3 9 4 9 4 9 4 9 4 8 4 
9 4 9 4 9 4 9 4 9 5 9 4 8 4 9 4 
9 4 9 4 9 4 9 4 9 4 8 4 9 4 9 4 
9 4 9 5 9 4 9 4 8 4 9 4 9 4 9 4 
9 5 9 4 9 4 8 4 9 4 9 4 9 5 9 4 
9 4 9 4 8 5 9 4 9 4 9 4 9 5 9 4 
9 4 8 4 9 5 9 4 9 4 9 5 9 4 9 4 
8 5 9 4 9 4 9 5 9 4 9 4 9 5 8 4 
9 5 9 4 9 4 9 5 9 4 9 5 8 4 9 5 
9 4 9 4 9 5 9 4 9 5 8 4 9 5 9 4 
9 5 9 5 9 4 9 5 8 4 9 5 9 4 9 5 
9 5 9 4 9 5 8 4 9 5 9 5 9 4 9 5 
9 5 9 4 8 5 9 5 9 5 9 4 9 5 9 5 
9 5 8 4 9 5 9 5 9 5 9 5 9 4 9 5 
8 5 9 5 9 5 9 5 9 5 9 4 9 5 8 5 
9 5 9 5 9 5 9 5 9 5 9 5 8 5 9 5 
9 5 9 5 9 5 9 5 9 5 8 5 9 5 9 6 
9 5 9 5 9 5 9 5 8 5 9 6 9 5 9 5 
9 5 9 5 9 6 8 5 9 5 9 6 9 5 9 5 
9 6 9 5 8 5 9 6 9 5 9 5 9 6 9 5 
9 6 8 5 9 6 9 5 9 6 9 5 9 6 9 5 
8 6 9 6 9 5 9 6 9 6 9 5 9 6 9 6 
8 5 9 6 9 6 9 6 9 5 9 6 9 6 8 6 
9 6 9 6 9 6 9 6 9 5 9 6 8 6 9 6 
9 6 9 7 9 6 9 6 9 6 8 6 9 6 9 6 
9 7 9 6 9 6 9 6 8 7 9 6 9 6 9 7 
9 6 9 6 9 7 8 6 9 7 9 6 9 7 9 6 
9 7 9 7 8 6 9 7 9 7 9 6 9 7 9 7 
9 7 8 7 9 7 9 7 9 6 9 7 9 7 9 8 
8 7 9 7 9 7 2451 1659 300 MP stroke
9 7 9 7 9 8 9 7 8 7 9 8 9 7 9 7 
9 8 9 7 9 8 8 8 9 7 9 8 9 8 9 7 
9 8 9 8 8 8 9 8 9 8 9 8 9 8 9 8 
9 9 8 8 9 8 9 8 9 9 9 8 9 9 9 9 
8 8 9 9 9 9 9 9 9 8 9 9 9 10 8 9 
9 9 9 9 9 9 9 10 9 9 9 10 8 10 9 9 
9 10 9 10 9 10 9 10 9 11 8 10 9 10 9 11 
9 11 9 10 9 11 9 11 8 12 9 11 9 11 9 12 
9 12 9 11 9 13 8 12 9 12 9 13 9 12 9 13 
9 14 9 13 8 14 9 13 9 15 9 14 9 15 9 15 
9 15 8 16 9 16 9 16 9 17 9 18 9 18 9 18 
8 19 9 20 9 20 9 22 9 22 9 24 9 25 8 27 
9 28 9 31 9 35 9 38 9 47 9 60 8 145 1539 183 104 MP stroke
48 w
gr

48 w
c8
/c9 { 0.000000 1.000000 1.000000 sr} bdef
c9
  36   36 6844 3743 FO
  36   36 6853 3746 FO
  36   36 6862 3749 FO
  36   36 6871 3752 FO
  36   36 6880 3755 FO
  36   36 6889 3758 FO
  36   36 6898 3761 FO
  36   36 6906 3764 FO
  36   36 6915 3767 FO
  36   36 6924 3770 FO
  36   36 6933 3773 FO
  36   36 6942 3776 FO
  36   36 6951 3779 FO
  36   36 6960 3782 FO
  36   36 6968 3785 FO
  36   36 6977 3788 FO
  36   36 6986 3791 FO
  36   36 6995 3794 FO
  36   36 7004 3797 FO
  36   36 7013 3799 FO
  36   36 7022 3802 FO
  36   36 7030 3805 FO
  36   36 7039 3808 FO
  36   36 7048 3811 FO
  36   36 7057 3814 FO
  36   36 7066 3817 FO
  36   36 7075 3820 FO
  36   36 7084 3823 FO
  36   36 7092 3826 FO
  36   36 7101 3829 FO
  36   36 7110 3832 FO
  36   36 7119 3834 FO
  36   36 7128 3837 FO
  36   36 7137 3840 FO
  36   36 7146 3843 FO
  36   36 7154 3846 FO
  36   36 7163 3849 FO
  36   36 7172 3852 FO
  36   36 7181 3855 FO
  36   36 7190 3858 FO
  36   36 7199 3860 FO
  36   36 7208 3863 FO
  36   36 7216 3866 FO
  36   36 7225 3869 FO
  36   36 7234 3872 FO
  36   36 7243 3875 FO
  36   36 7252 3878 FO
  36   36 7261 3881 FO
  36   36 7270 3883 FO
  36   36 7278 3886 FO
  36   36 7287 3889 FO
  36   36 7296 3892 FO
  36   36 7305 3895 FO
  36   36 7314 3898 FO
  36   36 7323 3900 FO
  36   36 7332 3903 FO
  36   36 7340 3906 FO
  36   36 7349 3909 FO
  36   36 7358 3912 FO
  36   36 7367 3915 FO
  36   36 7376 3918 FO
  36   36 7385 3920 FO
  36   36 7394 3923 FO
  36   36 7402 3926 FO
  36   36 7411 3929 FO
  36   36 7420 3932 FO
  36   36 7429 3935 FO
  36   36 7438 3937 FO
  36   36 7447 3940 FO
  36   36 7456 3943 FO
  36   36 7465 3946 FO
  36   36 7473 3949 FO
  36   36 7482 3951 FO
  36   36 7491 3954 FO
  36   36 7500 3957 FO
  36   36 7509 3960 FO
  36   36 7518 3963 FO
  36   36 7527 3965 FO
  36   36 7535 3968 FO
  36   36 7544 3971 FO
  36   36 7553 3974 FO
  36   36 7562 3977 FO
  36   36 7571 3979 FO
  36   36 7580 3982 FO
  36   36 7589 3985 FO
  36   36 7597 3988 FO
  36   36 7606 3991 FO
  36   36 7615 3993 FO
  36   36 7624 3996 FO
  36   36 7633 3999 FO
  36   36 7642 4002 FO
  36   36 7651 4004 FO
  36   36 7659 4007 FO
  36   36 7668 4010 FO
  36   36 7677 4013 FO
  36   36 7686 4015 FO
  36   36 7695 4018 FO
  36   36 7704 4021 FO
  36   36 7713 4024 FO
  36   36 7721 4026 FO
  36   36 7730 4029 FO
  36   36 7739 4032 FO
  36   36 7748 4035 FO
  36   36 7757 4037 FO
  36   36 7766 4040 FO
  36   36 7775 4043 FO
  36   36 7783 4046 FO
  36   36 7792 4048 FO
  36   36 7801 4051 FO
  36   36 7810 4054 FO
  36   36 7819 4057 FO
  36   36 7828 4059 FO
  36   36 7837 4062 FO
  36   36 7845 4065 FO
  36   36 7854 4068 FO
  36   36 7863 4070 FO
  36   36 7872 4073 FO
  36   36 7881 4076 FO
  36   36 7890 4078 FO
  36   36 7899 4081 FO
  36   36 7907 4084 FO
  36   36 7916 4087 FO
  36   36 7925 4089 FO
  36   36 7934 4092 FO
  36   36 7943 4095 FO
  36   36 7952 4097 FO
  36   36 7961 4100 FO
  36   36 7969 4103 FO
  36   36 7978 4106 FO
  36   36 7987 4108 FO
  36   36 7996 4111 FO
  36   36 8005 4114 FO
  36   36 8014 4116 FO
  36   36 8023 4119 FO
  36   36 8031 4122 FO
  36   36 8040 4124 FO
  36   36 8049 4127 FO
  36   36 8058 4130 FO
  36   36 8067 4132 FO
  36   36 8076 4135 FO
  36   36 8085 4138 FO
  36   36 8093 4140 FO
  36   36 8102 4143 FO
  36   36 8111 4146 FO
  36   36 8120 4148 FO
  36   36 8129 4151 FO
  36   36 8138 4154 FO
  36   36 8147 4156 FO
  36   36 8155 4159 FO
  36   36 8164 4162 FO
  36   36 8173 4164 FO
  36   36 8182 4167 FO
  36   36 8191 4170 FO
  36   36 8200 4172 FO
  36   36 8209 4175 FO
  36   36 8217 4178 FO
  36   36 8226 4180 FO
  36   36 8235 4183 FO
  36   36 8244 4186 FO
  36   36 8253 4188 FO
  36   36 8262 4191 FO
  36   36 8271 4194 FO
  36   36 8279 4196 FO
  36   36 8288 4199 FO
  36   36 8297 4201 FO
  36   36 8306 4204 FO
  36   36 8315 4207 FO
  36   36 8324 4209 FO
  36   36 8333 4212 FO
  36   36 8341 4215 FO
  36   36 8350 4217 FO
gs 1539 183 8859 4602 rc
6 w
gr

6 w
0 j
0 -94 -94 0 0 94 94 0 8059 4097 5 MP
/c10 { 1.000000 0.000000 0.000000 sr} bdef
c10
gs
PP
gr
DP
0 -94 -94 0 0 94 94 0 7821 4025 5 MP
gs
PP
gr
DP
0 -94 -94 0 0 94 94 0 8212 4143 5 MP
gs
PP
gr
DP
0 -94 -94 0 0 94 94 0 8135 4120 5 MP
gs
PP
gr
DP
0 -94 -94 0 0 94 94 0 7837 4030 5 MP
gs
PP
gr
DP
0 -94 -94 0 0 94 94 0 8012 4083 5 MP
gs
PP
gr
DP
0 -94 -94 0 0 94 94 0 8286 4165 5 MP
gs
PP
gr
DP
0 -94 -94 0 0 94 94 0 8059 4097 5 MP
gs
PP
gr
DP
0 -94 -94 0 0 94 94 0 7898 4048 5 MP
gs
PP
gr
DP
0 -94 -94 0 0 94 94 0 7861 4037 5 MP
gs
PP
gr
DP
0 -94 -94 0 0 94 94 0 7984 4074 5 MP
gs
PP
gr
DP
0 -94 -94 0 0 94 94 0 7898 4048 5 MP
gs
PP
gr
DP
0 -94 -94 0 0 94 94 0 7821 4025 5 MP
gs
PP
gr
DP
0 -94 -94 0 0 94 94 0 7946 4063 5 MP
gs
PP
gr
DP
0 -94 -94 0 0 94 94 0 8168 4130 5 MP
gs
PP
gr
DP
0 -94 -94 0 0 94 94 0 7915 4053 5 MP
gs
PP
gr
DP
0 -94 -94 0 0 94 94 0 8072 4101 5 MP
gs
PP
gr
DP
0 -94 -94 0 0 94 94 0 8135 4120 5 MP
gs
PP
gr
DP
0 -94 -94 0 0 94 94 0 7837 4030 5 MP
gs
PP
gr
DP
0 -94 -94 0 0 94 94 0 8286 4165 5 MP
gs
PP
gr
DP
0 -94 -94 0 0 94 94 0 8168 4130 5 MP
gs
PP
gr
DP
0 -94 -94 0 0 94 94 0 8059 4097 5 MP
gs
PP
gr
DP
0 -94 -94 0 0 94 94 0 7915 4053 5 MP
gs
PP
gr
DP
0 -94 -94 0 0 94 94 0 7837 4030 5 MP
gs
PP
gr
DP
0 -94 -94 0 0 94 94 0 8012 4083 5 MP
gs
PP
gr
DP
0 -94 -94 0 0 94 94 0 8197 4139 5 MP
gs
PP
gr
DP
0 -94 -94 0 0 94 94 0 8286 4165 5 MP
gs
PP
gr
DP
0 -94 -94 0 0 94 94 0 8135 4120 5 MP
gs
PP
gr
DP
0 -94 -94 0 0 94 94 0 7861 4037 5 MP
gs
PP
gr
DP
0 -94 -94 0 0 94 94 0 8135 4120 5 MP
gs
PP
gr
DP
0 -94 -94 0 0 94 94 0 7946 4063 5 MP
gs
PP
gr
DP
0 -94 -94 0 0 94 94 0 7898 4048 5 MP
gs
PP
gr
DP
0 -94 -94 0 0 94 94 0 8114 4114 5 MP
gs
PP
gr
DP
0 -94 -94 0 0 94 94 0 8197 4139 5 MP
gs
PP
gr
DP
0 -94 -94 0 0 94 94 0 8059 4097 5 MP
gs
PP
gr
DP
0 -94 -94 0 0 94 94 0 7915 4053 5 MP
gs
PP
gr
DP
0 -94 -94 0 0 94 94 0 8135 4120 5 MP
gs
PP
gr
DP
0 -94 -94 0 0 94 94 0 7946 4063 5 MP
gs
PP
gr
DP
0 -94 -94 0 0 94 94 0 8114 4114 5 MP
gs
PP
gr
DP
0 -94 -94 0 0 94 94 0 7946 4063 5 MP
gs
PP
gr
DP
gs 1539 183 8859 4602 rc
360 w
gr

360 w
120 W
0 sg
7739 3863 PD
gs 1539 183 8859 4602 rc
gr

%%IncludeResource: font Helvetica
/Helvetica /WindowsLatin1Encoding 120 FMSR

1522 4827 mt 
( ) s
10381  225 mt 
( ) s
6 w
1 sg
0 813 4610 0 0 -813 5742 1044 4 MP
PP
-4610 0 0 813 4610 0 0 -813 5742 1044 5 MP stroke
4 w
DO
SO
6 w
5742  231 mt 10352  231 L
5742 1044 mt 10352 1044 L
10352 1044 mt 10352  231 L
5742 1044 mt 5742  231 L
5742 1044 mt 10352 1044 L
5742 1044 mt 5742  231 L
5742  231 mt 10352  231 L
5742 1044 mt 10352 1044 L
10352 1044 mt 10352  231 L
5742 1044 mt 5742  231 L
0 sg
%%IncludeResource: font Courier
/Courier /WindowsLatin1Encoding 288 FMSR

6445  538 mt 
(Preferred Region) s
gs 5742 231 4611 814 rc
48 w
gs 5998 323 245 245 rc
c9
  36   36 6120  445 FO
gr

c9
gr

48 w
c9
0 sg
6445  924 mt 
(Obtained Soloutions) s
gs 5742 231 4611 814 rc
6 w
gs 5999 708 243 243 rc
0 -94 -94 0 0 94 94 0 6073 782 5 MP
c10
gs
PP
gr
DP
gr

c10
gr

6 w
c10
0 sg
%%IncludeResource: font Courier-Bold
/Courier-Bold /WindowsLatin1Encoding 360 FMSR

7508 3546 mt 
(\( 0.7 , 0.2 \)) s

end %%Color Dict

eplot
%%EndObject

epage
end

showpage

%%Trailer
%%EOF
