%!PS-Adobe-3.0 EPSF-3.0
%%Creator: MATLAB, The MathWorks, Inc. Version 7.13.0.564 (R2011b). Operating System: Microsoft Windows XP.
%%Title: D:\DriveG\Sem2-2012\Program\ReferenceMetric-v3\metricfig\zdt1\zdt1-ws.eps
%%CreationDate: 02/20/2013  11:50:33
%%DocumentNeededFonts: Helvetica
%%+ Courier-Bold
%%+ Courier
%%DocumentProcessColors: Cyan Magenta Yellow Black
%%LanguageLevel: 2
%%Pages: 1
%%BoundingBox:  -191   224   787   616
%%EndComments

%%BeginProlog
% MathWorks dictionary
/MathWorks 160 dict begin
% definition operators
/bdef {bind def} bind def
/ldef {load def} bind def
/xdef {exch def} bdef
/xstore {exch store} bdef
% operator abbreviations
/c  /clip ldef
/cc /concat ldef
/cp /closepath ldef
/gr /grestore ldef
/gs /gsave ldef
/mt /moveto ldef
/np /newpath ldef
/cm /currentmatrix ldef
/sm /setmatrix ldef
/rm /rmoveto ldef
/rl /rlineto ldef
/s {show newpath} bdef
/sc {setcmykcolor} bdef
/sr /setrgbcolor ldef
/sg /setgray ldef
/w /setlinewidth ldef
/j /setlinejoin ldef
/cap /setlinecap ldef
/rc {rectclip} bdef
/rf {rectfill} bdef
% page state control
/pgsv () def
/bpage {/pgsv save def} bdef
/epage {pgsv restore} bdef
/bplot /gsave ldef
/eplot {stroke grestore} bdef
% orientation switch
/portraitMode 0 def /landscapeMode 1 def /rotateMode 2 def
% coordinate system mappings
/dpi2point 0 def
% font control
/FontSize 0 def
/FMS {/FontSize xstore findfont [FontSize 0 0 FontSize neg 0 0]
  makefont setfont} bdef
/ISOLatin1Encoding where {pop /WindowsLatin1Encoding 256 array bdef
ISOLatin1Encoding WindowsLatin1Encoding copy pop
/.notdef/.notdef/quotesinglbase/florin/quotedblbase/ellipsis/dagger
/daggerdbl/circumflex/perthousand/Scaron/guilsinglleft/OE/.notdef/.notdef
/.notdef/.notdef/quoteleft/quoteright/quotedblleft/quotedblright/bullet
/endash/emdash/tilde/trademark/scaron/guilsinglright/oe/.notdef/.notdef
/Ydieresis WindowsLatin1Encoding 128 32 getinterval astore pop}
{/WindowsLatin1Encoding StandardEncoding bdef} ifelse
/reencode {exch dup where {pop load} {pop StandardEncoding} ifelse
  exch dup 3 1 roll findfont dup length dict begin
  { 1 index /FID ne {def}{pop pop} ifelse } forall
  /Encoding exch def currentdict end definefont pop} bdef
/isroman {findfont /CharStrings get /Agrave known} bdef
/FMSR {3 1 roll 1 index dup isroman {reencode} {pop pop} ifelse
  exch FMS} bdef
/csm {1 dpi2point div -1 dpi2point div scale neg translate
 dup landscapeMode eq {pop -90 rotate}
  {rotateMode eq {90 rotate} if} ifelse} bdef
% line types: solid, dotted, dashed, dotdash
/SO { [] 0 setdash } bdef
/DO { [.5 dpi2point mul 4 dpi2point mul] 0 setdash } bdef
/DA { [6 dpi2point mul] 0 setdash } bdef
/DD { [.5 dpi2point mul 4 dpi2point mul 6 dpi2point mul 4
  dpi2point mul] 0 setdash } bdef
% macros for lines and objects
/L {lineto stroke} bdef
/MP {3 1 roll moveto 1 sub {rlineto} repeat} bdef
/AP {{rlineto} repeat} bdef
/PDlw -1 def
/W {/PDlw currentlinewidth def setlinewidth} def
/PP {closepath eofill} bdef
/DP {closepath stroke} bdef
/MR {4 -2 roll moveto dup  0 exch rlineto exch 0 rlineto
  neg 0 exch rlineto closepath} bdef
/FR {MR stroke} bdef
/PR {MR fill} bdef
/L1i {{currentfile picstr readhexstring pop} image} bdef
/tMatrix matrix def
/MakeOval {newpath tMatrix currentmatrix pop translate scale
0 0 1 0 360 arc tMatrix setmatrix} bdef
/FO {MakeOval stroke} bdef
/PO {MakeOval fill} bdef
/PD {currentlinewidth 2 div 0 360 arc fill
   PDlw -1 eq not {PDlw w /PDlw -1 def} if} def
/FA {newpath tMatrix currentmatrix pop translate scale
  0 0 1 5 -2 roll arc tMatrix setmatrix stroke} bdef
/PA {newpath tMatrix currentmatrix pop	translate 0 0 moveto scale
  0 0 1 5 -2 roll arc closepath tMatrix setmatrix fill} bdef
/FAn {newpath tMatrix currentmatrix pop translate scale
  0 0 1 5 -2 roll arcn tMatrix setmatrix stroke} bdef
/PAn {newpath tMatrix currentmatrix pop translate 0 0 moveto scale
  0 0 1 5 -2 roll arcn closepath tMatrix setmatrix fill} bdef
/vradius 0 def /hradius 0 def /lry 0 def
/lrx 0 def /uly 0 def /ulx 0 def /rad 0 def
/MRR {/vradius xdef /hradius xdef /lry xdef /lrx xdef /uly xdef
  /ulx xdef newpath tMatrix currentmatrix pop ulx hradius add uly
  vradius add translate hradius vradius scale 0 0 1 180 270 arc 
  tMatrix setmatrix lrx hradius sub uly vradius add translate
  hradius vradius scale 0 0 1 270 360 arc tMatrix setmatrix
  lrx hradius sub lry vradius sub translate hradius vradius scale
  0 0 1 0 90 arc tMatrix setmatrix ulx hradius add lry vradius sub
  translate hradius vradius scale 0 0 1 90 180 arc tMatrix setmatrix
  closepath} bdef
/FRR {MRR stroke } bdef
/PRR {MRR fill } bdef
/MlrRR {/lry xdef /lrx xdef /uly xdef /ulx xdef /rad lry uly sub 2 div def
  newpath tMatrix currentmatrix pop ulx rad add uly rad add translate
  rad rad scale 0 0 1 90 270 arc tMatrix setmatrix lrx rad sub lry rad
  sub translate rad rad scale 0 0 1 270 90 arc tMatrix setmatrix
  closepath} bdef
/FlrRR {MlrRR stroke } bdef
/PlrRR {MlrRR fill } bdef
/MtbRR {/lry xdef /lrx xdef /uly xdef /ulx xdef /rad lrx ulx sub 2 div def
  newpath tMatrix currentmatrix pop ulx rad add uly rad add translate
  rad rad scale 0 0 1 180 360 arc tMatrix setmatrix lrx rad sub lry rad
  sub translate rad rad scale 0 0 1 0 180 arc tMatrix setmatrix
  closepath} bdef
/FtbRR {MtbRR stroke } bdef
/PtbRR {MtbRR fill } bdef
/stri 6 array def /dtri 6 array def
/smat 6 array def /dmat 6 array def
/tmat1 6 array def /tmat2 6 array def /dif 3 array def
/asub {/ind2 exch def /ind1 exch def dup dup
  ind1 get exch ind2 get sub exch } bdef
/tri_to_matrix {
  2 0 asub 3 1 asub 4 0 asub 5 1 asub
  dup 0 get exch 1 get 7 -1 roll astore } bdef
/compute_transform {
  dmat dtri tri_to_matrix tmat1 invertmatrix 
  smat stri tri_to_matrix tmat2 concatmatrix } bdef
/ds {stri astore pop} bdef
/dt {dtri astore pop} bdef
/db {2 copy /cols xdef /rows xdef mul dup 3 mul string
  currentfile 
  3 index 0 eq {/ASCIIHexDecode filter}
  {/ASCII85Decode filter 3 index 2 eq {/RunLengthDecode filter} if }
  ifelse exch readstring pop
  dup 0 3 index getinterval /rbmap xdef
  dup 2 index dup getinterval /gbmap xdef
  1 index dup 2 mul exch getinterval /bbmap xdef pop pop}bdef
/it {gs np dtri aload pop moveto lineto lineto cp c
  cols rows 8 compute_transform 
  rbmap gbmap bbmap true 3 colorimage gr}bdef
/il {newpath moveto lineto stroke}bdef
currentdict end def
%%EndProlog

%%BeginSetup
MathWorks begin

0 cap

end
%%EndSetup

%%Page: 1 1
%%BeginPageSetup
%%PageBoundingBox:  -191   224   787   616
MathWorks begin
bpage
%%EndPageSetup

%%BeginObject: obj1
bplot

/dpi2point 12 def
portraitMode -2292 7392 csm

    0     0 11746  4700 rc
87 dict begin %Colortable dictionary
/c0 { 0.000000 0.000000 0.000000 sr} bdef
/c1 { 1.000000 1.000000 1.000000 sr} bdef
/c2 { 0.900000 0.000000 0.000000 sr} bdef
/c3 { 0.000000 0.820000 0.000000 sr} bdef
/c4 { 0.000000 0.000000 0.800000 sr} bdef
/c5 { 0.910000 0.820000 0.320000 sr} bdef
/c6 { 1.000000 0.260000 0.820000 sr} bdef
/c7 { 0.000000 0.820000 0.820000 sr} bdef
c0
1 j
1 sg
   0    0 11747 4701 rf
6 w
0 4418 9414 0 0 -4418 1166 4559 4 MP
PP
-9414 0 0 4418 9414 0 0 -4418 1166 4559 5 MP stroke
4 w
DO
SO
6 w
0 sg
1166  141 mt 10580  141 L
1166 4559 mt 10580 4559 L
10580 4559 mt 10580  141 L
1166 4559 mt 1166  141 L
1166 4559 mt 10580 4559 L
1166 4559 mt 1166  141 L
1166 4559 mt 1166 4464 L
1166  141 mt 1166  235 L
%%IncludeResource: font Helvetica
/Helvetica /WindowsLatin1Encoding 192 FMSR

1113 4771 mt 
(0) s
2107 4559 mt 2107 4464 L
2107  141 mt 2107  235 L
1974 4771 mt 
(0.1) s
3048 4559 mt 3048 4464 L
3048  141 mt 3048  235 L
2915 4771 mt 
(0.2) s
3990 4559 mt 3990 4464 L
3990  141 mt 3990  235 L
3857 4771 mt 
(0.3) s
4931 4559 mt 4931 4464 L
4931  141 mt 4931  235 L
4798 4771 mt 
(0.4) s
5873 4559 mt 5873 4464 L
5873  141 mt 5873  235 L
5740 4771 mt 
(0.5) s
6814 4559 mt 6814 4464 L
6814  141 mt 6814  235 L
6681 4771 mt 
(0.6) s
7755 4559 mt 7755 4464 L
7755  141 mt 7755  235 L
7622 4771 mt 
(0.7) s
8697 4559 mt 8697 4464 L
8697  141 mt 8697  235 L
8564 4771 mt 
(0.8) s
9638 4559 mt 9638 4464 L
9638  141 mt 9638  235 L
9505 4771 mt 
(0.9) s
10580 4559 mt 10580 4464 L
10580  141 mt 10580  235 L
10527 4771 mt 
(1) s
1166 4559 mt 1260 4559 L
10580 4559 mt 10485 4559 L
1025 4630 mt 
(0) s
1166 4117 mt 1260 4117 L
10580 4117 mt 10485 4117 L
 865 4188 mt 
(0.1) s
1166 3675 mt 1260 3675 L
10580 3675 mt 10485 3675 L
 865 3746 mt 
(0.2) s
1166 3233 mt 1260 3233 L
10580 3233 mt 10485 3233 L
 865 3304 mt 
(0.3) s
1166 2791 mt 1260 2791 L
10580 2791 mt 10485 2791 L
 865 2862 mt 
(0.4) s
1166 2350 mt 1260 2350 L
10580 2350 mt 10485 2350 L
 865 2421 mt 
(0.5) s
1166 1908 mt 1260 1908 L
10580 1908 mt 10485 1908 L
 865 1979 mt 
(0.6) s
1166 1466 mt 1260 1466 L
10580 1466 mt 10485 1466 L
 865 1537 mt 
(0.7) s
1166 1024 mt 1260 1024 L
10580 1024 mt 10485 1024 L
 865 1095 mt 
(0.8) s
1166  582 mt 1260  582 L
10580  582 mt 10485  582 L
 865  653 mt 
(0.9) s
1166  141 mt 1260  141 L
10580  141 mt 10485  141 L
1025  212 mt 
(1) s
1166  141 mt 10580  141 L
1166 4559 mt 10580 4559 L
10580 4559 mt 10580  141 L
1166 4559 mt 1166  141 L
gs 1166 141 9415 4419 rc
27.6 w
/c8 { 0.000000 0.000000 1.000000 sr} bdef
c8
10 3 9 2 10 2 9 2 10 3 9 2 9 2 10 2 
9 2 10 3 9 2 9 2 10 2 9 3 10 2 9 2 
10 2 9 2 9 3 10 2 9 2 10 2 9 3 9 2 
10 2 9 2 10 3 9 2 10 2 9 2 9 3 10 2 
9 2 10 2 9 3 9 2 10 2 9 2 10 3 9 2 
9 2 10 2 9 3 10 2 9 2 10 2 9 3 9 2 
10 2 9 2 10 3 9 2 9 2 10 2 9 3 10 2 
9 2 10 3 9 2 9 2 10 2 9 3 10 2 9 2 
9 2 10 3 9 2 10 2 9 3 9 2 10 2 9 3 
10 2 9 2 10 2 9 3 9 2 10 2 9 3 10 2 
9 2 9 3 10 2 9 2 10 2 9 3 10 2 9 2 
9 3 10 2 9 2 10 3 9 2 9 2 10 3 9 2 
10 2 9 3 9 2 10 2 9 3 10 2 9 2 10 3 
9 2 9 2 10 3 9 2 10 2 9 3 9 2 10 2 
9 3 10 2 9 2 10 3 9 2 9 2 10 3 9 2 
10 2 9 3 9 2 10 2 9 3 10 2 9 3 9 2 
10 2 9 3 10 2 9 2 10 3 9 2 9 3 10 2 
9 2 10 3 9 2 9 2 10 3 9 2 10 3 9 2 
10 2 9 3 9 2 10 3 9 2 10 2 9 3 9 2 
10 2 9 3 10 2 9 3 9 2 10 3 9 2 10 2 
9 3 10 2 9 3 9 2 10 2 9 3 10 2 9 3 
9 2 10 3 9 2 10 2 9 3 10 2 9 3 9 2 
10 3 9 2 10 2 9 3 9 2 10 3 9 2 10 3 
9 2 10 2 9 3 9 2 10 3 9 2 10 3 9 2 
9 3 10 2 9 3 10 2 9 3 9 2 10 2 9 3 
10 2 9 3 10 2 9 3 9 2 10 3 9 2 10 3 
9 2 9 3 10 2 9 3 10 2 9 3 10 2 9 3 
9 2 10 3 9 2 10 3 9 2 9 3 10 2 9 3 
10 2 9 3 9 2 10 3 9 2 10 3 9 2 10 3 
9 2 9 3 10 2 9 3 10 2 9 3 9 2 10 3 
9 3 10 2 9 3 10 2 9 3 9 2 10 3 9 2 
10 3 9 2 9 3 10 3 9 2 10 3 9 2 9 3 
10 2 9 3 10 2 9 3 10 3 9 2 9 3 10 2 
9 3 10 2 9 3 9 3 10 2 9 3 10 2 9 3 
10 3 9 2 9 3 10 2 9 3 10 2 9 3 9 3 
10 2 9 3 10 3 9 2 9 3 10 2 9 3 10 3 
9 2 10 3 9 2 9 3 10 3 9 2 10 3 9 3 
9 2 10 3 9 2 7765 3840 300 MP stroke
10 3 9 3 10 2 9 3 9 3 10 2 9 3 10 3 
9 2 9 3 10 3 9 2 10 3 9 3 9 2 10 3 
9 3 10 2 9 3 10 3 9 2 9 3 10 3 9 2 
10 3 9 3 9 2 10 3 9 3 10 3 9 2 10 3 
9 3 9 2 10 3 9 3 10 2 9 3 9 3 10 3 
9 2 10 3 9 3 10 2 9 3 9 3 10 3 9 2 
10 3 9 3 9 3 10 2 9 3 10 3 9 3 9 2 
10 3 9 3 10 3 9 2 10 3 9 3 9 3 10 2 
9 3 10 3 9 3 9 2 10 3 9 3 10 3 9 3 
10 2 9 3 9 3 10 3 9 3 10 2 9 3 9 3 
10 3 9 3 10 2 9 3 9 3 10 3 9 3 10 2 
9 3 10 3 9 3 9 3 10 3 9 2 10 3 9 3 
9 3 10 3 9 3 10 2 9 3 10 3 9 3 9 3 
10 3 9 3 10 2 9 3 9 3 10 3 9 3 10 3 
9 3 9 3 10 2 9 3 10 3 9 3 10 3 9 3 
9 3 10 3 9 3 10 3 9 2 9 3 10 3 9 3 
10 3 9 3 10 3 9 3 9 3 10 3 9 3 10 3 
9 3 9 3 10 2 9 3 10 3 9 3 9 3 10 3 
9 3 10 3 9 3 10 3 9 3 9 3 10 3 9 3 
10 3 9 3 9 3 10 3 9 3 10 3 9 3 10 3 
9 3 9 3 10 3 9 3 10 3 9 3 9 3 10 3 
9 3 10 3 9 3 9 3 10 3 9 3 10 3 9 3 
10 3 9 3 9 4 10 3 9 3 10 3 9 3 9 3 
10 3 9 3 10 3 9 3 10 3 9 3 9 3 10 4 
9 3 10 3 9 3 9 3 10 3 9 3 10 3 9 3 
9 4 10 3 9 3 10 3 9 3 10 3 9 3 9 3 
10 4 9 3 10 3 9 3 9 3 10 3 9 4 10 3 
9 3 10 3 9 3 9 3 10 4 9 3 10 3 9 3 
9 3 10 4 9 3 10 3 9 3 10 3 9 4 9 3 
10 3 9 3 10 4 9 3 9 3 10 3 9 4 10 3 
9 3 9 3 10 4 9 3 10 3 9 3 10 4 9 3 
9 3 10 4 9 3 10 3 9 3 9 4 10 3 9 3 
10 4 9 3 10 3 9 4 9 3 10 3 9 4 10 3 
9 3 9 4 10 3 9 3 10 4 9 3 9 3 10 4 
9 3 10 4 9 3 10 3 9 4 9 3 10 3 9 4 
10 3 9 4 9 3 10 4 9 3 10 3 9 4 10 3 
9 4 9 3 10 4 9 3 10 4 9 3 9 3 10 4 
9 3 10 4 9 3 4950 2942 300 MP stroke
9 4 10 3 9 4 10 3 9 4 10 3 9 4 9 3 
10 4 9 3 10 4 9 3 9 4 10 4 9 3 10 4 
9 3 10 4 9 3 9 4 10 3 9 4 10 4 9 3 
9 4 10 3 9 4 10 4 9 3 9 4 10 4 9 3 
10 4 9 3 10 4 9 4 9 3 10 4 9 4 10 3 
9 4 9 4 10 3 9 4 10 4 9 3 10 4 9 4 
9 4 10 3 9 4 10 4 9 4 9 3 10 4 9 4 
10 4 9 3 9 4 10 4 9 4 10 3 9 4 10 4 
9 4 9 4 10 3 9 4 10 4 9 4 9 4 10 4 
9 3 10 4 9 4 10 4 9 4 9 4 10 4 9 4 
10 3 9 4 9 4 10 4 9 4 10 4 9 4 10 4 
9 4 9 4 10 4 9 4 10 4 9 4 9 4 10 4 
9 4 10 4 9 4 9 4 10 4 9 4 10 4 9 4 
10 4 9 4 9 4 10 4 9 4 10 4 9 4 9 4 
10 4 9 5 10 4 9 4 10 4 9 4 9 4 10 4 
9 5 10 4 9 4 9 4 10 4 9 4 10 5 9 4 
9 4 10 4 9 5 10 4 9 4 10 4 9 5 9 4 
10 4 9 4 10 5 9 4 9 4 10 5 9 4 10 4 
9 5 10 4 9 5 9 4 10 4 9 5 10 4 9 4 
9 5 10 4 9 5 10 4 9 5 9 4 10 5 9 4 
10 5 9 4 10 5 9 4 9 5 10 4 9 5 10 4 
9 5 9 5 10 4 9 5 10 4 9 5 10 5 9 4 
9 5 10 5 9 4 10 5 9 5 9 4 10 5 9 5 
10 4 9 5 9 5 10 5 9 5 10 4 9 5 10 5 
9 5 9 5 10 4 9 5 10 5 9 5 9 5 10 5 
9 5 10 5 9 5 10 5 9 5 9 5 10 5 9 5 
10 5 9 5 9 5 10 5 9 5 10 5 9 5 9 5 
10 5 9 5 10 6 9 5 10 5 9 5 9 5 10 6 
9 5 10 5 9 5 9 6 10 5 9 5 10 6 9 5 
10 5 9 6 9 5 10 5 9 6 10 5 9 6 9 5 
10 6 9 5 10 6 9 5 10 6 9 6 9 5 10 6 
9 5 10 6 9 6 9 5 10 6 9 6 10 6 9 5 
9 6 10 6 9 6 10 6 9 6 10 5 9 6 9 6 
10 6 9 6 10 6 9 6 9 6 10 6 9 6 10 7 
9 6 10 6 9 6 9 6 10 7 9 6 10 6 9 6 
9 7 10 6 9 6 10 7 9 6 9 7 10 6 9 7 
10 6 9 7 10 7 9 6 9 7 10 7 9 6 10 7 
9 7 9 7 10 7 2135 1558 300 MP stroke
9 7 10 6 9 7 10 7 9 7 9 8 10 7 9 7 
10 7 9 7 9 7 10 8 9 7 10 7 9 8 9 7 
10 8 9 7 10 8 9 8 10 7 9 8 9 8 10 8 
9 8 10 8 9 8 9 8 10 8 9 8 10 8 9 8 
10 9 9 8 9 8 10 9 9 8 10 9 9 9 9 9 
10 8 9 9 10 9 9 9 9 10 10 9 9 9 10 9 
9 10 10 9 9 10 9 10 10 10 9 10 10 10 9 10 
9 10 10 10 9 11 10 10 9 11 10 11 9 11 9 11 
10 11 9 12 10 11 9 12 9 12 10 12 9 12 10 13 
9 12 9 13 10 13 9 14 10 13 9 14 10 14 9 14 
9 15 10 15 9 16 10 16 9 16 9 16 10 18 9 17 
10 19 9 19 10 20 9 20 9 22 10 22 9 24 10 26 
9 27 9 30 10 33 9 38 10 44 9 58 9 139 1166 141 104 MP stroke
48 w
gs 6682 3438 1846 700 rc
/c9 { 0.000000 1.000000 1.000000 sr} bdef
c9
  36   36 6804 3560 FO
  36   36 6814 3563 FO
  36   36 6823 3566 FO
  36   36 6833 3568 FO
  36   36 6842 3571 FO
  36   36 6852 3574 FO
  36   36 6861 3577 FO
  36   36 6870 3580 FO
  36   36 6880 3583 FO
  36   36 6889 3585 FO
  36   36 6899 3588 FO
  36   36 6908 3591 FO
  36   36 6917 3594 FO
  36   36 6927 3597 FO
  36   36 6936 3600 FO
  36   36 6946 3602 FO
  36   36 6955 3605 FO
  36   36 6965 3608 FO
  36   36 6974 3611 FO
  36   36 6983 3614 FO
  36   36 6993 3616 FO
  36   36 7002 3619 FO
  36   36 7012 3622 FO
  36   36 7021 3625 FO
  36   36 7030 3628 FO
  36   36 7040 3630 FO
  36   36 7049 3633 FO
  36   36 7059 3636 FO
  36   36 7068 3639 FO
  36   36 7077 3642 FO
  36   36 7087 3644 FO
  36   36 7096 3647 FO
  36   36 7106 3650 FO
  36   36 7115 3653 FO
  36   36 7125 3656 FO
  36   36 7134 3658 FO
  36   36 7143 3661 FO
  36   36 7153 3664 FO
  36   36 7162 3667 FO
  36   36 7172 3669 FO
  36   36 7181 3672 FO
  36   36 7190 3675 FO
  36   36 7200 3678 FO
  36   36 7209 3680 FO
  36   36 7219 3683 FO
  36   36 7228 3686 FO
  36   36 7238 3689 FO
  36   36 7247 3691 FO
  36   36 7256 3694 FO
  36   36 7266 3697 FO
  36   36 7275 3700 FO
  36   36 7285 3702 FO
  36   36 7294 3705 FO
  36   36 7303 3708 FO
  36   36 7313 3711 FO
  36   36 7322 3713 FO
  36   36 7332 3716 FO
  36   36 7341 3719 FO
  36   36 7350 3722 FO
  36   36 7360 3724 FO
  36   36 7369 3727 FO
  36   36 7379 3730 FO
  36   36 7388 3732 FO
  36   36 7398 3735 FO
  36   36 7407 3738 FO
  36   36 7416 3741 FO
  36   36 7426 3743 FO
  36   36 7435 3746 FO
  36   36 7445 3749 FO
  36   36 7454 3751 FO
  36   36 7463 3754 FO
  36   36 7473 3757 FO
  36   36 7482 3759 FO
  36   36 7492 3762 FO
  36   36 7501 3765 FO
  36   36 7511 3768 FO
  36   36 7520 3770 FO
  36   36 7529 3773 FO
  36   36 7539 3776 FO
  36   36 7548 3778 FO
  36   36 7558 3781 FO
  36   36 7567 3784 FO
  36   36 7576 3786 FO
  36   36 7586 3789 FO
  36   36 7595 3792 FO
  36   36 7605 3794 FO
  36   36 7614 3797 FO
  36   36 7624 3800 FO
  36   36 7633 3802 FO
  36   36 7642 3805 FO
  36   36 7652 3808 FO
  36   36 7661 3810 FO
  36   36 7671 3813 FO
  36   36 7680 3816 FO
  36   36 7689 3818 FO
  36   36 7699 3821 FO
  36   36 7708 3824 FO
  36   36 7718 3826 FO
  36   36 7727 3829 FO
  36   36 7736 3832 FO
  36   36 7746 3834 FO
  36   36 7755 3837 FO
  36   36 7765 3840 FO
  36   36 7774 3842 FO
  36   36 7784 3845 FO
  36   36 7793 3847 FO
  36   36 7802 3850 FO
  36   36 7812 3853 FO
  36   36 7821 3855 FO
  36   36 7831 3858 FO
  36   36 7840 3861 FO
  36   36 7849 3863 FO
  36   36 7859 3866 FO
  36   36 7868 3868 FO
  36   36 7878 3871 FO
  36   36 7887 3874 FO
  36   36 7897 3876 FO
  36   36 7906 3879 FO
  36   36 7915 3881 FO
  36   36 7925 3884 FO
  36   36 7934 3887 FO
  36   36 7944 3889 FO
  36   36 7953 3892 FO
  36   36 7962 3895 FO
  36   36 7972 3897 FO
  36   36 7981 3900 FO
  36   36 7991 3902 FO
  36   36 8000 3905 FO
  36   36 8009 3907 FO
  36   36 8019 3910 FO
  36   36 8028 3913 FO
  36   36 8038 3915 FO
  36   36 8047 3918 FO
  36   36 8057 3920 FO
  36   36 8066 3923 FO
  36   36 8075 3926 FO
  36   36 8085 3928 FO
  36   36 8094 3931 FO
  36   36 8104 3933 FO
  36   36 8113 3936 FO
  36   36 8122 3938 FO
  36   36 8132 3941 FO
  36   36 8141 3944 FO
  36   36 8151 3946 FO
  36   36 8160 3949 FO
  36   36 8170 3951 FO
  36   36 8179 3954 FO
  36   36 8188 3956 FO
  36   36 8198 3959 FO
  36   36 8207 3961 FO
  36   36 8217 3964 FO
  36   36 8226 3967 FO
  36   36 8235 3969 FO
  36   36 8245 3972 FO
  36   36 8254 3974 FO
  36   36 8264 3977 FO
  36   36 8273 3979 FO
  36   36 8282 3982 FO
  36   36 8292 3984 FO
  36   36 8301 3987 FO
  36   36 8311 3989 FO
  36   36 8320 3992 FO
  36   36 8330 3995 FO
  36   36 8339 3997 FO
  36   36 8348 4000 FO
  36   36 8358 4002 FO
  36   36 8367 4005 FO
  36   36 8377 4007 FO
  36   36 8386 4010 FO
  36   36 8395 4012 FO
  36   36 8405 4015 FO
gr

c9
6 w
gs 6659 3431 1720 666 rc
0 j
0 -94 -94 0 0 94 94 0 7392 3700 5 MP
/c10 { 1.000000 0.000000 0.000000 sr} bdef
c10
gs
PP
gr
DP
0 -94 -94 0 0 94 94 0 7974 3864 5 MP
gs
PP
gr
DP
0 -94 -94 0 0 94 94 0 7429 3711 5 MP
gs
PP
gr
DP
0 -94 -94 0 0 94 94 0 7524 3738 5 MP
gs
PP
gr
DP
0 -94 -94 0 0 94 94 0 7016 3590 5 MP
gs
PP
gr
DP
0 -94 -94 0 0 94 94 0 6800 3526 5 MP
gs
PP
gr
DP
0 -94 -94 0 0 94 94 0 7230 3653 5 MP
gs
PP
gr
DP
0 -94 -94 0 0 94 94 0 6733 3505 5 MP
gs
PP
gr
DP
0 -94 -94 0 0 94 94 0 7230 3653 5 MP
gs
PP
gr
DP
0 -94 -94 0 0 94 94 0 8210 3928 5 MP
gs
PP
gr
DP
0 -94 -94 0 0 94 94 0 6800 3526 5 MP
gs
PP
gr
DP
0 -94 -94 0 0 94 94 0 7097 3614 5 MP
gs
PP
gr
DP
0 -94 -94 0 0 94 94 0 7392 3700 5 MP
gs
PP
gr
DP
0 -94 -94 0 0 94 94 0 8210 3928 5 MP
gs
PP
gr
DP
0 -94 -94 0 0 94 94 0 6733 3505 5 MP
gs
PP
gr
DP
0 -94 -94 0 0 94 94 0 7974 3864 5 MP
gs
PP
gr
DP
0 -94 -94 0 0 94 94 0 6800 3526 5 MP
gs
PP
gr
DP
0 -94 -94 0 0 94 94 0 7016 3590 5 MP
gs
PP
gr
DP
0 -94 -94 0 0 94 94 0 7429 3711 5 MP
gs
PP
gr
DP
0 -94 -94 0 0 94 94 0 6856 3543 5 MP
gs
PP
gr
DP
0 -94 -94 0 0 94 94 0 7632 3768 5 MP
gs
PP
gr
DP
0 -94 -94 0 0 94 94 0 8210 3928 5 MP
gs
PP
gr
DP
0 -94 -94 0 0 94 94 0 7097 3614 5 MP
gs
PP
gr
DP
0 -94 -94 0 0 94 94 0 7632 3768 5 MP
gs
PP
gr
DP
0 -94 -94 0 0 94 94 0 8041 3882 5 MP
gs
PP
gr
DP
0 -94 -94 0 0 94 94 0 7632 3768 5 MP
gs
PP
gr
DP
0 -94 -94 0 0 94 94 0 7097 3614 5 MP
gs
PP
gr
DP
0 -94 -94 0 0 94 94 0 7016 3590 5 MP
gs
PP
gr
DP
0 -94 -94 0 0 94 94 0 7552 3746 5 MP
gs
PP
gr
DP
0 -94 -94 0 0 94 94 0 8210 3928 5 MP
gs
PP
gr
DP
0 -94 -94 0 0 94 94 0 7429 3711 5 MP
gs
PP
gr
DP
0 -94 -94 0 0 94 94 0 6821 3532 5 MP
gs
PP
gr
DP
0 -94 -94 0 0 94 94 0 6800 3526 5 MP
gs
PP
gr
DP
0 -94 -94 0 0 94 94 0 7016 3590 5 MP
gs
PP
gr
DP
0 -94 -94 0 0 94 94 0 7632 3768 5 MP
gs
PP
gr
DP
0 -94 -94 0 0 94 94 0 7097 3614 5 MP
gs
PP
gr
DP
0 -94 -94 0 0 94 94 0 8081 3893 5 MP
gs
PP
gr
DP
0 -94 -94 0 0 94 94 0 7392 3700 5 MP
gs
PP
gr
DP
gr

c10
360 w
gs 7033 2953 1445 1445 rc
120 W
0 sg
7755 3675 PD
gr

0 sg
gr

360 w
%%IncludeResource: font Helvetica
/Helvetica /WindowsLatin1Encoding 120 FMSR

1140 4618 mt 
( ) s
10555  199 mt 
( ) s
6 w
1 sg
0 792 3789 0 0 -792 6658 999 4 MP
PP
-3789 0 0 792 3789 0 0 -792 6658 999 5 MP stroke
4 w
DO
SO
6 w
6658  207 mt 10447  207 L
6658  999 mt 10447  999 L
10447  999 mt 10447  207 L
6658  999 mt 6658  207 L
6658  999 mt 10447  999 L
6658  999 mt 6658  207 L
6658  207 mt 10447  207 L
6658  999 mt 10447  999 L
10447  999 mt 10447  207 L
6658  999 mt 6658  207 L
0 sg
%%IncludeResource: font Courier
/Courier /WindowsLatin1Encoding 288 FMSR

7236  509 mt 
(Preferred Region) s
gs 6658 207 3790 793 rc
48 w
gs 6847 293 245 245 rc
c9
  36   36 6969  415 FO
gr

c9
gr

48 w
c9
0 sg
7236  884 mt 
(Obtained Soloutions) s
gs 6658 207 3790 793 rc
6 w
gs 6848 669 243 243 rc
0 j
0 -94 -94 0 0 94 94 0 6922 743 5 MP
c10
gs
PP
gr
DP
gr

c10
gr

6 w
c10
0 sg
%%IncludeResource: font Courier-Bold
/Courier-Bold /WindowsLatin1Encoding 288 FMSR

7604 3216 mt 
(\(0.7,0.2\)) s

end %%Color Dict

eplot
%%EndObject

epage
end

showpage

%%Trailer
%%EOF
