%!PS-Adobe-3.0 EPSF-3.0
%%Creator: MATLAB, The MathWorks, Inc. Version 7.13.0.564 (R2011b). Operating System: Microsoft Windows XP.
%%Title: D:\DriveG\Sem2-2012\Program\ReferenceMetric-v3\metricfig\zdt1\11-02-13\zdt1-te.eps
%%CreationDate: 02/11/2013  16:24:21
%%DocumentNeededFonts: Helvetica
%%+ Courier-Bold
%%DocumentProcessColors: Cyan Magenta Yellow Black
%%LanguageLevel: 2
%%Pages: 1
%%BoundingBox:  -329    76   926   765
%%EndComments

%%BeginProlog
% MathWorks dictionary
/MathWorks 160 dict begin
% definition operators
/bdef {bind def} bind def
/ldef {load def} bind def
/xdef {exch def} bdef
/xstore {exch store} bdef
% operator abbreviations
/c  /clip ldef
/cc /concat ldef
/cp /closepath ldef
/gr /grestore ldef
/gs /gsave ldef
/mt /moveto ldef
/np /newpath ldef
/cm /currentmatrix ldef
/sm /setmatrix ldef
/rm /rmoveto ldef
/rl /rlineto ldef
/s {show newpath} bdef
/sc {setcmykcolor} bdef
/sr /setrgbcolor ldef
/sg /setgray ldef
/w /setlinewidth ldef
/j /setlinejoin ldef
/cap /setlinecap ldef
/rc {rectclip} bdef
/rf {rectfill} bdef
% page state control
/pgsv () def
/bpage {/pgsv save def} bdef
/epage {pgsv restore} bdef
/bplot /gsave ldef
/eplot {stroke grestore} bdef
% orientation switch
/portraitMode 0 def /landscapeMode 1 def /rotateMode 2 def
% coordinate system mappings
/dpi2point 0 def
% font control
/FontSize 0 def
/FMS {/FontSize xstore findfont [FontSize 0 0 FontSize neg 0 0]
  makefont setfont} bdef
/ISOLatin1Encoding where {pop /WindowsLatin1Encoding 256 array bdef
ISOLatin1Encoding WindowsLatin1Encoding copy pop
/.notdef/.notdef/quotesinglbase/florin/quotedblbase/ellipsis/dagger
/daggerdbl/circumflex/perthousand/Scaron/guilsinglleft/OE/.notdef/.notdef
/.notdef/.notdef/quoteleft/quoteright/quotedblleft/quotedblright/bullet
/endash/emdash/tilde/trademark/scaron/guilsinglright/oe/.notdef/.notdef
/Ydieresis WindowsLatin1Encoding 128 32 getinterval astore pop}
{/WindowsLatin1Encoding StandardEncoding bdef} ifelse
/reencode {exch dup where {pop load} {pop StandardEncoding} ifelse
  exch dup 3 1 roll findfont dup length dict begin
  { 1 index /FID ne {def}{pop pop} ifelse } forall
  /Encoding exch def currentdict end definefont pop} bdef
/isroman {findfont /CharStrings get /Agrave known} bdef
/FMSR {3 1 roll 1 index dup isroman {reencode} {pop pop} ifelse
  exch FMS} bdef
/csm {1 dpi2point div -1 dpi2point div scale neg translate
 dup landscapeMode eq {pop -90 rotate}
  {rotateMode eq {90 rotate} if} ifelse} bdef
% line types: solid, dotted, dashed, dotdash
/SO { [] 0 setdash } bdef
/DO { [.5 dpi2point mul 4 dpi2point mul] 0 setdash } bdef
/DA { [6 dpi2point mul] 0 setdash } bdef
/DD { [.5 dpi2point mul 4 dpi2point mul 6 dpi2point mul 4
  dpi2point mul] 0 setdash } bdef
% macros for lines and objects
/L {lineto stroke} bdef
/MP {3 1 roll moveto 1 sub {rlineto} repeat} bdef
/AP {{rlineto} repeat} bdef
/PDlw -1 def
/W {/PDlw currentlinewidth def setlinewidth} def
/PP {closepath eofill} bdef
/DP {closepath stroke} bdef
/MR {4 -2 roll moveto dup  0 exch rlineto exch 0 rlineto
  neg 0 exch rlineto closepath} bdef
/FR {MR stroke} bdef
/PR {MR fill} bdef
/L1i {{currentfile picstr readhexstring pop} image} bdef
/tMatrix matrix def
/MakeOval {newpath tMatrix currentmatrix pop translate scale
0 0 1 0 360 arc tMatrix setmatrix} bdef
/FO {MakeOval stroke} bdef
/PO {MakeOval fill} bdef
/PD {currentlinewidth 2 div 0 360 arc fill
   PDlw -1 eq not {PDlw w /PDlw -1 def} if} def
/FA {newpath tMatrix currentmatrix pop translate scale
  0 0 1 5 -2 roll arc tMatrix setmatrix stroke} bdef
/PA {newpath tMatrix currentmatrix pop	translate 0 0 moveto scale
  0 0 1 5 -2 roll arc closepath tMatrix setmatrix fill} bdef
/FAn {newpath tMatrix currentmatrix pop translate scale
  0 0 1 5 -2 roll arcn tMatrix setmatrix stroke} bdef
/PAn {newpath tMatrix currentmatrix pop translate 0 0 moveto scale
  0 0 1 5 -2 roll arcn closepath tMatrix setmatrix fill} bdef
/vradius 0 def /hradius 0 def /lry 0 def
/lrx 0 def /uly 0 def /ulx 0 def /rad 0 def
/MRR {/vradius xdef /hradius xdef /lry xdef /lrx xdef /uly xdef
  /ulx xdef newpath tMatrix currentmatrix pop ulx hradius add uly
  vradius add translate hradius vradius scale 0 0 1 180 270 arc 
  tMatrix setmatrix lrx hradius sub uly vradius add translate
  hradius vradius scale 0 0 1 270 360 arc tMatrix setmatrix
  lrx hradius sub lry vradius sub translate hradius vradius scale
  0 0 1 0 90 arc tMatrix setmatrix ulx hradius add lry vradius sub
  translate hradius vradius scale 0 0 1 90 180 arc tMatrix setmatrix
  closepath} bdef
/FRR {MRR stroke } bdef
/PRR {MRR fill } bdef
/MlrRR {/lry xdef /lrx xdef /uly xdef /ulx xdef /rad lry uly sub 2 div def
  newpath tMatrix currentmatrix pop ulx rad add uly rad add translate
  rad rad scale 0 0 1 90 270 arc tMatrix setmatrix lrx rad sub lry rad
  sub translate rad rad scale 0 0 1 270 90 arc tMatrix setmatrix
  closepath} bdef
/FlrRR {MlrRR stroke } bdef
/PlrRR {MlrRR fill } bdef
/MtbRR {/lry xdef /lrx xdef /uly xdef /ulx xdef /rad lrx ulx sub 2 div def
  newpath tMatrix currentmatrix pop ulx rad add uly rad add translate
  rad rad scale 0 0 1 180 360 arc tMatrix setmatrix lrx rad sub lry rad
  sub translate rad rad scale 0 0 1 0 180 arc tMatrix setmatrix
  closepath} bdef
/FtbRR {MtbRR stroke } bdef
/PtbRR {MtbRR fill } bdef
/stri 6 array def /dtri 6 array def
/smat 6 array def /dmat 6 array def
/tmat1 6 array def /tmat2 6 array def /dif 3 array def
/asub {/ind2 exch def /ind1 exch def dup dup
  ind1 get exch ind2 get sub exch } bdef
/tri_to_matrix {
  2 0 asub 3 1 asub 4 0 asub 5 1 asub
  dup 0 get exch 1 get 7 -1 roll astore } bdef
/compute_transform {
  dmat dtri tri_to_matrix tmat1 invertmatrix 
  smat stri tri_to_matrix tmat2 concatmatrix } bdef
/ds {stri astore pop} bdef
/dt {dtri astore pop} bdef
/db {2 copy /cols xdef /rows xdef mul dup 3 mul string
  currentfile 
  3 index 0 eq {/ASCIIHexDecode filter}
  {/ASCII85Decode filter 3 index 2 eq {/RunLengthDecode filter} if }
  ifelse exch readstring pop
  dup 0 3 index getinterval /rbmap xdef
  dup 2 index dup getinterval /gbmap xdef
  1 index dup 2 mul exch getinterval /bbmap xdef pop pop}bdef
/it {gs np dtri aload pop moveto lineto lineto cp c
  cols rows 8 compute_transform 
  rbmap gbmap bbmap true 3 colorimage gr}bdef
/il {newpath moveto lineto stroke}bdef
currentdict end def
%%EndProlog

%%BeginSetup
MathWorks begin

0 cap

end
%%EndSetup

%%Page: 1 1
%%BeginPageSetup
%%PageBoundingBox:  -329    76   926   765
MathWorks begin
bpage
%%EndPageSetup

%%BeginObject: obj1
bplot

/dpi2point 12 def
portraitMode -3948 9180 csm

    0     0 15060  8257 rc
86 dict begin %Colortable dictionary
/c0 { 0.000000 0.000000 0.000000 sr} bdef
/c1 { 1.000000 1.000000 1.000000 sr} bdef
/c2 { 0.900000 0.000000 0.000000 sr} bdef
/c3 { 0.000000 0.820000 0.000000 sr} bdef
/c4 { 0.000000 0.000000 0.800000 sr} bdef
/c5 { 0.910000 0.820000 0.320000 sr} bdef
/c6 { 1.000000 0.260000 0.820000 sr} bdef
/c7 { 0.000000 0.820000 0.820000 sr} bdef
c0
1 j
1 sg
   0    0 15061 8258 rf
6 w
0 7482 11357 0 0 -7482 1973 7779 4 MP
PP
-11357 0 0 7482 11357 0 0 -7482 1973 7779 5 MP stroke
4 w
DO
SO
6 w
0 sg
1973  297 mt 13330  297 L
1973 7779 mt 13330 7779 L
13330 7779 mt 13330  297 L
1973 7779 mt 1973  297 L
1973 7779 mt 13330 7779 L
1973 7779 mt 1973  297 L
1973 7779 mt 1973 7665 L
1973  297 mt 1973  410 L
%%IncludeResource: font Helvetica
/Helvetica /WindowsLatin1Encoding 240 FMSR

1907 8036 mt 
(0) s
3108 7779 mt 3108 7665 L
3108  297 mt 3108  410 L
2942 8036 mt 
(0.1) s
4244 7779 mt 4244 7665 L
4244  297 mt 4244  410 L
4078 8036 mt 
(0.2) s
5380 7779 mt 5380 7665 L
5380  297 mt 5380  410 L
5214 8036 mt 
(0.3) s
6515 7779 mt 6515 7665 L
6515  297 mt 6515  410 L
6349 8036 mt 
(0.4) s
7651 7779 mt 7651 7665 L
7651  297 mt 7651  410 L
7485 8036 mt 
(0.5) s
8787 7779 mt 8787 7665 L
8787  297 mt 8787  410 L
8621 8036 mt 
(0.6) s
9922 7779 mt 9922 7665 L
9922  297 mt 9922  410 L
9756 8036 mt 
(0.7) s
11058 7779 mt 11058 7665 L
11058  297 mt 11058  410 L
10892 8036 mt 
(0.8) s
12194 7779 mt 12194 7665 L
12194  297 mt 12194  410 L
12028 8036 mt 
(0.9) s
13330 7779 mt 13330 7665 L
13330  297 mt 13330  410 L
13264 8036 mt 
(1) s
1973 7779 mt 2086 7779 L
13330 7779 mt 13216 7779 L
1805 7868 mt 
(0) s
1973 7030 mt 2086 7030 L
13330 7030 mt 13216 7030 L
1605 7119 mt 
(0.1) s
1973 6282 mt 2086 6282 L
13330 6282 mt 13216 6282 L
1605 6371 mt 
(0.2) s
1973 5534 mt 2086 5534 L
13330 5534 mt 13216 5534 L
1605 5623 mt 
(0.3) s
1973 4786 mt 2086 4786 L
13330 4786 mt 13216 4786 L
1605 4875 mt 
(0.4) s
1973 4038 mt 2086 4038 L
13330 4038 mt 13216 4038 L
1605 4127 mt 
(0.5) s
1973 3289 mt 2086 3289 L
13330 3289 mt 13216 3289 L
1605 3378 mt 
(0.6) s
1973 2541 mt 2086 2541 L
13330 2541 mt 13216 2541 L
1605 2630 mt 
(0.7) s
1973 1793 mt 2086 1793 L
13330 1793 mt 13216 1793 L
1605 1882 mt 
(0.8) s
1973 1045 mt 2086 1045 L
13330 1045 mt 13216 1045 L
1605 1134 mt 
(0.9) s
1973  297 mt 2086  297 L
13330  297 mt 13216  297 L
1805  386 mt 
(1) s
1973  297 mt 13330  297 L
1973 7779 mt 13330 7779 L
13330 7779 mt 13330  297 L
1973 7779 mt 1973  297 L
gs 1973 297 11358 7483 rc
gs 9342 6280 794 405 rc
/c8 { 1.000000 0.000000 0.000000 sr} bdef
c8
9666 6469 mt 9738 6469 L
9702 6433 mt 9702 6505 L
9379 6353 mt 9451 6353 L
9415 6317 mt 9415 6389 L
9891 6558 mt 9963 6558 L
9927 6522 mt 9927 6594 L
9809 6526 mt 9881 6526 L
9845 6490 mt 9845 6562 L
9640 6459 mt 9712 6459 L
9676 6423 mt 9676 6495 L
9999 6600 mt 10071 6600 L
10035 6564 mt 10035 6636 L
9691 6479 mt 9763 6479 L
9727 6443 mt 9727 6515 L
9482 6395 mt 9554 6395 L
9518 6359 mt 9518 6431 L
9437 6377 mt 9509 6377 L
9473 6341 mt 9473 6413 L
9601 6443 mt 9673 6443 L
9637 6407 mt 9637 6479 L
9482 6395 mt 9554 6395 L
9518 6359 mt 9518 6431 L
9379 6353 mt 9451 6353 L
9415 6317 mt 9415 6389 L
9553 6424 mt 9625 6424 L
9589 6388 mt 9589 6460 L
9501 6403 mt 9573 6403 L
9537 6367 mt 9537 6439 L
9726 6493 mt 9798 6493 L
9762 6457 mt 9762 6529 L
9809 6526 mt 9881 6526 L
9845 6490 mt 9845 6562 L
9426 6372 mt 9498 6372 L
9462 6336 mt 9462 6408 L
10026 6611 mt 10098 6611 L
10062 6575 mt 10062 6647 L
9666 6469 mt 9738 6469 L
9702 6433 mt 9702 6505 L
9501 6403 mt 9573 6403 L
9537 6367 mt 9537 6439 L
9601 6443 mt 9673 6443 L
9637 6407 mt 9637 6479 L
9423 6371 mt 9495 6371 L
9459 6335 mt 9459 6407 L
9751 6503 mt 9823 6503 L
9787 6467 mt 9787 6539 L
9601 6443 mt 9673 6443 L
9637 6407 mt 9637 6479 L
9999 6600 mt 10071 6600 L
10035 6564 mt 10035 6636 L
9809 6526 mt 9881 6526 L
9845 6490 mt 9845 6562 L
9437 6377 mt 9509 6377 L
9473 6341 mt 9473 6413 L
9774 6512 mt 9846 6512 L
9810 6476 mt 9810 6548 L
9809 6526 mt 9881 6526 L
9845 6490 mt 9845 6562 L
9553 6424 mt 9625 6424 L
9589 6388 mt 9589 6460 L
9774 6512 mt 9846 6512 L
9810 6476 mt 9810 6548 L
9859 6545 mt 9931 6545 L
9895 6509 mt 9895 6581 L
9691 6479 mt 9763 6479 L
9727 6443 mt 9727 6515 L
9501 6403 mt 9573 6403 L
9537 6367 mt 9537 6439 L
9601 6443 mt 9673 6443 L
9637 6407 mt 9637 6479 L
9809 6526 mt 9881 6526 L
9845 6490 mt 9845 6562 L
9553 6424 mt 9625 6424 L
9589 6388 mt 9589 6460 L
9774 6512 mt 9846 6512 L
9810 6476 mt 9810 6548 L
9553 6424 mt 9625 6424 L
9589 6388 mt 9589 6460 L
gr

c8
27.6 w
/c9 { 0.000000 0.000000 1.000000 sr} bdef
c9
12 4 11 4 12 4 11 3 11 4 12 4 11 4 11 3 
12 4 11 4 11 4 12 4 11 3 11 4 12 4 11 4 
12 3 11 4 11 4 12 4 11 3 11 4 12 4 11 4 
11 4 12 3 11 4 11 4 12 4 11 4 12 3 11 4 
11 4 12 4 11 4 11 3 12 4 11 4 11 4 12 4 
11 3 11 4 12 4 11 4 12 4 11 4 11 3 12 4 
11 4 11 4 12 4 11 4 11 3 12 4 11 4 11 4 
12 4 11 4 12 4 11 3 11 4 12 4 11 4 11 4 
12 4 11 4 11 3 12 4 11 4 11 4 12 4 11 4 
12 4 11 4 11 4 12 3 11 4 11 4 12 4 11 4 
11 4 12 4 11 4 11 4 12 4 11 3 12 4 11 4 
11 4 12 4 11 4 11 4 12 4 11 4 11 4 12 4 
11 4 11 4 12 4 11 3 12 4 11 4 11 4 12 4 
11 4 11 4 12 4 11 4 11 4 12 4 11 4 11 4 
12 4 11 4 12 4 11 4 11 4 12 4 11 4 11 4 
12 4 11 4 11 4 12 4 11 4 11 4 12 4 11 4 
12 4 11 4 11 4 12 4 11 4 11 4 12 4 11 4 
11 4 12 4 11 4 11 4 12 4 11 4 12 4 11 4 
11 4 12 4 11 4 11 4 12 4 11 4 11 4 12 5 
11 4 11 4 12 4 11 4 12 4 11 4 11 4 12 4 
11 4 11 4 12 4 11 4 11 5 12 4 11 4 11 4 
12 4 11 4 12 4 11 4 11 4 12 5 11 4 11 4 
12 4 11 4 11 4 12 4 11 4 11 5 12 4 11 4 
12 4 11 4 11 4 12 4 11 5 11 4 12 4 11 4 
11 4 12 4 11 5 11 4 12 4 11 4 12 4 11 4 
11 5 12 4 11 4 11 4 12 4 11 5 11 4 12 4 
11 4 11 4 12 5 11 4 12 4 11 4 11 4 12 5 
11 4 11 4 12 4 11 5 11 4 12 4 11 4 11 5 
12 4 11 4 12 4 11 5 11 4 12 4 11 4 11 5 
12 4 11 4 11 4 12 5 11 4 11 4 12 5 11 4 
12 4 11 4 11 5 12 4 11 4 11 5 12 4 11 4 
11 5 12 4 11 4 11 5 12 4 11 4 12 5 11 4 
11 4 12 5 11 4 11 4 12 5 11 4 11 4 12 5 
11 4 11 4 12 5 11 4 12 4 11 5 11 4 12 5 
11 4 11 4 12 5 11 4 11 5 12 4 11 4 11 5 
12 4 11 5 12 4 11 4 11 5 12 4 11 5 11 4 
12 5 11 4 11 4 12 5 11 4 11 5 12 4 11 5 
12 4 11 5 11 4 9934 6561 300 MP stroke
12 5 11 4 11 5 12 4 11 5 11 4 12 4 11 5 
11 4 12 5 11 4 12 5 11 4 11 5 12 5 11 4 
11 5 12 4 11 5 11 4 12 5 11 4 11 5 12 4 
11 5 12 4 11 5 11 5 12 4 11 5 11 4 12 5 
11 4 11 5 12 5 11 4 11 5 12 4 11 5 12 4 
11 5 11 5 12 4 11 5 11 5 12 4 11 5 11 4 
12 5 11 5 11 4 12 5 11 5 12 4 11 5 11 5 
12 4 11 5 11 5 12 4 11 5 11 5 12 4 11 5 
11 5 12 4 11 5 12 5 11 4 11 5 12 5 11 5 
11 4 12 5 11 5 11 4 12 5 11 5 11 5 12 4 
11 5 12 5 11 5 11 4 12 5 11 5 11 5 12 5 
11 4 11 5 12 5 11 5 11 4 12 5 11 5 12 5 
11 5 11 4 12 5 11 5 11 5 12 5 11 5 11 4 
12 5 11 5 11 5 12 5 11 5 12 5 11 4 11 5 
12 5 11 5 11 5 12 5 11 5 11 5 12 5 11 4 
11 5 12 5 11 5 12 5 11 5 11 5 12 5 11 5 
11 5 12 5 11 5 11 5 12 5 11 5 11 5 12 5 
11 5 12 5 11 4 11 5 12 5 11 5 11 5 12 6 
11 5 11 5 12 5 11 5 11 5 12 5 11 5 12 5 
11 5 11 5 12 5 11 5 11 5 12 5 11 5 11 5 
12 5 11 5 11 6 12 5 11 5 12 5 11 5 11 5 
12 5 11 5 11 6 12 5 11 5 11 5 12 5 11 5 
11 5 12 6 11 5 12 5 11 5 11 5 12 6 11 5 
11 5 12 5 11 5 11 6 12 5 11 5 11 5 12 6 
11 5 12 5 11 5 11 6 12 5 11 5 11 5 12 6 
11 5 11 5 12 6 11 5 11 5 12 5 11 6 11 5 
12 5 11 6 12 5 11 5 11 6 12 5 11 6 11 5 
12 5 11 6 11 5 12 5 11 6 11 5 12 6 11 5 
12 5 11 6 11 5 12 6 11 5 11 6 12 5 11 6 
11 5 12 5 11 6 11 5 12 6 11 5 12 6 11 5 
11 6 12 5 11 6 11 6 12 5 11 6 11 5 12 6 
11 5 11 6 12 5 11 6 12 6 11 5 11 6 12 5 
11 6 11 6 12 5 11 6 11 6 12 5 11 6 11 5 
12 6 11 6 12 5 11 6 11 6 12 6 11 5 11 6 
12 6 11 5 11 6 12 6 11 6 11 5 12 6 11 6 
12 6 11 5 11 6 12 6 11 6 11 6 12 5 11 6 
11 6 12 6 11 6 11 6 12 5 11 6 12 6 11 6 
11 6 12 6 11 6 6538 5040 300 MP stroke
11 6 12 5 11 6 11 6 12 6 11 6 11 6 12 6 
11 6 12 6 11 6 11 6 12 6 11 6 11 6 12 6 
11 6 11 6 12 6 11 6 11 6 12 6 11 6 12 6 
11 7 11 6 12 6 11 6 11 6 12 6 11 6 11 6 
12 7 11 6 11 6 12 6 11 6 12 6 11 7 11 6 
12 6 11 6 11 7 12 6 11 6 11 6 12 7 11 6 
11 6 12 6 11 7 12 6 11 6 11 7 12 6 11 6 
11 7 12 6 11 7 11 6 12 6 11 7 11 6 12 7 
11 6 12 7 11 6 11 6 12 7 11 6 11 7 12 6 
11 7 11 6 12 7 11 7 11 6 12 7 11 6 12 7 
11 6 11 7 12 7 11 6 11 7 12 7 11 6 11 7 
12 7 11 6 11 7 12 7 11 6 12 7 11 7 11 7 
12 6 11 7 11 7 12 7 11 7 11 6 12 7 11 7 
11 7 12 7 11 7 12 7 11 7 11 6 12 7 11 7 
11 7 12 7 11 7 11 7 12 7 11 7 11 7 12 7 
11 7 12 7 11 7 11 8 12 7 11 7 11 7 12 7 
11 7 11 7 12 8 11 7 11 7 12 7 11 7 12 8 
11 7 11 7 12 7 11 8 11 7 12 7 11 8 11 7 
12 7 11 8 11 7 12 8 11 7 12 8 11 7 11 7 
12 8 11 7 11 8 12 8 11 7 11 8 12 7 11 8 
11 7 12 8 11 8 12 7 11 8 11 8 12 7 11 8 
11 8 12 8 11 7 11 8 12 8 11 8 11 8 12 8 
11 7 12 8 11 8 11 8 12 8 11 8 11 8 12 8 
11 8 11 8 12 8 11 8 11 8 12 9 11 8 12 8 
11 8 11 8 12 8 11 9 11 8 12 8 11 8 11 9 
12 8 11 8 11 9 12 8 11 9 12 8 11 9 11 8 
12 9 11 8 11 9 12 8 11 9 11 8 12 9 11 9 
11 8 12 9 11 9 12 9 11 8 11 9 12 9 11 9 
11 9 12 9 11 9 11 9 12 8 11 9 11 10 12 9 
11 9 12 9 11 9 11 9 12 9 11 10 11 9 12 9 
11 9 11 10 12 9 11 9 11 10 12 9 11 10 12 9 
11 10 11 9 12 10 11 10 11 9 12 10 11 10 11 10 
12 9 11 10 11 10 12 10 11 10 12 10 11 10 11 10 
12 10 11 10 11 10 12 11 11 10 11 10 12 10 11 11 
11 10 12 11 11 10 12 11 11 10 11 11 12 10 11 11 
11 11 12 11 11 10 11 11 12 11 11 11 11 11 12 11 
11 11 12 12 11 11 11 11 12 11 11 12 11 11 12 12 
11 11 11 12 12 11 3142 2698 300 MP stroke
11 12 11 12 12 11 11 12 12 12 11 12 11 12 12 12 
11 13 11 12 12 12 11 12 11 13 12 12 11 13 11 13 
12 12 11 13 12 13 11 13 11 13 12 13 11 13 11 14 
12 13 11 13 11 14 12 13 11 14 11 14 12 14 11 14 
12 14 11 14 11 14 12 15 11 14 11 15 12 15 11 15 
11 14 12 16 11 15 11 15 12 16 11 15 12 16 11 16 
11 16 12 16 11 16 11 17 12 16 11 17 11 17 12 17 
11 18 11 17 12 18 11 18 12 18 11 19 11 18 12 19 
11 19 11 19 12 20 11 20 11 20 12 20 11 21 11 21 
12 22 11 21 12 23 11 22 11 23 12 23 11 24 11 25 
12 25 11 25 11 26 12 27 11 28 11 28 12 29 11 30 
12 31 11 32 11 34 12 35 11 36 11 39 12 40 11 44 
11 46 12 50 11 56 11 64 12 75 11 98 11 236 1973 297 104 MP stroke
6 w
gs 8702 6014 2078 918 rc
/c10 { 0.000000 1.000000 1.000000 sr} bdef
c10
  36   36 8775 6087 FO
  36   36 8787 6092 FO
  36   36 8798 6097 FO
  36   36 8809 6102 FO
  36   36 8821 6107 FO
  36   36 8832 6111 FO
  36   36 8843 6116 FO
  36   36 8855 6121 FO
  36   36 8866 6126 FO
  36   36 8878 6131 FO
  36   36 8889 6135 FO
  36   36 8900 6140 FO
  36   36 8912 6145 FO
  36   36 8923 6150 FO
  36   36 8934 6154 FO
  36   36 8946 6159 FO
  36   36 8957 6164 FO
  36   36 8968 6169 FO
  36   36 8980 6174 FO
  36   36 8991 6178 FO
  36   36 9002 6183 FO
  36   36 9014 6188 FO
  36   36 9025 6193 FO
  36   36 9037 6197 FO
  36   36 9048 6202 FO
  36   36 9059 6207 FO
  36   36 9071 6212 FO
  36   36 9082 6216 FO
  36   36 9093 6221 FO
  36   36 9105 6226 FO
  36   36 9116 6230 FO
  36   36 9127 6235 FO
  36   36 9139 6240 FO
  36   36 9150 6245 FO
  36   36 9161 6249 FO
  36   36 9173 6254 FO
  36   36 9184 6259 FO
  36   36 9196 6263 FO
  36   36 9207 6268 FO
  36   36 9218 6273 FO
  36   36 9230 6277 FO
  36   36 9241 6282 FO
  36   36 9252 6287 FO
  36   36 9264 6291 FO
  36   36 9275 6296 FO
  36   36 9286 6301 FO
  36   36 9298 6305 FO
  36   36 9309 6310 FO
  36   36 9320 6315 FO
  36   36 9332 6319 FO
  36   36 9343 6324 FO
  36   36 9355 6329 FO
  36   36 9366 6333 FO
  36   36 9377 6338 FO
  36   36 9389 6343 FO
  36   36 9400 6347 FO
  36   36 9411 6352 FO
  36   36 9423 6356 FO
  36   36 9434 6361 FO
  36   36 9445 6366 FO
  36   36 9457 6370 FO
  36   36 9468 6375 FO
  36   36 9479 6380 FO
  36   36 9491 6384 FO
  36   36 9502 6389 FO
  36   36 9514 6393 FO
  36   36 9525 6398 FO
  36   36 9536 6402 FO
  36   36 9548 6407 FO
  36   36 9559 6412 FO
  36   36 9570 6416 FO
  36   36 9582 6421 FO
  36   36 9593 6425 FO
  36   36 9604 6430 FO
  36   36 9616 6434 FO
  36   36 9627 6439 FO
  36   36 9638 6444 FO
  36   36 9650 6448 FO
  36   36 9661 6453 FO
  36   36 9673 6457 FO
  36   36 9684 6462 FO
  36   36 9695 6466 FO
  36   36 9707 6471 FO
  36   36 9718 6475 FO
  36   36 9729 6480 FO
  36   36 9741 6484 FO
  36   36 9752 6489 FO
  36   36 9763 6493 FO
  36   36 9775 6498 FO
  36   36 9786 6503 FO
  36   36 9797 6507 FO
  36   36 9809 6512 FO
  36   36 9820 6516 FO
  36   36 9832 6521 FO
  36   36 9843 6525 FO
  36   36 9854 6530 FO
  36   36 9866 6534 FO
  36   36 9877 6538 FO
  36   36 9888 6543 FO
  36   36 9900 6547 FO
  36   36 9911 6552 FO
  36   36 9922 6556 FO
  36   36 9934 6561 FO
  36   36 9945 6565 FO
  36   36 9956 6570 FO
  36   36 9968 6574 FO
  36   36 9979 6579 FO
  36   36 9991 6583 FO
  36   36 10002 6588 FO
  36   36 10013 6592 FO
  36   36 10025 6597 FO
  36   36 10036 6601 FO
  36   36 10047 6605 FO
  36   36 10059 6610 FO
  36   36 10070 6614 FO
  36   36 10081 6619 FO
  36   36 10093 6623 FO
  36   36 10104 6628 FO
  36   36 10115 6632 FO
  36   36 10127 6636 FO
  36   36 10138 6641 FO
  36   36 10150 6645 FO
  36   36 10161 6650 FO
  36   36 10172 6654 FO
  36   36 10184 6658 FO
  36   36 10195 6663 FO
  36   36 10206 6667 FO
  36   36 10218 6672 FO
  36   36 10229 6676 FO
  36   36 10240 6680 FO
  36   36 10252 6685 FO
  36   36 10263 6689 FO
  36   36 10274 6694 FO
  36   36 10286 6698 FO
  36   36 10297 6702 FO
  36   36 10309 6707 FO
  36   36 10320 6711 FO
  36   36 10331 6715 FO
  36   36 10343 6720 FO
  36   36 10354 6724 FO
  36   36 10365 6728 FO
  36   36 10377 6733 FO
  36   36 10388 6737 FO
  36   36 10399 6741 FO
  36   36 10411 6746 FO
  36   36 10422 6750 FO
  36   36 10433 6754 FO
  36   36 10445 6759 FO
  36   36 10456 6763 FO
  36   36 10468 6767 FO
  36   36 10479 6772 FO
  36   36 10490 6776 FO
  36   36 10502 6780 FO
  36   36 10513 6785 FO
  36   36 10524 6789 FO
  36   36 10536 6793 FO
  36   36 10547 6798 FO
  36   36 10558 6802 FO
  36   36 10570 6806 FO
  36   36 10581 6811 FO
  36   36 10592 6815 FO
  36   36 10604 6819 FO
  36   36 10615 6823 FO
  36   36 10627 6828 FO
  36   36 10638 6832 FO
  36   36 10649 6836 FO
  36   36 10661 6841 FO
  36   36 10672 6845 FO
  36   36 10683 6849 FO
  36   36 10695 6853 FO
  36   36 10706 6858 FO
gr

c10
27.6 w
c9
12 4 11 4 12 4 11 3 11 4 12 4 11 4 11 3 
12 4 11 4 11 4 12 4 11 3 11 4 12 4 11 4 
12 3 11 4 11 4 12 4 11 3 11 4 12 4 11 4 
11 4 12 3 11 4 11 4 12 4 11 4 12 3 11 4 
11 4 12 4 11 4 11 3 12 4 11 4 11 4 12 4 
11 3 11 4 12 4 11 4 12 4 11 4 11 3 12 4 
11 4 11 4 12 4 11 4 11 3 12 4 11 4 11 4 
12 4 11 4 12 4 11 3 11 4 12 4 11 4 11 4 
12 4 11 4 11 3 12 4 11 4 11 4 12 4 11 4 
12 4 11 4 11 4 12 3 11 4 11 4 12 4 11 4 
11 4 12 4 11 4 11 4 12 4 11 3 12 4 11 4 
11 4 12 4 11 4 11 4 12 4 11 4 11 4 12 4 
11 4 11 4 12 4 11 3 12 4 11 4 11 4 12 4 
11 4 11 4 12 4 11 4 11 4 12 4 11 4 11 4 
12 4 11 4 12 4 11 4 11 4 12 4 11 4 11 4 
12 4 11 4 11 4 12 4 11 4 11 4 12 4 11 4 
12 4 11 4 11 4 12 4 11 4 11 4 12 4 11 4 
11 4 12 4 11 4 11 4 12 4 11 4 12 4 11 4 
11 4 12 4 11 4 11 4 12 4 11 4 11 4 12 5 
11 4 11 4 12 4 11 4 12 4 11 4 11 4 12 4 
11 4 11 4 12 4 11 4 11 5 12 4 11 4 11 4 
12 4 11 4 12 4 11 4 11 4 12 5 11 4 11 4 
12 4 11 4 11 4 12 4 11 4 11 5 12 4 11 4 
12 4 11 4 11 4 12 4 11 5 11 4 12 4 11 4 
11 4 12 4 11 5 11 4 12 4 11 4 12 4 11 4 
11 5 12 4 11 4 11 4 12 4 11 5 11 4 12 4 
11 4 11 4 12 5 11 4 12 4 11 4 11 4 12 5 
11 4 11 4 12 4 11 5 11 4 12 4 11 4 11 5 
12 4 11 4 12 4 11 5 11 4 12 4 11 4 11 5 
12 4 11 4 11 4 12 5 11 4 11 4 12 5 11 4 
12 4 11 4 11 5 12 4 11 4 11 5 12 4 11 4 
11 5 12 4 11 4 11 5 12 4 11 4 12 5 11 4 
11 4 12 5 11 4 11 4 12 5 11 4 11 4 12 5 
11 4 11 4 12 5 11 4 12 4 11 5 11 4 12 5 
11 4 11 4 12 5 11 4 11 5 12 4 11 4 11 5 
12 4 11 5 12 4 11 4 11 5 12 4 11 5 11 4 
12 5 11 4 11 4 12 5 11 4 11 5 12 4 11 5 
12 4 11 5 11 4 9934 6561 300 MP stroke
12 5 11 4 11 5 12 4 11 5 11 4 12 4 11 5 
11 4 12 5 11 4 12 5 11 4 11 5 12 5 11 4 
11 5 12 4 11 5 11 4 12 5 11 4 11 5 12 4 
11 5 12 4 11 5 11 5 12 4 11 5 11 4 12 5 
11 4 11 5 12 5 11 4 11 5 12 4 11 5 12 4 
11 5 11 5 12 4 11 5 11 5 12 4 11 5 11 4 
12 5 11 5 11 4 12 5 11 5 12 4 11 5 11 5 
12 4 11 5 11 5 12 4 11 5 11 5 12 4 11 5 
11 5 12 4 11 5 12 5 11 4 11 5 12 5 11 5 
11 4 12 5 11 5 11 4 12 5 11 5 11 5 12 4 
11 5 12 5 11 5 11 4 12 5 11 5 11 5 12 5 
11 4 11 5 12 5 11 5 11 4 12 5 11 5 12 5 
11 5 11 4 12 5 11 5 11 5 12 5 11 5 11 4 
12 5 11 5 11 5 12 5 11 5 12 5 11 4 11 5 
12 5 11 5 11 5 12 5 11 5 11 5 12 5 11 4 
11 5 12 5 11 5 12 5 11 5 11 5 12 5 11 5 
11 5 12 5 11 5 11 5 12 5 11 5 11 5 12 5 
11 5 12 5 11 4 11 5 12 5 11 5 11 5 12 6 
11 5 11 5 12 5 11 5 11 5 12 5 11 5 12 5 
11 5 11 5 12 5 11 5 11 5 12 5 11 5 11 5 
12 5 11 5 11 6 12 5 11 5 12 5 11 5 11 5 
12 5 11 5 11 6 12 5 11 5 11 5 12 5 11 5 
11 5 12 6 11 5 12 5 11 5 11 5 12 6 11 5 
11 5 12 5 11 5 11 6 12 5 11 5 11 5 12 6 
11 5 12 5 11 5 11 6 12 5 11 5 11 5 12 6 
11 5 11 5 12 6 11 5 11 5 12 5 11 6 11 5 
12 5 11 6 12 5 11 5 11 6 12 5 11 6 11 5 
12 5 11 6 11 5 12 5 11 6 11 5 12 6 11 5 
12 5 11 6 11 5 12 6 11 5 11 6 12 5 11 6 
11 5 12 5 11 6 11 5 12 6 11 5 12 6 11 5 
11 6 12 5 11 6 11 6 12 5 11 6 11 5 12 6 
11 5 11 6 12 5 11 6 12 6 11 5 11 6 12 5 
11 6 11 6 12 5 11 6 11 6 12 5 11 6 11 5 
12 6 11 6 12 5 11 6 11 6 12 6 11 5 11 6 
12 6 11 5 11 6 12 6 11 6 11 5 12 6 11 6 
12 6 11 5 11 6 12 6 11 6 11 6 12 5 11 6 
11 6 12 6 11 6 11 6 12 5 11 6 12 6 11 6 
11 6 12 6 11 6 6538 5040 300 MP stroke
11 6 12 5 11 6 11 6 12 6 11 6 11 6 12 6 
11 6 12 6 11 6 11 6 12 6 11 6 11 6 12 6 
11 6 11 6 12 6 11 6 11 6 12 6 11 6 12 6 
11 7 11 6 12 6 11 6 11 6 12 6 11 6 11 6 
12 7 11 6 11 6 12 6 11 6 12 6 11 7 11 6 
12 6 11 6 11 7 12 6 11 6 11 6 12 7 11 6 
11 6 12 6 11 7 12 6 11 6 11 7 12 6 11 6 
11 7 12 6 11 7 11 6 12 6 11 7 11 6 12 7 
11 6 12 7 11 6 11 6 12 7 11 6 11 7 12 6 
11 7 11 6 12 7 11 7 11 6 12 7 11 6 12 7 
11 6 11 7 12 7 11 6 11 7 12 7 11 6 11 7 
12 7 11 6 11 7 12 7 11 6 12 7 11 7 11 7 
12 6 11 7 11 7 12 7 11 7 11 6 12 7 11 7 
11 7 12 7 11 7 12 7 11 7 11 6 12 7 11 7 
11 7 12 7 11 7 11 7 12 7 11 7 11 7 12 7 
11 7 12 7 11 7 11 8 12 7 11 7 11 7 12 7 
11 7 11 7 12 8 11 7 11 7 12 7 11 7 12 8 
11 7 11 7 12 7 11 8 11 7 12 7 11 8 11 7 
12 7 11 8 11 7 12 8 11 7 12 8 11 7 11 7 
12 8 11 7 11 8 12 8 11 7 11 8 12 7 11 8 
11 7 12 8 11 8 12 7 11 8 11 8 12 7 11 8 
11 8 12 8 11 7 11 8 12 8 11 8 11 8 12 8 
11 7 12 8 11 8 11 8 12 8 11 8 11 8 12 8 
11 8 11 8 12 8 11 8 11 8 12 9 11 8 12 8 
11 8 11 8 12 8 11 9 11 8 12 8 11 8 11 9 
12 8 11 8 11 9 12 8 11 9 12 8 11 9 11 8 
12 9 11 8 11 9 12 8 11 9 11 8 12 9 11 9 
11 8 12 9 11 9 12 9 11 8 11 9 12 9 11 9 
11 9 12 9 11 9 11 9 12 8 11 9 11 10 12 9 
11 9 12 9 11 9 11 9 12 9 11 10 11 9 12 9 
11 9 11 10 12 9 11 9 11 10 12 9 11 10 12 9 
11 10 11 9 12 10 11 10 11 9 12 10 11 10 11 10 
12 9 11 10 11 10 12 10 11 10 12 10 11 10 11 10 
12 10 11 10 11 10 12 11 11 10 11 10 12 10 11 11 
11 10 12 11 11 10 12 11 11 10 11 11 12 10 11 11 
11 11 12 11 11 10 11 11 12 11 11 11 11 11 12 11 
11 11 12 12 11 11 11 11 12 11 11 12 11 11 12 12 
11 11 11 12 12 11 3142 2698 300 MP stroke
11 12 11 12 12 11 11 12 12 12 11 12 11 12 12 12 
11 13 11 12 12 12 11 12 11 13 12 12 11 13 11 13 
12 12 11 13 12 13 11 13 11 13 12 13 11 13 11 14 
12 13 11 13 11 14 12 13 11 14 11 14 12 14 11 14 
12 14 11 14 11 14 12 15 11 14 11 15 12 15 11 15 
11 14 12 16 11 15 11 15 12 16 11 15 12 16 11 16 
11 16 12 16 11 16 11 17 12 16 11 17 11 17 12 17 
11 18 11 17 12 18 11 18 12 18 11 19 11 18 12 19 
11 19 11 19 12 20 11 20 11 20 12 20 11 21 11 21 
12 22 11 21 12 23 11 22 11 23 12 23 11 24 11 25 
12 25 11 25 11 26 12 27 11 28 11 28 12 29 11 30 
12 31 11 32 11 34 12 35 11 36 11 39 12 40 11 44 
11 46 12 50 11 56 11 64 12 75 11 98 11 236 1973 297 104 MP stroke
6 w
gs 8702 6014 2078 918 rc
c10
  36   36 8775 6087 FO
  36   36 8787 6092 FO
  36   36 8798 6097 FO
  36   36 8809 6102 FO
  36   36 8821 6107 FO
  36   36 8832 6111 FO
  36   36 8843 6116 FO
  36   36 8855 6121 FO
  36   36 8866 6126 FO
  36   36 8878 6131 FO
  36   36 8889 6135 FO
  36   36 8900 6140 FO
  36   36 8912 6145 FO
  36   36 8923 6150 FO
  36   36 8934 6154 FO
  36   36 8946 6159 FO
  36   36 8957 6164 FO
  36   36 8968 6169 FO
  36   36 8980 6174 FO
  36   36 8991 6178 FO
  36   36 9002 6183 FO
  36   36 9014 6188 FO
  36   36 9025 6193 FO
  36   36 9037 6197 FO
  36   36 9048 6202 FO
  36   36 9059 6207 FO
  36   36 9071 6212 FO
  36   36 9082 6216 FO
  36   36 9093 6221 FO
  36   36 9105 6226 FO
  36   36 9116 6230 FO
  36   36 9127 6235 FO
  36   36 9139 6240 FO
  36   36 9150 6245 FO
  36   36 9161 6249 FO
  36   36 9173 6254 FO
  36   36 9184 6259 FO
  36   36 9196 6263 FO
  36   36 9207 6268 FO
  36   36 9218 6273 FO
  36   36 9230 6277 FO
  36   36 9241 6282 FO
  36   36 9252 6287 FO
  36   36 9264 6291 FO
  36   36 9275 6296 FO
  36   36 9286 6301 FO
  36   36 9298 6305 FO
  36   36 9309 6310 FO
  36   36 9320 6315 FO
  36   36 9332 6319 FO
  36   36 9343 6324 FO
  36   36 9355 6329 FO
  36   36 9366 6333 FO
  36   36 9377 6338 FO
  36   36 9389 6343 FO
  36   36 9400 6347 FO
  36   36 9411 6352 FO
  36   36 9423 6356 FO
  36   36 9434 6361 FO
  36   36 9445 6366 FO
  36   36 9457 6370 FO
  36   36 9468 6375 FO
  36   36 9479 6380 FO
  36   36 9491 6384 FO
  36   36 9502 6389 FO
  36   36 9514 6393 FO
  36   36 9525 6398 FO
  36   36 9536 6402 FO
  36   36 9548 6407 FO
  36   36 9559 6412 FO
  36   36 9570 6416 FO
  36   36 9582 6421 FO
  36   36 9593 6425 FO
  36   36 9604 6430 FO
  36   36 9616 6434 FO
  36   36 9627 6439 FO
  36   36 9638 6444 FO
  36   36 9650 6448 FO
  36   36 9661 6453 FO
  36   36 9673 6457 FO
  36   36 9684 6462 FO
  36   36 9695 6466 FO
  36   36 9707 6471 FO
  36   36 9718 6475 FO
  36   36 9729 6480 FO
  36   36 9741 6484 FO
  36   36 9752 6489 FO
  36   36 9763 6493 FO
  36   36 9775 6498 FO
  36   36 9786 6503 FO
  36   36 9797 6507 FO
  36   36 9809 6512 FO
  36   36 9820 6516 FO
  36   36 9832 6521 FO
  36   36 9843 6525 FO
  36   36 9854 6530 FO
  36   36 9866 6534 FO
  36   36 9877 6538 FO
  36   36 9888 6543 FO
  36   36 9900 6547 FO
  36   36 9911 6552 FO
  36   36 9922 6556 FO
  36   36 9934 6561 FO
  36   36 9945 6565 FO
  36   36 9956 6570 FO
  36   36 9968 6574 FO
  36   36 9979 6579 FO
  36   36 9991 6583 FO
  36   36 10002 6588 FO
  36   36 10013 6592 FO
  36   36 10025 6597 FO
  36   36 10036 6601 FO
  36   36 10047 6605 FO
  36   36 10059 6610 FO
  36   36 10070 6614 FO
  36   36 10081 6619 FO
  36   36 10093 6623 FO
  36   36 10104 6628 FO
  36   36 10115 6632 FO
  36   36 10127 6636 FO
  36   36 10138 6641 FO
  36   36 10150 6645 FO
  36   36 10161 6650 FO
  36   36 10172 6654 FO
  36   36 10184 6658 FO
  36   36 10195 6663 FO
  36   36 10206 6667 FO
  36   36 10218 6672 FO
  36   36 10229 6676 FO
  36   36 10240 6680 FO
  36   36 10252 6685 FO
  36   36 10263 6689 FO
  36   36 10274 6694 FO
  36   36 10286 6698 FO
  36   36 10297 6702 FO
  36   36 10309 6707 FO
  36   36 10320 6711 FO
  36   36 10331 6715 FO
  36   36 10343 6720 FO
  36   36 10354 6724 FO
  36   36 10365 6728 FO
  36   36 10377 6733 FO
  36   36 10388 6737 FO
  36   36 10399 6741 FO
  36   36 10411 6746 FO
  36   36 10422 6750 FO
  36   36 10433 6754 FO
  36   36 10445 6759 FO
  36   36 10456 6763 FO
  36   36 10468 6767 FO
  36   36 10479 6772 FO
  36   36 10490 6776 FO
  36   36 10502 6780 FO
  36   36 10513 6785 FO
  36   36 10524 6789 FO
  36   36 10536 6793 FO
  36   36 10547 6798 FO
  36   36 10558 6802 FO
  36   36 10570 6806 FO
  36   36 10581 6811 FO
  36   36 10592 6815 FO
  36   36 10604 6819 FO
  36   36 10615 6823 FO
  36   36 10627 6828 FO
  36   36 10638 6832 FO
  36   36 10649 6836 FO
  36   36 10661 6841 FO
  36   36 10672 6845 FO
  36   36 10683 6849 FO
  36   36 10695 6853 FO
  36   36 10706 6858 FO
gr

c10
c9
12 4 11 4 12 4 11 3 11 4 12 4 11 4 11 3 
12 4 11 4 11 4 12 4 11 3 11 4 12 4 11 4 
12 3 11 4 11 4 12 4 11 3 11 4 12 4 11 4 
11 4 12 3 11 4 11 4 12 4 11 4 12 3 11 4 
11 4 12 4 11 4 11 3 12 4 11 4 11 4 12 4 
11 3 11 4 12 4 11 4 12 4 11 4 11 3 12 4 
11 4 11 4 12 4 11 4 11 3 12 4 11 4 11 4 
12 4 11 4 12 4 11 3 11 4 12 4 11 4 11 4 
12 4 11 4 11 3 12 4 11 4 11 4 12 4 11 4 
12 4 11 4 11 4 12 3 11 4 11 4 12 4 11 4 
11 4 12 4 11 4 11 4 12 4 11 3 12 4 11 4 
11 4 12 4 11 4 11 4 12 4 11 4 11 4 12 4 
11 4 11 4 12 4 11 3 12 4 11 4 11 4 12 4 
11 4 11 4 12 4 11 4 11 4 12 4 11 4 11 4 
12 4 11 4 12 4 11 4 11 4 12 4 11 4 11 4 
12 4 11 4 11 4 12 4 11 4 11 4 12 4 11 4 
12 4 11 4 11 4 12 4 11 4 11 4 12 4 11 4 
11 4 12 4 11 4 11 4 12 4 11 4 12 4 11 4 
11 4 12 4 11 4 11 4 12 4 11 4 11 4 12 5 
11 4 11 4 12 4 11 4 12 4 11 4 11 4 12 4 
11 4 11 4 12 4 11 4 11 5 12 4 11 4 11 4 
12 4 11 4 12 4 11 4 11 4 12 5 11 4 11 4 
12 4 11 4 11 4 12 4 11 4 11 5 12 4 11 4 
12 4 11 4 11 4 12 4 11 5 11 4 12 4 11 4 
11 4 12 4 11 5 11 4 12 4 11 4 12 4 11 4 
11 5 12 4 11 4 11 4 12 4 11 5 11 4 12 4 
11 4 11 4 12 5 11 4 12 4 11 4 11 4 12 5 
11 4 11 4 12 4 11 5 11 4 12 4 11 4 11 5 
12 4 11 4 12 4 11 5 11 4 12 4 11 4 11 5 
12 4 11 4 11 4 12 5 11 4 11 4 12 5 11 4 
12 4 11 4 11 5 12 4 11 4 11 5 12 4 11 4 
11 5 12 4 11 4 11 5 12 4 11 4 12 5 11 4 
11 4 12 5 11 4 11 4 12 5 11 4 11 4 12 5 
11 4 11 4 12 5 11 4 12 4 11 5 11 4 12 5 
11 4 11 4 12 5 11 4 11 5 12 4 11 4 11 5 
12 4 11 5 12 4 11 4 11 5 12 4 11 5 11 4 
12 5 11 4 11 4 12 5 11 4 11 5 12 4 11 5 
12 4 11 5 11 4 9934 6561 300 MP stroke
12 5 11 4 11 5 12 4 11 5 11 4 12 4 11 5 
11 4 12 5 11 4 12 5 11 4 11 5 12 5 11 4 
11 5 12 4 11 5 11 4 12 5 11 4 11 5 12 4 
11 5 12 4 11 5 11 5 12 4 11 5 11 4 12 5 
11 4 11 5 12 5 11 4 11 5 12 4 11 5 12 4 
11 5 11 5 12 4 11 5 11 5 12 4 11 5 11 4 
12 5 11 5 11 4 12 5 11 5 12 4 11 5 11 5 
12 4 11 5 11 5 12 4 11 5 11 5 12 4 11 5 
11 5 12 4 11 5 12 5 11 4 11 5 12 5 11 5 
11 4 12 5 11 5 11 4 12 5 11 5 11 5 12 4 
11 5 12 5 11 5 11 4 12 5 11 5 11 5 12 5 
11 4 11 5 12 5 11 5 11 4 12 5 11 5 12 5 
11 5 11 4 12 5 11 5 11 5 12 5 11 5 11 4 
12 5 11 5 11 5 12 5 11 5 12 5 11 4 11 5 
12 5 11 5 11 5 12 5 11 5 11 5 12 5 11 4 
11 5 12 5 11 5 12 5 11 5 11 5 12 5 11 5 
11 5 12 5 11 5 11 5 12 5 11 5 11 5 12 5 
11 5 12 5 11 4 11 5 12 5 11 5 11 5 12 6 
11 5 11 5 12 5 11 5 11 5 12 5 11 5 12 5 
11 5 11 5 12 5 11 5 11 5 12 5 11 5 11 5 
12 5 11 5 11 6 12 5 11 5 12 5 11 5 11 5 
12 5 11 5 11 6 12 5 11 5 11 5 12 5 11 5 
11 5 12 6 11 5 12 5 11 5 11 5 12 6 11 5 
11 5 12 5 11 5 11 6 12 5 11 5 11 5 12 6 
11 5 12 5 11 5 11 6 12 5 11 5 11 5 12 6 
11 5 11 5 12 6 11 5 11 5 12 5 11 6 11 5 
12 5 11 6 12 5 11 5 11 6 12 5 11 6 11 5 
12 5 11 6 11 5 12 5 11 6 11 5 12 6 11 5 
12 5 11 6 11 5 12 6 11 5 11 6 12 5 11 6 
11 5 12 5 11 6 11 5 12 6 11 5 12 6 11 5 
11 6 12 5 11 6 11 6 12 5 11 6 11 5 12 6 
11 5 11 6 12 5 11 6 12 6 11 5 11 6 12 5 
11 6 11 6 12 5 11 6 11 6 12 5 11 6 11 5 
12 6 11 6 12 5 11 6 11 6 12 6 11 5 11 6 
12 6 11 5 11 6 12 6 11 6 11 5 12 6 11 6 
12 6 11 5 11 6 12 6 11 6 11 6 12 5 11 6 
11 6 12 6 11 6 11 6 12 5 11 6 12 6 11 6 
11 6 12 6 11 6 6538 5040 300 MP stroke
11 6 12 5 11 6 11 6 12 6 11 6 11 6 12 6 
11 6 12 6 11 6 11 6 12 6 11 6 11 6 12 6 
11 6 11 6 12 6 11 6 11 6 12 6 11 6 12 6 
11 7 11 6 12 6 11 6 11 6 12 6 11 6 11 6 
12 7 11 6 11 6 12 6 11 6 12 6 11 7 11 6 
12 6 11 6 11 7 12 6 11 6 11 6 12 7 11 6 
11 6 12 6 11 7 12 6 11 6 11 7 12 6 11 6 
11 7 12 6 11 7 11 6 12 6 11 7 11 6 12 7 
11 6 12 7 11 6 11 6 12 7 11 6 11 7 12 6 
11 7 11 6 12 7 11 7 11 6 12 7 11 6 12 7 
11 6 11 7 12 7 11 6 11 7 12 7 11 6 11 7 
12 7 11 6 11 7 12 7 11 6 12 7 11 7 11 7 
12 6 11 7 11 7 12 7 11 7 11 6 12 7 11 7 
11 7 12 7 11 7 12 7 11 7 11 6 12 7 11 7 
11 7 12 7 11 7 11 7 12 7 11 7 11 7 12 7 
11 7 12 7 11 7 11 8 12 7 11 7 11 7 12 7 
11 7 11 7 12 8 11 7 11 7 12 7 11 7 12 8 
11 7 11 7 12 7 11 8 11 7 12 7 11 8 11 7 
12 7 11 8 11 7 12 8 11 7 12 8 11 7 11 7 
12 8 11 7 11 8 12 8 11 7 11 8 12 7 11 8 
11 7 12 8 11 8 12 7 11 8 11 8 12 7 11 8 
11 8 12 8 11 7 11 8 12 8 11 8 11 8 12 8 
11 7 12 8 11 8 11 8 12 8 11 8 11 8 12 8 
11 8 11 8 12 8 11 8 11 8 12 9 11 8 12 8 
11 8 11 8 12 8 11 9 11 8 12 8 11 8 11 9 
12 8 11 8 11 9 12 8 11 9 12 8 11 9 11 8 
12 9 11 8 11 9 12 8 11 9 11 8 12 9 11 9 
11 8 12 9 11 9 12 9 11 8 11 9 12 9 11 9 
11 9 12 9 11 9 11 9 12 8 11 9 11 10 12 9 
11 9 12 9 11 9 11 9 12 9 11 10 11 9 12 9 
11 9 11 10 12 9 11 9 11 10 12 9 11 10 12 9 
11 10 11 9 12 10 11 10 11 9 12 10 11 10 11 10 
12 9 11 10 11 10 12 10 11 10 12 10 11 10 11 10 
12 10 11 10 11 10 12 11 11 10 11 10 12 10 11 11 
11 10 12 11 11 10 12 11 11 10 11 11 12 10 11 11 
11 11 12 11 11 10 11 11 12 11 11 11 11 11 12 11 
11 11 12 12 11 11 11 11 12 11 11 12 11 11 12 12 
11 11 11 12 12 11 3142 2698 300 MP stroke
11 12 11 12 12 11 11 12 12 12 11 12 11 12 12 12 
11 13 11 12 12 12 11 12 11 13 12 12 11 13 11 13 
12 12 11 13 12 13 11 13 11 13 12 13 11 13 11 14 
12 13 11 13 11 14 12 13 11 14 11 14 12 14 11 14 
12 14 11 14 11 14 12 15 11 14 11 15 12 15 11 15 
11 14 12 16 11 15 11 15 12 16 11 15 12 16 11 16 
11 16 12 16 11 16 11 17 12 16 11 17 11 17 12 17 
11 18 11 17 12 18 11 18 12 18 11 19 11 18 12 19 
11 19 11 19 12 20 11 20 11 20 12 20 11 21 11 21 
12 22 11 21 12 23 11 22 11 23 12 23 11 24 11 25 
12 25 11 25 11 26 12 27 11 28 11 28 12 29 11 30 
12 31 11 32 11 34 12 35 11 36 11 39 12 40 11 44 
11 46 12 50 11 56 11 64 12 75 11 98 11 236 1973 297 104 MP stroke
96 w
gs 8581 5893 2320 1160 rc
c10
  48   48 8775 6087 FO
  48   48 8787 6092 FO
  48   48 8798 6097 FO
  48   48 8809 6102 FO
  48   48 8821 6107 FO
  48   48 8832 6111 FO
  48   48 8843 6116 FO
  48   48 8855 6121 FO
  48   48 8866 6126 FO
  48   48 8878 6131 FO
  48   48 8889 6135 FO
  48   48 8900 6140 FO
  48   48 8912 6145 FO
  48   48 8923 6150 FO
  48   48 8934 6154 FO
  48   48 8946 6159 FO
  48   48 8957 6164 FO
  48   48 8968 6169 FO
  48   48 8980 6174 FO
  48   48 8991 6178 FO
  48   48 9002 6183 FO
  48   48 9014 6188 FO
  48   48 9025 6193 FO
  48   48 9037 6197 FO
  48   48 9048 6202 FO
  48   48 9059 6207 FO
  48   48 9071 6212 FO
  48   48 9082 6216 FO
  48   48 9093 6221 FO
  48   48 9105 6226 FO
  48   48 9116 6230 FO
  48   48 9127 6235 FO
  48   48 9139 6240 FO
  48   48 9150 6245 FO
  48   48 9161 6249 FO
  48   48 9173 6254 FO
  48   48 9184 6259 FO
  48   48 9196 6263 FO
  48   48 9207 6268 FO
  48   48 9218 6273 FO
  48   48 9230 6277 FO
  48   48 9241 6282 FO
  48   48 9252 6287 FO
  48   48 9264 6291 FO
  48   48 9275 6296 FO
  48   48 9286 6301 FO
  48   48 9298 6305 FO
  48   48 9309 6310 FO
  48   48 9320 6315 FO
  48   48 9332 6319 FO
  48   48 9343 6324 FO
  48   48 9355 6329 FO
  48   48 9366 6333 FO
  48   48 9377 6338 FO
  48   48 9389 6343 FO
  48   48 9400 6347 FO
  48   48 9411 6352 FO
  48   48 9423 6356 FO
  48   48 9434 6361 FO
  48   48 9445 6366 FO
  48   48 9457 6370 FO
  48   48 9468 6375 FO
  48   48 9479 6380 FO
  48   48 9491 6384 FO
  48   48 9502 6389 FO
  48   48 9514 6393 FO
  48   48 9525 6398 FO
  48   48 9536 6402 FO
  48   48 9548 6407 FO
  48   48 9559 6412 FO
  48   48 9570 6416 FO
  48   48 9582 6421 FO
  48   48 9593 6425 FO
  48   48 9604 6430 FO
  48   48 9616 6434 FO
  48   48 9627 6439 FO
  48   48 9638 6444 FO
  48   48 9650 6448 FO
  48   48 9661 6453 FO
  48   48 9673 6457 FO
  48   48 9684 6462 FO
  48   48 9695 6466 FO
  48   48 9707 6471 FO
  48   48 9718 6475 FO
  48   48 9729 6480 FO
  48   48 9741 6484 FO
  48   48 9752 6489 FO
  48   48 9763 6493 FO
  48   48 9775 6498 FO
  48   48 9786 6503 FO
  48   48 9797 6507 FO
  48   48 9809 6512 FO
  48   48 9820 6516 FO
  48   48 9832 6521 FO
  48   48 9843 6525 FO
  48   48 9854 6530 FO
  48   48 9866 6534 FO
  48   48 9877 6538 FO
  48   48 9888 6543 FO
  48   48 9900 6547 FO
  48   48 9911 6552 FO
  48   48 9922 6556 FO
  48   48 9934 6561 FO
  48   48 9945 6565 FO
  48   48 9956 6570 FO
  48   48 9968 6574 FO
  48   48 9979 6579 FO
  48   48 9991 6583 FO
  48   48 10002 6588 FO
  48   48 10013 6592 FO
  48   48 10025 6597 FO
  48   48 10036 6601 FO
  48   48 10047 6605 FO
  48   48 10059 6610 FO
  48   48 10070 6614 FO
  48   48 10081 6619 FO
  48   48 10093 6623 FO
  48   48 10104 6628 FO
  48   48 10115 6632 FO
  48   48 10127 6636 FO
  48   48 10138 6641 FO
  48   48 10150 6645 FO
  48   48 10161 6650 FO
  48   48 10172 6654 FO
  48   48 10184 6658 FO
  48   48 10195 6663 FO
  48   48 10206 6667 FO
  48   48 10218 6672 FO
  48   48 10229 6676 FO
  48   48 10240 6680 FO
  48   48 10252 6685 FO
  48   48 10263 6689 FO
  48   48 10274 6694 FO
  48   48 10286 6698 FO
  48   48 10297 6702 FO
  48   48 10309 6707 FO
  48   48 10320 6711 FO
  48   48 10331 6715 FO
  48   48 10343 6720 FO
  48   48 10354 6724 FO
  48   48 10365 6728 FO
  48   48 10377 6733 FO
  48   48 10388 6737 FO
  48   48 10399 6741 FO
  48   48 10411 6746 FO
  48   48 10422 6750 FO
  48   48 10433 6754 FO
  48   48 10445 6759 FO
  48   48 10456 6763 FO
  48   48 10468 6767 FO
  48   48 10479 6772 FO
  48   48 10490 6776 FO
  48   48 10502 6780 FO
  48   48 10513 6785 FO
  48   48 10524 6789 FO
  48   48 10536 6793 FO
  48   48 10547 6798 FO
  48   48 10558 6802 FO
  48   48 10570 6806 FO
  48   48 10581 6811 FO
  48   48 10592 6815 FO
  48   48 10604 6819 FO
  48   48 10615 6823 FO
  48   48 10627 6828 FO
  48   48 10638 6832 FO
  48   48 10649 6836 FO
  48   48 10661 6841 FO
  48   48 10672 6845 FO
  48   48 10683 6849 FO
  48   48 10695 6853 FO
  48   48 10706 6858 FO
gr

c10
6 w
gs 10015 6548 743 375 rc
c8
  36   36 10393 6739 PO
  36   36 10088 6621 PO
  36   36 10589 6814 PO
  36   36 10490 6776 PO
  36   36 10108 6629 PO
  36   36 10333 6716 PO
  36   36 10684 6849 PO
  36   36 10393 6739 PO
  36   36 10186 6659 PO
  36   36 10139 6641 PO
  36   36 10296 6702 PO
  36   36 10186 6659 PO
  36   36 10088 6621 PO
  36   36 10248 6683 PO
  36   36 10533 6792 PO
  36   36 10208 6668 PO
  36   36 10409 6745 PO
  36   36 10490 6776 PO
  36   36 10108 6629 PO
  36   36 10684 6849 PO
  36   36 10533 6792 PO
  36   36 10393 6739 PO
  36   36 10208 6668 PO
  36   36 10108 6629 PO
  36   36 10333 6716 PO
  36   36 10569 6806 PO
  36   36 10684 6849 PO
  36   36 10490 6776 PO
  36   36 10139 6641 PO
  36   36 10490 6776 PO
  36   36 10248 6683 PO
  36   36 10186 6659 PO
  36   36 10464 6766 PO
  36   36 10569 6806 PO
  36   36 10393 6739 PO
  36   36 10208 6668 PO
  36   36 10490 6776 PO
  36   36 10248 6683 PO
  36   36 10464 6766 PO
  36   36 10248 6683 PO
  36   36 10393 6739 FO
  36   36 10088 6621 FO
  36   36 10589 6814 FO
  36   36 10490 6776 FO
  36   36 10108 6629 FO
  36   36 10333 6716 FO
  36   36 10684 6849 FO
  36   36 10393 6739 FO
  36   36 10186 6659 FO
  36   36 10139 6641 FO
  36   36 10296 6702 FO
  36   36 10186 6659 FO
  36   36 10088 6621 FO
  36   36 10248 6683 FO
  36   36 10533 6792 FO
  36   36 10208 6668 FO
  36   36 10409 6745 FO
  36   36 10490 6776 FO
  36   36 10108 6629 FO
  36   36 10684 6849 FO
  36   36 10533 6792 FO
  36   36 10393 6739 FO
  36   36 10208 6668 FO
  36   36 10108 6629 FO
  36   36 10333 6716 FO
  36   36 10569 6806 FO
  36   36 10684 6849 FO
  36   36 10490 6776 FO
  36   36 10139 6641 FO
  36   36 10490 6776 FO
  36   36 10248 6683 FO
  36   36 10186 6659 FO
  36   36 10464 6766 FO
  36   36 10569 6806 FO
  36   36 10393 6739 FO
  36   36 10208 6668 FO
  36   36 10490 6776 FO
  36   36 10248 6683 FO
  36   36 10464 6766 FO
  36   36 10248 6683 FO
gr

c8
360 w
gs 9200 5560 1445 1445 rc
120 W
0 sg
9922 6282 PD
gr

0 sg
6 w
gr

%%IncludeResource: font Courier-Bold
/Courier-Bold /WindowsLatin1Encoding 360 FMSR

9627 5631 mt 
(\( 0.7 , 0.2 \)) s

end %%Color Dict

eplot
%%EndObject

epage
end

showpage

%%Trailer
%%EOF
