%!PS-Adobe-3.0 EPSF-3.0
%%Creator: MATLAB, The MathWorks, Inc. Version 7.13.0.564 (R2011b). Operating System: Microsoft Windows XP.
%%Title: D:\DriveG\Sem2-2012\Program\ReferenceMetric-v3\metricfig\zdt1\11-02-13\zdt1-ws.eps
%%CreationDate: 02/11/2013  16:23:31
%%DocumentNeededFonts: Helvetica
%%+ Courier-Bold
%%DocumentProcessColors: Cyan Magenta Yellow Black
%%LanguageLevel: 2
%%Pages: 1
%%BoundingBox:  -329    76   926   765
%%EndComments

%%BeginProlog
% MathWorks dictionary
/MathWorks 160 dict begin
% definition operators
/bdef {bind def} bind def
/ldef {load def} bind def
/xdef {exch def} bdef
/xstore {exch store} bdef
% operator abbreviations
/c  /clip ldef
/cc /concat ldef
/cp /closepath ldef
/gr /grestore ldef
/gs /gsave ldef
/mt /moveto ldef
/np /newpath ldef
/cm /currentmatrix ldef
/sm /setmatrix ldef
/rm /rmoveto ldef
/rl /rlineto ldef
/s {show newpath} bdef
/sc {setcmykcolor} bdef
/sr /setrgbcolor ldef
/sg /setgray ldef
/w /setlinewidth ldef
/j /setlinejoin ldef
/cap /setlinecap ldef
/rc {rectclip} bdef
/rf {rectfill} bdef
% page state control
/pgsv () def
/bpage {/pgsv save def} bdef
/epage {pgsv restore} bdef
/bplot /gsave ldef
/eplot {stroke grestore} bdef
% orientation switch
/portraitMode 0 def /landscapeMode 1 def /rotateMode 2 def
% coordinate system mappings
/dpi2point 0 def
% font control
/FontSize 0 def
/FMS {/FontSize xstore findfont [FontSize 0 0 FontSize neg 0 0]
  makefont setfont} bdef
/ISOLatin1Encoding where {pop /WindowsLatin1Encoding 256 array bdef
ISOLatin1Encoding WindowsLatin1Encoding copy pop
/.notdef/.notdef/quotesinglbase/florin/quotedblbase/ellipsis/dagger
/daggerdbl/circumflex/perthousand/Scaron/guilsinglleft/OE/.notdef/.notdef
/.notdef/.notdef/quoteleft/quoteright/quotedblleft/quotedblright/bullet
/endash/emdash/tilde/trademark/scaron/guilsinglright/oe/.notdef/.notdef
/Ydieresis WindowsLatin1Encoding 128 32 getinterval astore pop}
{/WindowsLatin1Encoding StandardEncoding bdef} ifelse
/reencode {exch dup where {pop load} {pop StandardEncoding} ifelse
  exch dup 3 1 roll findfont dup length dict begin
  { 1 index /FID ne {def}{pop pop} ifelse } forall
  /Encoding exch def currentdict end definefont pop} bdef
/isroman {findfont /CharStrings get /Agrave known} bdef
/FMSR {3 1 roll 1 index dup isroman {reencode} {pop pop} ifelse
  exch FMS} bdef
/csm {1 dpi2point div -1 dpi2point div scale neg translate
 dup landscapeMode eq {pop -90 rotate}
  {rotateMode eq {90 rotate} if} ifelse} bdef
% line types: solid, dotted, dashed, dotdash
/SO { [] 0 setdash } bdef
/DO { [.5 dpi2point mul 4 dpi2point mul] 0 setdash } bdef
/DA { [6 dpi2point mul] 0 setdash } bdef
/DD { [.5 dpi2point mul 4 dpi2point mul 6 dpi2point mul 4
  dpi2point mul] 0 setdash } bdef
% macros for lines and objects
/L {lineto stroke} bdef
/MP {3 1 roll moveto 1 sub {rlineto} repeat} bdef
/AP {{rlineto} repeat} bdef
/PDlw -1 def
/W {/PDlw currentlinewidth def setlinewidth} def
/PP {closepath eofill} bdef
/DP {closepath stroke} bdef
/MR {4 -2 roll moveto dup  0 exch rlineto exch 0 rlineto
  neg 0 exch rlineto closepath} bdef
/FR {MR stroke} bdef
/PR {MR fill} bdef
/L1i {{currentfile picstr readhexstring pop} image} bdef
/tMatrix matrix def
/MakeOval {newpath tMatrix currentmatrix pop translate scale
0 0 1 0 360 arc tMatrix setmatrix} bdef
/FO {MakeOval stroke} bdef
/PO {MakeOval fill} bdef
/PD {currentlinewidth 2 div 0 360 arc fill
   PDlw -1 eq not {PDlw w /PDlw -1 def} if} def
/FA {newpath tMatrix currentmatrix pop translate scale
  0 0 1 5 -2 roll arc tMatrix setmatrix stroke} bdef
/PA {newpath tMatrix currentmatrix pop	translate 0 0 moveto scale
  0 0 1 5 -2 roll arc closepath tMatrix setmatrix fill} bdef
/FAn {newpath tMatrix currentmatrix pop translate scale
  0 0 1 5 -2 roll arcn tMatrix setmatrix stroke} bdef
/PAn {newpath tMatrix currentmatrix pop translate 0 0 moveto scale
  0 0 1 5 -2 roll arcn closepath tMatrix setmatrix fill} bdef
/vradius 0 def /hradius 0 def /lry 0 def
/lrx 0 def /uly 0 def /ulx 0 def /rad 0 def
/MRR {/vradius xdef /hradius xdef /lry xdef /lrx xdef /uly xdef
  /ulx xdef newpath tMatrix currentmatrix pop ulx hradius add uly
  vradius add translate hradius vradius scale 0 0 1 180 270 arc 
  tMatrix setmatrix lrx hradius sub uly vradius add translate
  hradius vradius scale 0 0 1 270 360 arc tMatrix setmatrix
  lrx hradius sub lry vradius sub translate hradius vradius scale
  0 0 1 0 90 arc tMatrix setmatrix ulx hradius add lry vradius sub
  translate hradius vradius scale 0 0 1 90 180 arc tMatrix setmatrix
  closepath} bdef
/FRR {MRR stroke } bdef
/PRR {MRR fill } bdef
/MlrRR {/lry xdef /lrx xdef /uly xdef /ulx xdef /rad lry uly sub 2 div def
  newpath tMatrix currentmatrix pop ulx rad add uly rad add translate
  rad rad scale 0 0 1 90 270 arc tMatrix setmatrix lrx rad sub lry rad
  sub translate rad rad scale 0 0 1 270 90 arc tMatrix setmatrix
  closepath} bdef
/FlrRR {MlrRR stroke } bdef
/PlrRR {MlrRR fill } bdef
/MtbRR {/lry xdef /lrx xdef /uly xdef /ulx xdef /rad lrx ulx sub 2 div def
  newpath tMatrix currentmatrix pop ulx rad add uly rad add translate
  rad rad scale 0 0 1 180 360 arc tMatrix setmatrix lrx rad sub lry rad
  sub translate rad rad scale 0 0 1 0 180 arc tMatrix setmatrix
  closepath} bdef
/FtbRR {MtbRR stroke } bdef
/PtbRR {MtbRR fill } bdef
/stri 6 array def /dtri 6 array def
/smat 6 array def /dmat 6 array def
/tmat1 6 array def /tmat2 6 array def /dif 3 array def
/asub {/ind2 exch def /ind1 exch def dup dup
  ind1 get exch ind2 get sub exch } bdef
/tri_to_matrix {
  2 0 asub 3 1 asub 4 0 asub 5 1 asub
  dup 0 get exch 1 get 7 -1 roll astore } bdef
/compute_transform {
  dmat dtri tri_to_matrix tmat1 invertmatrix 
  smat stri tri_to_matrix tmat2 concatmatrix } bdef
/ds {stri astore pop} bdef
/dt {dtri astore pop} bdef
/db {2 copy /cols xdef /rows xdef mul dup 3 mul string
  currentfile 
  3 index 0 eq {/ASCIIHexDecode filter}
  {/ASCII85Decode filter 3 index 2 eq {/RunLengthDecode filter} if }
  ifelse exch readstring pop
  dup 0 3 index getinterval /rbmap xdef
  dup 2 index dup getinterval /gbmap xdef
  1 index dup 2 mul exch getinterval /bbmap xdef pop pop}bdef
/it {gs np dtri aload pop moveto lineto lineto cp c
  cols rows 8 compute_transform 
  rbmap gbmap bbmap true 3 colorimage gr}bdef
/il {newpath moveto lineto stroke}bdef
currentdict end def
%%EndProlog

%%BeginSetup
MathWorks begin

0 cap

end
%%EndSetup

%%Page: 1 1
%%BeginPageSetup
%%PageBoundingBox:  -329    76   926   765
MathWorks begin
bpage
%%EndPageSetup

%%BeginObject: obj1
bplot

/dpi2point 12 def
portraitMode -3948 9180 csm

    0     0 15060  8257 rc
87 dict begin %Colortable dictionary
/c0 { 0.000000 0.000000 0.000000 sr} bdef
/c1 { 1.000000 1.000000 1.000000 sr} bdef
/c2 { 0.900000 0.000000 0.000000 sr} bdef
/c3 { 0.000000 0.820000 0.000000 sr} bdef
/c4 { 0.000000 0.000000 0.800000 sr} bdef
/c5 { 0.910000 0.820000 0.320000 sr} bdef
/c6 { 1.000000 0.260000 0.820000 sr} bdef
/c7 { 0.000000 0.820000 0.820000 sr} bdef
c0
1 j
1 sg
   0    0 15061 8258 rf
6 w
0 7761 12070 0 0 -7761 1495 8009 4 MP
PP
-12070 0 0 7761 12070 0 0 -7761 1495 8009 5 MP stroke
4 w
DO
SO
6 w
0 sg
1495  248 mt 13565  248 L
1495 8009 mt 13565 8009 L
13565 8009 mt 13565  248 L
1495 8009 mt 1495  248 L
1495 8009 mt 13565 8009 L
1495 8009 mt 1495  248 L
1495 8009 mt 1495 7888 L
1495  248 mt 1495  368 L
%%IncludeResource: font Helvetica
/Helvetica /WindowsLatin1Encoding 240 FMSR

1429 8266 mt 
(0) s
2702 8009 mt 2702 7888 L
2702  248 mt 2702  368 L
2536 8266 mt 
(0.1) s
3909 8009 mt 3909 7888 L
3909  248 mt 3909  368 L
3743 8266 mt 
(0.2) s
5116 8009 mt 5116 7888 L
5116  248 mt 5116  368 L
4950 8266 mt 
(0.3) s
6323 8009 mt 6323 7888 L
6323  248 mt 6323  368 L
6157 8266 mt 
(0.4) s
7530 8009 mt 7530 7888 L
7530  248 mt 7530  368 L
7364 8266 mt 
(0.5) s
8737 8009 mt 8737 7888 L
8737  248 mt 8737  368 L
8571 8266 mt 
(0.6) s
9944 8009 mt 9944 7888 L
9944  248 mt 9944  368 L
9778 8266 mt 
(0.7) s
11151 8009 mt 11151 7888 L
11151  248 mt 11151  368 L
10985 8266 mt 
(0.8) s
12358 8009 mt 12358 7888 L
12358  248 mt 12358  368 L
12192 8266 mt 
(0.9) s
13565 8009 mt 13565 7888 L
13565  248 mt 13565  368 L
13499 8266 mt 
(1) s
1495 8009 mt 1615 8009 L
13565 8009 mt 13444 8009 L
1327 8098 mt 
(0) s
1495 7232 mt 1615 7232 L
13565 7232 mt 13444 7232 L
1127 7321 mt 
(0.1) s
1495 6456 mt 1615 6456 L
13565 6456 mt 13444 6456 L
1127 6545 mt 
(0.2) s
1495 5680 mt 1615 5680 L
13565 5680 mt 13444 5680 L
1127 5769 mt 
(0.3) s
1495 4904 mt 1615 4904 L
13565 4904 mt 13444 4904 L
1127 4993 mt 
(0.4) s
1495 4128 mt 1615 4128 L
13565 4128 mt 13444 4128 L
1127 4217 mt 
(0.5) s
1495 3352 mt 1615 3352 L
13565 3352 mt 13444 3352 L
1127 3441 mt 
(0.6) s
1495 2576 mt 1615 2576 L
13565 2576 mt 13444 2576 L
1127 2665 mt 
(0.7) s
1495 1800 mt 1615 1800 L
13565 1800 mt 13444 1800 L
1127 1889 mt 
(0.8) s
1495 1024 mt 1615 1024 L
13565 1024 mt 13444 1024 L
1127 1113 mt 
(0.9) s
1495  248 mt 1615  248 L
13565  248 mt 13444  248 L
1327  337 mt 
(1) s
1495  248 mt 13565  248 L
1495 8009 mt 13565 8009 L
13565 8009 mt 13565  248 L
1495 8009 mt 1495  248 L
gs 1495 248 12071 7762 rc
gr

/c8 { 1.000000 0.000000 0.000000 sr} bdef
c8
9366 6529 mt 9438 6529 L
9402 6493 mt 9402 6565 L
10214 6858 mt 10286 6858 L
10250 6822 mt 10250 6894 L
10047 6794 mt 10119 6794 L
10083 6758 mt 10083 6830 L
9632 6634 mt 9704 6634 L
9668 6598 mt 9668 6670 L
8896 6340 mt 8968 6340 L
8932 6304 mt 8932 6376 L
8686 6253 mt 8758 6253 L
8722 6217 mt 8722 6289 L
9366 6529 mt 9438 6529 L
9402 6493 mt 9402 6565 L
9298 6502 mt 9370 6502 L
9334 6466 mt 9334 6538 L
10383 6921 mt 10455 6921 L
10419 6885 mt 10419 6957 L
8686 6253 mt 8758 6253 L
8722 6217 mt 8722 6289 L
9029 6394 mt 9101 6394 L
9065 6358 mt 9065 6430 L
9632 6634 mt 9704 6634 L
9668 6598 mt 9668 6670 L
10383 6921 mt 10455 6921 L
10419 6885 mt 10419 6957 L
10214 6858 mt 10286 6858 L
10250 6822 mt 10250 6894 L
9868 6726 mt 9940 6726 L
9904 6690 mt 9904 6762 L
8686 6253 mt 8758 6253 L
8722 6217 mt 8722 6289 L
8896 6340 mt 8968 6340 L
8932 6304 mt 8932 6376 L
9632 6634 mt 9704 6634 L
9668 6598 mt 9668 6670 L
8896 6340 mt 8968 6340 L
8932 6304 mt 8932 6376 L
9784 6693 mt 9856 6693 L
9820 6657 mt 9820 6729 L
10383 6921 mt 10455 6921 L
10419 6885 mt 10419 6957 L
9134 6437 mt 9206 6437 L
9170 6401 mt 9170 6473 L
9784 6693 mt 9856 6693 L
9820 6657 mt 9820 6729 L
10378 6919 mt 10450 6919 L
10414 6883 mt 10414 6955 L
9868 6726 mt 9940 6726 L
9904 6690 mt 9904 6762 L
9134 6437 mt 9206 6437 L
9170 6401 mt 9170 6473 L
8896 6340 mt 8968 6340 L
8932 6304 mt 8932 6376 L
9712 6665 mt 9784 6665 L
9748 6629 mt 9748 6701 L
10383 6921 mt 10455 6921 L
10419 6885 mt 10419 6957 L
9632 6634 mt 9704 6634 L
9668 6598 mt 9668 6670 L
8827 6311 mt 8899 6311 L
8863 6275 mt 8863 6347 L
8686 6253 mt 8758 6253 L
8722 6217 mt 8722 6289 L
8896 6340 mt 8968 6340 L
8932 6304 mt 8932 6376 L
9868 6726 mt 9940 6726 L
9904 6690 mt 9904 6762 L
9029 6394 mt 9101 6394 L
9065 6358 mt 9065 6430 L
10378 6919 mt 10450 6919 L
10414 6883 mt 10414 6955 L
9366 6529 mt 9438 6529 L
9402 6493 mt 9402 6565 L
gs 1495 248 12071 7762 rc
27.6 w
/c9 { 0.000000 0.000000 1.000000 sr} bdef
c9
13 4 12 4 12 4 12 4 12 4 12 4 12 4 12 4 
12 4 12 3 12 4 12 4 12 4 12 4 13 4 12 4 
12 4 12 4 12 4 12 4 12 3 12 4 12 4 12 4 
12 4 12 4 12 4 12 4 13 4 12 4 12 4 12 4 
12 4 12 4 12 4 12 3 12 4 12 4 12 4 12 4 
12 4 12 4 13 4 12 4 12 4 12 4 12 4 12 4 
12 4 12 4 12 4 12 4 12 4 12 4 12 4 12 4 
12 4 13 4 12 4 12 4 12 4 12 4 12 4 12 4 
12 4 12 4 12 4 12 4 12 4 12 4 12 4 13 4 
12 4 12 4 12 4 12 4 12 4 12 4 12 4 12 4 
12 4 12 5 12 4 12 4 12 4 13 4 12 4 12 4 
12 4 12 4 12 4 12 4 12 4 12 4 12 4 12 4 
12 5 12 4 12 4 12 4 13 4 12 4 12 4 12 4 
12 4 12 4 12 4 12 5 12 4 12 4 12 4 12 4 
12 4 12 4 13 4 12 5 12 4 12 4 12 4 12 4 
12 4 12 4 12 4 12 5 12 4 12 4 12 4 12 4 
13 4 12 5 12 4 12 4 12 4 12 4 12 4 12 5 
12 4 12 4 12 4 12 4 12 4 12 5 13 4 12 4 
12 4 12 4 12 5 12 4 12 4 12 4 12 4 12 5 
12 4 12 4 12 4 12 5 12 4 13 4 12 4 12 4 
12 5 12 4 12 4 12 4 12 5 12 4 12 4 12 4 
12 5 12 4 12 4 13 4 12 5 12 4 12 4 12 4 
12 5 12 4 12 4 12 5 12 4 12 4 12 4 12 5 
12 4 13 4 12 5 12 4 12 4 12 5 12 4 12 4 
12 5 12 4 12 4 12 5 12 4 12 4 12 5 12 4 
13 4 12 5 12 4 12 4 12 5 12 4 12 4 12 5 
12 4 12 4 12 5 12 4 12 4 12 5 13 4 12 5 
12 4 12 4 12 5 12 4 12 5 12 4 12 4 12 5 
12 4 12 5 12 4 12 4 13 5 12 4 12 5 12 4 
12 5 12 4 12 4 12 5 12 4 12 5 12 4 12 5 
12 4 12 5 13 4 12 4 12 5 12 4 12 5 12 4 
12 5 12 4 12 5 12 4 12 5 12 4 12 5 12 4 
12 5 13 4 12 5 12 4 12 5 12 4 12 5 12 4 
12 5 12 4 12 5 12 4 12 5 12 4 12 5 13 5 
12 4 12 5 12 4 12 5 12 4 12 5 12 5 12 4 
12 5 12 4 12 5 12 4 12 5 13 5 12 4 12 5 
12 4 12 5 12 5 12 4 12 5 12 4 12 5 12 5 
12 4 12 5 12 5 9956 6745 300 MP stroke
12 4 13 5 12 4 12 5 12 5 12 4 12 5 12 5 
12 4 12 5 12 5 12 4 12 5 12 5 12 4 13 5 
12 5 12 5 12 4 12 5 12 5 12 4 12 5 12 5 
12 4 12 5 12 5 12 5 12 4 13 5 12 5 12 5 
12 4 12 5 12 5 12 5 12 4 12 5 12 5 12 5 
12 4 12 5 12 5 13 5 12 5 12 4 12 5 12 5 
12 5 12 5 12 4 12 5 12 5 12 5 12 5 12 4 
12 5 12 5 13 5 12 5 12 5 12 5 12 4 12 5 
12 5 12 5 12 5 12 5 12 5 12 5 12 4 12 5 
13 5 12 5 12 5 12 5 12 5 12 5 12 5 12 5 
12 4 12 5 12 5 12 5 12 5 12 5 13 5 12 5 
12 5 12 5 12 5 12 5 12 5 12 5 12 5 12 5 
12 5 12 5 12 5 12 5 12 5 13 5 12 5 12 5 
12 5 12 5 12 5 12 5 12 5 12 5 12 5 12 5 
12 5 12 5 12 5 13 5 12 6 12 5 12 5 12 5 
12 5 12 5 12 5 12 5 12 5 12 5 12 6 12 5 
12 5 13 5 12 5 12 5 12 5 12 6 12 5 12 5 
12 5 12 5 12 5 12 6 12 5 12 5 12 5 13 5 
12 5 12 6 12 5 12 5 12 5 12 6 12 5 12 5 
12 5 12 6 12 5 12 5 12 5 12 6 13 5 12 5 
12 5 12 6 12 5 12 5 12 6 12 5 12 5 12 5 
12 6 12 5 12 5 12 6 13 5 12 5 12 6 12 5 
12 5 12 6 12 5 12 6 12 5 12 5 12 6 12 5 
12 6 12 5 13 5 12 6 12 5 12 6 12 5 12 5 
12 6 12 5 12 6 12 5 12 6 12 5 12 6 12 5 
12 6 13 5 12 6 12 5 12 6 12 5 12 6 12 5 
12 6 12 5 12 6 12 5 12 6 12 5 12 6 13 6 
12 5 12 6 12 5 12 6 12 6 12 5 12 6 12 5 
12 6 12 6 12 5 12 6 12 6 13 5 12 6 12 5 
12 6 12 6 12 6 12 5 12 6 12 6 12 5 12 6 
12 6 12 5 12 6 13 6 12 6 12 5 12 6 12 6 
12 6 12 5 12 6 12 6 12 6 12 6 12 5 12 6 
12 6 12 6 13 6 12 6 12 5 12 6 12 6 12 6 
12 6 12 6 12 6 12 6 12 5 12 6 12 6 12 6 
13 6 12 6 12 6 12 6 12 6 12 6 12 6 12 6 
12 6 12 6 12 6 12 6 12 6 12 6 13 6 12 6 
12 6 12 6 12 6 12 6 12 6 12 6 12 6 12 6 
12 7 12 6 12 6 6347 5168 300 MP stroke
12 6 12 6 13 6 12 6 12 6 12 7 12 6 12 6 
12 6 12 6 12 7 12 6 12 6 12 6 12 6 12 7 
13 6 12 6 12 6 12 7 12 6 12 6 12 7 12 6 
12 6 12 7 12 6 12 6 12 7 12 6 13 6 12 7 
12 6 12 6 12 7 12 6 12 7 12 6 12 7 12 6 
12 6 12 7 12 6 12 7 13 6 12 7 12 6 12 7 
12 6 12 7 12 6 12 7 12 7 12 6 12 7 12 6 
12 7 12 7 12 6 13 7 12 6 12 7 12 7 12 6 
12 7 12 7 12 6 12 7 12 7 12 7 12 6 12 7 
12 7 13 7 12 6 12 7 12 7 12 7 12 7 12 7 
12 6 12 7 12 7 12 7 12 7 12 7 12 7 13 7 
12 6 12 7 12 7 12 7 12 7 12 7 12 7 12 7 
12 7 12 7 12 7 12 7 12 8 12 7 13 7 12 7 
12 7 12 7 12 7 12 7 12 8 12 7 12 7 12 7 
12 7 12 8 12 7 12 7 13 7 12 8 12 7 12 7 
12 7 12 8 12 7 12 7 12 8 12 7 12 8 12 7 
12 7 12 8 13 7 12 8 12 7 12 8 12 7 12 8 
12 7 12 8 12 7 12 8 12 8 12 7 12 8 12 7 
13 8 12 8 12 7 12 8 12 8 12 8 12 7 12 8 
12 8 12 8 12 7 12 8 12 8 12 8 12 8 13 8 
12 7 12 8 12 8 12 8 12 8 12 8 12 8 12 8 
12 8 12 8 12 8 12 8 12 9 13 8 12 8 12 8 
12 8 12 8 12 9 12 8 12 8 12 8 12 9 12 8 
12 8 12 9 12 8 13 8 12 9 12 8 12 9 12 8 
12 8 12 9 12 8 12 9 12 9 12 8 12 9 12 8 
12 9 12 9 13 8 12 9 12 9 12 9 12 8 12 9 
12 9 12 9 12 9 12 9 12 8 12 9 12 9 12 9 
13 9 12 9 12 9 12 10 12 9 12 9 12 9 12 9 
12 9 12 10 12 9 12 9 12 9 12 10 13 9 12 10 
12 9 12 9 12 10 12 9 12 10 12 10 12 9 12 10 
12 9 12 10 12 10 12 10 13 9 12 10 12 10 12 10 
12 10 12 10 12 10 12 10 12 10 12 10 12 10 12 10 
12 10 12 10 12 11 13 10 12 10 12 11 12 10 12 10 
12 11 12 10 12 11 12 11 12 10 12 11 12 10 12 11 
12 11 13 11 12 11 12 11 12 11 12 11 12 11 12 11 
12 11 12 11 12 11 12 12 12 11 12 11 12 12 13 11 
12 12 12 11 12 12 12 11 12 12 12 12 12 12 12 12 
12 12 12 12 12 12 2738 2738 300 MP stroke
12 12 12 12 12 12 13 13 12 12 12 12 12 13 12 12 
12 13 12 13 12 12 12 13 12 13 12 13 12 13 12 13 
12 14 13 13 12 13 12 14 12 13 12 14 12 13 12 14 
12 14 12 14 12 14 12 14 12 14 12 15 12 14 13 15 
12 14 12 15 12 15 12 15 12 15 12 15 12 15 12 16 
12 15 12 16 12 15 12 16 12 16 13 17 12 16 12 16 
12 17 12 17 12 17 12 17 12 17 12 18 12 17 12 18 
12 18 12 18 12 19 12 18 13 19 12 19 12 19 12 20 
12 20 12 20 12 20 12 21 12 20 12 22 12 21 12 22 
12 22 12 23 13 23 12 23 12 24 12 24 12 25 12 25 
12 26 12 27 12 27 12 28 12 28 12 30 12 30 12 31 
13 32 12 34 12 34 12 37 12 37 12 40 12 42 12 45 
12 48 12 53 12 58 12 65 12 78 12 102 12 245 1495 248 104 MP stroke
6 w
gr

c9
/c10 { 0.000000 1.000000 1.000000 sr} bdef
c10
  36   36 8724 6254 FO
  36   36 8737 6259 FO
  36   36 8749 6264 FO
  36   36 8761 6269 FO
  36   36 8773 6274 FO
  36   36 8785 6279 FO
  36   36 8797 6284 FO
  36   36 8809 6289 FO
  36   36 8821 6294 FO
  36   36 8833 6299 FO
  36   36 8845 6304 FO
  36   36 8857 6309 FO
  36   36 8869 6314 FO
  36   36 8881 6319 FO
  36   36 8893 6324 FO
  36   36 8905 6329 FO
  36   36 8918 6334 FO
  36   36 8930 6339 FO
  36   36 8942 6344 FO
  36   36 8954 6349 FO
  36   36 8966 6354 FO
  36   36 8978 6359 FO
  36   36 8990 6363 FO
  36   36 9002 6368 FO
  36   36 9014 6373 FO
  36   36 9026 6378 FO
  36   36 9038 6383 FO
  36   36 9050 6388 FO
  36   36 9062 6393 FO
  36   36 9074 6398 FO
  36   36 9087 6403 FO
  36   36 9099 6408 FO
  36   36 9111 6412 FO
  36   36 9123 6417 FO
  36   36 9135 6422 FO
  36   36 9147 6427 FO
  36   36 9159 6432 FO
  36   36 9171 6437 FO
  36   36 9183 6442 FO
  36   36 9195 6447 FO
  36   36 9207 6451 FO
  36   36 9219 6456 FO
  36   36 9231 6461 FO
  36   36 9243 6466 FO
  36   36 9256 6471 FO
  36   36 9268 6476 FO
  36   36 9280 6481 FO
  36   36 9292 6485 FO
  36   36 9304 6490 FO
  36   36 9316 6495 FO
  36   36 9328 6500 FO
  36   36 9340 6505 FO
  36   36 9352 6509 FO
  36   36 9364 6514 FO
  36   36 9376 6519 FO
  36   36 9388 6524 FO
  36   36 9400 6529 FO
  36   36 9412 6533 FO
  36   36 9424 6538 FO
  36   36 9437 6543 FO
  36   36 9449 6548 FO
  36   36 9461 6553 FO
  36   36 9473 6557 FO
  36   36 9485 6562 FO
  36   36 9497 6567 FO
  36   36 9509 6572 FO
  36   36 9521 6576 FO
  36   36 9533 6581 FO
  36   36 9545 6586 FO
  36   36 9557 6591 FO
  36   36 9569 6595 FO
  36   36 9581 6600 FO
  36   36 9593 6605 FO
  36   36 9606 6610 FO
  36   36 9618 6614 FO
  36   36 9630 6619 FO
  36   36 9642 6624 FO
  36   36 9654 6629 FO
  36   36 9666 6633 FO
  36   36 9678 6638 FO
  36   36 9690 6643 FO
  36   36 9702 6647 FO
  36   36 9714 6652 FO
  36   36 9726 6657 FO
  36   36 9738 6661 FO
  36   36 9750 6666 FO
  36   36 9762 6671 FO
  36   36 9775 6676 FO
  36   36 9787 6680 FO
  36   36 9799 6685 FO
  36   36 9811 6690 FO
  36   36 9823 6694 FO
  36   36 9835 6699 FO
  36   36 9847 6704 FO
  36   36 9859 6708 FO
  36   36 9871 6713 FO
  36   36 9883 6718 FO
  36   36 9895 6722 FO
  36   36 9907 6727 FO
  36   36 9919 6732 FO
  36   36 9931 6736 FO
  36   36 9944 6741 FO
  36   36 9956 6745 FO
  36   36 9968 6750 FO
  36   36 9980 6755 FO
  36   36 9992 6759 FO
  36   36 10004 6764 FO
  36   36 10016 6769 FO
  36   36 10028 6773 FO
  36   36 10040 6778 FO
  36   36 10052 6782 FO
  36   36 10064 6787 FO
  36   36 10076 6792 FO
  36   36 10088 6796 FO
  36   36 10100 6801 FO
  36   36 10112 6805 FO
  36   36 10125 6810 FO
  36   36 10137 6815 FO
  36   36 10149 6819 FO
  36   36 10161 6824 FO
  36   36 10173 6828 FO
  36   36 10185 6833 FO
  36   36 10197 6837 FO
  36   36 10209 6842 FO
  36   36 10221 6847 FO
  36   36 10233 6851 FO
  36   36 10245 6856 FO
  36   36 10257 6860 FO
  36   36 10269 6865 FO
  36   36 10281 6869 FO
  36   36 10294 6874 FO
  36   36 10306 6879 FO
  36   36 10318 6883 FO
  36   36 10330 6888 FO
  36   36 10342 6892 FO
  36   36 10354 6897 FO
  36   36 10366 6901 FO
  36   36 10378 6906 FO
  36   36 10390 6910 FO
  36   36 10402 6915 FO
  36   36 10414 6919 FO
  36   36 10426 6924 FO
  36   36 10438 6928 FO
  36   36 10450 6933 FO
  36   36 10463 6937 FO
  36   36 10475 6942 FO
  36   36 10487 6946 FO
  36   36 10499 6951 FO
  36   36 10511 6955 FO
  36   36 10523 6960 FO
  36   36 10535 6964 FO
  36   36 10547 6969 FO
  36   36 10559 6973 FO
  36   36 10571 6978 FO
  36   36 10583 6982 FO
  36   36 10595 6987 FO
  36   36 10607 6991 FO
  36   36 10619 6996 FO
  36   36 10631 7000 FO
  36   36 10644 7004 FO
  36   36 10656 7009 FO
  36   36 10668 7013 FO
  36   36 10680 7018 FO
  36   36 10692 7022 FO
  36   36 10704 7027 FO
  36   36 10716 7031 FO
  36   36 10728 7036 FO
  36   36 10740 7040 FO
  36   36 10752 7044 FO
  36   36 10764 7049 FO
  36   36 10776 7053 FO
gs 1495 248 12071 7762 rc
27.6 w
c9
13 4 12 4 12 4 12 4 12 4 12 4 12 4 12 4 
12 4 12 3 12 4 12 4 12 4 12 4 13 4 12 4 
12 4 12 4 12 4 12 4 12 3 12 4 12 4 12 4 
12 4 12 4 12 4 12 4 13 4 12 4 12 4 12 4 
12 4 12 4 12 4 12 3 12 4 12 4 12 4 12 4 
12 4 12 4 13 4 12 4 12 4 12 4 12 4 12 4 
12 4 12 4 12 4 12 4 12 4 12 4 12 4 12 4 
12 4 13 4 12 4 12 4 12 4 12 4 12 4 12 4 
12 4 12 4 12 4 12 4 12 4 12 4 12 4 13 4 
12 4 12 4 12 4 12 4 12 4 12 4 12 4 12 4 
12 4 12 5 12 4 12 4 12 4 13 4 12 4 12 4 
12 4 12 4 12 4 12 4 12 4 12 4 12 4 12 4 
12 5 12 4 12 4 12 4 13 4 12 4 12 4 12 4 
12 4 12 4 12 4 12 5 12 4 12 4 12 4 12 4 
12 4 12 4 13 4 12 5 12 4 12 4 12 4 12 4 
12 4 12 4 12 4 12 5 12 4 12 4 12 4 12 4 
13 4 12 5 12 4 12 4 12 4 12 4 12 4 12 5 
12 4 12 4 12 4 12 4 12 4 12 5 13 4 12 4 
12 4 12 4 12 5 12 4 12 4 12 4 12 4 12 5 
12 4 12 4 12 4 12 5 12 4 13 4 12 4 12 4 
12 5 12 4 12 4 12 4 12 5 12 4 12 4 12 4 
12 5 12 4 12 4 13 4 12 5 12 4 12 4 12 4 
12 5 12 4 12 4 12 5 12 4 12 4 12 4 12 5 
12 4 13 4 12 5 12 4 12 4 12 5 12 4 12 4 
12 5 12 4 12 4 12 5 12 4 12 4 12 5 12 4 
13 4 12 5 12 4 12 4 12 5 12 4 12 4 12 5 
12 4 12 4 12 5 12 4 12 4 12 5 13 4 12 5 
12 4 12 4 12 5 12 4 12 5 12 4 12 4 12 5 
12 4 12 5 12 4 12 4 13 5 12 4 12 5 12 4 
12 5 12 4 12 4 12 5 12 4 12 5 12 4 12 5 
12 4 12 5 13 4 12 4 12 5 12 4 12 5 12 4 
12 5 12 4 12 5 12 4 12 5 12 4 12 5 12 4 
12 5 13 4 12 5 12 4 12 5 12 4 12 5 12 4 
12 5 12 4 12 5 12 4 12 5 12 4 12 5 13 5 
12 4 12 5 12 4 12 5 12 4 12 5 12 5 12 4 
12 5 12 4 12 5 12 4 12 5 13 5 12 4 12 5 
12 4 12 5 12 5 12 4 12 5 12 4 12 5 12 5 
12 4 12 5 12 5 9956 6745 300 MP stroke
12 4 13 5 12 4 12 5 12 5 12 4 12 5 12 5 
12 4 12 5 12 5 12 4 12 5 12 5 12 4 13 5 
12 5 12 5 12 4 12 5 12 5 12 4 12 5 12 5 
12 4 12 5 12 5 12 5 12 4 13 5 12 5 12 5 
12 4 12 5 12 5 12 5 12 4 12 5 12 5 12 5 
12 4 12 5 12 5 13 5 12 5 12 4 12 5 12 5 
12 5 12 5 12 4 12 5 12 5 12 5 12 5 12 4 
12 5 12 5 13 5 12 5 12 5 12 5 12 4 12 5 
12 5 12 5 12 5 12 5 12 5 12 5 12 4 12 5 
13 5 12 5 12 5 12 5 12 5 12 5 12 5 12 5 
12 4 12 5 12 5 12 5 12 5 12 5 13 5 12 5 
12 5 12 5 12 5 12 5 12 5 12 5 12 5 12 5 
12 5 12 5 12 5 12 5 12 5 13 5 12 5 12 5 
12 5 12 5 12 5 12 5 12 5 12 5 12 5 12 5 
12 5 12 5 12 5 13 5 12 6 12 5 12 5 12 5 
12 5 12 5 12 5 12 5 12 5 12 5 12 6 12 5 
12 5 13 5 12 5 12 5 12 5 12 6 12 5 12 5 
12 5 12 5 12 5 12 6 12 5 12 5 12 5 13 5 
12 5 12 6 12 5 12 5 12 5 12 6 12 5 12 5 
12 5 12 6 12 5 12 5 12 5 12 6 13 5 12 5 
12 5 12 6 12 5 12 5 12 6 12 5 12 5 12 5 
12 6 12 5 12 5 12 6 13 5 12 5 12 6 12 5 
12 5 12 6 12 5 12 6 12 5 12 5 12 6 12 5 
12 6 12 5 13 5 12 6 12 5 12 6 12 5 12 5 
12 6 12 5 12 6 12 5 12 6 12 5 12 6 12 5 
12 6 13 5 12 6 12 5 12 6 12 5 12 6 12 5 
12 6 12 5 12 6 12 5 12 6 12 5 12 6 13 6 
12 5 12 6 12 5 12 6 12 6 12 5 12 6 12 5 
12 6 12 6 12 5 12 6 12 6 13 5 12 6 12 5 
12 6 12 6 12 6 12 5 12 6 12 6 12 5 12 6 
12 6 12 5 12 6 13 6 12 6 12 5 12 6 12 6 
12 6 12 5 12 6 12 6 12 6 12 6 12 5 12 6 
12 6 12 6 13 6 12 6 12 5 12 6 12 6 12 6 
12 6 12 6 12 6 12 6 12 5 12 6 12 6 12 6 
13 6 12 6 12 6 12 6 12 6 12 6 12 6 12 6 
12 6 12 6 12 6 12 6 12 6 12 6 13 6 12 6 
12 6 12 6 12 6 12 6 12 6 12 6 12 6 12 6 
12 7 12 6 12 6 6347 5168 300 MP stroke
12 6 12 6 13 6 12 6 12 6 12 7 12 6 12 6 
12 6 12 6 12 7 12 6 12 6 12 6 12 6 12 7 
13 6 12 6 12 6 12 7 12 6 12 6 12 7 12 6 
12 6 12 7 12 6 12 6 12 7 12 6 13 6 12 7 
12 6 12 6 12 7 12 6 12 7 12 6 12 7 12 6 
12 6 12 7 12 6 12 7 13 6 12 7 12 6 12 7 
12 6 12 7 12 6 12 7 12 7 12 6 12 7 12 6 
12 7 12 7 12 6 13 7 12 6 12 7 12 7 12 6 
12 7 12 7 12 6 12 7 12 7 12 7 12 6 12 7 
12 7 13 7 12 6 12 7 12 7 12 7 12 7 12 7 
12 6 12 7 12 7 12 7 12 7 12 7 12 7 13 7 
12 6 12 7 12 7 12 7 12 7 12 7 12 7 12 7 
12 7 12 7 12 7 12 7 12 8 12 7 13 7 12 7 
12 7 12 7 12 7 12 7 12 8 12 7 12 7 12 7 
12 7 12 8 12 7 12 7 13 7 12 8 12 7 12 7 
12 7 12 8 12 7 12 7 12 8 12 7 12 8 12 7 
12 7 12 8 13 7 12 8 12 7 12 8 12 7 12 8 
12 7 12 8 12 7 12 8 12 8 12 7 12 8 12 7 
13 8 12 8 12 7 12 8 12 8 12 8 12 7 12 8 
12 8 12 8 12 7 12 8 12 8 12 8 12 8 13 8 
12 7 12 8 12 8 12 8 12 8 12 8 12 8 12 8 
12 8 12 8 12 8 12 8 12 9 13 8 12 8 12 8 
12 8 12 8 12 9 12 8 12 8 12 8 12 9 12 8 
12 8 12 9 12 8 13 8 12 9 12 8 12 9 12 8 
12 8 12 9 12 8 12 9 12 9 12 8 12 9 12 8 
12 9 12 9 13 8 12 9 12 9 12 9 12 8 12 9 
12 9 12 9 12 9 12 9 12 8 12 9 12 9 12 9 
13 9 12 9 12 9 12 10 12 9 12 9 12 9 12 9 
12 9 12 10 12 9 12 9 12 9 12 10 13 9 12 10 
12 9 12 9 12 10 12 9 12 10 12 10 12 9 12 10 
12 9 12 10 12 10 12 10 13 9 12 10 12 10 12 10 
12 10 12 10 12 10 12 10 12 10 12 10 12 10 12 10 
12 10 12 10 12 11 13 10 12 10 12 11 12 10 12 10 
12 11 12 10 12 11 12 11 12 10 12 11 12 10 12 11 
12 11 13 11 12 11 12 11 12 11 12 11 12 11 12 11 
12 11 12 11 12 11 12 12 12 11 12 11 12 12 13 11 
12 12 12 11 12 12 12 11 12 12 12 12 12 12 12 12 
12 12 12 12 12 12 2738 2738 300 MP stroke
12 12 12 12 12 12 13 13 12 12 12 12 12 13 12 12 
12 13 12 13 12 12 12 13 12 13 12 13 12 13 12 13 
12 14 13 13 12 13 12 14 12 13 12 14 12 13 12 14 
12 14 12 14 12 14 12 14 12 14 12 15 12 14 13 15 
12 14 12 15 12 15 12 15 12 15 12 15 12 15 12 16 
12 15 12 16 12 15 12 16 12 16 13 17 12 16 12 16 
12 17 12 17 12 17 12 17 12 17 12 18 12 17 12 18 
12 18 12 18 12 19 12 18 13 19 12 19 12 19 12 20 
12 20 12 20 12 20 12 21 12 20 12 22 12 21 12 22 
12 22 12 23 13 23 12 23 12 24 12 24 12 25 12 25 
12 26 12 27 12 27 12 28 12 28 12 30 12 30 12 31 
13 32 12 34 12 34 12 37 12 37 12 40 12 42 12 45 
12 48 12 53 12 58 12 65 12 78 12 102 12 245 1495 248 104 MP stroke
6 w
gr

c9
c10
  36   36 8724 6254 FO
  36   36 8737 6259 FO
  36   36 8749 6264 FO
  36   36 8761 6269 FO
  36   36 8773 6274 FO
  36   36 8785 6279 FO
  36   36 8797 6284 FO
  36   36 8809 6289 FO
  36   36 8821 6294 FO
  36   36 8833 6299 FO
  36   36 8845 6304 FO
  36   36 8857 6309 FO
  36   36 8869 6314 FO
  36   36 8881 6319 FO
  36   36 8893 6324 FO
  36   36 8905 6329 FO
  36   36 8918 6334 FO
  36   36 8930 6339 FO
  36   36 8942 6344 FO
  36   36 8954 6349 FO
  36   36 8966 6354 FO
  36   36 8978 6359 FO
  36   36 8990 6363 FO
  36   36 9002 6368 FO
  36   36 9014 6373 FO
  36   36 9026 6378 FO
  36   36 9038 6383 FO
  36   36 9050 6388 FO
  36   36 9062 6393 FO
  36   36 9074 6398 FO
  36   36 9087 6403 FO
  36   36 9099 6408 FO
  36   36 9111 6412 FO
  36   36 9123 6417 FO
  36   36 9135 6422 FO
  36   36 9147 6427 FO
  36   36 9159 6432 FO
  36   36 9171 6437 FO
  36   36 9183 6442 FO
  36   36 9195 6447 FO
  36   36 9207 6451 FO
  36   36 9219 6456 FO
  36   36 9231 6461 FO
  36   36 9243 6466 FO
  36   36 9256 6471 FO
  36   36 9268 6476 FO
  36   36 9280 6481 FO
  36   36 9292 6485 FO
  36   36 9304 6490 FO
  36   36 9316 6495 FO
  36   36 9328 6500 FO
  36   36 9340 6505 FO
  36   36 9352 6509 FO
  36   36 9364 6514 FO
  36   36 9376 6519 FO
  36   36 9388 6524 FO
  36   36 9400 6529 FO
  36   36 9412 6533 FO
  36   36 9424 6538 FO
  36   36 9437 6543 FO
  36   36 9449 6548 FO
  36   36 9461 6553 FO
  36   36 9473 6557 FO
  36   36 9485 6562 FO
  36   36 9497 6567 FO
  36   36 9509 6572 FO
  36   36 9521 6576 FO
  36   36 9533 6581 FO
  36   36 9545 6586 FO
  36   36 9557 6591 FO
  36   36 9569 6595 FO
  36   36 9581 6600 FO
  36   36 9593 6605 FO
  36   36 9606 6610 FO
  36   36 9618 6614 FO
  36   36 9630 6619 FO
  36   36 9642 6624 FO
  36   36 9654 6629 FO
  36   36 9666 6633 FO
  36   36 9678 6638 FO
  36   36 9690 6643 FO
  36   36 9702 6647 FO
  36   36 9714 6652 FO
  36   36 9726 6657 FO
  36   36 9738 6661 FO
  36   36 9750 6666 FO
  36   36 9762 6671 FO
  36   36 9775 6676 FO
  36   36 9787 6680 FO
  36   36 9799 6685 FO
  36   36 9811 6690 FO
  36   36 9823 6694 FO
  36   36 9835 6699 FO
  36   36 9847 6704 FO
  36   36 9859 6708 FO
  36   36 9871 6713 FO
  36   36 9883 6718 FO
  36   36 9895 6722 FO
  36   36 9907 6727 FO
  36   36 9919 6732 FO
  36   36 9931 6736 FO
  36   36 9944 6741 FO
  36   36 9956 6745 FO
  36   36 9968 6750 FO
  36   36 9980 6755 FO
  36   36 9992 6759 FO
  36   36 10004 6764 FO
  36   36 10016 6769 FO
  36   36 10028 6773 FO
  36   36 10040 6778 FO
  36   36 10052 6782 FO
  36   36 10064 6787 FO
  36   36 10076 6792 FO
  36   36 10088 6796 FO
  36   36 10100 6801 FO
  36   36 10112 6805 FO
  36   36 10125 6810 FO
  36   36 10137 6815 FO
  36   36 10149 6819 FO
  36   36 10161 6824 FO
  36   36 10173 6828 FO
  36   36 10185 6833 FO
  36   36 10197 6837 FO
  36   36 10209 6842 FO
  36   36 10221 6847 FO
  36   36 10233 6851 FO
  36   36 10245 6856 FO
  36   36 10257 6860 FO
  36   36 10269 6865 FO
  36   36 10281 6869 FO
  36   36 10294 6874 FO
  36   36 10306 6879 FO
  36   36 10318 6883 FO
  36   36 10330 6888 FO
  36   36 10342 6892 FO
  36   36 10354 6897 FO
  36   36 10366 6901 FO
  36   36 10378 6906 FO
  36   36 10390 6910 FO
  36   36 10402 6915 FO
  36   36 10414 6919 FO
  36   36 10426 6924 FO
  36   36 10438 6928 FO
  36   36 10450 6933 FO
  36   36 10463 6937 FO
  36   36 10475 6942 FO
  36   36 10487 6946 FO
  36   36 10499 6951 FO
  36   36 10511 6955 FO
  36   36 10523 6960 FO
  36   36 10535 6964 FO
  36   36 10547 6969 FO
  36   36 10559 6973 FO
  36   36 10571 6978 FO
  36   36 10583 6982 FO
  36   36 10595 6987 FO
  36   36 10607 6991 FO
  36   36 10619 6996 FO
  36   36 10631 7000 FO
  36   36 10644 7004 FO
  36   36 10656 7009 FO
  36   36 10668 7013 FO
  36   36 10680 7018 FO
  36   36 10692 7022 FO
  36   36 10704 7027 FO
  36   36 10716 7031 FO
  36   36 10728 7036 FO
  36   36 10740 7040 FO
  36   36 10752 7044 FO
  36   36 10764 7049 FO
  36   36 10776 7053 FO
gs 1495 248 12071 7762 rc
c9
13 4 12 4 12 4 12 4 12 4 12 4 12 4 12 4 
12 4 12 3 12 4 12 4 12 4 12 4 13 4 12 4 
12 4 12 4 12 4 12 4 12 3 12 4 12 4 12 4 
12 4 12 4 12 4 12 4 13 4 12 4 12 4 12 4 
12 4 12 4 12 4 12 3 12 4 12 4 12 4 12 4 
12 4 12 4 13 4 12 4 12 4 12 4 12 4 12 4 
12 4 12 4 12 4 12 4 12 4 12 4 12 4 12 4 
12 4 13 4 12 4 12 4 12 4 12 4 12 4 12 4 
12 4 12 4 12 4 12 4 12 4 12 4 12 4 13 4 
12 4 12 4 12 4 12 4 12 4 12 4 12 4 12 4 
12 4 12 5 12 4 12 4 12 4 13 4 12 4 12 4 
12 4 12 4 12 4 12 4 12 4 12 4 12 4 12 4 
12 5 12 4 12 4 12 4 13 4 12 4 12 4 12 4 
12 4 12 4 12 4 12 5 12 4 12 4 12 4 12 4 
12 4 12 4 13 4 12 5 12 4 12 4 12 4 12 4 
12 4 12 4 12 4 12 5 12 4 12 4 12 4 12 4 
13 4 12 5 12 4 12 4 12 4 12 4 12 4 12 5 
12 4 12 4 12 4 12 4 12 4 12 5 13 4 12 4 
12 4 12 4 12 5 12 4 12 4 12 4 12 4 12 5 
12 4 12 4 12 4 12 5 12 4 13 4 12 4 12 4 
12 5 12 4 12 4 12 4 12 5 12 4 12 4 12 4 
12 5 12 4 12 4 13 4 12 5 12 4 12 4 12 4 
12 5 12 4 12 4 12 5 12 4 12 4 12 4 12 5 
12 4 13 4 12 5 12 4 12 4 12 5 12 4 12 4 
12 5 12 4 12 4 12 5 12 4 12 4 12 5 12 4 
13 4 12 5 12 4 12 4 12 5 12 4 12 4 12 5 
12 4 12 4 12 5 12 4 12 4 12 5 13 4 12 5 
12 4 12 4 12 5 12 4 12 5 12 4 12 4 12 5 
12 4 12 5 12 4 12 4 13 5 12 4 12 5 12 4 
12 5 12 4 12 4 12 5 12 4 12 5 12 4 12 5 
12 4 12 5 13 4 12 4 12 5 12 4 12 5 12 4 
12 5 12 4 12 5 12 4 12 5 12 4 12 5 12 4 
12 5 13 4 12 5 12 4 12 5 12 4 12 5 12 4 
12 5 12 4 12 5 12 4 12 5 12 4 12 5 13 5 
12 4 12 5 12 4 12 5 12 4 12 5 12 5 12 4 
12 5 12 4 12 5 12 4 12 5 13 5 12 4 12 5 
12 4 12 5 12 5 12 4 12 5 12 4 12 5 12 5 
12 4 12 5 12 5 9956 6745 300 MP stroke
12 4 13 5 12 4 12 5 12 5 12 4 12 5 12 5 
12 4 12 5 12 5 12 4 12 5 12 5 12 4 13 5 
12 5 12 5 12 4 12 5 12 5 12 4 12 5 12 5 
12 4 12 5 12 5 12 5 12 4 13 5 12 5 12 5 
12 4 12 5 12 5 12 5 12 4 12 5 12 5 12 5 
12 4 12 5 12 5 13 5 12 5 12 4 12 5 12 5 
12 5 12 5 12 4 12 5 12 5 12 5 12 5 12 4 
12 5 12 5 13 5 12 5 12 5 12 5 12 4 12 5 
12 5 12 5 12 5 12 5 12 5 12 5 12 4 12 5 
13 5 12 5 12 5 12 5 12 5 12 5 12 5 12 5 
12 4 12 5 12 5 12 5 12 5 12 5 13 5 12 5 
12 5 12 5 12 5 12 5 12 5 12 5 12 5 12 5 
12 5 12 5 12 5 12 5 12 5 13 5 12 5 12 5 
12 5 12 5 12 5 12 5 12 5 12 5 12 5 12 5 
12 5 12 5 12 5 13 5 12 6 12 5 12 5 12 5 
12 5 12 5 12 5 12 5 12 5 12 5 12 6 12 5 
12 5 13 5 12 5 12 5 12 5 12 6 12 5 12 5 
12 5 12 5 12 5 12 6 12 5 12 5 12 5 13 5 
12 5 12 6 12 5 12 5 12 5 12 6 12 5 12 5 
12 5 12 6 12 5 12 5 12 5 12 6 13 5 12 5 
12 5 12 6 12 5 12 5 12 6 12 5 12 5 12 5 
12 6 12 5 12 5 12 6 13 5 12 5 12 6 12 5 
12 5 12 6 12 5 12 6 12 5 12 5 12 6 12 5 
12 6 12 5 13 5 12 6 12 5 12 6 12 5 12 5 
12 6 12 5 12 6 12 5 12 6 12 5 12 6 12 5 
12 6 13 5 12 6 12 5 12 6 12 5 12 6 12 5 
12 6 12 5 12 6 12 5 12 6 12 5 12 6 13 6 
12 5 12 6 12 5 12 6 12 6 12 5 12 6 12 5 
12 6 12 6 12 5 12 6 12 6 13 5 12 6 12 5 
12 6 12 6 12 6 12 5 12 6 12 6 12 5 12 6 
12 6 12 5 12 6 13 6 12 6 12 5 12 6 12 6 
12 6 12 5 12 6 12 6 12 6 12 6 12 5 12 6 
12 6 12 6 13 6 12 6 12 5 12 6 12 6 12 6 
12 6 12 6 12 6 12 6 12 5 12 6 12 6 12 6 
13 6 12 6 12 6 12 6 12 6 12 6 12 6 12 6 
12 6 12 6 12 6 12 6 12 6 12 6 13 6 12 6 
12 6 12 6 12 6 12 6 12 6 12 6 12 6 12 6 
12 7 12 6 12 6 6347 5168 300 MP stroke
12 6 12 6 13 6 12 6 12 6 12 7 12 6 12 6 
12 6 12 6 12 7 12 6 12 6 12 6 12 6 12 7 
13 6 12 6 12 6 12 7 12 6 12 6 12 7 12 6 
12 6 12 7 12 6 12 6 12 7 12 6 13 6 12 7 
12 6 12 6 12 7 12 6 12 7 12 6 12 7 12 6 
12 6 12 7 12 6 12 7 13 6 12 7 12 6 12 7 
12 6 12 7 12 6 12 7 12 7 12 6 12 7 12 6 
12 7 12 7 12 6 13 7 12 6 12 7 12 7 12 6 
12 7 12 7 12 6 12 7 12 7 12 7 12 6 12 7 
12 7 13 7 12 6 12 7 12 7 12 7 12 7 12 7 
12 6 12 7 12 7 12 7 12 7 12 7 12 7 13 7 
12 6 12 7 12 7 12 7 12 7 12 7 12 7 12 7 
12 7 12 7 12 7 12 7 12 8 12 7 13 7 12 7 
12 7 12 7 12 7 12 7 12 8 12 7 12 7 12 7 
12 7 12 8 12 7 12 7 13 7 12 8 12 7 12 7 
12 7 12 8 12 7 12 7 12 8 12 7 12 8 12 7 
12 7 12 8 13 7 12 8 12 7 12 8 12 7 12 8 
12 7 12 8 12 7 12 8 12 8 12 7 12 8 12 7 
13 8 12 8 12 7 12 8 12 8 12 8 12 7 12 8 
12 8 12 8 12 7 12 8 12 8 12 8 12 8 13 8 
12 7 12 8 12 8 12 8 12 8 12 8 12 8 12 8 
12 8 12 8 12 8 12 8 12 9 13 8 12 8 12 8 
12 8 12 8 12 9 12 8 12 8 12 8 12 9 12 8 
12 8 12 9 12 8 13 8 12 9 12 8 12 9 12 8 
12 8 12 9 12 8 12 9 12 9 12 8 12 9 12 8 
12 9 12 9 13 8 12 9 12 9 12 9 12 8 12 9 
12 9 12 9 12 9 12 9 12 8 12 9 12 9 12 9 
13 9 12 9 12 9 12 10 12 9 12 9 12 9 12 9 
12 9 12 10 12 9 12 9 12 9 12 10 13 9 12 10 
12 9 12 9 12 10 12 9 12 10 12 10 12 9 12 10 
12 9 12 10 12 10 12 10 13 9 12 10 12 10 12 10 
12 10 12 10 12 10 12 10 12 10 12 10 12 10 12 10 
12 10 12 10 12 11 13 10 12 10 12 11 12 10 12 10 
12 11 12 10 12 11 12 11 12 10 12 11 12 10 12 11 
12 11 13 11 12 11 12 11 12 11 12 11 12 11 12 11 
12 11 12 11 12 11 12 12 12 11 12 11 12 12 13 11 
12 12 12 11 12 12 12 11 12 12 12 12 12 12 12 12 
12 12 12 12 12 12 2738 2738 300 MP stroke
12 12 12 12 12 12 13 13 12 12 12 12 12 13 12 12 
12 13 12 13 12 12 12 13 12 13 12 13 12 13 12 13 
12 14 13 13 12 13 12 14 12 13 12 14 12 13 12 14 
12 14 12 14 12 14 12 14 12 14 12 15 12 14 13 15 
12 14 12 15 12 15 12 15 12 15 12 15 12 15 12 16 
12 15 12 16 12 15 12 16 12 16 13 17 12 16 12 16 
12 17 12 17 12 17 12 17 12 17 12 18 12 17 12 18 
12 18 12 18 12 19 12 18 13 19 12 19 12 19 12 20 
12 20 12 20 12 20 12 21 12 20 12 22 12 21 12 22 
12 22 12 23 13 23 12 23 12 24 12 24 12 25 12 25 
12 26 12 27 12 27 12 28 12 28 12 30 12 30 12 31 
13 32 12 34 12 34 12 37 12 37 12 40 12 42 12 45 
12 48 12 53 12 58 12 65 12 78 12 102 12 245 1495 248 104 MP stroke
gr

c9
c10
  60   60 8724 6254 FO
  60   60 8737 6259 FO
  60   60 8749 6264 FO
  60   60 8761 6269 FO
  60   60 8773 6274 FO
  60   60 8785 6279 FO
  60   60 8797 6284 FO
  60   60 8809 6289 FO
  60   60 8821 6294 FO
  60   60 8833 6299 FO
  60   60 8845 6304 FO
  60   60 8857 6309 FO
  60   60 8869 6314 FO
  60   60 8881 6319 FO
  60   60 8893 6324 FO
  60   60 8905 6329 FO
  60   60 8918 6334 FO
  60   60 8930 6339 FO
  60   60 8942 6344 FO
  60   60 8954 6349 FO
  60   60 8966 6354 FO
  60   60 8978 6359 FO
  60   60 8990 6363 FO
  60   60 9002 6368 FO
  60   60 9014 6373 FO
  60   60 9026 6378 FO
  60   60 9038 6383 FO
  60   60 9050 6388 FO
  60   60 9062 6393 FO
  60   60 9074 6398 FO
  60   60 9087 6403 FO
  60   60 9099 6408 FO
  60   60 9111 6412 FO
  60   60 9123 6417 FO
  60   60 9135 6422 FO
  60   60 9147 6427 FO
  60   60 9159 6432 FO
  60   60 9171 6437 FO
  60   60 9183 6442 FO
  60   60 9195 6447 FO
  60   60 9207 6451 FO
  60   60 9219 6456 FO
  60   60 9231 6461 FO
  60   60 9243 6466 FO
  60   60 9256 6471 FO
  60   60 9268 6476 FO
  60   60 9280 6481 FO
  60   60 9292 6485 FO
  60   60 9304 6490 FO
  60   60 9316 6495 FO
  60   60 9328 6500 FO
  60   60 9340 6505 FO
  60   60 9352 6509 FO
  60   60 9364 6514 FO
  60   60 9376 6519 FO
  60   60 9388 6524 FO
  60   60 9400 6529 FO
  60   60 9412 6533 FO
  60   60 9424 6538 FO
  60   60 9437 6543 FO
  60   60 9449 6548 FO
  60   60 9461 6553 FO
  60   60 9473 6557 FO
  60   60 9485 6562 FO
  60   60 9497 6567 FO
  60   60 9509 6572 FO
  60   60 9521 6576 FO
  60   60 9533 6581 FO
  60   60 9545 6586 FO
  60   60 9557 6591 FO
  60   60 9569 6595 FO
  60   60 9581 6600 FO
  60   60 9593 6605 FO
  60   60 9606 6610 FO
  60   60 9618 6614 FO
  60   60 9630 6619 FO
  60   60 9642 6624 FO
  60   60 9654 6629 FO
  60   60 9666 6633 FO
  60   60 9678 6638 FO
  60   60 9690 6643 FO
  60   60 9702 6647 FO
  60   60 9714 6652 FO
  60   60 9726 6657 FO
  60   60 9738 6661 FO
  60   60 9750 6666 FO
  60   60 9762 6671 FO
  60   60 9775 6676 FO
  60   60 9787 6680 FO
  60   60 9799 6685 FO
  60   60 9811 6690 FO
  60   60 9823 6694 FO
  60   60 9835 6699 FO
  60   60 9847 6704 FO
  60   60 9859 6708 FO
  60   60 9871 6713 FO
  60   60 9883 6718 FO
  60   60 9895 6722 FO
  60   60 9907 6727 FO
  60   60 9919 6732 FO
  60   60 9931 6736 FO
  60   60 9944 6741 FO
  60   60 9956 6745 FO
  60   60 9968 6750 FO
  60   60 9980 6755 FO
  60   60 9992 6759 FO
  60   60 10004 6764 FO
  60   60 10016 6769 FO
  60   60 10028 6773 FO
  60   60 10040 6778 FO
  60   60 10052 6782 FO
  60   60 10064 6787 FO
  60   60 10076 6792 FO
  60   60 10088 6796 FO
  60   60 10100 6801 FO
  60   60 10112 6805 FO
  60   60 10125 6810 FO
  60   60 10137 6815 FO
  60   60 10149 6819 FO
  60   60 10161 6824 FO
  60   60 10173 6828 FO
  60   60 10185 6833 FO
  60   60 10197 6837 FO
  60   60 10209 6842 FO
  60   60 10221 6847 FO
  60   60 10233 6851 FO
  60   60 10245 6856 FO
  60   60 10257 6860 FO
  60   60 10269 6865 FO
  60   60 10281 6869 FO
  60   60 10294 6874 FO
  60   60 10306 6879 FO
  60   60 10318 6883 FO
  60   60 10330 6888 FO
  60   60 10342 6892 FO
  60   60 10354 6897 FO
  60   60 10366 6901 FO
  60   60 10378 6906 FO
  60   60 10390 6910 FO
  60   60 10402 6915 FO
  60   60 10414 6919 FO
  60   60 10426 6924 FO
  60   60 10438 6928 FO
  60   60 10450 6933 FO
  60   60 10463 6937 FO
  60   60 10475 6942 FO
  60   60 10487 6946 FO
  60   60 10499 6951 FO
  60   60 10511 6955 FO
  60   60 10523 6960 FO
  60   60 10535 6964 FO
  60   60 10547 6969 FO
  60   60 10559 6973 FO
  60   60 10571 6978 FO
  60   60 10583 6982 FO
  60   60 10595 6987 FO
  60   60 10607 6991 FO
  60   60 10619 6996 FO
  60   60 10631 7000 FO
  60   60 10644 7004 FO
  60   60 10656 7009 FO
  60   60 10668 7013 FO
  60   60 10680 7018 FO
  60   60 10692 7022 FO
  60   60 10704 7027 FO
  60   60 10716 7031 FO
  60   60 10728 7036 FO
  60   60 10740 7040 FO
  60   60 10752 7044 FO
  60   60 10764 7049 FO
  60   60 10776 7053 FO
gs 1495 248 12071 7762 rc
360 w
gr

360 w
120 W
c8
9537 6583 PD
120 W
10285 6871 PD
120 W
9585 6602 PD
120 W
9707 6649 PD
120 W
9056 6390 PD
120 W
8779 6277 PD
120 W
9330 6501 PD
120 W
8692 6241 PD
120 W
9330 6501 PD
120 W
10587 6983 PD
120 W
8779 6277 PD
120 W
9159 6432 PD
120 W
9537 6583 PD
120 W
10587 6983 PD
120 W
8692 6241 PD
120 W
10285 6871 PD
120 W
8779 6277 PD
120 W
9056 6390 PD
120 W
9585 6602 PD
120 W
8851 6307 PD
120 W
9846 6703 PD
120 W
10587 6983 PD
120 W
9159 6432 PD
120 W
9846 6703 PD
120 W
10370 6903 PD
120 W
9846 6703 PD
120 W
9159 6432 PD
120 W
9056 6390 PD
120 W
9744 6664 PD
120 W
10587 6983 PD
120 W
9585 6602 PD
120 W
8806 6288 PD
120 W
8779 6277 PD
120 W
9056 6390 PD
120 W
9846 6703 PD
120 W
9159 6432 PD
120 W
10421 6922 PD
120 W
9537 6583 PD
gs 1495 248 12071 7762 rc
gs 9222 5734 1445 1445 rc
120 W
0 sg
9944 6456 PD
gr

0 sg
6 w
gr

6 w
0 sg
%%IncludeResource: font Courier-Bold
/Courier-Bold /WindowsLatin1Encoding 360 FMSR

9732 5514 mt 
(\(0.7,0.2\)) s

end %%Color Dict

eplot
%%EndObject

epage
end

showpage

%%Trailer
%%EOF
