%!PS-Adobe-3.0 EPSF-3.0
%%Creator: MATLAB, The MathWorks, Inc. Version 7.13.0.564 (R2011b). Operating System: Microsoft Windows XP.
%%Title: D:\DriveG\Sem2-2012\Program\ReferenceMetric-v3\metricfig\zdt1\11-02-13\zdt1-rnsgaii.eps
%%CreationDate: 02/11/2013  16:41:05
%%DocumentNeededFonts: Helvetica
%%+ Courier-Bold
%%DocumentProcessColors: Cyan Magenta Yellow Black
%%LanguageLevel: 2
%%Pages: 1
%%BoundingBox:  -329    76   926   765
%%EndComments

%%BeginProlog
% MathWorks dictionary
/MathWorks 160 dict begin
% definition operators
/bdef {bind def} bind def
/ldef {load def} bind def
/xdef {exch def} bdef
/xstore {exch store} bdef
% operator abbreviations
/c  /clip ldef
/cc /concat ldef
/cp /closepath ldef
/gr /grestore ldef
/gs /gsave ldef
/mt /moveto ldef
/np /newpath ldef
/cm /currentmatrix ldef
/sm /setmatrix ldef
/rm /rmoveto ldef
/rl /rlineto ldef
/s {show newpath} bdef
/sc {setcmykcolor} bdef
/sr /setrgbcolor ldef
/sg /setgray ldef
/w /setlinewidth ldef
/j /setlinejoin ldef
/cap /setlinecap ldef
/rc {rectclip} bdef
/rf {rectfill} bdef
% page state control
/pgsv () def
/bpage {/pgsv save def} bdef
/epage {pgsv restore} bdef
/bplot /gsave ldef
/eplot {stroke grestore} bdef
% orientation switch
/portraitMode 0 def /landscapeMode 1 def /rotateMode 2 def
% coordinate system mappings
/dpi2point 0 def
% font control
/FontSize 0 def
/FMS {/FontSize xstore findfont [FontSize 0 0 FontSize neg 0 0]
  makefont setfont} bdef
/ISOLatin1Encoding where {pop /WindowsLatin1Encoding 256 array bdef
ISOLatin1Encoding WindowsLatin1Encoding copy pop
/.notdef/.notdef/quotesinglbase/florin/quotedblbase/ellipsis/dagger
/daggerdbl/circumflex/perthousand/Scaron/guilsinglleft/OE/.notdef/.notdef
/.notdef/.notdef/quoteleft/quoteright/quotedblleft/quotedblright/bullet
/endash/emdash/tilde/trademark/scaron/guilsinglright/oe/.notdef/.notdef
/Ydieresis WindowsLatin1Encoding 128 32 getinterval astore pop}
{/WindowsLatin1Encoding StandardEncoding bdef} ifelse
/reencode {exch dup where {pop load} {pop StandardEncoding} ifelse
  exch dup 3 1 roll findfont dup length dict begin
  { 1 index /FID ne {def}{pop pop} ifelse } forall
  /Encoding exch def currentdict end definefont pop} bdef
/isroman {findfont /CharStrings get /Agrave known} bdef
/FMSR {3 1 roll 1 index dup isroman {reencode} {pop pop} ifelse
  exch FMS} bdef
/csm {1 dpi2point div -1 dpi2point div scale neg translate
 dup landscapeMode eq {pop -90 rotate}
  {rotateMode eq {90 rotate} if} ifelse} bdef
% line types: solid, dotted, dashed, dotdash
/SO { [] 0 setdash } bdef
/DO { [.5 dpi2point mul 4 dpi2point mul] 0 setdash } bdef
/DA { [6 dpi2point mul] 0 setdash } bdef
/DD { [.5 dpi2point mul 4 dpi2point mul 6 dpi2point mul 4
  dpi2point mul] 0 setdash } bdef
% macros for lines and objects
/L {lineto stroke} bdef
/MP {3 1 roll moveto 1 sub {rlineto} repeat} bdef
/AP {{rlineto} repeat} bdef
/PDlw -1 def
/W {/PDlw currentlinewidth def setlinewidth} def
/PP {closepath eofill} bdef
/DP {closepath stroke} bdef
/MR {4 -2 roll moveto dup  0 exch rlineto exch 0 rlineto
  neg 0 exch rlineto closepath} bdef
/FR {MR stroke} bdef
/PR {MR fill} bdef
/L1i {{currentfile picstr readhexstring pop} image} bdef
/tMatrix matrix def
/MakeOval {newpath tMatrix currentmatrix pop translate scale
0 0 1 0 360 arc tMatrix setmatrix} bdef
/FO {MakeOval stroke} bdef
/PO {MakeOval fill} bdef
/PD {currentlinewidth 2 div 0 360 arc fill
   PDlw -1 eq not {PDlw w /PDlw -1 def} if} def
/FA {newpath tMatrix currentmatrix pop translate scale
  0 0 1 5 -2 roll arc tMatrix setmatrix stroke} bdef
/PA {newpath tMatrix currentmatrix pop	translate 0 0 moveto scale
  0 0 1 5 -2 roll arc closepath tMatrix setmatrix fill} bdef
/FAn {newpath tMatrix currentmatrix pop translate scale
  0 0 1 5 -2 roll arcn tMatrix setmatrix stroke} bdef
/PAn {newpath tMatrix currentmatrix pop translate 0 0 moveto scale
  0 0 1 5 -2 roll arcn closepath tMatrix setmatrix fill} bdef
/vradius 0 def /hradius 0 def /lry 0 def
/lrx 0 def /uly 0 def /ulx 0 def /rad 0 def
/MRR {/vradius xdef /hradius xdef /lry xdef /lrx xdef /uly xdef
  /ulx xdef newpath tMatrix currentmatrix pop ulx hradius add uly
  vradius add translate hradius vradius scale 0 0 1 180 270 arc 
  tMatrix setmatrix lrx hradius sub uly vradius add translate
  hradius vradius scale 0 0 1 270 360 arc tMatrix setmatrix
  lrx hradius sub lry vradius sub translate hradius vradius scale
  0 0 1 0 90 arc tMatrix setmatrix ulx hradius add lry vradius sub
  translate hradius vradius scale 0 0 1 90 180 arc tMatrix setmatrix
  closepath} bdef
/FRR {MRR stroke } bdef
/PRR {MRR fill } bdef
/MlrRR {/lry xdef /lrx xdef /uly xdef /ulx xdef /rad lry uly sub 2 div def
  newpath tMatrix currentmatrix pop ulx rad add uly rad add translate
  rad rad scale 0 0 1 90 270 arc tMatrix setmatrix lrx rad sub lry rad
  sub translate rad rad scale 0 0 1 270 90 arc tMatrix setmatrix
  closepath} bdef
/FlrRR {MlrRR stroke } bdef
/PlrRR {MlrRR fill } bdef
/MtbRR {/lry xdef /lrx xdef /uly xdef /ulx xdef /rad lrx ulx sub 2 div def
  newpath tMatrix currentmatrix pop ulx rad add uly rad add translate
  rad rad scale 0 0 1 180 360 arc tMatrix setmatrix lrx rad sub lry rad
  sub translate rad rad scale 0 0 1 0 180 arc tMatrix setmatrix
  closepath} bdef
/FtbRR {MtbRR stroke } bdef
/PtbRR {MtbRR fill } bdef
/stri 6 array def /dtri 6 array def
/smat 6 array def /dmat 6 array def
/tmat1 6 array def /tmat2 6 array def /dif 3 array def
/asub {/ind2 exch def /ind1 exch def dup dup
  ind1 get exch ind2 get sub exch } bdef
/tri_to_matrix {
  2 0 asub 3 1 asub 4 0 asub 5 1 asub
  dup 0 get exch 1 get 7 -1 roll astore } bdef
/compute_transform {
  dmat dtri tri_to_matrix tmat1 invertmatrix 
  smat stri tri_to_matrix tmat2 concatmatrix } bdef
/ds {stri astore pop} bdef
/dt {dtri astore pop} bdef
/db {2 copy /cols xdef /rows xdef mul dup 3 mul string
  currentfile 
  3 index 0 eq {/ASCIIHexDecode filter}
  {/ASCII85Decode filter 3 index 2 eq {/RunLengthDecode filter} if }
  ifelse exch readstring pop
  dup 0 3 index getinterval /rbmap xdef
  dup 2 index dup getinterval /gbmap xdef
  1 index dup 2 mul exch getinterval /bbmap xdef pop pop}bdef
/it {gs np dtri aload pop moveto lineto lineto cp c
  cols rows 8 compute_transform 
  rbmap gbmap bbmap true 3 colorimage gr}bdef
/il {newpath moveto lineto stroke}bdef
currentdict end def
%%EndProlog

%%BeginSetup
MathWorks begin

0 cap

end
%%EndSetup

%%Page: 1 1
%%BeginPageSetup
%%PageBoundingBox:  -329    76   926   765
MathWorks begin
bpage
%%EndPageSetup

%%BeginObject: obj1
bplot

/dpi2point 12 def
portraitMode -3948 9180 csm

    0     0 15060  8257 rc
86 dict begin %Colortable dictionary
/c0 { 0.000000 0.000000 0.000000 sr} bdef
/c1 { 1.000000 1.000000 1.000000 sr} bdef
/c2 { 0.900000 0.000000 0.000000 sr} bdef
/c3 { 0.000000 0.820000 0.000000 sr} bdef
/c4 { 0.000000 0.000000 0.800000 sr} bdef
/c5 { 0.910000 0.820000 0.320000 sr} bdef
/c6 { 1.000000 0.260000 0.820000 sr} bdef
/c7 { 0.000000 0.820000 0.820000 sr} bdef
c0
1 j
1 sg
   0    0 15061 8258 rf
6 w
0 7482 11357 0 0 -7482 1973 7779 4 MP
PP
-11357 0 0 7482 11357 0 0 -7482 1973 7779 5 MP stroke
4 w
DO
SO
6 w
0 sg
1973  297 mt 13330  297 L
1973 7779 mt 13330 7779 L
13330 7779 mt 13330  297 L
1973 7779 mt 1973  297 L
1973 7779 mt 13330 7779 L
1973 7779 mt 1973  297 L
1973 7779 mt 1973 7665 L
1973  297 mt 1973  410 L
%%IncludeResource: font Helvetica
/Helvetica /WindowsLatin1Encoding 240 FMSR

1907 8036 mt 
(0) s
3108 7779 mt 3108 7665 L
3108  297 mt 3108  410 L
2942 8036 mt 
(0.1) s
4244 7779 mt 4244 7665 L
4244  297 mt 4244  410 L
4078 8036 mt 
(0.2) s
5380 7779 mt 5380 7665 L
5380  297 mt 5380  410 L
5214 8036 mt 
(0.3) s
6515 7779 mt 6515 7665 L
6515  297 mt 6515  410 L
6349 8036 mt 
(0.4) s
7651 7779 mt 7651 7665 L
7651  297 mt 7651  410 L
7485 8036 mt 
(0.5) s
8787 7779 mt 8787 7665 L
8787  297 mt 8787  410 L
8621 8036 mt 
(0.6) s
9922 7779 mt 9922 7665 L
9922  297 mt 9922  410 L
9756 8036 mt 
(0.7) s
11058 7779 mt 11058 7665 L
11058  297 mt 11058  410 L
10892 8036 mt 
(0.8) s
12194 7779 mt 12194 7665 L
12194  297 mt 12194  410 L
12028 8036 mt 
(0.9) s
13330 7779 mt 13330 7665 L
13330  297 mt 13330  410 L
13264 8036 mt 
(1) s
1973 7779 mt 2086 7779 L
13330 7779 mt 13216 7779 L
1805 7868 mt 
(0) s
1973 7030 mt 2086 7030 L
13330 7030 mt 13216 7030 L
1605 7119 mt 
(0.1) s
1973 6282 mt 2086 6282 L
13330 6282 mt 13216 6282 L
1605 6371 mt 
(0.2) s
1973 5534 mt 2086 5534 L
13330 5534 mt 13216 5534 L
1605 5623 mt 
(0.3) s
1973 4786 mt 2086 4786 L
13330 4786 mt 13216 4786 L
1605 4875 mt 
(0.4) s
1973 4038 mt 2086 4038 L
13330 4038 mt 13216 4038 L
1605 4127 mt 
(0.5) s
1973 3289 mt 2086 3289 L
13330 3289 mt 13216 3289 L
1605 3378 mt 
(0.6) s
1973 2541 mt 2086 2541 L
13330 2541 mt 13216 2541 L
1605 2630 mt 
(0.7) s
1973 1793 mt 2086 1793 L
13330 1793 mt 13216 1793 L
1605 1882 mt 
(0.8) s
1973 1045 mt 2086 1045 L
13330 1045 mt 13216 1045 L
1605 1134 mt 
(0.9) s
1973  297 mt 2086  297 L
13330  297 mt 13216  297 L
1805  386 mt 
(1) s
1973  297 mt 13330  297 L
1973 7779 mt 13330 7779 L
13330 7779 mt 13330  297 L
1973 7779 mt 1973  297 L
gs 1973 297 11358 7483 rc
gs 9469 6332 492 284 rc
/c8 { 1.000000 0.000000 0.000000 sr} bdef
c8
9641 6459 mt 9713 6459 L
9677 6423 mt 9677 6495 L
9636 6457 mt 9708 6457 L
9672 6421 mt 9672 6493 L
9626 6453 mt 9698 6453 L
9662 6417 mt 9662 6489 L
9755 6504 mt 9827 6504 L
9791 6468 mt 9791 6540 L
9593 6440 mt 9665 6440 L
9629 6404 mt 9629 6476 L
9591 6439 mt 9663 6439 L
9627 6403 mt 9627 6475 L
9589 6438 mt 9661 6438 L
9625 6402 mt 9625 6474 L
9584 6436 mt 9656 6436 L
9620 6400 mt 9620 6472 L
9582 6435 mt 9654 6435 L
9618 6399 mt 9618 6471 L
9576 6433 mt 9648 6433 L
9612 6397 mt 9612 6469 L
9573 6432 mt 9645 6432 L
9609 6396 mt 9609 6468 L
9568 6430 mt 9640 6430 L
9604 6394 mt 9604 6466 L
9566 6429 mt 9638 6429 L
9602 6393 mt 9602 6465 L
9564 6428 mt 9636 6428 L
9600 6392 mt 9600 6464 L
9561 6427 mt 9633 6427 L
9597 6391 mt 9597 6463 L
9559 6426 mt 9631 6426 L
9595 6390 mt 9595 6462 L
9556 6425 mt 9628 6425 L
9592 6389 mt 9592 6461 L
9554 6424 mt 9626 6424 L
9590 6388 mt 9590 6460 L
9552 6423 mt 9624 6423 L
9588 6387 mt 9588 6459 L
9549 6422 mt 9621 6422 L
9585 6386 mt 9585 6458 L
9545 6421 mt 9617 6421 L
9581 6385 mt 9581 6457 L
9541 6419 mt 9613 6419 L
9577 6383 mt 9577 6455 L
9537 6417 mt 9609 6417 L
9573 6381 mt 9573 6453 L
9534 6416 mt 9606 6416 L
9570 6380 mt 9570 6452 L
9582 6435 mt 9654 6435 L
9618 6399 mt 9618 6471 L
9821 6531 mt 9893 6531 L
9857 6495 mt 9857 6567 L
9582 6435 mt 9654 6435 L
9618 6399 mt 9618 6471 L
9529 6414 mt 9601 6414 L
9565 6378 mt 9565 6450 L
9526 6413 mt 9598 6413 L
9562 6377 mt 9562 6449 L
9521 6411 mt 9593 6411 L
9557 6375 mt 9557 6447 L
9835 6536 mt 9907 6536 L
9871 6500 mt 9871 6572 L
9516 6409 mt 9588 6409 L
9552 6373 mt 9552 6445 L
9573 6432 mt 9645 6432 L
9609 6396 mt 9609 6468 L
9513 6408 mt 9585 6408 L
9549 6372 mt 9549 6444 L
9573 6432 mt 9645 6432 L
9609 6396 mt 9609 6468 L
9569 6430 mt 9641 6430 L
9605 6394 mt 9605 6466 L
9511 6407 mt 9583 6407 L
9547 6371 mt 9547 6443 L
9569 6430 mt 9641 6430 L
9605 6394 mt 9605 6466 L
9509 6406 mt 9581 6406 L
9545 6370 mt 9545 6442 L
9567 6429 mt 9639 6429 L
9603 6393 mt 9603 6465 L
9506 6405 mt 9578 6405 L
9542 6369 mt 9542 6441 L
9567 6429 mt 9639 6429 L
9603 6393 mt 9603 6465 L
9851 6542 mt 9923 6542 L
9887 6506 mt 9887 6578 L
gr

c8
27.6 w
/c9 { 0.000000 0.000000 1.000000 sr} bdef
c9
12 4 11 4 12 4 11 3 11 4 12 4 11 4 11 3 
12 4 11 4 11 4 12 4 11 3 11 4 12 4 11 4 
12 3 11 4 11 4 12 4 11 3 11 4 12 4 11 4 
11 4 12 3 11 4 11 4 12 4 11 4 12 3 11 4 
11 4 12 4 11 4 11 3 12 4 11 4 11 4 12 4 
11 3 11 4 12 4 11 4 12 4 11 4 11 3 12 4 
11 4 11 4 12 4 11 4 11 3 12 4 11 4 11 4 
12 4 11 4 12 4 11 3 11 4 12 4 11 4 11 4 
12 4 11 4 11 3 12 4 11 4 11 4 12 4 11 4 
12 4 11 4 11 4 12 3 11 4 11 4 12 4 11 4 
11 4 12 4 11 4 11 4 12 4 11 3 12 4 11 4 
11 4 12 4 11 4 11 4 12 4 11 4 11 4 12 4 
11 4 11 4 12 4 11 3 12 4 11 4 11 4 12 4 
11 4 11 4 12 4 11 4 11 4 12 4 11 4 11 4 
12 4 11 4 12 4 11 4 11 4 12 4 11 4 11 4 
12 4 11 4 11 4 12 4 11 4 11 4 12 4 11 4 
12 4 11 4 11 4 12 4 11 4 11 4 12 4 11 4 
11 4 12 4 11 4 11 4 12 4 11 4 12 4 11 4 
11 4 12 4 11 4 11 4 12 4 11 4 11 4 12 5 
11 4 11 4 12 4 11 4 12 4 11 4 11 4 12 4 
11 4 11 4 12 4 11 4 11 5 12 4 11 4 11 4 
12 4 11 4 12 4 11 4 11 4 12 5 11 4 11 4 
12 4 11 4 11 4 12 4 11 4 11 5 12 4 11 4 
12 4 11 4 11 4 12 4 11 5 11 4 12 4 11 4 
11 4 12 4 11 5 11 4 12 4 11 4 12 4 11 4 
11 5 12 4 11 4 11 4 12 4 11 5 11 4 12 4 
11 4 11 4 12 5 11 4 12 4 11 4 11 4 12 5 
11 4 11 4 12 4 11 5 11 4 12 4 11 4 11 5 
12 4 11 4 12 4 11 5 11 4 12 4 11 4 11 5 
12 4 11 4 11 4 12 5 11 4 11 4 12 5 11 4 
12 4 11 4 11 5 12 4 11 4 11 5 12 4 11 4 
11 5 12 4 11 4 11 5 12 4 11 4 12 5 11 4 
11 4 12 5 11 4 11 4 12 5 11 4 11 4 12 5 
11 4 11 4 12 5 11 4 12 4 11 5 11 4 12 5 
11 4 11 4 12 5 11 4 11 5 12 4 11 4 11 5 
12 4 11 5 12 4 11 4 11 5 12 4 11 5 11 4 
12 5 11 4 11 4 12 5 11 4 11 5 12 4 11 5 
12 4 11 5 11 4 9934 6561 300 MP stroke
12 5 11 4 11 5 12 4 11 5 11 4 12 4 11 5 
11 4 12 5 11 4 12 5 11 4 11 5 12 5 11 4 
11 5 12 4 11 5 11 4 12 5 11 4 11 5 12 4 
11 5 12 4 11 5 11 5 12 4 11 5 11 4 12 5 
11 4 11 5 12 5 11 4 11 5 12 4 11 5 12 4 
11 5 11 5 12 4 11 5 11 5 12 4 11 5 11 4 
12 5 11 5 11 4 12 5 11 5 12 4 11 5 11 5 
12 4 11 5 11 5 12 4 11 5 11 5 12 4 11 5 
11 5 12 4 11 5 12 5 11 4 11 5 12 5 11 5 
11 4 12 5 11 5 11 4 12 5 11 5 11 5 12 4 
11 5 12 5 11 5 11 4 12 5 11 5 11 5 12 5 
11 4 11 5 12 5 11 5 11 4 12 5 11 5 12 5 
11 5 11 4 12 5 11 5 11 5 12 5 11 5 11 4 
12 5 11 5 11 5 12 5 11 5 12 5 11 4 11 5 
12 5 11 5 11 5 12 5 11 5 11 5 12 5 11 4 
11 5 12 5 11 5 12 5 11 5 11 5 12 5 11 5 
11 5 12 5 11 5 11 5 12 5 11 5 11 5 12 5 
11 5 12 5 11 4 11 5 12 5 11 5 11 5 12 6 
11 5 11 5 12 5 11 5 11 5 12 5 11 5 12 5 
11 5 11 5 12 5 11 5 11 5 12 5 11 5 11 5 
12 5 11 5 11 6 12 5 11 5 12 5 11 5 11 5 
12 5 11 5 11 6 12 5 11 5 11 5 12 5 11 5 
11 5 12 6 11 5 12 5 11 5 11 5 12 6 11 5 
11 5 12 5 11 5 11 6 12 5 11 5 11 5 12 6 
11 5 12 5 11 5 11 6 12 5 11 5 11 5 12 6 
11 5 11 5 12 6 11 5 11 5 12 5 11 6 11 5 
12 5 11 6 12 5 11 5 11 6 12 5 11 6 11 5 
12 5 11 6 11 5 12 5 11 6 11 5 12 6 11 5 
12 5 11 6 11 5 12 6 11 5 11 6 12 5 11 6 
11 5 12 5 11 6 11 5 12 6 11 5 12 6 11 5 
11 6 12 5 11 6 11 6 12 5 11 6 11 5 12 6 
11 5 11 6 12 5 11 6 12 6 11 5 11 6 12 5 
11 6 11 6 12 5 11 6 11 6 12 5 11 6 11 5 
12 6 11 6 12 5 11 6 11 6 12 6 11 5 11 6 
12 6 11 5 11 6 12 6 11 6 11 5 12 6 11 6 
12 6 11 5 11 6 12 6 11 6 11 6 12 5 11 6 
11 6 12 6 11 6 11 6 12 5 11 6 12 6 11 6 
11 6 12 6 11 6 6538 5040 300 MP stroke
11 6 12 5 11 6 11 6 12 6 11 6 11 6 12 6 
11 6 12 6 11 6 11 6 12 6 11 6 11 6 12 6 
11 6 11 6 12 6 11 6 11 6 12 6 11 6 12 6 
11 7 11 6 12 6 11 6 11 6 12 6 11 6 11 6 
12 7 11 6 11 6 12 6 11 6 12 6 11 7 11 6 
12 6 11 6 11 7 12 6 11 6 11 6 12 7 11 6 
11 6 12 6 11 7 12 6 11 6 11 7 12 6 11 6 
11 7 12 6 11 7 11 6 12 6 11 7 11 6 12 7 
11 6 12 7 11 6 11 6 12 7 11 6 11 7 12 6 
11 7 11 6 12 7 11 7 11 6 12 7 11 6 12 7 
11 6 11 7 12 7 11 6 11 7 12 7 11 6 11 7 
12 7 11 6 11 7 12 7 11 6 12 7 11 7 11 7 
12 6 11 7 11 7 12 7 11 7 11 6 12 7 11 7 
11 7 12 7 11 7 12 7 11 7 11 6 12 7 11 7 
11 7 12 7 11 7 11 7 12 7 11 7 11 7 12 7 
11 7 12 7 11 7 11 8 12 7 11 7 11 7 12 7 
11 7 11 7 12 8 11 7 11 7 12 7 11 7 12 8 
11 7 11 7 12 7 11 8 11 7 12 7 11 8 11 7 
12 7 11 8 11 7 12 8 11 7 12 8 11 7 11 7 
12 8 11 7 11 8 12 8 11 7 11 8 12 7 11 8 
11 7 12 8 11 8 12 7 11 8 11 8 12 7 11 8 
11 8 12 8 11 7 11 8 12 8 11 8 11 8 12 8 
11 7 12 8 11 8 11 8 12 8 11 8 11 8 12 8 
11 8 11 8 12 8 11 8 11 8 12 9 11 8 12 8 
11 8 11 8 12 8 11 9 11 8 12 8 11 8 11 9 
12 8 11 8 11 9 12 8 11 9 12 8 11 9 11 8 
12 9 11 8 11 9 12 8 11 9 11 8 12 9 11 9 
11 8 12 9 11 9 12 9 11 8 11 9 12 9 11 9 
11 9 12 9 11 9 11 9 12 8 11 9 11 10 12 9 
11 9 12 9 11 9 11 9 12 9 11 10 11 9 12 9 
11 9 11 10 12 9 11 9 11 10 12 9 11 10 12 9 
11 10 11 9 12 10 11 10 11 9 12 10 11 10 11 10 
12 9 11 10 11 10 12 10 11 10 12 10 11 10 11 10 
12 10 11 10 11 10 12 11 11 10 11 10 12 10 11 11 
11 10 12 11 11 10 12 11 11 10 11 11 12 10 11 11 
11 11 12 11 11 10 11 11 12 11 11 11 11 11 12 11 
11 11 12 12 11 11 11 11 12 11 11 12 11 11 12 12 
11 11 11 12 12 11 3142 2698 300 MP stroke
11 12 11 12 12 11 11 12 12 12 11 12 11 12 12 12 
11 13 11 12 12 12 11 12 11 13 12 12 11 13 11 13 
12 12 11 13 12 13 11 13 11 13 12 13 11 13 11 14 
12 13 11 13 11 14 12 13 11 14 11 14 12 14 11 14 
12 14 11 14 11 14 12 15 11 14 11 15 12 15 11 15 
11 14 12 16 11 15 11 15 12 16 11 15 12 16 11 16 
11 16 12 16 11 16 11 17 12 16 11 17 11 17 12 17 
11 18 11 17 12 18 11 18 12 18 11 19 11 18 12 19 
11 19 11 19 12 20 11 20 11 20 12 20 11 21 11 21 
12 22 11 21 12 23 11 22 11 23 12 23 11 24 11 25 
12 25 11 25 11 26 12 27 11 28 11 28 12 29 11 30 
12 31 11 32 11 34 12 35 11 36 11 39 12 40 11 44 
11 46 12 50 11 56 11 64 12 75 11 98 11 236 1973 297 104 MP stroke
6 w
gs 8702 6014 2078 918 rc
/c10 { 0.000000 1.000000 1.000000 sr} bdef
c10
  36   36 8775 6087 FO
  36   36 8787 6092 FO
  36   36 8798 6097 FO
  36   36 8809 6102 FO
  36   36 8821 6107 FO
  36   36 8832 6111 FO
  36   36 8843 6116 FO
  36   36 8855 6121 FO
  36   36 8866 6126 FO
  36   36 8878 6131 FO
  36   36 8889 6135 FO
  36   36 8900 6140 FO
  36   36 8912 6145 FO
  36   36 8923 6150 FO
  36   36 8934 6154 FO
  36   36 8946 6159 FO
  36   36 8957 6164 FO
  36   36 8968 6169 FO
  36   36 8980 6174 FO
  36   36 8991 6178 FO
  36   36 9002 6183 FO
  36   36 9014 6188 FO
  36   36 9025 6193 FO
  36   36 9037 6197 FO
  36   36 9048 6202 FO
  36   36 9059 6207 FO
  36   36 9071 6212 FO
  36   36 9082 6216 FO
  36   36 9093 6221 FO
  36   36 9105 6226 FO
  36   36 9116 6230 FO
  36   36 9127 6235 FO
  36   36 9139 6240 FO
  36   36 9150 6245 FO
  36   36 9161 6249 FO
  36   36 9173 6254 FO
  36   36 9184 6259 FO
  36   36 9196 6263 FO
  36   36 9207 6268 FO
  36   36 9218 6273 FO
  36   36 9230 6277 FO
  36   36 9241 6282 FO
  36   36 9252 6287 FO
  36   36 9264 6291 FO
  36   36 9275 6296 FO
  36   36 9286 6301 FO
  36   36 9298 6305 FO
  36   36 9309 6310 FO
  36   36 9320 6315 FO
  36   36 9332 6319 FO
  36   36 9343 6324 FO
  36   36 9355 6329 FO
  36   36 9366 6333 FO
  36   36 9377 6338 FO
  36   36 9389 6343 FO
  36   36 9400 6347 FO
  36   36 9411 6352 FO
  36   36 9423 6356 FO
  36   36 9434 6361 FO
  36   36 9445 6366 FO
  36   36 9457 6370 FO
  36   36 9468 6375 FO
  36   36 9479 6380 FO
  36   36 9491 6384 FO
  36   36 9502 6389 FO
  36   36 9514 6393 FO
  36   36 9525 6398 FO
  36   36 9536 6402 FO
  36   36 9548 6407 FO
  36   36 9559 6412 FO
  36   36 9570 6416 FO
  36   36 9582 6421 FO
  36   36 9593 6425 FO
  36   36 9604 6430 FO
  36   36 9616 6434 FO
  36   36 9627 6439 FO
  36   36 9638 6444 FO
  36   36 9650 6448 FO
  36   36 9661 6453 FO
  36   36 9673 6457 FO
  36   36 9684 6462 FO
  36   36 9695 6466 FO
  36   36 9707 6471 FO
  36   36 9718 6475 FO
  36   36 9729 6480 FO
  36   36 9741 6484 FO
  36   36 9752 6489 FO
  36   36 9763 6493 FO
  36   36 9775 6498 FO
  36   36 9786 6503 FO
  36   36 9797 6507 FO
  36   36 9809 6512 FO
  36   36 9820 6516 FO
  36   36 9832 6521 FO
  36   36 9843 6525 FO
  36   36 9854 6530 FO
  36   36 9866 6534 FO
  36   36 9877 6538 FO
  36   36 9888 6543 FO
  36   36 9900 6547 FO
  36   36 9911 6552 FO
  36   36 9922 6556 FO
  36   36 9934 6561 FO
  36   36 9945 6565 FO
  36   36 9956 6570 FO
  36   36 9968 6574 FO
  36   36 9979 6579 FO
  36   36 9991 6583 FO
  36   36 10002 6588 FO
  36   36 10013 6592 FO
  36   36 10025 6597 FO
  36   36 10036 6601 FO
  36   36 10047 6605 FO
  36   36 10059 6610 FO
  36   36 10070 6614 FO
  36   36 10081 6619 FO
  36   36 10093 6623 FO
  36   36 10104 6628 FO
  36   36 10115 6632 FO
  36   36 10127 6636 FO
  36   36 10138 6641 FO
  36   36 10150 6645 FO
  36   36 10161 6650 FO
  36   36 10172 6654 FO
  36   36 10184 6658 FO
  36   36 10195 6663 FO
  36   36 10206 6667 FO
  36   36 10218 6672 FO
  36   36 10229 6676 FO
  36   36 10240 6680 FO
  36   36 10252 6685 FO
  36   36 10263 6689 FO
  36   36 10274 6694 FO
  36   36 10286 6698 FO
  36   36 10297 6702 FO
  36   36 10309 6707 FO
  36   36 10320 6711 FO
  36   36 10331 6715 FO
  36   36 10343 6720 FO
  36   36 10354 6724 FO
  36   36 10365 6728 FO
  36   36 10377 6733 FO
  36   36 10388 6737 FO
  36   36 10399 6741 FO
  36   36 10411 6746 FO
  36   36 10422 6750 FO
  36   36 10433 6754 FO
  36   36 10445 6759 FO
  36   36 10456 6763 FO
  36   36 10468 6767 FO
  36   36 10479 6772 FO
  36   36 10490 6776 FO
  36   36 10502 6780 FO
  36   36 10513 6785 FO
  36   36 10524 6789 FO
  36   36 10536 6793 FO
  36   36 10547 6798 FO
  36   36 10558 6802 FO
  36   36 10570 6806 FO
  36   36 10581 6811 FO
  36   36 10592 6815 FO
  36   36 10604 6819 FO
  36   36 10615 6823 FO
  36   36 10627 6828 FO
  36   36 10638 6832 FO
  36   36 10649 6836 FO
  36   36 10661 6841 FO
  36   36 10672 6845 FO
  36   36 10683 6849 FO
  36   36 10695 6853 FO
  36   36 10706 6858 FO
gr

c10
27.6 w
c9
12 4 11 4 12 4 11 3 11 4 12 4 11 4 11 3 
12 4 11 4 11 4 12 4 11 3 11 4 12 4 11 4 
12 3 11 4 11 4 12 4 11 3 11 4 12 4 11 4 
11 4 12 3 11 4 11 4 12 4 11 4 12 3 11 4 
11 4 12 4 11 4 11 3 12 4 11 4 11 4 12 4 
11 3 11 4 12 4 11 4 12 4 11 4 11 3 12 4 
11 4 11 4 12 4 11 4 11 3 12 4 11 4 11 4 
12 4 11 4 12 4 11 3 11 4 12 4 11 4 11 4 
12 4 11 4 11 3 12 4 11 4 11 4 12 4 11 4 
12 4 11 4 11 4 12 3 11 4 11 4 12 4 11 4 
11 4 12 4 11 4 11 4 12 4 11 3 12 4 11 4 
11 4 12 4 11 4 11 4 12 4 11 4 11 4 12 4 
11 4 11 4 12 4 11 3 12 4 11 4 11 4 12 4 
11 4 11 4 12 4 11 4 11 4 12 4 11 4 11 4 
12 4 11 4 12 4 11 4 11 4 12 4 11 4 11 4 
12 4 11 4 11 4 12 4 11 4 11 4 12 4 11 4 
12 4 11 4 11 4 12 4 11 4 11 4 12 4 11 4 
11 4 12 4 11 4 11 4 12 4 11 4 12 4 11 4 
11 4 12 4 11 4 11 4 12 4 11 4 11 4 12 5 
11 4 11 4 12 4 11 4 12 4 11 4 11 4 12 4 
11 4 11 4 12 4 11 4 11 5 12 4 11 4 11 4 
12 4 11 4 12 4 11 4 11 4 12 5 11 4 11 4 
12 4 11 4 11 4 12 4 11 4 11 5 12 4 11 4 
12 4 11 4 11 4 12 4 11 5 11 4 12 4 11 4 
11 4 12 4 11 5 11 4 12 4 11 4 12 4 11 4 
11 5 12 4 11 4 11 4 12 4 11 5 11 4 12 4 
11 4 11 4 12 5 11 4 12 4 11 4 11 4 12 5 
11 4 11 4 12 4 11 5 11 4 12 4 11 4 11 5 
12 4 11 4 12 4 11 5 11 4 12 4 11 4 11 5 
12 4 11 4 11 4 12 5 11 4 11 4 12 5 11 4 
12 4 11 4 11 5 12 4 11 4 11 5 12 4 11 4 
11 5 12 4 11 4 11 5 12 4 11 4 12 5 11 4 
11 4 12 5 11 4 11 4 12 5 11 4 11 4 12 5 
11 4 11 4 12 5 11 4 12 4 11 5 11 4 12 5 
11 4 11 4 12 5 11 4 11 5 12 4 11 4 11 5 
12 4 11 5 12 4 11 4 11 5 12 4 11 5 11 4 
12 5 11 4 11 4 12 5 11 4 11 5 12 4 11 5 
12 4 11 5 11 4 9934 6561 300 MP stroke
12 5 11 4 11 5 12 4 11 5 11 4 12 4 11 5 
11 4 12 5 11 4 12 5 11 4 11 5 12 5 11 4 
11 5 12 4 11 5 11 4 12 5 11 4 11 5 12 4 
11 5 12 4 11 5 11 5 12 4 11 5 11 4 12 5 
11 4 11 5 12 5 11 4 11 5 12 4 11 5 12 4 
11 5 11 5 12 4 11 5 11 5 12 4 11 5 11 4 
12 5 11 5 11 4 12 5 11 5 12 4 11 5 11 5 
12 4 11 5 11 5 12 4 11 5 11 5 12 4 11 5 
11 5 12 4 11 5 12 5 11 4 11 5 12 5 11 5 
11 4 12 5 11 5 11 4 12 5 11 5 11 5 12 4 
11 5 12 5 11 5 11 4 12 5 11 5 11 5 12 5 
11 4 11 5 12 5 11 5 11 4 12 5 11 5 12 5 
11 5 11 4 12 5 11 5 11 5 12 5 11 5 11 4 
12 5 11 5 11 5 12 5 11 5 12 5 11 4 11 5 
12 5 11 5 11 5 12 5 11 5 11 5 12 5 11 4 
11 5 12 5 11 5 12 5 11 5 11 5 12 5 11 5 
11 5 12 5 11 5 11 5 12 5 11 5 11 5 12 5 
11 5 12 5 11 4 11 5 12 5 11 5 11 5 12 6 
11 5 11 5 12 5 11 5 11 5 12 5 11 5 12 5 
11 5 11 5 12 5 11 5 11 5 12 5 11 5 11 5 
12 5 11 5 11 6 12 5 11 5 12 5 11 5 11 5 
12 5 11 5 11 6 12 5 11 5 11 5 12 5 11 5 
11 5 12 6 11 5 12 5 11 5 11 5 12 6 11 5 
11 5 12 5 11 5 11 6 12 5 11 5 11 5 12 6 
11 5 12 5 11 5 11 6 12 5 11 5 11 5 12 6 
11 5 11 5 12 6 11 5 11 5 12 5 11 6 11 5 
12 5 11 6 12 5 11 5 11 6 12 5 11 6 11 5 
12 5 11 6 11 5 12 5 11 6 11 5 12 6 11 5 
12 5 11 6 11 5 12 6 11 5 11 6 12 5 11 6 
11 5 12 5 11 6 11 5 12 6 11 5 12 6 11 5 
11 6 12 5 11 6 11 6 12 5 11 6 11 5 12 6 
11 5 11 6 12 5 11 6 12 6 11 5 11 6 12 5 
11 6 11 6 12 5 11 6 11 6 12 5 11 6 11 5 
12 6 11 6 12 5 11 6 11 6 12 6 11 5 11 6 
12 6 11 5 11 6 12 6 11 6 11 5 12 6 11 6 
12 6 11 5 11 6 12 6 11 6 11 6 12 5 11 6 
11 6 12 6 11 6 11 6 12 5 11 6 12 6 11 6 
11 6 12 6 11 6 6538 5040 300 MP stroke
11 6 12 5 11 6 11 6 12 6 11 6 11 6 12 6 
11 6 12 6 11 6 11 6 12 6 11 6 11 6 12 6 
11 6 11 6 12 6 11 6 11 6 12 6 11 6 12 6 
11 7 11 6 12 6 11 6 11 6 12 6 11 6 11 6 
12 7 11 6 11 6 12 6 11 6 12 6 11 7 11 6 
12 6 11 6 11 7 12 6 11 6 11 6 12 7 11 6 
11 6 12 6 11 7 12 6 11 6 11 7 12 6 11 6 
11 7 12 6 11 7 11 6 12 6 11 7 11 6 12 7 
11 6 12 7 11 6 11 6 12 7 11 6 11 7 12 6 
11 7 11 6 12 7 11 7 11 6 12 7 11 6 12 7 
11 6 11 7 12 7 11 6 11 7 12 7 11 6 11 7 
12 7 11 6 11 7 12 7 11 6 12 7 11 7 11 7 
12 6 11 7 11 7 12 7 11 7 11 6 12 7 11 7 
11 7 12 7 11 7 12 7 11 7 11 6 12 7 11 7 
11 7 12 7 11 7 11 7 12 7 11 7 11 7 12 7 
11 7 12 7 11 7 11 8 12 7 11 7 11 7 12 7 
11 7 11 7 12 8 11 7 11 7 12 7 11 7 12 8 
11 7 11 7 12 7 11 8 11 7 12 7 11 8 11 7 
12 7 11 8 11 7 12 8 11 7 12 8 11 7 11 7 
12 8 11 7 11 8 12 8 11 7 11 8 12 7 11 8 
11 7 12 8 11 8 12 7 11 8 11 8 12 7 11 8 
11 8 12 8 11 7 11 8 12 8 11 8 11 8 12 8 
11 7 12 8 11 8 11 8 12 8 11 8 11 8 12 8 
11 8 11 8 12 8 11 8 11 8 12 9 11 8 12 8 
11 8 11 8 12 8 11 9 11 8 12 8 11 8 11 9 
12 8 11 8 11 9 12 8 11 9 12 8 11 9 11 8 
12 9 11 8 11 9 12 8 11 9 11 8 12 9 11 9 
11 8 12 9 11 9 12 9 11 8 11 9 12 9 11 9 
11 9 12 9 11 9 11 9 12 8 11 9 11 10 12 9 
11 9 12 9 11 9 11 9 12 9 11 10 11 9 12 9 
11 9 11 10 12 9 11 9 11 10 12 9 11 10 12 9 
11 10 11 9 12 10 11 10 11 9 12 10 11 10 11 10 
12 9 11 10 11 10 12 10 11 10 12 10 11 10 11 10 
12 10 11 10 11 10 12 11 11 10 11 10 12 10 11 11 
11 10 12 11 11 10 12 11 11 10 11 11 12 10 11 11 
11 11 12 11 11 10 11 11 12 11 11 11 11 11 12 11 
11 11 12 12 11 11 11 11 12 11 11 12 11 11 12 12 
11 11 11 12 12 11 3142 2698 300 MP stroke
11 12 11 12 12 11 11 12 12 12 11 12 11 12 12 12 
11 13 11 12 12 12 11 12 11 13 12 12 11 13 11 13 
12 12 11 13 12 13 11 13 11 13 12 13 11 13 11 14 
12 13 11 13 11 14 12 13 11 14 11 14 12 14 11 14 
12 14 11 14 11 14 12 15 11 14 11 15 12 15 11 15 
11 14 12 16 11 15 11 15 12 16 11 15 12 16 11 16 
11 16 12 16 11 16 11 17 12 16 11 17 11 17 12 17 
11 18 11 17 12 18 11 18 12 18 11 19 11 18 12 19 
11 19 11 19 12 20 11 20 11 20 12 20 11 21 11 21 
12 22 11 21 12 23 11 22 11 23 12 23 11 24 11 25 
12 25 11 25 11 26 12 27 11 28 11 28 12 29 11 30 
12 31 11 32 11 34 12 35 11 36 11 39 12 40 11 44 
11 46 12 50 11 56 11 64 12 75 11 98 11 236 1973 297 104 MP stroke
6 w
gs 8702 6014 2078 918 rc
c10
  36   36 8775 6087 FO
  36   36 8787 6092 FO
  36   36 8798 6097 FO
  36   36 8809 6102 FO
  36   36 8821 6107 FO
  36   36 8832 6111 FO
  36   36 8843 6116 FO
  36   36 8855 6121 FO
  36   36 8866 6126 FO
  36   36 8878 6131 FO
  36   36 8889 6135 FO
  36   36 8900 6140 FO
  36   36 8912 6145 FO
  36   36 8923 6150 FO
  36   36 8934 6154 FO
  36   36 8946 6159 FO
  36   36 8957 6164 FO
  36   36 8968 6169 FO
  36   36 8980 6174 FO
  36   36 8991 6178 FO
  36   36 9002 6183 FO
  36   36 9014 6188 FO
  36   36 9025 6193 FO
  36   36 9037 6197 FO
  36   36 9048 6202 FO
  36   36 9059 6207 FO
  36   36 9071 6212 FO
  36   36 9082 6216 FO
  36   36 9093 6221 FO
  36   36 9105 6226 FO
  36   36 9116 6230 FO
  36   36 9127 6235 FO
  36   36 9139 6240 FO
  36   36 9150 6245 FO
  36   36 9161 6249 FO
  36   36 9173 6254 FO
  36   36 9184 6259 FO
  36   36 9196 6263 FO
  36   36 9207 6268 FO
  36   36 9218 6273 FO
  36   36 9230 6277 FO
  36   36 9241 6282 FO
  36   36 9252 6287 FO
  36   36 9264 6291 FO
  36   36 9275 6296 FO
  36   36 9286 6301 FO
  36   36 9298 6305 FO
  36   36 9309 6310 FO
  36   36 9320 6315 FO
  36   36 9332 6319 FO
  36   36 9343 6324 FO
  36   36 9355 6329 FO
  36   36 9366 6333 FO
  36   36 9377 6338 FO
  36   36 9389 6343 FO
  36   36 9400 6347 FO
  36   36 9411 6352 FO
  36   36 9423 6356 FO
  36   36 9434 6361 FO
  36   36 9445 6366 FO
  36   36 9457 6370 FO
  36   36 9468 6375 FO
  36   36 9479 6380 FO
  36   36 9491 6384 FO
  36   36 9502 6389 FO
  36   36 9514 6393 FO
  36   36 9525 6398 FO
  36   36 9536 6402 FO
  36   36 9548 6407 FO
  36   36 9559 6412 FO
  36   36 9570 6416 FO
  36   36 9582 6421 FO
  36   36 9593 6425 FO
  36   36 9604 6430 FO
  36   36 9616 6434 FO
  36   36 9627 6439 FO
  36   36 9638 6444 FO
  36   36 9650 6448 FO
  36   36 9661 6453 FO
  36   36 9673 6457 FO
  36   36 9684 6462 FO
  36   36 9695 6466 FO
  36   36 9707 6471 FO
  36   36 9718 6475 FO
  36   36 9729 6480 FO
  36   36 9741 6484 FO
  36   36 9752 6489 FO
  36   36 9763 6493 FO
  36   36 9775 6498 FO
  36   36 9786 6503 FO
  36   36 9797 6507 FO
  36   36 9809 6512 FO
  36   36 9820 6516 FO
  36   36 9832 6521 FO
  36   36 9843 6525 FO
  36   36 9854 6530 FO
  36   36 9866 6534 FO
  36   36 9877 6538 FO
  36   36 9888 6543 FO
  36   36 9900 6547 FO
  36   36 9911 6552 FO
  36   36 9922 6556 FO
  36   36 9934 6561 FO
  36   36 9945 6565 FO
  36   36 9956 6570 FO
  36   36 9968 6574 FO
  36   36 9979 6579 FO
  36   36 9991 6583 FO
  36   36 10002 6588 FO
  36   36 10013 6592 FO
  36   36 10025 6597 FO
  36   36 10036 6601 FO
  36   36 10047 6605 FO
  36   36 10059 6610 FO
  36   36 10070 6614 FO
  36   36 10081 6619 FO
  36   36 10093 6623 FO
  36   36 10104 6628 FO
  36   36 10115 6632 FO
  36   36 10127 6636 FO
  36   36 10138 6641 FO
  36   36 10150 6645 FO
  36   36 10161 6650 FO
  36   36 10172 6654 FO
  36   36 10184 6658 FO
  36   36 10195 6663 FO
  36   36 10206 6667 FO
  36   36 10218 6672 FO
  36   36 10229 6676 FO
  36   36 10240 6680 FO
  36   36 10252 6685 FO
  36   36 10263 6689 FO
  36   36 10274 6694 FO
  36   36 10286 6698 FO
  36   36 10297 6702 FO
  36   36 10309 6707 FO
  36   36 10320 6711 FO
  36   36 10331 6715 FO
  36   36 10343 6720 FO
  36   36 10354 6724 FO
  36   36 10365 6728 FO
  36   36 10377 6733 FO
  36   36 10388 6737 FO
  36   36 10399 6741 FO
  36   36 10411 6746 FO
  36   36 10422 6750 FO
  36   36 10433 6754 FO
  36   36 10445 6759 FO
  36   36 10456 6763 FO
  36   36 10468 6767 FO
  36   36 10479 6772 FO
  36   36 10490 6776 FO
  36   36 10502 6780 FO
  36   36 10513 6785 FO
  36   36 10524 6789 FO
  36   36 10536 6793 FO
  36   36 10547 6798 FO
  36   36 10558 6802 FO
  36   36 10570 6806 FO
  36   36 10581 6811 FO
  36   36 10592 6815 FO
  36   36 10604 6819 FO
  36   36 10615 6823 FO
  36   36 10627 6828 FO
  36   36 10638 6832 FO
  36   36 10649 6836 FO
  36   36 10661 6841 FO
  36   36 10672 6845 FO
  36   36 10683 6849 FO
  36   36 10695 6853 FO
  36   36 10706 6858 FO
gr

c10
c9
12 4 11 4 12 4 11 3 11 4 12 4 11 4 11 3 
12 4 11 4 11 4 12 4 11 3 11 4 12 4 11 4 
12 3 11 4 11 4 12 4 11 3 11 4 12 4 11 4 
11 4 12 3 11 4 11 4 12 4 11 4 12 3 11 4 
11 4 12 4 11 4 11 3 12 4 11 4 11 4 12 4 
11 3 11 4 12 4 11 4 12 4 11 4 11 3 12 4 
11 4 11 4 12 4 11 4 11 3 12 4 11 4 11 4 
12 4 11 4 12 4 11 3 11 4 12 4 11 4 11 4 
12 4 11 4 11 3 12 4 11 4 11 4 12 4 11 4 
12 4 11 4 11 4 12 3 11 4 11 4 12 4 11 4 
11 4 12 4 11 4 11 4 12 4 11 3 12 4 11 4 
11 4 12 4 11 4 11 4 12 4 11 4 11 4 12 4 
11 4 11 4 12 4 11 3 12 4 11 4 11 4 12 4 
11 4 11 4 12 4 11 4 11 4 12 4 11 4 11 4 
12 4 11 4 12 4 11 4 11 4 12 4 11 4 11 4 
12 4 11 4 11 4 12 4 11 4 11 4 12 4 11 4 
12 4 11 4 11 4 12 4 11 4 11 4 12 4 11 4 
11 4 12 4 11 4 11 4 12 4 11 4 12 4 11 4 
11 4 12 4 11 4 11 4 12 4 11 4 11 4 12 5 
11 4 11 4 12 4 11 4 12 4 11 4 11 4 12 4 
11 4 11 4 12 4 11 4 11 5 12 4 11 4 11 4 
12 4 11 4 12 4 11 4 11 4 12 5 11 4 11 4 
12 4 11 4 11 4 12 4 11 4 11 5 12 4 11 4 
12 4 11 4 11 4 12 4 11 5 11 4 12 4 11 4 
11 4 12 4 11 5 11 4 12 4 11 4 12 4 11 4 
11 5 12 4 11 4 11 4 12 4 11 5 11 4 12 4 
11 4 11 4 12 5 11 4 12 4 11 4 11 4 12 5 
11 4 11 4 12 4 11 5 11 4 12 4 11 4 11 5 
12 4 11 4 12 4 11 5 11 4 12 4 11 4 11 5 
12 4 11 4 11 4 12 5 11 4 11 4 12 5 11 4 
12 4 11 4 11 5 12 4 11 4 11 5 12 4 11 4 
11 5 12 4 11 4 11 5 12 4 11 4 12 5 11 4 
11 4 12 5 11 4 11 4 12 5 11 4 11 4 12 5 
11 4 11 4 12 5 11 4 12 4 11 5 11 4 12 5 
11 4 11 4 12 5 11 4 11 5 12 4 11 4 11 5 
12 4 11 5 12 4 11 4 11 5 12 4 11 5 11 4 
12 5 11 4 11 4 12 5 11 4 11 5 12 4 11 5 
12 4 11 5 11 4 9934 6561 300 MP stroke
12 5 11 4 11 5 12 4 11 5 11 4 12 4 11 5 
11 4 12 5 11 4 12 5 11 4 11 5 12 5 11 4 
11 5 12 4 11 5 11 4 12 5 11 4 11 5 12 4 
11 5 12 4 11 5 11 5 12 4 11 5 11 4 12 5 
11 4 11 5 12 5 11 4 11 5 12 4 11 5 12 4 
11 5 11 5 12 4 11 5 11 5 12 4 11 5 11 4 
12 5 11 5 11 4 12 5 11 5 12 4 11 5 11 5 
12 4 11 5 11 5 12 4 11 5 11 5 12 4 11 5 
11 5 12 4 11 5 12 5 11 4 11 5 12 5 11 5 
11 4 12 5 11 5 11 4 12 5 11 5 11 5 12 4 
11 5 12 5 11 5 11 4 12 5 11 5 11 5 12 5 
11 4 11 5 12 5 11 5 11 4 12 5 11 5 12 5 
11 5 11 4 12 5 11 5 11 5 12 5 11 5 11 4 
12 5 11 5 11 5 12 5 11 5 12 5 11 4 11 5 
12 5 11 5 11 5 12 5 11 5 11 5 12 5 11 4 
11 5 12 5 11 5 12 5 11 5 11 5 12 5 11 5 
11 5 12 5 11 5 11 5 12 5 11 5 11 5 12 5 
11 5 12 5 11 4 11 5 12 5 11 5 11 5 12 6 
11 5 11 5 12 5 11 5 11 5 12 5 11 5 12 5 
11 5 11 5 12 5 11 5 11 5 12 5 11 5 11 5 
12 5 11 5 11 6 12 5 11 5 12 5 11 5 11 5 
12 5 11 5 11 6 12 5 11 5 11 5 12 5 11 5 
11 5 12 6 11 5 12 5 11 5 11 5 12 6 11 5 
11 5 12 5 11 5 11 6 12 5 11 5 11 5 12 6 
11 5 12 5 11 5 11 6 12 5 11 5 11 5 12 6 
11 5 11 5 12 6 11 5 11 5 12 5 11 6 11 5 
12 5 11 6 12 5 11 5 11 6 12 5 11 6 11 5 
12 5 11 6 11 5 12 5 11 6 11 5 12 6 11 5 
12 5 11 6 11 5 12 6 11 5 11 6 12 5 11 6 
11 5 12 5 11 6 11 5 12 6 11 5 12 6 11 5 
11 6 12 5 11 6 11 6 12 5 11 6 11 5 12 6 
11 5 11 6 12 5 11 6 12 6 11 5 11 6 12 5 
11 6 11 6 12 5 11 6 11 6 12 5 11 6 11 5 
12 6 11 6 12 5 11 6 11 6 12 6 11 5 11 6 
12 6 11 5 11 6 12 6 11 6 11 5 12 6 11 6 
12 6 11 5 11 6 12 6 11 6 11 6 12 5 11 6 
11 6 12 6 11 6 11 6 12 5 11 6 12 6 11 6 
11 6 12 6 11 6 6538 5040 300 MP stroke
11 6 12 5 11 6 11 6 12 6 11 6 11 6 12 6 
11 6 12 6 11 6 11 6 12 6 11 6 11 6 12 6 
11 6 11 6 12 6 11 6 11 6 12 6 11 6 12 6 
11 7 11 6 12 6 11 6 11 6 12 6 11 6 11 6 
12 7 11 6 11 6 12 6 11 6 12 6 11 7 11 6 
12 6 11 6 11 7 12 6 11 6 11 6 12 7 11 6 
11 6 12 6 11 7 12 6 11 6 11 7 12 6 11 6 
11 7 12 6 11 7 11 6 12 6 11 7 11 6 12 7 
11 6 12 7 11 6 11 6 12 7 11 6 11 7 12 6 
11 7 11 6 12 7 11 7 11 6 12 7 11 6 12 7 
11 6 11 7 12 7 11 6 11 7 12 7 11 6 11 7 
12 7 11 6 11 7 12 7 11 6 12 7 11 7 11 7 
12 6 11 7 11 7 12 7 11 7 11 6 12 7 11 7 
11 7 12 7 11 7 12 7 11 7 11 6 12 7 11 7 
11 7 12 7 11 7 11 7 12 7 11 7 11 7 12 7 
11 7 12 7 11 7 11 8 12 7 11 7 11 7 12 7 
11 7 11 7 12 8 11 7 11 7 12 7 11 7 12 8 
11 7 11 7 12 7 11 8 11 7 12 7 11 8 11 7 
12 7 11 8 11 7 12 8 11 7 12 8 11 7 11 7 
12 8 11 7 11 8 12 8 11 7 11 8 12 7 11 8 
11 7 12 8 11 8 12 7 11 8 11 8 12 7 11 8 
11 8 12 8 11 7 11 8 12 8 11 8 11 8 12 8 
11 7 12 8 11 8 11 8 12 8 11 8 11 8 12 8 
11 8 11 8 12 8 11 8 11 8 12 9 11 8 12 8 
11 8 11 8 12 8 11 9 11 8 12 8 11 8 11 9 
12 8 11 8 11 9 12 8 11 9 12 8 11 9 11 8 
12 9 11 8 11 9 12 8 11 9 11 8 12 9 11 9 
11 8 12 9 11 9 12 9 11 8 11 9 12 9 11 9 
11 9 12 9 11 9 11 9 12 8 11 9 11 10 12 9 
11 9 12 9 11 9 11 9 12 9 11 10 11 9 12 9 
11 9 11 10 12 9 11 9 11 10 12 9 11 10 12 9 
11 10 11 9 12 10 11 10 11 9 12 10 11 10 11 10 
12 9 11 10 11 10 12 10 11 10 12 10 11 10 11 10 
12 10 11 10 11 10 12 11 11 10 11 10 12 10 11 11 
11 10 12 11 11 10 12 11 11 10 11 11 12 10 11 11 
11 11 12 11 11 10 11 11 12 11 11 11 11 11 12 11 
11 11 12 12 11 11 11 11 12 11 11 12 11 11 12 12 
11 11 11 12 12 11 3142 2698 300 MP stroke
11 12 11 12 12 11 11 12 12 12 11 12 11 12 12 12 
11 13 11 12 12 12 11 12 11 13 12 12 11 13 11 13 
12 12 11 13 12 13 11 13 11 13 12 13 11 13 11 14 
12 13 11 13 11 14 12 13 11 14 11 14 12 14 11 14 
12 14 11 14 11 14 12 15 11 14 11 15 12 15 11 15 
11 14 12 16 11 15 11 15 12 16 11 15 12 16 11 16 
11 16 12 16 11 16 11 17 12 16 11 17 11 17 12 17 
11 18 11 17 12 18 11 18 12 18 11 19 11 18 12 19 
11 19 11 19 12 20 11 20 11 20 12 20 11 21 11 21 
12 22 11 21 12 23 11 22 11 23 12 23 11 24 11 25 
12 25 11 25 11 26 12 27 11 28 11 28 12 29 11 30 
12 31 11 32 11 34 12 35 11 36 11 39 12 40 11 44 
11 46 12 50 11 56 11 64 12 75 11 98 11 236 1973 297 104 MP stroke
72 w
gs 8653 5965 2176 1016 rc
c10
  24   24 8775 6087 FO
  24   24 8787 6092 FO
  24   24 8798 6097 FO
  24   24 8809 6102 FO
  24   24 8821 6107 FO
  24   24 8832 6111 FO
  24   24 8843 6116 FO
  24   24 8855 6121 FO
  24   24 8866 6126 FO
  24   24 8878 6131 FO
  24   24 8889 6135 FO
  24   24 8900 6140 FO
  24   24 8912 6145 FO
  24   24 8923 6150 FO
  24   24 8934 6154 FO
  24   24 8946 6159 FO
  24   24 8957 6164 FO
  24   24 8968 6169 FO
  24   24 8980 6174 FO
  24   24 8991 6178 FO
  24   24 9002 6183 FO
  24   24 9014 6188 FO
  24   24 9025 6193 FO
  24   24 9037 6197 FO
  24   24 9048 6202 FO
  24   24 9059 6207 FO
  24   24 9071 6212 FO
  24   24 9082 6216 FO
  24   24 9093 6221 FO
  24   24 9105 6226 FO
  24   24 9116 6230 FO
  24   24 9127 6235 FO
  24   24 9139 6240 FO
  24   24 9150 6245 FO
  24   24 9161 6249 FO
  24   24 9173 6254 FO
  24   24 9184 6259 FO
  24   24 9196 6263 FO
  24   24 9207 6268 FO
  24   24 9218 6273 FO
  24   24 9230 6277 FO
  24   24 9241 6282 FO
  24   24 9252 6287 FO
  24   24 9264 6291 FO
  24   24 9275 6296 FO
  24   24 9286 6301 FO
  24   24 9298 6305 FO
  24   24 9309 6310 FO
  24   24 9320 6315 FO
  24   24 9332 6319 FO
  24   24 9343 6324 FO
  24   24 9355 6329 FO
  24   24 9366 6333 FO
  24   24 9377 6338 FO
  24   24 9389 6343 FO
  24   24 9400 6347 FO
  24   24 9411 6352 FO
  24   24 9423 6356 FO
  24   24 9434 6361 FO
  24   24 9445 6366 FO
  24   24 9457 6370 FO
  24   24 9468 6375 FO
  24   24 9479 6380 FO
  24   24 9491 6384 FO
  24   24 9502 6389 FO
  24   24 9514 6393 FO
  24   24 9525 6398 FO
  24   24 9536 6402 FO
  24   24 9548 6407 FO
  24   24 9559 6412 FO
  24   24 9570 6416 FO
  24   24 9582 6421 FO
  24   24 9593 6425 FO
  24   24 9604 6430 FO
  24   24 9616 6434 FO
  24   24 9627 6439 FO
  24   24 9638 6444 FO
  24   24 9650 6448 FO
  24   24 9661 6453 FO
  24   24 9673 6457 FO
  24   24 9684 6462 FO
  24   24 9695 6466 FO
  24   24 9707 6471 FO
  24   24 9718 6475 FO
  24   24 9729 6480 FO
  24   24 9741 6484 FO
  24   24 9752 6489 FO
  24   24 9763 6493 FO
  24   24 9775 6498 FO
  24   24 9786 6503 FO
  24   24 9797 6507 FO
  24   24 9809 6512 FO
  24   24 9820 6516 FO
  24   24 9832 6521 FO
  24   24 9843 6525 FO
  24   24 9854 6530 FO
  24   24 9866 6534 FO
  24   24 9877 6538 FO
  24   24 9888 6543 FO
  24   24 9900 6547 FO
  24   24 9911 6552 FO
  24   24 9922 6556 FO
  24   24 9934 6561 FO
  24   24 9945 6565 FO
  24   24 9956 6570 FO
  24   24 9968 6574 FO
  24   24 9979 6579 FO
  24   24 9991 6583 FO
  24   24 10002 6588 FO
  24   24 10013 6592 FO
  24   24 10025 6597 FO
  24   24 10036 6601 FO
  24   24 10047 6605 FO
  24   24 10059 6610 FO
  24   24 10070 6614 FO
  24   24 10081 6619 FO
  24   24 10093 6623 FO
  24   24 10104 6628 FO
  24   24 10115 6632 FO
  24   24 10127 6636 FO
  24   24 10138 6641 FO
  24   24 10150 6645 FO
  24   24 10161 6650 FO
  24   24 10172 6654 FO
  24   24 10184 6658 FO
  24   24 10195 6663 FO
  24   24 10206 6667 FO
  24   24 10218 6672 FO
  24   24 10229 6676 FO
  24   24 10240 6680 FO
  24   24 10252 6685 FO
  24   24 10263 6689 FO
  24   24 10274 6694 FO
  24   24 10286 6698 FO
  24   24 10297 6702 FO
  24   24 10309 6707 FO
  24   24 10320 6711 FO
  24   24 10331 6715 FO
  24   24 10343 6720 FO
  24   24 10354 6724 FO
  24   24 10365 6728 FO
  24   24 10377 6733 FO
  24   24 10388 6737 FO
  24   24 10399 6741 FO
  24   24 10411 6746 FO
  24   24 10422 6750 FO
  24   24 10433 6754 FO
  24   24 10445 6759 FO
  24   24 10456 6763 FO
  24   24 10468 6767 FO
  24   24 10479 6772 FO
  24   24 10490 6776 FO
  24   24 10502 6780 FO
  24   24 10513 6785 FO
  24   24 10524 6789 FO
  24   24 10536 6793 FO
  24   24 10547 6798 FO
  24   24 10558 6802 FO
  24   24 10570 6806 FO
  24   24 10581 6811 FO
  24   24 10592 6815 FO
  24   24 10604 6819 FO
  24   24 10615 6823 FO
  24   24 10627 6828 FO
  24   24 10638 6832 FO
  24   24 10649 6836 FO
  24   24 10661 6841 FO
  24   24 10672 6845 FO
  24   24 10683 6849 FO
  24   24 10695 6853 FO
  24   24 10706 6858 FO
gr

c10
6 w
gs 9408 6278 373 296 rc
c8
  60   60 9588 6423 PO
  60   60 9586 6422 PO
  60   60 9583 6421 PO
  60   60 9593 6425 PO
  60   60 9597 6427 PO
  60   60 9600 6428 PO
  60   60 9573 6417 PO
  60   60 9605 6430 PO
  60   60 9607 6431 PO
  60   60 9608 6431 PO
  60   60 9611 6432 PO
  60   60 9612 6433 PO
  60   60 9583 6421 PO
  60   60 9615 6434 PO
  60   60 9583 6421 PO
  60   60 9618 6435 PO
  60   60 9553 6409 PO
  60   60 9623 6437 PO
  60   60 9593 6425 PO
  60   60 9626 6438 PO
  60   60 9593 6425 PO
  60   60 9597 6427 PO
  60   60 9630 6440 PO
  60   60 9600 6428 PO
  60   60 9632 6441 PO
  60   60 9635 6442 PO
  60   60 9573 6417 PO
  60   60 9638 6443 PO
  60   60 9573 6417 PO
  60   60 9605 6430 PO
  60   60 9640 6444 PO
  60   60 9646 6447 PO
  60   60 9605 6430 PO
  60   60 9529 6399 PO
  60   60 9608 6431 PO
  60   60 9652 6449 PO
  60   60 9654 6450 PO
  60   60 9608 6431 PO
  60   60 9659 6452 PO
  60   60 9608 6431 PO
  60   60 9588 6423 FO
  60   60 9586 6422 FO
  60   60 9583 6421 FO
  60   60 9593 6425 FO
  60   60 9597 6427 FO
  60   60 9600 6428 FO
  60   60 9573 6417 FO
  60   60 9605 6430 FO
  60   60 9607 6431 FO
  60   60 9608 6431 FO
  60   60 9611 6432 FO
  60   60 9612 6433 FO
  60   60 9583 6421 FO
  60   60 9615 6434 FO
  60   60 9583 6421 FO
  60   60 9618 6435 FO
  60   60 9553 6409 FO
  60   60 9623 6437 FO
  60   60 9593 6425 FO
  60   60 9626 6438 FO
  60   60 9593 6425 FO
  60   60 9597 6427 FO
  60   60 9630 6440 FO
  60   60 9600 6428 FO
  60   60 9632 6441 FO
  60   60 9635 6442 FO
  60   60 9573 6417 FO
  60   60 9638 6443 FO
  60   60 9573 6417 FO
  60   60 9605 6430 FO
  60   60 9640 6444 FO
  60   60 9646 6447 FO
  60   60 9605 6430 FO
  60   60 9529 6399 FO
  60   60 9608 6431 FO
  60   60 9652 6449 FO
  60   60 9654 6450 FO
  60   60 9608 6431 FO
  60   60 9659 6452 FO
  60   60 9608 6431 FO
gr

c8
240 w
gs 9320 5680 1205 1205 rc
120 W
0 sg
9922 6282 PD
gr

0 sg
6 w
gr

%%IncludeResource: font Courier-Bold
/Courier-Bold /WindowsLatin1Encoding 360 FMSR

9338 5683 mt 
(\(0.7,0.2\)) s

end %%Color Dict

eplot
%%EndObject

epage
end

showpage

%%Trailer
%%EOF
