%!PS-Adobe-3.0 EPSF-3.0
%%Creator: MATLAB, The MathWorks, Inc. Version 7.13.0.564 (R2011b). Operating System: Microsoft Windows XP.
%%Title: D:\DriveG\Sem2-2012\Program\ReferenceMetric-v3\metricfig\zdt1\zdt1-ws.eps
%%CreationDate: 02/05/2013  17:14:54
%%DocumentNeededFonts: Helvetica
%%+ Helvetica-Bold
%%DocumentProcessColors: Cyan Magenta Yellow Black
%%LanguageLevel: 2
%%Pages: 1
%%BoundingBox:  -191   295   787   546
%%EndComments

%%BeginProlog
% MathWorks dictionary
/MathWorks 160 dict begin
% definition operators
/bdef {bind def} bind def
/ldef {load def} bind def
/xdef {exch def} bdef
/xstore {exch store} bdef
% operator abbreviations
/c  /clip ldef
/cc /concat ldef
/cp /closepath ldef
/gr /grestore ldef
/gs /gsave ldef
/mt /moveto ldef
/np /newpath ldef
/cm /currentmatrix ldef
/sm /setmatrix ldef
/rm /rmoveto ldef
/rl /rlineto ldef
/s {show newpath} bdef
/sc {setcmykcolor} bdef
/sr /setrgbcolor ldef
/sg /setgray ldef
/w /setlinewidth ldef
/j /setlinejoin ldef
/cap /setlinecap ldef
/rc {rectclip} bdef
/rf {rectfill} bdef
% page state control
/pgsv () def
/bpage {/pgsv save def} bdef
/epage {pgsv restore} bdef
/bplot /gsave ldef
/eplot {stroke grestore} bdef
% orientation switch
/portraitMode 0 def /landscapeMode 1 def /rotateMode 2 def
% coordinate system mappings
/dpi2point 0 def
% font control
/FontSize 0 def
/FMS {/FontSize xstore findfont [FontSize 0 0 FontSize neg 0 0]
  makefont setfont} bdef
/ISOLatin1Encoding where {pop /WindowsLatin1Encoding 256 array bdef
ISOLatin1Encoding WindowsLatin1Encoding copy pop
/.notdef/.notdef/quotesinglbase/florin/quotedblbase/ellipsis/dagger
/daggerdbl/circumflex/perthousand/Scaron/guilsinglleft/OE/.notdef/.notdef
/.notdef/.notdef/quoteleft/quoteright/quotedblleft/quotedblright/bullet
/endash/emdash/tilde/trademark/scaron/guilsinglright/oe/.notdef/.notdef
/Ydieresis WindowsLatin1Encoding 128 32 getinterval astore pop}
{/WindowsLatin1Encoding StandardEncoding bdef} ifelse
/reencode {exch dup where {pop load} {pop StandardEncoding} ifelse
  exch dup 3 1 roll findfont dup length dict begin
  { 1 index /FID ne {def}{pop pop} ifelse } forall
  /Encoding exch def currentdict end definefont pop} bdef
/isroman {findfont /CharStrings get /Agrave known} bdef
/FMSR {3 1 roll 1 index dup isroman {reencode} {pop pop} ifelse
  exch FMS} bdef
/csm {1 dpi2point div -1 dpi2point div scale neg translate
 dup landscapeMode eq {pop -90 rotate}
  {rotateMode eq {90 rotate} if} ifelse} bdef
% line types: solid, dotted, dashed, dotdash
/SO { [] 0 setdash } bdef
/DO { [.5 dpi2point mul 4 dpi2point mul] 0 setdash } bdef
/DA { [6 dpi2point mul] 0 setdash } bdef
/DD { [.5 dpi2point mul 4 dpi2point mul 6 dpi2point mul 4
  dpi2point mul] 0 setdash } bdef
% macros for lines and objects
/L {lineto stroke} bdef
/MP {3 1 roll moveto 1 sub {rlineto} repeat} bdef
/AP {{rlineto} repeat} bdef
/PDlw -1 def
/W {/PDlw currentlinewidth def setlinewidth} def
/PP {closepath eofill} bdef
/DP {closepath stroke} bdef
/MR {4 -2 roll moveto dup  0 exch rlineto exch 0 rlineto
  neg 0 exch rlineto closepath} bdef
/FR {MR stroke} bdef
/PR {MR fill} bdef
/L1i {{currentfile picstr readhexstring pop} image} bdef
/tMatrix matrix def
/MakeOval {newpath tMatrix currentmatrix pop translate scale
0 0 1 0 360 arc tMatrix setmatrix} bdef
/FO {MakeOval stroke} bdef
/PO {MakeOval fill} bdef
/PD {currentlinewidth 2 div 0 360 arc fill
   PDlw -1 eq not {PDlw w /PDlw -1 def} if} def
/FA {newpath tMatrix currentmatrix pop translate scale
  0 0 1 5 -2 roll arc tMatrix setmatrix stroke} bdef
/PA {newpath tMatrix currentmatrix pop	translate 0 0 moveto scale
  0 0 1 5 -2 roll arc closepath tMatrix setmatrix fill} bdef
/FAn {newpath tMatrix currentmatrix pop translate scale
  0 0 1 5 -2 roll arcn tMatrix setmatrix stroke} bdef
/PAn {newpath tMatrix currentmatrix pop translate 0 0 moveto scale
  0 0 1 5 -2 roll arcn closepath tMatrix setmatrix fill} bdef
/vradius 0 def /hradius 0 def /lry 0 def
/lrx 0 def /uly 0 def /ulx 0 def /rad 0 def
/MRR {/vradius xdef /hradius xdef /lry xdef /lrx xdef /uly xdef
  /ulx xdef newpath tMatrix currentmatrix pop ulx hradius add uly
  vradius add translate hradius vradius scale 0 0 1 180 270 arc 
  tMatrix setmatrix lrx hradius sub uly vradius add translate
  hradius vradius scale 0 0 1 270 360 arc tMatrix setmatrix
  lrx hradius sub lry vradius sub translate hradius vradius scale
  0 0 1 0 90 arc tMatrix setmatrix ulx hradius add lry vradius sub
  translate hradius vradius scale 0 0 1 90 180 arc tMatrix setmatrix
  closepath} bdef
/FRR {MRR stroke } bdef
/PRR {MRR fill } bdef
/MlrRR {/lry xdef /lrx xdef /uly xdef /ulx xdef /rad lry uly sub 2 div def
  newpath tMatrix currentmatrix pop ulx rad add uly rad add translate
  rad rad scale 0 0 1 90 270 arc tMatrix setmatrix lrx rad sub lry rad
  sub translate rad rad scale 0 0 1 270 90 arc tMatrix setmatrix
  closepath} bdef
/FlrRR {MlrRR stroke } bdef
/PlrRR {MlrRR fill } bdef
/MtbRR {/lry xdef /lrx xdef /uly xdef /ulx xdef /rad lrx ulx sub 2 div def
  newpath tMatrix currentmatrix pop ulx rad add uly rad add translate
  rad rad scale 0 0 1 180 360 arc tMatrix setmatrix lrx rad sub lry rad
  sub translate rad rad scale 0 0 1 0 180 arc tMatrix setmatrix
  closepath} bdef
/FtbRR {MtbRR stroke } bdef
/PtbRR {MtbRR fill } bdef
/stri 6 array def /dtri 6 array def
/smat 6 array def /dmat 6 array def
/tmat1 6 array def /tmat2 6 array def /dif 3 array def
/asub {/ind2 exch def /ind1 exch def dup dup
  ind1 get exch ind2 get sub exch } bdef
/tri_to_matrix {
  2 0 asub 3 1 asub 4 0 asub 5 1 asub
  dup 0 get exch 1 get 7 -1 roll astore } bdef
/compute_transform {
  dmat dtri tri_to_matrix tmat1 invertmatrix 
  smat stri tri_to_matrix tmat2 concatmatrix } bdef
/ds {stri astore pop} bdef
/dt {dtri astore pop} bdef
/db {2 copy /cols xdef /rows xdef mul dup 3 mul string
  currentfile 
  3 index 0 eq {/ASCIIHexDecode filter}
  {/ASCII85Decode filter 3 index 2 eq {/RunLengthDecode filter} if }
  ifelse exch readstring pop
  dup 0 3 index getinterval /rbmap xdef
  dup 2 index dup getinterval /gbmap xdef
  1 index dup 2 mul exch getinterval /bbmap xdef pop pop}bdef
/it {gs np dtri aload pop moveto lineto lineto cp c
  cols rows 8 compute_transform 
  rbmap gbmap bbmap true 3 colorimage gr}bdef
/il {newpath moveto lineto stroke}bdef
currentdict end def
%%EndProlog

%%BeginSetup
MathWorks begin

0 cap

end
%%EndSetup

%%Page: 1 1
%%BeginPageSetup
%%PageBoundingBox:  -191   295   787   546
MathWorks begin
bpage
%%EndPageSetup

%%BeginObject: obj1
bplot

/dpi2point 12 def
portraitMode -2292 6552 csm

    0     0 11746  3008 rc
86 dict begin %Colortable dictionary
/c0 { 0.000000 0.000000 0.000000 sr} bdef
/c1 { 1.000000 1.000000 1.000000 sr} bdef
/c2 { 0.900000 0.000000 0.000000 sr} bdef
/c3 { 0.000000 0.820000 0.000000 sr} bdef
/c4 { 0.000000 0.000000 0.800000 sr} bdef
/c5 { 0.910000 0.820000 0.320000 sr} bdef
/c6 { 1.000000 0.260000 0.820000 sr} bdef
/c7 { 0.000000 0.820000 0.820000 sr} bdef
c0
1 j
1 sg
   0    0 11747 3009 rf
6 w
0 2451 9103 0 0 -2451 1527 2677 4 MP
PP
-9103 0 0 2451 9103 0 0 -2451 1527 2677 5 MP stroke
4 w
DO
SO
6 w
0 sg
1527  226 mt 10630  226 L
1527 2677 mt 10630 2677 L
10630 2677 mt 10630  226 L
1527 2677 mt 1527  226 L
1527 2677 mt 10630 2677 L
1527 2677 mt 1527  226 L
1527 2677 mt 1527 2585 L
1527  226 mt 1527  317 L
%%IncludeResource: font Helvetica
/Helvetica /WindowsLatin1Encoding 120 FMSR

1494 2822 mt 
(0) s
2437 2677 mt 2437 2585 L
2437  226 mt 2437  317 L
2354 2822 mt 
(0.1) s
3347 2677 mt 3347 2585 L
3347  226 mt 3347  317 L
3264 2822 mt 
(0.2) s
4257 2677 mt 4257 2585 L
4257  226 mt 4257  317 L
4174 2822 mt 
(0.3) s
5168 2677 mt 5168 2585 L
5168  226 mt 5168  317 L
5085 2822 mt 
(0.4) s
6078 2677 mt 6078 2585 L
6078  226 mt 6078  317 L
5995 2822 mt 
(0.5) s
6988 2677 mt 6988 2585 L
6988  226 mt 6988  317 L
6905 2822 mt 
(0.6) s
7899 2677 mt 7899 2585 L
7899  226 mt 7899  317 L
7816 2822 mt 
(0.7) s
8809 2677 mt 8809 2585 L
8809  226 mt 8809  317 L
8726 2822 mt 
(0.8) s
9719 2677 mt 9719 2585 L
9719  226 mt 9719  317 L
9636 2822 mt 
(0.9) s
10630 2677 mt 10630 2585 L
10630  226 mt 10630  317 L
10597 2822 mt 
(1) s
1527 2677 mt 1618 2677 L
10630 2677 mt 10538 2677 L
1426 2721 mt 
(0) s
1527 2186 mt 1618 2186 L
10630 2186 mt 10538 2186 L
1326 2230 mt 
(0.2) s
1527 1696 mt 1618 1696 L
10630 1696 mt 10538 1696 L
1326 1740 mt 
(0.4) s
1527 1206 mt 1618 1206 L
10630 1206 mt 10538 1206 L
1326 1250 mt 
(0.6) s
1527  716 mt 1618  716 L
10630  716 mt 10538  716 L
1326  760 mt 
(0.8) s
1527  226 mt 1618  226 L
10630  226 mt 10538  226 L
1426  270 mt 
(1) s
1527  226 mt 10630  226 L
1527 2677 mt 10630 2677 L
10630 2677 mt 10630  226 L
1527 2677 mt 1527  226 L
gs 1527 226 9104 2452 rc
gs 6904 2049 1427 358 rc
/c8 { 1.000000 0.000000 0.000000 sr} bdef
c8
7455 2209 mt 7527 2209 L
7491 2173 mt 7491 2245 L
8094 2313 mt 8166 2313 L
8130 2277 mt 8130 2349 L
7968 2293 mt 8040 2293 L
8004 2257 mt 8004 2329 L
7655 2242 mt 7727 2242 L
7691 2206 mt 7691 2278 L
7100 2149 mt 7172 2149 L
7136 2113 mt 7136 2185 L
6941 2122 mt 7013 2122 L
6977 2086 mt 6977 2158 L
7455 2209 mt 7527 2209 L
7491 2173 mt 7491 2245 L
7403 2201 mt 7475 2201 L
7439 2165 mt 7439 2237 L
8221 2333 mt 8293 2333 L
8257 2297 mt 8257 2369 L
6941 2122 mt 7013 2122 L
6977 2086 mt 6977 2158 L
7200 2167 mt 7272 2167 L
7236 2131 mt 7236 2203 L
7655 2242 mt 7727 2242 L
7691 2206 mt 7691 2278 L
8221 2333 mt 8293 2333 L
8257 2297 mt 8257 2369 L
8094 2313 mt 8166 2313 L
8130 2277 mt 8130 2349 L
7833 2271 mt 7905 2271 L
7869 2235 mt 7869 2307 L
6941 2122 mt 7013 2122 L
6977 2086 mt 6977 2158 L
7100 2149 mt 7172 2149 L
7136 2113 mt 7136 2185 L
7655 2242 mt 7727 2242 L
7691 2206 mt 7691 2278 L
7100 2149 mt 7172 2149 L
7136 2113 mt 7136 2185 L
7769 2261 mt 7841 2261 L
7805 2225 mt 7805 2297 L
8221 2333 mt 8293 2333 L
8257 2297 mt 8257 2369 L
7280 2180 mt 7352 2180 L
7316 2144 mt 7316 2216 L
7769 2261 mt 7841 2261 L
7805 2225 mt 7805 2297 L
8217 2332 mt 8289 2332 L
8253 2296 mt 8253 2368 L
7833 2271 mt 7905 2271 L
7869 2235 mt 7869 2307 L
7280 2180 mt 7352 2180 L
7316 2144 mt 7316 2216 L
7100 2149 mt 7172 2149 L
7136 2113 mt 7136 2185 L
7715 2252 mt 7787 2252 L
7751 2216 mt 7751 2288 L
8221 2333 mt 8293 2333 L
8257 2297 mt 8257 2369 L
7655 2242 mt 7727 2242 L
7691 2206 mt 7691 2278 L
7048 2141 mt 7120 2141 L
7084 2105 mt 7084 2177 L
6941 2122 mt 7013 2122 L
6977 2086 mt 6977 2158 L
7100 2149 mt 7172 2149 L
7136 2113 mt 7136 2185 L
7833 2271 mt 7905 2271 L
7869 2235 mt 7869 2307 L
7200 2167 mt 7272 2167 L
7236 2131 mt 7236 2203 L
8217 2332 mt 8289 2332 L
8253 2296 mt 8253 2368 L
7455 2209 mt 7527 2209 L
7491 2173 mt 7491 2245 L
gr

c8
27.6 w
/c9 { 0.000000 0.000000 1.000000 sr} bdef
c9
10 2 9 1 9 1 9 1 9 2 9 1 9 1 9 1 
9 2 10 1 9 1 9 1 9 1 9 2 9 1 9 1 
9 1 9 2 9 1 10 1 9 1 9 2 9 1 9 1 
9 1 9 2 9 1 9 1 9 1 10 2 9 1 9 1 
9 1 9 2 9 1 9 1 9 1 9 2 10 1 9 1 
9 1 9 2 9 1 9 1 9 1 9 2 9 1 9 1 
10 1 9 2 9 1 9 1 9 1 9 2 9 1 9 1 
9 1 9 2 10 1 9 1 9 1 9 2 9 1 9 1 
9 1 9 2 9 1 10 1 9 2 9 1 9 1 9 1 
9 2 9 1 9 1 9 1 9 2 10 1 9 1 9 2 
9 1 9 1 9 1 9 2 9 1 9 1 9 2 10 1 
9 1 9 1 9 2 9 1 9 1 9 2 9 1 9 1 
9 1 10 2 9 1 9 1 9 2 9 1 9 1 9 1 
9 2 9 1 10 1 9 2 9 1 9 1 9 2 9 1 
9 1 9 1 9 2 9 1 10 1 9 2 9 1 9 1 
9 2 9 1 9 1 9 1 9 2 9 1 10 1 9 2 
9 1 9 1 9 2 9 1 9 1 9 2 9 1 10 1 
9 2 9 1 9 1 9 2 9 1 9 1 9 2 9 1 
9 1 10 1 9 2 9 1 9 1 9 2 9 1 9 1 
9 2 9 1 9 1 10 2 9 1 9 1 9 2 9 1 
9 1 9 2 9 1 9 1 9 2 10 1 9 2 9 1 
9 1 9 2 9 1 9 1 9 2 9 1 10 1 9 2 
9 1 9 1 9 2 9 1 9 1 9 2 9 1 9 1 
10 2 9 1 9 2 9 1 9 1 9 2 9 1 9 1 
9 2 9 1 10 1 9 2 9 1 9 2 9 1 9 1 
9 2 9 1 9 1 10 2 9 1 9 1 9 2 9 1 
9 2 9 1 9 1 9 2 9 1 10 2 9 1 9 1 
9 2 9 1 9 1 9 2 9 1 9 2 9 1 10 1 
9 2 9 1 9 2 9 1 9 1 9 2 9 1 9 2 
9 1 10 1 9 2 9 1 9 2 9 1 9 1 9 2 
9 1 9 2 10 1 9 1 9 2 9 1 9 2 9 1 
9 1 9 2 9 1 9 2 10 1 9 2 9 1 9 1 
9 2 9 1 9 2 9 1 9 1 9 2 10 1 9 2 
9 1 9 2 9 1 9 1 9 2 9 1 9 2 10 1 
9 2 9 1 9 2 9 1 9 1 9 2 9 1 9 2 
9 1 10 2 9 1 9 2 9 1 9 1 9 2 9 1 
9 2 9 1 9 2 10 1 9 2 9 1 9 2 9 1 
9 1 9 2 9 1 7908 2278 300 MP stroke
9 2 10 1 9 2 9 1 9 2 9 1 9 2 9 1 
9 2 9 1 9 2 10 1 9 1 9 2 9 1 9 2 
9 1 9 2 9 1 9 2 9 1 10 2 9 1 9 2 
9 1 9 2 9 1 9 2 9 1 9 2 9 1 10 2 
9 1 9 2 9 1 9 2 9 1 9 2 9 1 9 2 
10 1 9 2 9 1 9 2 9 1 9 2 9 1 9 2 
9 1 9 2 10 1 9 2 9 1 9 2 9 2 9 1 
9 2 9 1 9 2 9 1 10 2 9 1 9 2 9 1 
9 2 9 1 9 2 9 1 9 2 10 2 9 1 9 2 
9 1 9 2 9 1 9 2 9 1 9 2 9 1 10 2 
9 2 9 1 9 2 9 1 9 2 9 1 9 2 9 2 
9 1 10 2 9 1 9 2 9 1 9 2 9 1 9 2 
9 2 9 1 9 2 10 1 9 2 9 2 9 1 9 2 
9 1 9 2 9 1 9 2 10 2 9 1 9 2 9 1 
9 2 9 2 9 1 9 2 9 1 9 2 10 2 9 1 
9 2 9 1 9 2 9 2 9 1 9 2 9 2 9 1 
10 2 9 1 9 2 9 2 9 1 9 2 9 2 9 1 
9 2 10 1 9 2 9 2 9 1 9 2 9 2 9 1 
9 2 9 2 9 1 10 2 9 1 9 2 9 2 9 1 
9 2 9 2 9 1 9 2 9 2 10 1 9 2 9 2 
9 1 9 2 9 2 9 1 9 2 9 2 9 1 10 2 
9 2 9 1 9 2 9 2 9 2 9 1 9 2 9 2 
10 1 9 2 9 2 9 1 9 2 9 2 9 1 9 2 
9 2 9 2 10 1 9 2 9 2 9 1 9 2 9 2 
9 2 9 1 9 2 9 2 10 1 9 2 9 2 9 2 
9 1 9 2 9 2 9 2 9 1 10 2 9 2 9 2 
9 1 9 2 9 2 9 2 9 1 9 2 9 2 10 2 
9 1 9 2 9 2 9 2 9 1 9 2 9 2 9 2 
9 1 10 2 9 2 9 2 9 2 9 1 9 2 9 2 
9 2 9 2 10 1 9 2 9 2 9 2 9 2 9 1 
9 2 9 2 9 2 9 2 10 1 9 2 9 2 9 2 
9 2 9 1 9 2 9 2 9 2 9 2 10 2 9 1 
9 2 9 2 9 2 9 2 9 2 9 2 9 1 9 2 
10 2 9 2 9 2 9 2 9 2 9 1 9 2 9 2 
9 2 10 2 9 2 9 2 9 2 9 1 9 2 9 2 
9 2 9 2 9 2 10 2 9 2 9 2 9 1 9 2 
9 2 9 2 9 2 9 2 9 2 10 2 9 2 9 2 
9 2 9 2 9 1 5186 1780 300 MP stroke
9 2 9 2 9 2 10 2 9 2 9 2 9 2 9 2 
9 2 9 2 9 2 9 2 9 2 10 2 9 2 9 2 
9 2 9 2 9 2 9 2 9 2 9 2 9 2 10 2 
9 2 9 2 9 2 9 2 9 2 9 2 9 2 9 2 
9 2 10 2 9 2 9 2 9 2 9 2 9 2 9 2 
9 2 9 2 10 2 9 2 9 2 9 2 9 2 9 2 
9 2 9 2 9 2 9 2 10 3 9 2 9 2 9 2 
9 2 9 2 9 2 9 2 9 2 9 2 10 2 9 3 
9 2 9 2 9 2 9 2 9 2 9 2 9 2 10 3 
9 2 9 2 9 2 9 2 9 2 9 2 9 3 9 2 
9 2 10 2 9 2 9 2 9 3 9 2 9 2 9 2 
9 2 9 2 9 3 10 2 9 2 9 2 9 2 9 3 
9 2 9 2 9 2 9 3 9 2 10 2 9 2 9 3 
9 2 9 2 9 2 9 3 9 2 9 2 10 2 9 3 
9 2 9 2 9 2 9 3 9 2 9 2 9 3 9 2 
10 2 9 3 9 2 9 2 9 3 9 2 9 2 9 3 
9 2 9 2 10 3 9 2 9 2 9 3 9 2 9 2 
9 3 9 2 9 3 10 2 9 2 9 3 9 2 9 3 
9 2 9 2 9 3 9 2 9 3 10 2 9 3 9 2 
9 2 9 3 9 2 9 3 9 2 9 3 9 2 10 3 
9 2 9 3 9 2 9 3 9 2 9 3 9 2 9 3 
10 2 9 3 9 2 9 3 9 3 9 2 9 3 9 2 
9 3 9 2 10 3 9 3 9 2 9 3 9 2 9 3 
9 3 9 2 9 3 9 3 10 2 9 3 9 3 9 2 
9 3 9 3 9 2 9 3 9 3 9 2 10 3 9 3 
9 3 9 2 9 3 9 3 9 3 9 2 9 3 10 3 
9 3 9 3 9 2 9 3 9 3 9 3 9 3 9 2 
9 3 10 3 9 3 9 3 9 3 9 3 9 3 9 2 
9 3 9 3 9 3 10 3 9 3 9 3 9 3 9 3 
9 3 9 3 9 3 9 3 10 3 9 3 9 3 9 3 
9 3 9 3 9 3 9 3 9 3 9 3 10 4 9 3 
9 3 9 3 9 3 9 3 9 3 9 4 9 3 9 3 
10 3 9 3 9 4 9 3 9 3 9 3 9 4 9 3 
9 3 9 4 10 3 9 3 9 4 9 3 9 3 9 4 
9 3 9 4 9 3 10 3 9 4 9 3 9 4 9 3 
9 4 9 3 9 4 9 4 9 3 10 4 9 3 9 4 
9 4 9 3 9 4 9 4 9 3 9 4 9 4 10 4 
9 3 9 4 9 4 2464 1012 300 MP stroke
9 4 9 4 9 3 9 4 9 4 10 4 9 4 9 4 
9 4 9 4 9 4 9 4 9 4 9 4 9 4 10 5 
9 4 9 4 9 4 9 4 9 5 9 4 9 4 9 5 
9 4 10 4 9 5 9 4 9 5 9 4 9 5 9 4 
9 5 9 5 9 4 10 5 9 5 9 5 9 4 9 5 
9 5 9 5 9 5 9 5 10 5 9 5 9 5 9 6 
9 5 9 5 9 6 9 5 9 5 9 6 10 6 9 5 
9 6 9 6 9 5 9 6 9 6 9 6 9 6 9 6 
10 7 9 6 9 6 9 7 9 7 9 6 9 7 9 7 
9 7 10 7 9 7 9 8 9 7 9 8 9 8 9 8 
9 8 9 8 9 9 10 9 9 9 9 9 9 9 9 10 
9 10 9 11 9 11 9 11 9 12 10 13 9 13 9 14 
9 16 9 16 9 18 9 21 9 25 9 32 9 77 1527 226 104 MP stroke
6 w
gs 6906 2049 1695 400 rc
/c10 { 0.000000 1.000000 1.000000 sr} bdef
c10
  36   36 6979 2122 FO
  36   36 6988 2124 FO
  36   36 6997 2126 FO
  36   36 7007 2127 FO
  36   36 7016 2129 FO
  36   36 7025 2130 FO
  36   36 7034 2132 FO
  36   36 7043 2134 FO
  36   36 7052 2135 FO
  36   36 7061 2137 FO
  36   36 7070 2138 FO
  36   36 7079 2140 FO
  36   36 7088 2141 FO
  36   36 7098 2143 FO
  36   36 7107 2144 FO
  36   36 7116 2146 FO
  36   36 7125 2148 FO
  36   36 7134 2149 FO
  36   36 7143 2151 FO
  36   36 7152 2152 FO
  36   36 7161 2154 FO
  36   36 7170 2155 FO
  36   36 7179 2157 FO
  36   36 7189 2159 FO
  36   36 7198 2160 FO
  36   36 7207 2162 FO
  36   36 7216 2163 FO
  36   36 7225 2165 FO
  36   36 7234 2166 FO
  36   36 7243 2168 FO
  36   36 7252 2169 FO
  36   36 7261 2171 FO
  36   36 7270 2172 FO
  36   36 7280 2174 FO
  36   36 7289 2176 FO
  36   36 7298 2177 FO
  36   36 7307 2179 FO
  36   36 7316 2180 FO
  36   36 7325 2182 FO
  36   36 7334 2183 FO
  36   36 7343 2185 FO
  36   36 7352 2186 FO
  36   36 7362 2188 FO
  36   36 7371 2189 FO
  36   36 7380 2191 FO
  36   36 7389 2192 FO
  36   36 7398 2194 FO
  36   36 7407 2195 FO
  36   36 7416 2197 FO
  36   36 7425 2199 FO
  36   36 7434 2200 FO
  36   36 7443 2202 FO
  36   36 7453 2203 FO
  36   36 7462 2205 FO
  36   36 7471 2206 FO
  36   36 7480 2208 FO
  36   36 7489 2209 FO
  36   36 7498 2211 FO
  36   36 7507 2212 FO
  36   36 7516 2214 FO
  36   36 7525 2215 FO
  36   36 7534 2217 FO
  36   36 7544 2218 FO
  36   36 7553 2220 FO
  36   36 7562 2221 FO
  36   36 7571 2223 FO
  36   36 7580 2224 FO
  36   36 7589 2226 FO
  36   36 7598 2227 FO
  36   36 7607 2229 FO
  36   36 7616 2230 FO
  36   36 7626 2232 FO
  36   36 7635 2233 FO
  36   36 7644 2235 FO
  36   36 7653 2236 FO
  36   36 7662 2238 FO
  36   36 7671 2239 FO
  36   36 7680 2241 FO
  36   36 7689 2242 FO
  36   36 7698 2244 FO
  36   36 7707 2245 FO
  36   36 7717 2247 FO
  36   36 7726 2248 FO
  36   36 7735 2250 FO
  36   36 7744 2251 FO
  36   36 7753 2253 FO
  36   36 7762 2254 FO
  36   36 7771 2256 FO
  36   36 7780 2257 FO
  36   36 7789 2259 FO
  36   36 7798 2260 FO
  36   36 7808 2261 FO
  36   36 7817 2263 FO
  36   36 7826 2264 FO
  36   36 7835 2266 FO
  36   36 7844 2267 FO
  36   36 7853 2269 FO
  36   36 7862 2270 FO
  36   36 7871 2272 FO
  36   36 7880 2273 FO
  36   36 7889 2275 FO
  36   36 7899 2276 FO
  36   36 7908 2278 FO
  36   36 7917 2279 FO
  36   36 7926 2281 FO
  36   36 7935 2282 FO
  36   36 7944 2283 FO
  36   36 7953 2285 FO
  36   36 7962 2286 FO
  36   36 7971 2288 FO
  36   36 7981 2289 FO
  36   36 7990 2291 FO
  36   36 7999 2292 FO
  36   36 8008 2294 FO
  36   36 8017 2295 FO
  36   36 8026 2297 FO
  36   36 8035 2298 FO
  36   36 8044 2299 FO
  36   36 8053 2301 FO
  36   36 8062 2302 FO
  36   36 8072 2304 FO
  36   36 8081 2305 FO
  36   36 8090 2307 FO
  36   36 8099 2308 FO
  36   36 8108 2310 FO
  36   36 8117 2311 FO
  36   36 8126 2312 FO
  36   36 8135 2314 FO
  36   36 8144 2315 FO
  36   36 8153 2317 FO
  36   36 8163 2318 FO
  36   36 8172 2320 FO
  36   36 8181 2321 FO
  36   36 8190 2323 FO
  36   36 8199 2324 FO
  36   36 8208 2325 FO
  36   36 8217 2327 FO
  36   36 8226 2328 FO
  36   36 8235 2330 FO
  36   36 8245 2331 FO
  36   36 8254 2333 FO
  36   36 8263 2334 FO
  36   36 8272 2335 FO
  36   36 8281 2337 FO
  36   36 8290 2338 FO
  36   36 8299 2340 FO
  36   36 8308 2341 FO
  36   36 8317 2342 FO
  36   36 8326 2344 FO
  36   36 8336 2345 FO
  36   36 8345 2347 FO
  36   36 8354 2348 FO
  36   36 8363 2350 FO
  36   36 8372 2351 FO
  36   36 8381 2352 FO
  36   36 8390 2354 FO
  36   36 8399 2355 FO
  36   36 8408 2357 FO
  36   36 8417 2358 FO
  36   36 8427 2359 FO
  36   36 8436 2361 FO
  36   36 8445 2362 FO
  36   36 8454 2364 FO
  36   36 8463 2365 FO
  36   36 8472 2366 FO
  36   36 8481 2368 FO
  36   36 8490 2369 FO
  36   36 8499 2371 FO
  36   36 8509 2372 FO
  36   36 8518 2373 FO
  36   36 8527 2375 FO
gr

c10
27.6 w
c9
10 2 9 1 9 1 9 1 9 2 9 1 9 1 9 1 
9 2 10 1 9 1 9 1 9 1 9 2 9 1 9 1 
9 1 9 2 9 1 10 1 9 1 9 2 9 1 9 1 
9 1 9 2 9 1 9 1 9 1 10 2 9 1 9 1 
9 1 9 2 9 1 9 1 9 1 9 2 10 1 9 1 
9 1 9 2 9 1 9 1 9 1 9 2 9 1 9 1 
10 1 9 2 9 1 9 1 9 1 9 2 9 1 9 1 
9 1 9 2 10 1 9 1 9 1 9 2 9 1 9 1 
9 1 9 2 9 1 10 1 9 2 9 1 9 1 9 1 
9 2 9 1 9 1 9 1 9 2 10 1 9 1 9 2 
9 1 9 1 9 1 9 2 9 1 9 1 9 2 10 1 
9 1 9 1 9 2 9 1 9 1 9 2 9 1 9 1 
9 1 10 2 9 1 9 1 9 2 9 1 9 1 9 1 
9 2 9 1 10 1 9 2 9 1 9 1 9 2 9 1 
9 1 9 1 9 2 9 1 10 1 9 2 9 1 9 1 
9 2 9 1 9 1 9 1 9 2 9 1 10 1 9 2 
9 1 9 1 9 2 9 1 9 1 9 2 9 1 10 1 
9 2 9 1 9 1 9 2 9 1 9 1 9 2 9 1 
9 1 10 1 9 2 9 1 9 1 9 2 9 1 9 1 
9 2 9 1 9 1 10 2 9 1 9 1 9 2 9 1 
9 1 9 2 9 1 9 1 9 2 10 1 9 2 9 1 
9 1 9 2 9 1 9 1 9 2 9 1 10 1 9 2 
9 1 9 1 9 2 9 1 9 1 9 2 9 1 9 1 
10 2 9 1 9 2 9 1 9 1 9 2 9 1 9 1 
9 2 9 1 10 1 9 2 9 1 9 2 9 1 9 1 
9 2 9 1 9 1 10 2 9 1 9 1 9 2 9 1 
9 2 9 1 9 1 9 2 9 1 10 2 9 1 9 1 
9 2 9 1 9 1 9 2 9 1 9 2 9 1 10 1 
9 2 9 1 9 2 9 1 9 1 9 2 9 1 9 2 
9 1 10 1 9 2 9 1 9 2 9 1 9 1 9 2 
9 1 9 2 10 1 9 1 9 2 9 1 9 2 9 1 
9 1 9 2 9 1 9 2 10 1 9 2 9 1 9 1 
9 2 9 1 9 2 9 1 9 1 9 2 10 1 9 2 
9 1 9 2 9 1 9 1 9 2 9 1 9 2 10 1 
9 2 9 1 9 2 9 1 9 1 9 2 9 1 9 2 
9 1 10 2 9 1 9 2 9 1 9 1 9 2 9 1 
9 2 9 1 9 2 10 1 9 2 9 1 9 2 9 1 
9 1 9 2 9 1 7908 2278 300 MP stroke
9 2 10 1 9 2 9 1 9 2 9 1 9 2 9 1 
9 2 9 1 9 2 10 1 9 1 9 2 9 1 9 2 
9 1 9 2 9 1 9 2 9 1 10 2 9 1 9 2 
9 1 9 2 9 1 9 2 9 1 9 2 9 1 10 2 
9 1 9 2 9 1 9 2 9 1 9 2 9 1 9 2 
10 1 9 2 9 1 9 2 9 1 9 2 9 1 9 2 
9 1 9 2 10 1 9 2 9 1 9 2 9 2 9 1 
9 2 9 1 9 2 9 1 10 2 9 1 9 2 9 1 
9 2 9 1 9 2 9 1 9 2 10 2 9 1 9 2 
9 1 9 2 9 1 9 2 9 1 9 2 9 1 10 2 
9 2 9 1 9 2 9 1 9 2 9 1 9 2 9 2 
9 1 10 2 9 1 9 2 9 1 9 2 9 1 9 2 
9 2 9 1 9 2 10 1 9 2 9 2 9 1 9 2 
9 1 9 2 9 1 9 2 10 2 9 1 9 2 9 1 
9 2 9 2 9 1 9 2 9 1 9 2 10 2 9 1 
9 2 9 1 9 2 9 2 9 1 9 2 9 2 9 1 
10 2 9 1 9 2 9 2 9 1 9 2 9 2 9 1 
9 2 10 1 9 2 9 2 9 1 9 2 9 2 9 1 
9 2 9 2 9 1 10 2 9 1 9 2 9 2 9 1 
9 2 9 2 9 1 9 2 9 2 10 1 9 2 9 2 
9 1 9 2 9 2 9 1 9 2 9 2 9 1 10 2 
9 2 9 1 9 2 9 2 9 2 9 1 9 2 9 2 
10 1 9 2 9 2 9 1 9 2 9 2 9 1 9 2 
9 2 9 2 10 1 9 2 9 2 9 1 9 2 9 2 
9 2 9 1 9 2 9 2 10 1 9 2 9 2 9 2 
9 1 9 2 9 2 9 2 9 1 10 2 9 2 9 2 
9 1 9 2 9 2 9 2 9 1 9 2 9 2 10 2 
9 1 9 2 9 2 9 2 9 1 9 2 9 2 9 2 
9 1 10 2 9 2 9 2 9 2 9 1 9 2 9 2 
9 2 9 2 10 1 9 2 9 2 9 2 9 2 9 1 
9 2 9 2 9 2 9 2 10 1 9 2 9 2 9 2 
9 2 9 1 9 2 9 2 9 2 9 2 10 2 9 1 
9 2 9 2 9 2 9 2 9 2 9 2 9 1 9 2 
10 2 9 2 9 2 9 2 9 2 9 1 9 2 9 2 
9 2 10 2 9 2 9 2 9 2 9 1 9 2 9 2 
9 2 9 2 9 2 10 2 9 2 9 2 9 1 9 2 
9 2 9 2 9 2 9 2 9 2 10 2 9 2 9 2 
9 2 9 2 9 1 5186 1780 300 MP stroke
9 2 9 2 9 2 10 2 9 2 9 2 9 2 9 2 
9 2 9 2 9 2 9 2 9 2 10 2 9 2 9 2 
9 2 9 2 9 2 9 2 9 2 9 2 9 2 10 2 
9 2 9 2 9 2 9 2 9 2 9 2 9 2 9 2 
9 2 10 2 9 2 9 2 9 2 9 2 9 2 9 2 
9 2 9 2 10 2 9 2 9 2 9 2 9 2 9 2 
9 2 9 2 9 2 9 2 10 3 9 2 9 2 9 2 
9 2 9 2 9 2 9 2 9 2 9 2 10 2 9 3 
9 2 9 2 9 2 9 2 9 2 9 2 9 2 10 3 
9 2 9 2 9 2 9 2 9 2 9 2 9 3 9 2 
9 2 10 2 9 2 9 2 9 3 9 2 9 2 9 2 
9 2 9 2 9 3 10 2 9 2 9 2 9 2 9 3 
9 2 9 2 9 2 9 3 9 2 10 2 9 2 9 3 
9 2 9 2 9 2 9 3 9 2 9 2 10 2 9 3 
9 2 9 2 9 2 9 3 9 2 9 2 9 3 9 2 
10 2 9 3 9 2 9 2 9 3 9 2 9 2 9 3 
9 2 9 2 10 3 9 2 9 2 9 3 9 2 9 2 
9 3 9 2 9 3 10 2 9 2 9 3 9 2 9 3 
9 2 9 2 9 3 9 2 9 3 10 2 9 3 9 2 
9 2 9 3 9 2 9 3 9 2 9 3 9 2 10 3 
9 2 9 3 9 2 9 3 9 2 9 3 9 2 9 3 
10 2 9 3 9 2 9 3 9 3 9 2 9 3 9 2 
9 3 9 2 10 3 9 3 9 2 9 3 9 2 9 3 
9 3 9 2 9 3 9 3 10 2 9 3 9 3 9 2 
9 3 9 3 9 2 9 3 9 3 9 2 10 3 9 3 
9 3 9 2 9 3 9 3 9 3 9 2 9 3 10 3 
9 3 9 3 9 2 9 3 9 3 9 3 9 3 9 2 
9 3 10 3 9 3 9 3 9 3 9 3 9 3 9 2 
9 3 9 3 9 3 10 3 9 3 9 3 9 3 9 3 
9 3 9 3 9 3 9 3 10 3 9 3 9 3 9 3 
9 3 9 3 9 3 9 3 9 3 9 3 10 4 9 3 
9 3 9 3 9 3 9 3 9 3 9 4 9 3 9 3 
10 3 9 3 9 4 9 3 9 3 9 3 9 4 9 3 
9 3 9 4 10 3 9 3 9 4 9 3 9 3 9 4 
9 3 9 4 9 3 10 3 9 4 9 3 9 4 9 3 
9 4 9 3 9 4 9 4 9 3 10 4 9 3 9 4 
9 4 9 3 9 4 9 4 9 3 9 4 9 4 10 4 
9 3 9 4 9 4 2464 1012 300 MP stroke
9 4 9 4 9 3 9 4 9 4 10 4 9 4 9 4 
9 4 9 4 9 4 9 4 9 4 9 4 9 4 10 5 
9 4 9 4 9 4 9 4 9 5 9 4 9 4 9 5 
9 4 10 4 9 5 9 4 9 5 9 4 9 5 9 4 
9 5 9 5 9 4 10 5 9 5 9 5 9 4 9 5 
9 5 9 5 9 5 9 5 10 5 9 5 9 5 9 6 
9 5 9 5 9 6 9 5 9 5 9 6 10 6 9 5 
9 6 9 6 9 5 9 6 9 6 9 6 9 6 9 6 
10 7 9 6 9 6 9 7 9 7 9 6 9 7 9 7 
9 7 10 7 9 7 9 8 9 7 9 8 9 8 9 8 
9 8 9 8 9 9 10 9 9 9 9 9 9 9 9 10 
9 10 9 11 9 11 9 11 9 12 10 13 9 13 9 14 
9 16 9 16 9 18 9 21 9 25 9 32 9 77 1527 226 104 MP stroke
6 w
gs 6906 2049 1695 400 rc
c10
  36   36 6979 2122 FO
  36   36 6988 2124 FO
  36   36 6997 2126 FO
  36   36 7007 2127 FO
  36   36 7016 2129 FO
  36   36 7025 2130 FO
  36   36 7034 2132 FO
  36   36 7043 2134 FO
  36   36 7052 2135 FO
  36   36 7061 2137 FO
  36   36 7070 2138 FO
  36   36 7079 2140 FO
  36   36 7088 2141 FO
  36   36 7098 2143 FO
  36   36 7107 2144 FO
  36   36 7116 2146 FO
  36   36 7125 2148 FO
  36   36 7134 2149 FO
  36   36 7143 2151 FO
  36   36 7152 2152 FO
  36   36 7161 2154 FO
  36   36 7170 2155 FO
  36   36 7179 2157 FO
  36   36 7189 2159 FO
  36   36 7198 2160 FO
  36   36 7207 2162 FO
  36   36 7216 2163 FO
  36   36 7225 2165 FO
  36   36 7234 2166 FO
  36   36 7243 2168 FO
  36   36 7252 2169 FO
  36   36 7261 2171 FO
  36   36 7270 2172 FO
  36   36 7280 2174 FO
  36   36 7289 2176 FO
  36   36 7298 2177 FO
  36   36 7307 2179 FO
  36   36 7316 2180 FO
  36   36 7325 2182 FO
  36   36 7334 2183 FO
  36   36 7343 2185 FO
  36   36 7352 2186 FO
  36   36 7362 2188 FO
  36   36 7371 2189 FO
  36   36 7380 2191 FO
  36   36 7389 2192 FO
  36   36 7398 2194 FO
  36   36 7407 2195 FO
  36   36 7416 2197 FO
  36   36 7425 2199 FO
  36   36 7434 2200 FO
  36   36 7443 2202 FO
  36   36 7453 2203 FO
  36   36 7462 2205 FO
  36   36 7471 2206 FO
  36   36 7480 2208 FO
  36   36 7489 2209 FO
  36   36 7498 2211 FO
  36   36 7507 2212 FO
  36   36 7516 2214 FO
  36   36 7525 2215 FO
  36   36 7534 2217 FO
  36   36 7544 2218 FO
  36   36 7553 2220 FO
  36   36 7562 2221 FO
  36   36 7571 2223 FO
  36   36 7580 2224 FO
  36   36 7589 2226 FO
  36   36 7598 2227 FO
  36   36 7607 2229 FO
  36   36 7616 2230 FO
  36   36 7626 2232 FO
  36   36 7635 2233 FO
  36   36 7644 2235 FO
  36   36 7653 2236 FO
  36   36 7662 2238 FO
  36   36 7671 2239 FO
  36   36 7680 2241 FO
  36   36 7689 2242 FO
  36   36 7698 2244 FO
  36   36 7707 2245 FO
  36   36 7717 2247 FO
  36   36 7726 2248 FO
  36   36 7735 2250 FO
  36   36 7744 2251 FO
  36   36 7753 2253 FO
  36   36 7762 2254 FO
  36   36 7771 2256 FO
  36   36 7780 2257 FO
  36   36 7789 2259 FO
  36   36 7798 2260 FO
  36   36 7808 2261 FO
  36   36 7817 2263 FO
  36   36 7826 2264 FO
  36   36 7835 2266 FO
  36   36 7844 2267 FO
  36   36 7853 2269 FO
  36   36 7862 2270 FO
  36   36 7871 2272 FO
  36   36 7880 2273 FO
  36   36 7889 2275 FO
  36   36 7899 2276 FO
  36   36 7908 2278 FO
  36   36 7917 2279 FO
  36   36 7926 2281 FO
  36   36 7935 2282 FO
  36   36 7944 2283 FO
  36   36 7953 2285 FO
  36   36 7962 2286 FO
  36   36 7971 2288 FO
  36   36 7981 2289 FO
  36   36 7990 2291 FO
  36   36 7999 2292 FO
  36   36 8008 2294 FO
  36   36 8017 2295 FO
  36   36 8026 2297 FO
  36   36 8035 2298 FO
  36   36 8044 2299 FO
  36   36 8053 2301 FO
  36   36 8062 2302 FO
  36   36 8072 2304 FO
  36   36 8081 2305 FO
  36   36 8090 2307 FO
  36   36 8099 2308 FO
  36   36 8108 2310 FO
  36   36 8117 2311 FO
  36   36 8126 2312 FO
  36   36 8135 2314 FO
  36   36 8144 2315 FO
  36   36 8153 2317 FO
  36   36 8163 2318 FO
  36   36 8172 2320 FO
  36   36 8181 2321 FO
  36   36 8190 2323 FO
  36   36 8199 2324 FO
  36   36 8208 2325 FO
  36   36 8217 2327 FO
  36   36 8226 2328 FO
  36   36 8235 2330 FO
  36   36 8245 2331 FO
  36   36 8254 2333 FO
  36   36 8263 2334 FO
  36   36 8272 2335 FO
  36   36 8281 2337 FO
  36   36 8290 2338 FO
  36   36 8299 2340 FO
  36   36 8308 2341 FO
  36   36 8317 2342 FO
  36   36 8326 2344 FO
  36   36 8336 2345 FO
  36   36 8345 2347 FO
  36   36 8354 2348 FO
  36   36 8363 2350 FO
  36   36 8372 2351 FO
  36   36 8381 2352 FO
  36   36 8390 2354 FO
  36   36 8399 2355 FO
  36   36 8408 2357 FO
  36   36 8417 2358 FO
  36   36 8427 2359 FO
  36   36 8436 2361 FO
  36   36 8445 2362 FO
  36   36 8454 2364 FO
  36   36 8463 2365 FO
  36   36 8472 2366 FO
  36   36 8481 2368 FO
  36   36 8490 2369 FO
  36   36 8499 2371 FO
  36   36 8509 2372 FO
  36   36 8518 2373 FO
  36   36 8527 2375 FO
gr

c10
27.6 w
c9
10 2 9 1 9 1 9 1 9 2 9 1 9 1 9 1 
9 2 10 1 9 1 9 1 9 1 9 2 9 1 9 1 
9 1 9 2 9 1 10 1 9 1 9 2 9 1 9 1 
9 1 9 2 9 1 9 1 9 1 10 2 9 1 9 1 
9 1 9 2 9 1 9 1 9 1 9 2 10 1 9 1 
9 1 9 2 9 1 9 1 9 1 9 2 9 1 9 1 
10 1 9 2 9 1 9 1 9 1 9 2 9 1 9 1 
9 1 9 2 10 1 9 1 9 1 9 2 9 1 9 1 
9 1 9 2 9 1 10 1 9 2 9 1 9 1 9 1 
9 2 9 1 9 1 9 1 9 2 10 1 9 1 9 2 
9 1 9 1 9 1 9 2 9 1 9 1 9 2 10 1 
9 1 9 1 9 2 9 1 9 1 9 2 9 1 9 1 
9 1 10 2 9 1 9 1 9 2 9 1 9 1 9 1 
9 2 9 1 10 1 9 2 9 1 9 1 9 2 9 1 
9 1 9 1 9 2 9 1 10 1 9 2 9 1 9 1 
9 2 9 1 9 1 9 1 9 2 9 1 10 1 9 2 
9 1 9 1 9 2 9 1 9 1 9 2 9 1 10 1 
9 2 9 1 9 1 9 2 9 1 9 1 9 2 9 1 
9 1 10 1 9 2 9 1 9 1 9 2 9 1 9 1 
9 2 9 1 9 1 10 2 9 1 9 1 9 2 9 1 
9 1 9 2 9 1 9 1 9 2 10 1 9 2 9 1 
9 1 9 2 9 1 9 1 9 2 9 1 10 1 9 2 
9 1 9 1 9 2 9 1 9 1 9 2 9 1 9 1 
10 2 9 1 9 2 9 1 9 1 9 2 9 1 9 1 
9 2 9 1 10 1 9 2 9 1 9 2 9 1 9 1 
9 2 9 1 9 1 10 2 9 1 9 1 9 2 9 1 
9 2 9 1 9 1 9 2 9 1 10 2 9 1 9 1 
9 2 9 1 9 1 9 2 9 1 9 2 9 1 10 1 
9 2 9 1 9 2 9 1 9 1 9 2 9 1 9 2 
9 1 10 1 9 2 9 1 9 2 9 1 9 1 9 2 
9 1 9 2 10 1 9 1 9 2 9 1 9 2 9 1 
9 1 9 2 9 1 9 2 10 1 9 2 9 1 9 1 
9 2 9 1 9 2 9 1 9 1 9 2 10 1 9 2 
9 1 9 2 9 1 9 1 9 2 9 1 9 2 10 1 
9 2 9 1 9 2 9 1 9 1 9 2 9 1 9 2 
9 1 10 2 9 1 9 2 9 1 9 1 9 2 9 1 
9 2 9 1 9 2 10 1 9 2 9 1 9 2 9 1 
9 1 9 2 9 1 7908 2278 300 MP stroke
9 2 10 1 9 2 9 1 9 2 9 1 9 2 9 1 
9 2 9 1 9 2 10 1 9 1 9 2 9 1 9 2 
9 1 9 2 9 1 9 2 9 1 10 2 9 1 9 2 
9 1 9 2 9 1 9 2 9 1 9 2 9 1 10 2 
9 1 9 2 9 1 9 2 9 1 9 2 9 1 9 2 
10 1 9 2 9 1 9 2 9 1 9 2 9 1 9 2 
9 1 9 2 10 1 9 2 9 1 9 2 9 2 9 1 
9 2 9 1 9 2 9 1 10 2 9 1 9 2 9 1 
9 2 9 1 9 2 9 1 9 2 10 2 9 1 9 2 
9 1 9 2 9 1 9 2 9 1 9 2 9 1 10 2 
9 2 9 1 9 2 9 1 9 2 9 1 9 2 9 2 
9 1 10 2 9 1 9 2 9 1 9 2 9 1 9 2 
9 2 9 1 9 2 10 1 9 2 9 2 9 1 9 2 
9 1 9 2 9 1 9 2 10 2 9 1 9 2 9 1 
9 2 9 2 9 1 9 2 9 1 9 2 10 2 9 1 
9 2 9 1 9 2 9 2 9 1 9 2 9 2 9 1 
10 2 9 1 9 2 9 2 9 1 9 2 9 2 9 1 
9 2 10 1 9 2 9 2 9 1 9 2 9 2 9 1 
9 2 9 2 9 1 10 2 9 1 9 2 9 2 9 1 
9 2 9 2 9 1 9 2 9 2 10 1 9 2 9 2 
9 1 9 2 9 2 9 1 9 2 9 2 9 1 10 2 
9 2 9 1 9 2 9 2 9 2 9 1 9 2 9 2 
10 1 9 2 9 2 9 1 9 2 9 2 9 1 9 2 
9 2 9 2 10 1 9 2 9 2 9 1 9 2 9 2 
9 2 9 1 9 2 9 2 10 1 9 2 9 2 9 2 
9 1 9 2 9 2 9 2 9 1 10 2 9 2 9 2 
9 1 9 2 9 2 9 2 9 1 9 2 9 2 10 2 
9 1 9 2 9 2 9 2 9 1 9 2 9 2 9 2 
9 1 10 2 9 2 9 2 9 2 9 1 9 2 9 2 
9 2 9 2 10 1 9 2 9 2 9 2 9 2 9 1 
9 2 9 2 9 2 9 2 10 1 9 2 9 2 9 2 
9 2 9 1 9 2 9 2 9 2 9 2 10 2 9 1 
9 2 9 2 9 2 9 2 9 2 9 2 9 1 9 2 
10 2 9 2 9 2 9 2 9 2 9 1 9 2 9 2 
9 2 10 2 9 2 9 2 9 2 9 1 9 2 9 2 
9 2 9 2 9 2 10 2 9 2 9 2 9 1 9 2 
9 2 9 2 9 2 9 2 9 2 10 2 9 2 9 2 
9 2 9 2 9 1 5186 1780 300 MP stroke
9 2 9 2 9 2 10 2 9 2 9 2 9 2 9 2 
9 2 9 2 9 2 9 2 9 2 10 2 9 2 9 2 
9 2 9 2 9 2 9 2 9 2 9 2 9 2 10 2 
9 2 9 2 9 2 9 2 9 2 9 2 9 2 9 2 
9 2 10 2 9 2 9 2 9 2 9 2 9 2 9 2 
9 2 9 2 10 2 9 2 9 2 9 2 9 2 9 2 
9 2 9 2 9 2 9 2 10 3 9 2 9 2 9 2 
9 2 9 2 9 2 9 2 9 2 9 2 10 2 9 3 
9 2 9 2 9 2 9 2 9 2 9 2 9 2 10 3 
9 2 9 2 9 2 9 2 9 2 9 2 9 3 9 2 
9 2 10 2 9 2 9 2 9 3 9 2 9 2 9 2 
9 2 9 2 9 3 10 2 9 2 9 2 9 2 9 3 
9 2 9 2 9 2 9 3 9 2 10 2 9 2 9 3 
9 2 9 2 9 2 9 3 9 2 9 2 10 2 9 3 
9 2 9 2 9 2 9 3 9 2 9 2 9 3 9 2 
10 2 9 3 9 2 9 2 9 3 9 2 9 2 9 3 
9 2 9 2 10 3 9 2 9 2 9 3 9 2 9 2 
9 3 9 2 9 3 10 2 9 2 9 3 9 2 9 3 
9 2 9 2 9 3 9 2 9 3 10 2 9 3 9 2 
9 2 9 3 9 2 9 3 9 2 9 3 9 2 10 3 
9 2 9 3 9 2 9 3 9 2 9 3 9 2 9 3 
10 2 9 3 9 2 9 3 9 3 9 2 9 3 9 2 
9 3 9 2 10 3 9 3 9 2 9 3 9 2 9 3 
9 3 9 2 9 3 9 3 10 2 9 3 9 3 9 2 
9 3 9 3 9 2 9 3 9 3 9 2 10 3 9 3 
9 3 9 2 9 3 9 3 9 3 9 2 9 3 10 3 
9 3 9 3 9 2 9 3 9 3 9 3 9 3 9 2 
9 3 10 3 9 3 9 3 9 3 9 3 9 3 9 2 
9 3 9 3 9 3 10 3 9 3 9 3 9 3 9 3 
9 3 9 3 9 3 9 3 10 3 9 3 9 3 9 3 
9 3 9 3 9 3 9 3 9 3 9 3 10 4 9 3 
9 3 9 3 9 3 9 3 9 3 9 4 9 3 9 3 
10 3 9 3 9 4 9 3 9 3 9 3 9 4 9 3 
9 3 9 4 10 3 9 3 9 4 9 3 9 3 9 4 
9 3 9 4 9 3 10 3 9 4 9 3 9 4 9 3 
9 4 9 3 9 4 9 4 9 3 10 4 9 3 9 4 
9 4 9 3 9 4 9 4 9 3 9 4 9 4 10 4 
9 3 9 4 9 4 2464 1012 300 MP stroke
9 4 9 4 9 3 9 4 9 4 10 4 9 4 9 4 
9 4 9 4 9 4 9 4 9 4 9 4 9 4 10 5 
9 4 9 4 9 4 9 4 9 5 9 4 9 4 9 5 
9 4 10 4 9 5 9 4 9 5 9 4 9 5 9 4 
9 5 9 5 9 4 10 5 9 5 9 5 9 4 9 5 
9 5 9 5 9 5 9 5 10 5 9 5 9 5 9 6 
9 5 9 5 9 6 9 5 9 5 9 6 10 6 9 5 
9 6 9 6 9 5 9 6 9 6 9 6 9 6 9 6 
10 7 9 6 9 6 9 7 9 7 9 6 9 7 9 7 
9 7 10 7 9 7 9 8 9 7 9 8 9 8 9 8 
9 8 9 8 9 9 10 9 9 9 9 9 9 9 9 10 
9 10 9 11 9 11 9 11 9 12 10 13 9 13 9 14 
9 16 9 16 9 18 9 21 9 25 9 32 9 77 1527 226 104 MP stroke
6 w
gs 6906 2049 1695 400 rc
c10
  36   36 6979 2122 FO
  36   36 6988 2124 FO
  36   36 6997 2126 FO
  36   36 7007 2127 FO
  36   36 7016 2129 FO
  36   36 7025 2130 FO
  36   36 7034 2132 FO
  36   36 7043 2134 FO
  36   36 7052 2135 FO
  36   36 7061 2137 FO
  36   36 7070 2138 FO
  36   36 7079 2140 FO
  36   36 7088 2141 FO
  36   36 7098 2143 FO
  36   36 7107 2144 FO
  36   36 7116 2146 FO
  36   36 7125 2148 FO
  36   36 7134 2149 FO
  36   36 7143 2151 FO
  36   36 7152 2152 FO
  36   36 7161 2154 FO
  36   36 7170 2155 FO
  36   36 7179 2157 FO
  36   36 7189 2159 FO
  36   36 7198 2160 FO
  36   36 7207 2162 FO
  36   36 7216 2163 FO
  36   36 7225 2165 FO
  36   36 7234 2166 FO
  36   36 7243 2168 FO
  36   36 7252 2169 FO
  36   36 7261 2171 FO
  36   36 7270 2172 FO
  36   36 7280 2174 FO
  36   36 7289 2176 FO
  36   36 7298 2177 FO
  36   36 7307 2179 FO
  36   36 7316 2180 FO
  36   36 7325 2182 FO
  36   36 7334 2183 FO
  36   36 7343 2185 FO
  36   36 7352 2186 FO
  36   36 7362 2188 FO
  36   36 7371 2189 FO
  36   36 7380 2191 FO
  36   36 7389 2192 FO
  36   36 7398 2194 FO
  36   36 7407 2195 FO
  36   36 7416 2197 FO
  36   36 7425 2199 FO
  36   36 7434 2200 FO
  36   36 7443 2202 FO
  36   36 7453 2203 FO
  36   36 7462 2205 FO
  36   36 7471 2206 FO
  36   36 7480 2208 FO
  36   36 7489 2209 FO
  36   36 7498 2211 FO
  36   36 7507 2212 FO
  36   36 7516 2214 FO
  36   36 7525 2215 FO
  36   36 7534 2217 FO
  36   36 7544 2218 FO
  36   36 7553 2220 FO
  36   36 7562 2221 FO
  36   36 7571 2223 FO
  36   36 7580 2224 FO
  36   36 7589 2226 FO
  36   36 7598 2227 FO
  36   36 7607 2229 FO
  36   36 7616 2230 FO
  36   36 7626 2232 FO
  36   36 7635 2233 FO
  36   36 7644 2235 FO
  36   36 7653 2236 FO
  36   36 7662 2238 FO
  36   36 7671 2239 FO
  36   36 7680 2241 FO
  36   36 7689 2242 FO
  36   36 7698 2244 FO
  36   36 7707 2245 FO
  36   36 7717 2247 FO
  36   36 7726 2248 FO
  36   36 7735 2250 FO
  36   36 7744 2251 FO
  36   36 7753 2253 FO
  36   36 7762 2254 FO
  36   36 7771 2256 FO
  36   36 7780 2257 FO
  36   36 7789 2259 FO
  36   36 7798 2260 FO
  36   36 7808 2261 FO
  36   36 7817 2263 FO
  36   36 7826 2264 FO
  36   36 7835 2266 FO
  36   36 7844 2267 FO
  36   36 7853 2269 FO
  36   36 7862 2270 FO
  36   36 7871 2272 FO
  36   36 7880 2273 FO
  36   36 7889 2275 FO
  36   36 7899 2276 FO
  36   36 7908 2278 FO
  36   36 7917 2279 FO
  36   36 7926 2281 FO
  36   36 7935 2282 FO
  36   36 7944 2283 FO
  36   36 7953 2285 FO
  36   36 7962 2286 FO
  36   36 7971 2288 FO
  36   36 7981 2289 FO
  36   36 7990 2291 FO
  36   36 7999 2292 FO
  36   36 8008 2294 FO
  36   36 8017 2295 FO
  36   36 8026 2297 FO
  36   36 8035 2298 FO
  36   36 8044 2299 FO
  36   36 8053 2301 FO
  36   36 8062 2302 FO
  36   36 8072 2304 FO
  36   36 8081 2305 FO
  36   36 8090 2307 FO
  36   36 8099 2308 FO
  36   36 8108 2310 FO
  36   36 8117 2311 FO
  36   36 8126 2312 FO
  36   36 8135 2314 FO
  36   36 8144 2315 FO
  36   36 8153 2317 FO
  36   36 8163 2318 FO
  36   36 8172 2320 FO
  36   36 8181 2321 FO
  36   36 8190 2323 FO
  36   36 8199 2324 FO
  36   36 8208 2325 FO
  36   36 8217 2327 FO
  36   36 8226 2328 FO
  36   36 8235 2330 FO
  36   36 8245 2331 FO
  36   36 8254 2333 FO
  36   36 8263 2334 FO
  36   36 8272 2335 FO
  36   36 8281 2337 FO
  36   36 8290 2338 FO
  36   36 8299 2340 FO
  36   36 8308 2341 FO
  36   36 8317 2342 FO
  36   36 8326 2344 FO
  36   36 8336 2345 FO
  36   36 8345 2347 FO
  36   36 8354 2348 FO
  36   36 8363 2350 FO
  36   36 8372 2351 FO
  36   36 8381 2352 FO
  36   36 8390 2354 FO
  36   36 8399 2355 FO
  36   36 8408 2357 FO
  36   36 8417 2358 FO
  36   36 8427 2359 FO
  36   36 8436 2361 FO
  36   36 8445 2362 FO
  36   36 8454 2364 FO
  36   36 8463 2365 FO
  36   36 8472 2366 FO
  36   36 8481 2368 FO
  36   36 8490 2369 FO
  36   36 8499 2371 FO
  36   36 8509 2372 FO
  36   36 8518 2373 FO
  36   36 8527 2375 FO
gr

c10
gs 6882 2045 1576 382 rc
c8
7556 2226 mt 7628 2226 L
7592 2190 mt 7592 2262 L
8120 2317 mt 8192 2317 L
8156 2281 mt 8156 2353 L
7592 2232 mt 7664 2232 L
7628 2196 mt 7628 2268 L
7684 2247 mt 7756 2247 L
7720 2211 mt 7720 2283 L
7193 2165 mt 7265 2165 L
7229 2129 mt 7229 2201 L
6985 2130 mt 7057 2130 L
7021 2094 mt 7021 2166 L
7400 2200 mt 7472 2200 L
7436 2164 mt 7436 2236 L
6919 2118 mt 6991 2118 L
6955 2082 mt 6955 2154 L
7400 2200 mt 7472 2200 L
7436 2164 mt 7436 2236 L
8348 2353 mt 8420 2353 L
8384 2317 mt 8384 2389 L
6985 2130 mt 7057 2130 L
7021 2094 mt 7021 2166 L
7271 2179 mt 7343 2179 L
7307 2143 mt 7307 2215 L
7556 2226 mt 7628 2226 L
7592 2190 mt 7592 2262 L
8348 2353 mt 8420 2353 L
8384 2317 mt 8384 2389 L
6919 2118 mt 6991 2118 L
6955 2082 mt 6955 2154 L
8120 2317 mt 8192 2317 L
8156 2281 mt 8156 2353 L
6985 2130 mt 7057 2130 L
7021 2094 mt 7021 2166 L
7193 2165 mt 7265 2165 L
7229 2129 mt 7229 2201 L
7592 2232 mt 7664 2232 L
7628 2196 mt 7628 2268 L
7039 2139 mt 7111 2139 L
7075 2103 mt 7075 2175 L
7789 2264 mt 7861 2264 L
7825 2228 mt 7825 2300 L
8348 2353 mt 8420 2353 L
8384 2317 mt 8384 2389 L
7271 2179 mt 7343 2179 L
7307 2143 mt 7307 2215 L
7789 2264 mt 7861 2264 L
7825 2228 mt 7825 2300 L
8184 2327 mt 8256 2327 L
8220 2291 mt 8220 2363 L
7789 2264 mt 7861 2264 L
7825 2228 mt 7825 2300 L
7271 2179 mt 7343 2179 L
7307 2143 mt 7307 2215 L
7193 2165 mt 7265 2165 L
7229 2129 mt 7229 2201 L
7712 2252 mt 7784 2252 L
7748 2216 mt 7748 2288 L
8348 2353 mt 8420 2353 L
8384 2317 mt 8384 2389 L
7592 2232 mt 7664 2232 L
7628 2196 mt 7628 2268 L
7005 2133 mt 7077 2133 L
7041 2097 mt 7041 2169 L
6985 2130 mt 7057 2130 L
7021 2094 mt 7021 2166 L
7193 2165 mt 7265 2165 L
7229 2129 mt 7229 2201 L
7789 2264 mt 7861 2264 L
7825 2228 mt 7825 2300 L
7271 2179 mt 7343 2179 L
7307 2143 mt 7307 2215 L
8223 2333 mt 8295 2333 L
8259 2297 mt 8259 2369 L
7556 2226 mt 7628 2226 L
7592 2190 mt 7592 2262 L
gr

c8
240 w
gs 7417 1704 965 965 rc
80 W
0 sg
7899 2186 PD
gr

0 sg
6 w
gr

%%IncludeResource: font Helvetica-Bold
/Helvetica-Bold /WindowsLatin1Encoding 240 FMSR

7738 1932 mt 
(\(0.7,0.2\)) s

end %%Color Dict

eplot
%%EndObject

epage
end

showpage

%%Trailer
%%EOF
