%!PS-Adobe-3.0 EPSF-3.0
%%Creator: MATLAB, The MathWorks, Inc. Version 7.13.0.564 (R2011b). Operating System: Microsoft Windows XP.
%%Title: D:\DriveG\Sem2-2012\Program\ReferenceMetric-v3\metricfig\zdt2\zdt2-ws.eps
%%CreationDate: 02/20/2013  21:05:40
%%DocumentNeededFonts: Helvetica
%%+ Courier-Bold
%%+ Courier
%%DocumentProcessColors: Cyan Magenta Yellow Black
%%LanguageLevel: 2
%%Pages: 1
%%BoundingBox:  -191   208   787   632
%%EndComments

%%BeginProlog
% MathWorks dictionary
/MathWorks 160 dict begin
% definition operators
/bdef {bind def} bind def
/ldef {load def} bind def
/xdef {exch def} bdef
/xstore {exch store} bdef
% operator abbreviations
/c  /clip ldef
/cc /concat ldef
/cp /closepath ldef
/gr /grestore ldef
/gs /gsave ldef
/mt /moveto ldef
/np /newpath ldef
/cm /currentmatrix ldef
/sm /setmatrix ldef
/rm /rmoveto ldef
/rl /rlineto ldef
/s {show newpath} bdef
/sc {setcmykcolor} bdef
/sr /setrgbcolor ldef
/sg /setgray ldef
/w /setlinewidth ldef
/j /setlinejoin ldef
/cap /setlinecap ldef
/rc {rectclip} bdef
/rf {rectfill} bdef
% page state control
/pgsv () def
/bpage {/pgsv save def} bdef
/epage {pgsv restore} bdef
/bplot /gsave ldef
/eplot {stroke grestore} bdef
% orientation switch
/portraitMode 0 def /landscapeMode 1 def /rotateMode 2 def
% coordinate system mappings
/dpi2point 0 def
% font control
/FontSize 0 def
/FMS {/FontSize xstore findfont [FontSize 0 0 FontSize neg 0 0]
  makefont setfont} bdef
/ISOLatin1Encoding where {pop /WindowsLatin1Encoding 256 array bdef
ISOLatin1Encoding WindowsLatin1Encoding copy pop
/.notdef/.notdef/quotesinglbase/florin/quotedblbase/ellipsis/dagger
/daggerdbl/circumflex/perthousand/Scaron/guilsinglleft/OE/.notdef/.notdef
/.notdef/.notdef/quoteleft/quoteright/quotedblleft/quotedblright/bullet
/endash/emdash/tilde/trademark/scaron/guilsinglright/oe/.notdef/.notdef
/Ydieresis WindowsLatin1Encoding 128 32 getinterval astore pop}
{/WindowsLatin1Encoding StandardEncoding bdef} ifelse
/reencode {exch dup where {pop load} {pop StandardEncoding} ifelse
  exch dup 3 1 roll findfont dup length dict begin
  { 1 index /FID ne {def}{pop pop} ifelse } forall
  /Encoding exch def currentdict end definefont pop} bdef
/isroman {findfont /CharStrings get /Agrave known} bdef
/FMSR {3 1 roll 1 index dup isroman {reencode} {pop pop} ifelse
  exch FMS} bdef
/csm {1 dpi2point div -1 dpi2point div scale neg translate
 dup landscapeMode eq {pop -90 rotate}
  {rotateMode eq {90 rotate} if} ifelse} bdef
% line types: solid, dotted, dashed, dotdash
/SO { [] 0 setdash } bdef
/DO { [.5 dpi2point mul 4 dpi2point mul] 0 setdash } bdef
/DA { [6 dpi2point mul] 0 setdash } bdef
/DD { [.5 dpi2point mul 4 dpi2point mul 6 dpi2point mul 4
  dpi2point mul] 0 setdash } bdef
% macros for lines and objects
/L {lineto stroke} bdef
/MP {3 1 roll moveto 1 sub {rlineto} repeat} bdef
/AP {{rlineto} repeat} bdef
/PDlw -1 def
/W {/PDlw currentlinewidth def setlinewidth} def
/PP {closepath eofill} bdef
/DP {closepath stroke} bdef
/MR {4 -2 roll moveto dup  0 exch rlineto exch 0 rlineto
  neg 0 exch rlineto closepath} bdef
/FR {MR stroke} bdef
/PR {MR fill} bdef
/L1i {{currentfile picstr readhexstring pop} image} bdef
/tMatrix matrix def
/MakeOval {newpath tMatrix currentmatrix pop translate scale
0 0 1 0 360 arc tMatrix setmatrix} bdef
/FO {MakeOval stroke} bdef
/PO {MakeOval fill} bdef
/PD {currentlinewidth 2 div 0 360 arc fill
   PDlw -1 eq not {PDlw w /PDlw -1 def} if} def
/FA {newpath tMatrix currentmatrix pop translate scale
  0 0 1 5 -2 roll arc tMatrix setmatrix stroke} bdef
/PA {newpath tMatrix currentmatrix pop	translate 0 0 moveto scale
  0 0 1 5 -2 roll arc closepath tMatrix setmatrix fill} bdef
/FAn {newpath tMatrix currentmatrix pop translate scale
  0 0 1 5 -2 roll arcn tMatrix setmatrix stroke} bdef
/PAn {newpath tMatrix currentmatrix pop translate 0 0 moveto scale
  0 0 1 5 -2 roll arcn closepath tMatrix setmatrix fill} bdef
/vradius 0 def /hradius 0 def /lry 0 def
/lrx 0 def /uly 0 def /ulx 0 def /rad 0 def
/MRR {/vradius xdef /hradius xdef /lry xdef /lrx xdef /uly xdef
  /ulx xdef newpath tMatrix currentmatrix pop ulx hradius add uly
  vradius add translate hradius vradius scale 0 0 1 180 270 arc 
  tMatrix setmatrix lrx hradius sub uly vradius add translate
  hradius vradius scale 0 0 1 270 360 arc tMatrix setmatrix
  lrx hradius sub lry vradius sub translate hradius vradius scale
  0 0 1 0 90 arc tMatrix setmatrix ulx hradius add lry vradius sub
  translate hradius vradius scale 0 0 1 90 180 arc tMatrix setmatrix
  closepath} bdef
/FRR {MRR stroke } bdef
/PRR {MRR fill } bdef
/MlrRR {/lry xdef /lrx xdef /uly xdef /ulx xdef /rad lry uly sub 2 div def
  newpath tMatrix currentmatrix pop ulx rad add uly rad add translate
  rad rad scale 0 0 1 90 270 arc tMatrix setmatrix lrx rad sub lry rad
  sub translate rad rad scale 0 0 1 270 90 arc tMatrix setmatrix
  closepath} bdef
/FlrRR {MlrRR stroke } bdef
/PlrRR {MlrRR fill } bdef
/MtbRR {/lry xdef /lrx xdef /uly xdef /ulx xdef /rad lrx ulx sub 2 div def
  newpath tMatrix currentmatrix pop ulx rad add uly rad add translate
  rad rad scale 0 0 1 180 360 arc tMatrix setmatrix lrx rad sub lry rad
  sub translate rad rad scale 0 0 1 0 180 arc tMatrix setmatrix
  closepath} bdef
/FtbRR {MtbRR stroke } bdef
/PtbRR {MtbRR fill } bdef
/stri 6 array def /dtri 6 array def
/smat 6 array def /dmat 6 array def
/tmat1 6 array def /tmat2 6 array def /dif 3 array def
/asub {/ind2 exch def /ind1 exch def dup dup
  ind1 get exch ind2 get sub exch } bdef
/tri_to_matrix {
  2 0 asub 3 1 asub 4 0 asub 5 1 asub
  dup 0 get exch 1 get 7 -1 roll astore } bdef
/compute_transform {
  dmat dtri tri_to_matrix tmat1 invertmatrix 
  smat stri tri_to_matrix tmat2 concatmatrix } bdef
/ds {stri astore pop} bdef
/dt {dtri astore pop} bdef
/db {2 copy /cols xdef /rows xdef mul dup 3 mul string
  currentfile 
  3 index 0 eq {/ASCIIHexDecode filter}
  {/ASCII85Decode filter 3 index 2 eq {/RunLengthDecode filter} if }
  ifelse exch readstring pop
  dup 0 3 index getinterval /rbmap xdef
  dup 2 index dup getinterval /gbmap xdef
  1 index dup 2 mul exch getinterval /bbmap xdef pop pop}bdef
/it {gs np dtri aload pop moveto lineto lineto cp c
  cols rows 8 compute_transform 
  rbmap gbmap bbmap true 3 colorimage gr}bdef
/il {newpath moveto lineto stroke}bdef
currentdict end def
%%EndProlog

%%BeginSetup
MathWorks begin

0 cap

end
%%EndSetup

%%Page: 1 1
%%BeginPageSetup
%%PageBoundingBox:  -191   208   787   632
MathWorks begin
bpage
%%EndPageSetup

%%BeginObject: obj1
bplot

/dpi2point 12 def
portraitMode -2292 7584 csm

    0     0 11746  5078 rc
86 dict begin %Colortable dictionary
/c0 { 0.000000 0.000000 0.000000 sr} bdef
/c1 { 1.000000 1.000000 1.000000 sr} bdef
/c2 { 0.900000 0.000000 0.000000 sr} bdef
/c3 { 0.000000 0.820000 0.000000 sr} bdef
/c4 { 0.000000 0.000000 0.800000 sr} bdef
/c5 { 0.910000 0.820000 0.320000 sr} bdef
/c6 { 1.000000 0.260000 0.820000 sr} bdef
/c7 { 0.000000 0.820000 0.820000 sr} bdef
c0
1 j
1 sg
   0    0 11747 5079 rf
6 w
0 4138 9103 0 0 -4138 1527 4519 4 MP
PP
-9103 0 0 4138 9103 0 0 -4138 1527 4519 5 MP stroke
4 w
DO
SO
6 w
0 sg
1527  381 mt 10630  381 L
1527 4519 mt 10630 4519 L
10630 4519 mt 10630  381 L
1527 4519 mt 1527  381 L
1527 4519 mt 10630 4519 L
1527 4519 mt 1527  381 L
1527 4519 mt 1527 4427 L
1527  381 mt 1527  472 L
%%IncludeResource: font Helvetica
/Helvetica /WindowsLatin1Encoding 240 FMSR

1461 4776 mt 
(0) s
2437 4519 mt 2437 4427 L
2437  381 mt 2437  472 L
2271 4776 mt 
(0.1) s
3347 4519 mt 3347 4427 L
3347  381 mt 3347  472 L
3181 4776 mt 
(0.2) s
4257 4519 mt 4257 4427 L
4257  381 mt 4257  472 L
4091 4776 mt 
(0.3) s
5168 4519 mt 5168 4427 L
5168  381 mt 5168  472 L
5002 4776 mt 
(0.4) s
6078 4519 mt 6078 4427 L
6078  381 mt 6078  472 L
5912 4776 mt 
(0.5) s
6988 4519 mt 6988 4427 L
6988  381 mt 6988  472 L
6822 4776 mt 
(0.6) s
7899 4519 mt 7899 4427 L
7899  381 mt 7899  472 L
7733 4776 mt 
(0.7) s
8809 4519 mt 8809 4427 L
8809  381 mt 8809  472 L
8643 4776 mt 
(0.8) s
9719 4519 mt 9719 4427 L
9719  381 mt 9719  472 L
9553 4776 mt 
(0.9) s
10630 4519 mt 10630 4427 L
10630  381 mt 10630  472 L
10564 4776 mt 
(1) s
1527 4519 mt 1618 4519 L
10630 4519 mt 10538 4519 L
1359 4608 mt 
(0) s
1527 3691 mt 1618 3691 L
10630 3691 mt 10538 3691 L
1159 3780 mt 
(0.2) s
1527 2863 mt 1618 2863 L
10630 2863 mt 10538 2863 L
1159 2952 mt 
(0.4) s
1527 2036 mt 1618 2036 L
10630 2036 mt 10538 2036 L
1159 2125 mt 
(0.6) s
1527 1208 mt 1618 1208 L
10630 1208 mt 10538 1208 L
1159 1297 mt 
(0.8) s
1527  381 mt 1618  381 L
10630  381 mt 10538  381 L
1359  470 mt 
(1) s
1527  381 mt 10630  381 L
1527 4519 mt 10630 4519 L
10630 4519 mt 10630  381 L
1527 4519 mt 1527  381 L
gs 1527 381 9104 4139 rc
27.6 w
/c8 { 0.000000 0.000000 1.000000 sr} bdef
c8
1 1 1 1 1 1 1 1 1 1 1 0 1 1 1 1 
1 1 1 1 1 1 1 1 1 1 1 1 1 1 1 1 
1 0 1 1 1 1 1 1 1 1 1 1 1 1 1 1 
1 1 1 1 1 0 1 1 1 1 1 1 1 1 1 1 
1 1 1 1 1 1 1 1 1 1 1 0 1 1 1 1 
1 1 1 1 1 1 1 1 1 1 1 1 1 1 1 0 
1 1 1 1 1 1 0 1 1 1 1 0 1 1 1 1 
1 1 1 1 1 0 1 1 1 1 1 1 0 1 1 1 
1 0 1 1 1 1 1 1 1 1 1 1 1 0 1 1 
1 1 1 1 1 1 1 1 1 1 1 1 1 1 1 1 
1 0 1 1 1 1 1 1 1 1 1 1 1 1 1 1 
1 1 1 1 1 0 1 1 1 1 1 1 1 1 1 1 
1 1 1 1 1 1 1 1 1 0 1 1 1 1 1 1 
1 1 1 1 1 1 1 1 1 1 1 1 1 0 1 1 
1 1 1 1 1 1 1 1 1 1 1 1 1 1 1 1 
1 0 1 1 1 1 1 1 1 1 1 1 1 1 1 1 
1 1 1 1 1 0 1 1 1 1 1 1 1 1 1 1 
1 1 1 1 1 1 1 1 1 0 1 1 1 1 1 1 
1 1 1 1 1 1 1 1 1 1 1 0 1 1 1 1 
1 1 1 1 1 1 1 1 1 1 1 1 1 1 1 0 
1 1 1 1 1 1 1 1 1 1 1 1 1 1 1 1 
1 1 1 0 1 1 1 1 1 1 1 1 1 0 -1 0 
2 2 1 1 1 1 1 0 1 1 1 1 1 1 1 1 
1 1 1 0 -1 0 2 2 1 1 1 1 1 0 1 1 
1 1 1 1 1 1 1 0 1 1 0 1 1 1 1 1 
1 1 1 0 1 1 1 1 1 1 1 1 1 0 1 1 
0 1 1 1 1 1 1 0 1 1 1 1 1 1 1 1 
1 0 1 1 1 1 1 1 0 1 1 1 1 0 1 1 
1 1 1 1 1 1 1 0 1 1 1 1 1 1 1 1 
1 1 1 1 1 1 1 1 1 0 1 1 1 1 1 1 
1 1 1 1 1 1 1 1 1 1 1 0 1 1 1 1 
1 1 1 1 1 1 1 1 1 1 1 1 1 1 1 0 
1 1 1 1 1 1 1 1 1 0 -1 0 2 2 1 1 
1 1 1 0 1 1 1 1 1 1 1 1 1 0 1 1 
0 1 1 1 1 1 1 0 1 1 1 1 1 1 1 1 
1 0 1 1 1 1 1 1 1 1 1 1 1 1 1 1 
1 1 1 0 1 1 1 1 1 1 1 1 1 1 1 1 
1 1 1 1 1 0 10340 4260 300 MP stroke
1 1 1 1 1 1 1 1 1 0 -1 0 2 2 1 1 
1 1 1 1 1 0 1 1 1 1 1 1 1 1 1 0 
-1 0 2 2 1 1 1 1 1 0 1 1 1 1 1 1 
1 0 1 1 1 1 0 1 1 1 1 0 1 1 1 1 
1 1 1 1 1 0 1 1 1 1 1 1 1 1 1 1 
1 1 1 1 1 1 1 0 1 1 1 1 1 1 1 1 
1 1 1 1 1 1 1 1 1 0 1 1 1 1 1 1 
1 1 1 0 1 1 0 1 1 1 1 1 1 0 1 1 
1 1 1 1 1 1 1 0 1 1 1 1 0 1 1 1 
1 0 1 1 1 1 1 1 1 1 1 0 1 1 1 1 
1 1 1 1 1 1 1 1 1 1 1 0 1 1 1 1 
1 1 1 1 1 0 -1 0 2 2 1 1 1 1 1 0 
1 1 1 1 1 1 1 1 1 0 1 1 0 1 1 1 
1 1 1 0 1 1 1 1 1 1 1 1 1 0 1 1 
1 1 1 1 1 1 1 1 1 1 1 1 1 0 1 1 
1 1 1 1 1 1 1 1 1 1 1 1 1 1 1 0 
1 1 1 1 1 1 1 0 1 1 1 1 0 1 1 1 
1 0 1 1 1 1 1 1 1 1 1 0 1 1 1 1 
1 1 1 1 1 1 1 1 1 1 1 0 1 1 1 1 
1 1 1 1 1 0 -1 0 2 2 1 1 1 1 1 0 
1 1 1 1 1 1 1 1 1 0 1 1 0 1 1 1 
1 0 1 1 1 1 1 1 1 1 1 0 1 1 1 1 
1 1 1 1 1 1 1 1 1 1 1 0 1 1 1 1 
1 1 1 1 1 0 -1 0 2 2 1 1 1 1 1 0 
1 1 1 1 1 1 1 0 1 1 1 1 0 1 1 1 
1 0 1 1 1 1 1 1 1 1 1 0 1 1 1 1 
1 1 1 0 -1 0 2 2 1 1 1 1 1 0 1 1 
1 1 1 1 1 0 1 1 1 1 0 1 1 1 1 0 
1 1 1 1 1 1 1 1 1 0 1 1 1 1 1 1 
1 1 1 1 1 1 1 1 1 0 1 1 1 1 1 1 
1 0 1 1 0 1 1 1 1 1 1 0 1 1 1 1 
1 1 1 0 1 1 1 1 1 1 1 1 1 1 1 1 
1 1 1 0 1 1 1 1 1 1 1 1 1 0 -1 0 
2 2 1 1 1 0 1 1 1 1 1 1 1 1 1 0 
1 1 1 1 1 1 1 1 1 1 1 1 1 1 1 0 
1 1 1 1 1 1 1 0 1 1 0 1 1 1 1 1 
1 0 1 1 1 1 1 1 1 0 1 1 1 1 1 1 
1 1 1 1 1 1 10058 4015 300 MP stroke
1 1 1 0 1 1 1 1 1 1 1 1 1 0 -1 0 
2 2 1 1 1 0 1 1 1 1 1 1 1 1 1 0 
1 1 1 1 1 1 1 1 1 1 1 1 1 1 1 0 
1 1 1 1 1 1 1 0 -1 0 2 2 1 1 1 0 
1 1 1 1 1 1 1 1 1 0 1 1 1 1 1 1 
1 1 1 1 1 1 1 1 1 0 1 1 1 1 1 1 
1 0 1 1 0 1 1 1 1 0 1 1 1 1 1 1 
1 1 1 0 1 1 1 1 1 1 1 1 1 1 1 1 
1 0 1 1 1 1 1 1 1 1 1 0 1 1 0 1 
1 1 1 0 1 1 1 1 1 1 1 0 1 1 1 1 
1 1 1 1 1 1 1 1 1 1 1 0 1 1 1 1 
1 1 1 0 1 1 1 1 0 1 1 1 1 0 1 1 
1 1 1 1 1 0 1 1 1 1 1 1 1 0 -1 0 
2 2 1 1 1 0 1 1 1 1 1 1 1 1 1 0 
1 1 1 1 1 1 1 1 1 1 1 1 1 0 1 1 
1 1 1 1 1 1 1 0 1 1 0 1 1 1 1 0 
1 1 1 1 1 1 1 0 1 1 1 1 1 1 1 0 
-1 0 2 2 1 1 1 1 1 0 1 1 1 1 1 1 
1 0 1 1 1 1 1 1 1 1 1 1 1 1 1 0 
1 1 1 1 1 1 1 0 1 1 0 1 1 1 1 1 
1 0 1 1 1 1 1 1 1 0 1 1 1 1 1 1 
1 1 1 1 1 1 1 0 1 1 1 1 1 1 1 0 
1 1 1 1 0 1 1 1 1 0 1 1 1 1 1 1 
1 0 1 1 1 1 1 1 1 0 -1 0 2 2 1 1 
1 0 1 1 1 1 1 1 1 0 1 1 1 1 1 1 
1 0 -1 0 2 2 1 1 1 0 1 1 1 1 1 1 
1 1 1 0 1 1 1 1 1 1 1 1 1 1 1 1 
1 0 1 1 1 1 1 1 1 0 1 1 0 1 1 1 
1 0 1 1 1 1 1 1 1 0 1 1 1 1 1 1 
1 0 -1 0 2 2 1 1 1 0 1 1 1 1 1 1 
1 0 1 1 1 1 1 1 1 1 1 1 1 1 1 1 
1 0 1 1 1 1 1 1 1 0 1 1 0 1 1 1 
1 0 1 1 1 1 1 1 1 0 1 1 1 1 1 1 
1 0 1 1 0 1 1 1 1 0 1 1 1 1 1 1 
1 0 1 1 1 1 1 1 1 0 -1 0 2 2 1 1 
1 0 1 1 1 1 1 1 1 0 1 1 1 1 1 1 
1 1 1 1 1 1 1 0 1 1 1 1 1 1 1 0 
1 1 1 1 1 1 9776 3779 300 MP stroke
1 1 1 1 1 1 1 0 1 1 1 1 1 1 1 0 
1 1 0 1 1 1 1 0 1 1 1 1 1 1 1 0 
1 1 1 1 1 1 1 0 -1 0 2 2 1 1 1 0 
1 1 1 1 1 1 1 0 1 1 1 1 1 1 1 1 
1 1 1 1 1 0 1 1 1 1 1 1 1 0 1 1 
1 1 1 1 1 1 1 1 1 1 1 0 1 1 1 1 
1 1 1 0 1 1 1 1 1 1 1 1 1 1 1 0 
1 1 1 1 1 1 1 0 1 1 1 1 1 1 1 1 
1 1 1 1 1 0 1 1 1 1 1 1 1 0 1 1 
0 1 1 1 1 0 1 1 1 1 1 1 1 0 1 1 
1 1 1 1 1 0 -1 0 2 2 1 1 1 0 1 1 
1 1 1 1 1 0 1 1 1 1 1 0 -1 0 2 2 
1 1 1 0 1 1 1 1 1 1 1 0 1 1 1 1 
1 1 1 1 1 1 1 1 1 0 1 1 1 1 1 1 
1 0 1 1 1 1 1 1 1 1 1 1 1 0 1 1 
1 1 1 1 1 0 1 1 1 1 1 1 1 1 1 1 
1 1 1 0 1 1 1 1 1 1 1 0 1 1 1 1 
1 1 1 1 1 1 1 0 1 1 1 1 1 1 1 0 
1 1 1 1 1 1 1 1 1 1 1 1 1 0 1 1 
1 1 1 1 1 0 1 1 1 1 1 1 1 1 1 1 
1 0 1 1 1 1 1 1 1 0 1 1 0 1 1 1 
1 0 1 1 1 1 1 1 1 0 1 1 1 1 1 0 
1 1 0 1 1 1 1 0 1 1 1 1 1 1 1 0 
1 1 1 1 1 1 1 0 1 1 1 1 1 1 1 1 
1 1 1 0 1 1 1 1 1 1 1 0 1 1 0 1 
1 1 1 0 1 1 1 1 1 0 1 1 1 1 1 1 
1 0 1 1 0 1 1 1 1 0 1 1 1 1 1 0 
1 1 1 1 1 1 1 0 1 1 0 1 1 1 1 0 
1 1 1 1 1 1 1 0 1 1 1 1 1 0 1 1 
0 1 1 1 1 0 1 1 1 1 1 1 1 0 1 1 
1 1 1 0 1 1 0 1 1 1 1 0 1 1 1 1 
1 1 1 0 1 1 1 1 1 0 1 1 1 1 1 1 
1 1 1 1 1 1 1 0 1 1 1 1 1 0 1 1 
1 1 1 1 1 1 1 1 1 1 1 0 1 1 1 1 
1 0 1 1 1 1 1 1 1 1 1 1 1 1 1 0 
1 1 1 1 1 0 1 1 1 1 1 1 1 1 1 1 
1 1 1 0 1 1 1 1 1 0 1 1 1 1 1 1 
1 1 1 1 1 1 9489 3546 300 MP stroke
1 0 1 1 1 1 1 0 1 1 1 1 1 1 1 1 
1 1 1 0 1 1 1 1 1 1 1 0 1 1 1 1 
1 1 1 1 1 1 1 0 1 1 1 1 1 1 1 0 
1 1 1 1 1 0 -1 0 2 2 1 1 1 0 1 1 
1 1 1 1 1 0 1 1 1 1 1 0 -1 0 2 2 
1 1 1 0 1 1 1 1 1 0 1 1 1 1 1 1 
1 0 -1 0 2 2 1 0 1 1 1 1 1 1 1 0 
1 1 1 1 1 1 1 0 -1 0 2 2 1 0 1 1 
1 1 1 1 1 0 1 1 1 1 1 0 1 1 0 1 
1 1 1 0 1 1 1 1 1 0 1 1 1 1 1 1 
1 0 1 1 1 1 1 1 1 1 1 1 1 0 1 1 
1 1 1 0 1 1 1 1 1 1 1 1 1 1 1 0 
1 1 1 1 1 1 1 0 1 1 1 1 1 0 -1 0 
2 2 1 1 1 0 1 1 1 1 1 1 1 0 1 1 
1 1 1 0 -1 0 2 2 1 1 1 0 1 1 1 1 
1 0 1 1 1 1 1 0 1 1 0 1 1 1 1 0 
1 1 1 1 1 0 1 1 1 1 1 1 1 0 1 1 
1 1 1 1 1 1 1 1 1 0 1 1 1 1 1 0 
1 1 1 1 1 1 1 1 1 1 1 0 1 1 1 1 
1 1 1 0 1 1 1 1 1 1 1 1 1 1 1 0 
1 1 1 1 1 0 1 1 1 1 1 1 1 1 1 1 
1 0 1 1 1 1 1 0 1 1 1 1 1 1 1 0 
1 1 1 1 1 1 1 1 1 1 1 0 1 1 1 1 
1 0 1 1 1 1 1 1 1 1 1 1 1 0 1 1 
1 1 1 0 1 1 1 1 1 1 1 1 1 1 1 0 
1 1 1 1 1 1 1 0 1 1 1 1 1 0 -1 0 
2 2 1 0 1 1 1 1 1 1 1 0 1 1 1 1 
1 0 1 1 0 1 1 1 1 0 1 1 1 1 1 0 
1 1 1 1 1 0 1 1 1 1 1 1 1 1 1 1 
1 0 1 1 1 1 1 0 1 1 1 1 1 1 1 0 
-1 0 2 2 1 0 1 1 1 1 1 1 1 0 1 1 
1 1 1 0 1 1 1 1 1 1 1 1 1 1 1 0 
1 1 1 1 1 0 1 1 1 1 1 1 1 1 1 1 
1 0 1 1 1 1 1 0 1 1 1 1 1 0 -1 0 
2 2 1 1 1 0 1 1 1 1 1 0 1 1 1 1 
1 0 1 1 0 1 1 1 1 0 1 1 1 1 1 0 
1 1 1 1 1 0 1 1 1 1 1 1 1 1 1 1 
1 0 1 1 1 1 9203 3323 300 MP stroke
1 0 1 1 1 1 1 1 1 1 1 1 1 0 1 1 
1 1 1 0 1 1 1 1 1 1 1 0 1 1 1 1 
1 1 1 1 1 0 1 1 1 1 1 0 1 1 1 1 
1 1 1 1 1 1 1 0 1 1 1 1 1 0 1 1 
1 1 1 1 1 0 -1 0 2 2 1 0 1 1 1 1 
1 0 1 1 1 1 1 0 1 1 1 1 1 1 1 1 
1 1 1 0 1 1 1 1 1 0 1 1 1 1 1 0 
-1 0 2 2 1 1 1 0 1 1 1 1 1 0 1 1 
1 1 1 0 1 1 1 1 1 1 1 1 1 1 1 0 
1 1 1 1 1 0 1 1 1 1 1 1 1 1 1 0 
1 1 1 1 1 1 1 0 1 1 1 1 1 0 1 1 
1 1 1 1 1 1 1 0 1 1 1 1 1 0 1 1 
1 1 1 1 1 1 1 1 1 0 1 1 1 1 1 0 
1 1 1 1 1 0 1 1 0 1 1 1 1 0 1 1 
1 1 1 0 1 1 1 1 1 0 1 1 1 1 1 1 
1 1 1 0 1 1 1 1 1 1 1 0 1 1 1 1 
1 0 -1 0 2 2 1 0 1 1 1 1 1 0 1 1 
1 1 1 0 1 1 1 1 1 1 1 1 1 1 1 0 
1 1 1 1 1 0 1 1 1 1 1 0 -1 0 2 2 
1 0 1 1 1 1 1 0 1 1 1 1 1 1 1 0 
1 1 1 1 1 1 1 1 1 0 1 1 1 1 1 0 
1 1 1 1 1 0 1 1 1 1 1 1 1 1 1 0 
1 1 1 1 1 1 1 0 1 1 1 1 1 1 1 1 
1 0 1 1 1 1 1 0 1 1 1 1 1 0 1 1 
1 1 1 1 1 1 1 0 1 1 1 1 1 1 1 0 
1 1 1 1 1 1 1 1 1 0 1 1 1 1 1 0 
1 1 1 1 1 0 1 1 1 1 1 1 1 1 1 0 
1 1 1 1 1 0 1 1 1 1 1 1 1 0 -1 0 
2 2 1 0 1 1 1 1 1 0 1 1 1 1 1 0 
1 1 1 1 1 1 1 1 1 0 1 1 1 1 1 0 
1 1 1 1 1 0 1 1 1 1 1 1 1 1 1 0 
1 1 1 1 1 0 1 1 1 1 1 1 1 1 1 1 
1 0 1 1 1 1 1 0 1 1 1 1 1 0 1 1 
1 1 1 1 1 1 1 0 1 1 1 1 1 0 1 1 
1 1 1 0 -1 0 2 2 1 0 1 1 1 1 1 0 
1 1 1 1 1 0 1 1 1 1 1 1 1 1 1 0 
1 1 1 1 1 0 1 1 1 1 1 0 1 1 1 1 
1 1 1 1 1 1 8911 3103 300 MP stroke
1 0 1 1 1 1 1 0 1 1 1 1 1 0 -1 0 
2 2 1 0 1 1 1 1 1 0 1 1 1 1 1 0 
1 1 1 1 1 1 1 1 1 0 1 1 1 1 1 0 
1 1 1 1 1 0 1 1 1 1 1 1 1 1 1 0 
1 1 1 1 1 0 1 1 1 1 1 0 -1 0 2 2 
1 0 1 1 1 1 1 0 1 1 1 1 1 0 1 1 
1 1 1 1 1 1 1 0 1 1 1 1 1 0 1 1 
1 1 1 0 1 1 1 1 1 1 1 1 1 0 1 1 
1 1 1 0 1 1 1 1 1 0 1 1 1 1 1 1 
1 1 1 0 1 1 1 1 1 0 1 1 1 1 1 0 
-1 0 2 2 1 0 1 1 1 1 1 0 1 1 1 1 
1 0 1 1 1 1 1 1 1 1 1 0 1 1 1 1 
1 0 1 1 1 1 1 0 1 1 1 1 1 1 1 1 
1 0 1 1 1 1 1 0 1 1 1 0 1 1 1 1 
1 1 1 1 1 0 1 1 1 1 1 0 1 1 1 1 
1 0 -1 0 2 2 1 0 1 1 1 1 1 0 1 1 
1 1 1 0 1 1 1 1 1 1 1 1 1 0 1 1 
1 1 1 0 1 1 1 1 1 0 1 1 1 1 1 1 
1 1 1 0 1 1 1 1 1 0 1 1 1 1 1 0 
1 1 1 1 1 1 1 0 1 1 1 1 1 0 1 1 
1 1 1 0 1 1 1 1 1 1 1 1 1 0 1 1 
1 1 1 0 1 1 1 1 1 0 -1 0 2 2 1 0 
1 1 1 1 1 0 1 1 1 1 1 0 1 1 1 1 
1 1 1 0 1 1 1 1 1 0 1 1 1 1 1 0 
1 1 1 1 1 1 1 1 1 0 1 1 1 1 1 0 
1 1 1 1 1 0 1 1 1 1 1 1 1 1 1 0 
1 1 1 0 1 1 1 1 1 0 1 1 1 1 1 1 
1 1 1 0 1 1 1 1 1 0 1 1 1 1 1 0 
1 1 1 1 1 1 1 1 1 0 1 1 1 0 1 1 
1 1 1 0 1 1 1 1 1 1 1 1 1 0 1 1 
1 1 1 0 1 1 1 1 1 0 -1 0 2 2 1 0 
1 1 1 0 1 1 1 1 1 0 1 1 1 1 1 0 
-1 0 2 2 1 0 1 1 1 1 1 0 1 1 1 1 
1 0 1 1 1 0 -1 0 2 2 1 0 1 1 1 1 
1 0 1 1 1 1 1 0 1 1 1 1 1 0 -1 0 
2 2 1 0 1 1 1 0 1 1 1 1 1 0 1 1 
1 1 1 0 -1 0 2 2 1 0 1 1 1 1 1 0 
1 1 1 1 1 0 8622 2895 300 MP stroke
1 1 1 0 -1 0 2 2 1 0 1 1 1 1 1 0 
1 1 1 1 1 0 1 1 1 1 1 1 1 0 1 1 
1 1 1 0 1 1 1 1 1 0 1 1 1 1 1 1 
1 1 1 0 1 1 1 0 1 1 1 1 1 0 1 1 
1 1 1 1 1 1 1 0 1 1 1 1 1 0 1 1 
1 0 1 1 1 1 1 1 1 1 1 0 1 1 1 1 
1 0 1 1 1 1 1 0 1 1 1 0 -1 0 2 2 
1 0 1 1 1 1 1 0 1 1 1 1 1 0 1 1 
1 0 -1 0 2 2 1 0 1 1 1 1 1 0 1 1 
1 1 1 0 1 1 1 1 1 1 1 0 1 1 1 1 
1 0 1 1 1 1 1 0 1 1 1 1 1 1 1 0 
1 1 1 1 1 0 1 1 1 1 1 0 1 1 1 1 
1 1 1 0 1 1 1 1 1 0 1 1 1 1 1 0 
1 1 1 1 1 1 1 0 1 1 1 1 1 0 1 1 
1 1 1 0 1 1 1 1 1 1 1 0 1 1 1 1 
1 0 1 1 1 1 1 0 1 1 1 1 1 0 1 1 
1 1 1 1 1 0 1 1 1 1 1 0 1 1 1 0 
1 1 1 1 1 1 1 1 1 0 1 1 1 1 1 0 
1 1 1 0 1 1 1 1 1 1 1 1 1 0 1 1 
1 0 1 1 1 1 1 0 1 1 1 1 1 1 1 1 
1 0 1 1 1 0 1 1 1 1 1 0 1 1 1 1 
1 1 1 0 1 1 1 1 1 0 1 1 1 1 1 0 
1 1 1 1 1 1 1 0 1 1 1 1 1 0 1 1 
1 1 1 0 1 1 1 0 -1 0 2 2 1 0 1 1 
1 1 1 0 1 1 1 0 1 1 1 1 1 0 -1 0 
2 2 1 0 1 1 1 0 1 1 1 1 1 0 1 1 
1 1 1 0 1 1 1 1 1 1 1 0 1 1 1 1 
1 0 1 1 1 0 1 1 1 1 1 1 1 1 1 0 
1 1 1 0 1 1 1 1 1 0 1 1 1 1 1 1 
1 0 1 1 1 1 1 0 1 1 1 1 1 0 1 1 
1 1 1 1 1 0 1 1 1 1 1 0 1 1 1 0 
1 1 1 1 1 1 1 1 1 0 1 1 1 0 1 1 
1 1 1 0 1 1 1 1 1 0 1 1 1 1 1 1 
1 0 1 1 1 1 1 0 1 1 1 0 1 1 1 1 
1 1 1 0 1 1 1 1 1 0 1 1 1 1 1 0 
1 1 1 1 1 1 1 0 1 1 1 1 1 0 1 1 
1 0 1 1 1 1 1 1 1 1 1 0 1 1 1 0 
1 1 1 1 1 0 8328 2691 300 MP stroke
1 1 1 0 -1 0 2 2 1 0 1 1 1 1 1 0 
1 1 1 0 1 1 1 1 1 0 1 1 1 1 1 1 
1 0 1 1 1 1 1 0 1 1 1 0 1 1 1 1 
1 1 1 1 1 0 1 1 1 0 1 1 1 1 1 0 
1 1 1 0 -1 0 2 2 1 0 1 1 1 1 1 0 
1 1 1 0 1 1 1 1 1 0 1 1 1 1 1 1 
1 0 1 1 1 0 1 1 1 1 1 0 1 1 1 1 
1 1 1 0 1 1 1 1 1 0 1 1 1 0 1 1 
1 1 1 1 1 1 1 0 1 1 1 0 1 1 1 1 
1 0 1 1 1 0 -1 0 2 2 1 0 1 1 1 0 
1 1 1 1 1 0 1 1 1 1 1 0 1 1 1 1 
1 1 1 0 1 1 1 0 1 1 1 1 1 0 1 1 
1 1 1 1 1 0 1 1 1 1 1 0 1 1 1 0 
1 1 1 1 1 0 1 1 1 1 1 1 1 0 1 1 
1 0 1 1 1 1 1 0 1 1 1 1 1 1 1 0 
1 1 1 1 1 0 1 1 1 0 1 1 1 1 1 1 
1 0 1 1 1 1 1 0 1 1 1 0 1 1 1 1 
1 0 1 1 1 1 1 1 1 0 1 1 1 0 1 1 
1 1 1 0 1 1 1 1 1 1 1 0 1 1 1 1 
1 0 1 1 1 0 1 1 1 1 1 1 1 0 1 1 
1 1 1 0 1 1 1 0 1 1 1 1 1 0 1 1 
1 1 1 1 1 0 1 1 1 0 1 1 1 1 1 0 
1 1 1 0 -1 0 2 2 1 0 1 1 1 0 1 1 
1 1 1 0 1 1 1 0 1 1 1 1 1 1 1 0 
1 1 1 1 1 0 1 1 1 0 1 1 1 1 1 1 
1 0 1 1 1 1 1 0 1 1 1 0 1 1 1 1 
1 0 1 1 1 1 1 1 1 0 1 1 1 0 1 1 
1 1 1 0 1 1 1 1 1 1 1 0 1 1 1 0 
1 1 1 1 1 0 1 1 1 0 -1 0 2 2 1 0 
1 1 1 0 1 1 1 1 1 0 1 1 1 0 1 1 
1 1 1 1 1 0 1 1 1 1 1 0 1 1 1 0 
1 1 1 1 1 0 1 1 1 1 1 1 1 0 1 1 
1 0 1 1 1 1 1 0 1 1 1 1 1 1 1 0 
1 1 1 0 1 1 1 0 1 1 1 1 1 0 1 1 
1 1 1 1 1 0 1 1 1 0 1 1 1 1 1 0 
1 1 1 1 1 1 1 0 1 1 1 0 1 1 1 1 
1 0 1 1 1 0 1 1 1 1 1 1 1 0 1 1 
1 0 1 1 1 1 8034 2495 300 MP stroke
1 0 1 1 1 1 1 1 1 0 1 1 1 0 1 1 
1 1 1 0 1 1 1 0 1 1 1 1 1 1 1 0 
1 1 1 0 1 1 1 1 1 0 1 1 1 0 -1 0 
2 2 1 0 1 1 1 0 1 1 1 1 1 0 1 1 
1 0 1 1 1 1 1 1 1 0 1 1 1 0 1 1 
1 1 1 0 1 1 1 0 -1 0 2 2 1 0 1 1 
1 0 1 1 1 0 1 1 1 1 1 0 1 1 1 1 
1 1 1 0 1 1 1 0 1 1 1 1 1 0 1 1 
1 0 1 1 1 1 1 1 1 0 1 1 1 0 1 1 
1 1 1 0 1 1 1 1 1 0 1 1 1 1 1 0 
1 1 1 0 1 1 1 1 1 0 1 1 1 1 1 0 
1 1 1 1 1 0 1 1 1 0 1 1 1 1 1 0 
1 1 1 1 1 0 1 1 1 1 1 0 1 1 1 0 
1 1 1 1 1 1 1 0 1 1 1 0 1 1 1 1 
1 0 1 1 1 0 1 1 1 1 1 1 1 0 1 1 
1 0 1 1 1 1 1 0 1 1 1 0 -1 0 2 2 
1 0 1 1 1 0 1 1 1 0 1 1 1 1 1 0 
1 1 1 1 1 0 1 1 1 1 1 0 1 1 1 0 
1 1 1 1 1 0 1 1 1 1 1 0 1 1 1 1 
1 0 1 1 1 0 1 1 1 0 1 1 1 1 1 1 
1 0 1 1 1 0 1 1 1 1 1 0 1 1 1 0 
-1 0 2 2 1 0 1 1 1 0 1 1 1 0 1 1 
1 1 1 0 1 1 1 1 1 0 1 1 1 1 1 0 
1 1 1 0 1 1 1 0 1 1 1 1 1 1 1 0 
1 1 1 0 1 1 1 1 1 0 1 1 1 0 -1 0 
2 2 1 0 1 1 1 0 1 1 1 0 1 1 1 1 
1 0 1 1 1 1 1 0 1 1 1 1 1 0 1 1 
1 0 1 1 1 0 1 1 1 1 1 1 1 0 1 1 
1 0 1 1 1 1 1 0 1 1 1 0 1 1 1 1 
1 1 1 0 1 1 1 0 1 1 1 0 1 1 1 1 
1 0 1 1 1 1 1 0 1 1 1 1 1 0 1 1 
1 0 1 1 1 0 -1 0 2 2 1 0 1 1 1 0 
1 1 1 0 1 1 1 0 1 1 1 1 1 1 1 0 
1 1 1 0 1 1 1 1 1 0 1 1 1 0 1 1 
1 1 1 1 1 0 1 1 1 0 1 1 1 0 1 1 
1 1 1 0 1 1 1 1 1 0 1 1 1 1 1 0 
1 1 1 0 1 1 1 0 1 1 1 1 1 1 1 0 
1 1 1 0 1 1 7741 2309 300 MP stroke
1 0 1 1 1 1 1 0 1 1 1 1 1 0 1 1 
1 1 1 0 1 1 1 0 1 1 1 0 1 1 1 1 
1 1 1 0 1 1 1 0 1 1 1 0 1 1 1 1 
1 1 1 0 1 1 1 0 1 1 1 0 1 1 1 1 
1 0 1 1 1 1 1 0 1 1 1 1 1 0 1 1 
1 0 1 1 1 0 1 1 1 1 1 1 1 0 1 1 
1 0 1 1 1 0 1 1 1 0 1 1 1 1 1 1 
1 0 1 1 1 0 1 1 1 1 1 0 1 1 1 0 
1 1 1 1 1 0 1 1 1 1 1 0 1 1 1 0 
1 1 1 0 1 1 1 1 1 1 1 0 1 1 1 0 
1 1 1 0 1 1 1 0 1 1 1 1 1 1 1 0 
1 1 1 0 1 1 1 1 1 0 1 1 1 0 1 1 
1 1 1 0 1 1 1 1 1 0 1 1 1 0 1 1 
1 0 1 1 1 1 1 1 1 0 1 1 1 0 1 1 
1 0 1 1 1 0 -1 0 2 2 1 0 1 1 1 0 
1 1 1 0 1 1 1 0 1 1 1 0 1 1 1 1 
1 1 1 0 1 1 1 0 1 1 1 0 1 1 1 1 
1 0 1 1 1 1 1 0 1 1 1 0 1 1 1 1 
1 0 1 1 1 0 1 1 1 1 1 0 1 1 1 1 
1 0 1 1 1 0 1 1 1 0 1 1 1 1 1 0 
1 1 1 1 1 0 1 1 1 0 1 1 1 0 1 1 
1 1 1 1 1 0 1 1 1 0 1 1 1 0 1 1 
1 0 1 1 1 1 1 1 1 0 1 1 1 0 1 1 
1 0 1 1 1 0 1 1 1 1 1 1 1 0 1 1 
1 0 1 1 1 0 1 1 1 0 1 1 1 1 1 1 
1 0 1 1 1 0 1 1 1 0 1 1 1 0 1 1 
1 1 1 1 1 0 1 1 1 0 1 1 1 0 1 1 
1 0 1 1 1 1 1 1 1 0 1 1 1 0 1 1 
1 0 1 1 1 0 1 1 1 1 1 1 1 0 1 1 
1 0 1 1 1 0 1 1 1 0 1 1 1 1 1 1 
1 0 1 1 1 0 1 1 1 0 1 1 1 0 1 1 
1 1 1 1 1 0 1 1 1 0 1 1 1 0 1 1 
1 0 1 1 1 1 1 1 1 0 1 1 1 0 1 1 
1 0 1 1 1 0 1 1 1 0 1 1 1 1 1 1 
1 0 1 1 1 0 1 1 1 0 1 1 1 0 1 1 
1 1 1 0 1 1 1 1 1 0 1 1 1 0 1 1 
1 0 1 1 1 1 1 0 1 1 1 1 1 0 1 1 
1 0 1 1 1 0 7443 2129 300 MP stroke
1 1 1 1 1 0 1 1 1 0 1 1 1 0 1 1 
1 1 1 0 1 1 1 1 1 0 1 1 1 0 1 1 
1 0 1 1 1 0 1 1 1 1 1 1 1 0 1 1 
1 0 1 1 1 0 1 1 1 0 1 1 1 0 -1 0 
2 2 1 0 1 1 1 0 1 1 1 0 1 1 1 0 
1 1 1 0 1 1 1 1 1 0 1 1 1 1 1 0 
1 1 1 0 1 1 1 0 1 1 1 1 1 0 1 1 
1 0 1 1 1 0 1 1 1 1 1 0 1 1 1 1 
1 0 1 1 1 0 1 1 1 0 1 1 1 0 1 1 
1 1 1 0 1 1 1 1 1 0 1 1 1 0 1 1 
1 0 1 1 1 1 1 0 1 1 1 0 1 1 1 0 
1 1 1 1 1 0 1 1 1 1 1 0 1 1 1 0 
1 1 1 0 1 1 1 0 1 1 1 0 1 1 1 1 
1 1 1 0 1 1 1 0 1 1 1 0 1 1 1 0 
1 1 1 1 1 0 1 1 1 0 1 1 1 0 1 1 
1 0 1 1 1 1 1 1 1 0 1 1 1 0 1 1 
1 0 1 1 1 0 1 1 1 0 1 1 1 1 1 0 
1 1 1 0 1 1 1 1 1 0 1 1 1 0 1 1 
1 1 1 0 1 1 1 0 1 1 1 0 1 1 1 0 
1 1 1 1 1 0 1 1 1 0 1 1 1 1 1 0 
1 1 1 0 1 1 1 1 1 0 1 1 1 0 1 1 
1 0 1 1 1 0 1 1 1 0 1 1 1 1 1 0 
1 1 1 1 1 0 1 1 1 0 1 1 1 0 1 1 
1 1 1 0 1 1 1 0 1 1 1 0 1 1 1 0 
1 1 1 0 1 1 1 1 1 0 1 1 1 0 1 1 
1 1 1 0 1 1 1 0 1 1 1 1 1 0 1 1 
1 0 1 1 1 0 1 1 1 0 1 1 1 1 1 0 
1 1 1 0 1 1 1 0 1 1 1 0 1 1 1 1 
1 1 1 0 1 1 1 0 1 1 1 0 1 1 1 0 
1 1 1 0 1 1 1 1 1 0 1 1 1 0 1 1 
1 0 1 1 1 0 1 1 1 0 1 1 1 1 1 0 
1 1 1 0 1 1 1 1 1 0 1 1 1 0 1 1 
1 1 1 0 1 1 1 0 1 1 1 0 1 1 1 0 
1 1 1 1 1 0 1 1 1 0 1 1 1 0 1 1 
1 0 1 1 1 0 1 1 1 1 1 0 1 1 1 0 
1 1 1 0 1 1 1 0 1 1 1 1 1 1 1 0 
1 1 1 0 1 1 1 0 1 1 1 0 1 1 1 1 
1 0 1 1 1 0 7145 1957 300 MP stroke
1 1 1 0 1 1 1 0 1 1 1 0 1 1 1 1 
1 0 1 1 1 0 1 1 1 0 1 1 1 0 1 1 
1 0 1 1 1 1 1 0 1 1 1 0 1 1 1 0 
1 1 1 0 1 1 1 1 1 0 1 1 1 1 1 0 
1 1 1 0 1 1 1 0 1 1 1 1 1 0 1 1 
1 0 1 1 1 0 1 1 1 0 1 1 1 0 1 1 
1 1 1 0 1 1 1 0 1 1 1 0 1 1 1 0 
1 1 1 1 1 0 1 1 1 0 1 1 1 0 1 1 
1 0 1 1 1 0 1 1 1 1 1 0 1 1 1 0 
1 1 1 0 1 1 1 0 1 1 1 0 1 1 1 1 
1 0 1 1 1 0 1 1 1 0 1 1 1 0 1 1 
1 1 1 0 1 1 1 0 1 1 1 0 1 1 1 0 
1 1 1 0 1 1 1 1 1 0 1 1 1 0 1 1 
1 0 1 1 1 0 1 1 1 1 1 0 1 1 1 0 
1 1 1 0 1 1 1 0 1 1 1 0 1 1 1 1 
1 0 1 1 1 0 1 1 1 0 1 1 1 0 1 1 
1 1 1 0 1 1 1 0 1 1 1 0 1 1 1 0 
1 1 1 0 1 1 1 1 1 0 1 1 1 0 1 1 
1 0 1 1 1 0 1 1 1 0 1 1 1 1 1 0 
1 1 1 0 1 1 1 0 1 1 1 0 1 1 1 1 
1 0 1 1 1 0 1 1 1 0 1 1 1 0 1 1 
1 0 1 1 1 1 1 0 1 1 1 0 1 1 1 0 
1 1 1 0 1 1 1 1 1 0 1 1 1 0 1 1 
1 0 1 1 1 0 1 1 1 0 1 1 1 1 1 0 
1 1 1 0 1 1 1 0 1 1 1 0 1 1 1 1 
1 0 1 1 1 0 1 1 1 0 1 1 1 0 1 0 
1 1 1 1 1 0 1 1 1 0 1 1 1 0 1 1 
1 0 1 1 1 0 1 1 1 1 1 0 1 1 1 0 
1 1 1 0 1 1 1 0 1 1 1 0 1 1 1 1 
1 0 1 1 1 0 1 1 1 0 1 1 1 0 1 1 
1 1 1 0 1 1 1 0 1 1 1 0 1 1 1 0 
1 1 1 0 1 1 1 1 1 0 1 0 1 1 1 0 
1 1 1 0 1 1 1 0 1 1 1 1 1 0 1 1 
1 0 1 1 1 0 1 1 1 0 1 1 1 1 1 0 
1 1 1 0 1 1 1 0 1 1 1 0 1 1 1 0 
1 1 1 1 1 0 1 1 1 0 1 0 1 1 1 0 
1 1 1 0 1 1 1 1 1 0 1 1 1 0 1 1 
1 0 1 1 1 0 6846 1794 300 MP stroke
1 1 1 0 1 1 1 1 1 0 1 1 1 0 1 1 
1 0 1 1 1 0 1 1 1 1 1 0 1 0 1 1 
1 0 1 1 1 0 1 1 1 0 1 1 1 1 1 0 
1 1 1 0 1 1 1 0 1 1 1 0 1 1 1 0 
1 1 1 1 1 0 1 1 1 0 1 1 1 0 1 0 
1 1 1 0 1 1 1 1 1 0 1 1 1 0 1 1 
1 0 1 1 1 0 1 1 1 0 1 1 1 1 1 0 
1 1 1 0 1 1 1 0 1 0 1 1 1 0 1 1 
1 1 1 0 1 1 1 0 1 1 1 0 1 1 1 0 
1 1 1 1 1 0 1 1 1 0 1 1 1 0 1 1 
1 0 1 0 1 1 1 1 1 0 1 1 1 0 1 1 
1 0 1 1 1 0 1 1 1 0 1 1 1 1 1 0 
1 1 1 0 1 1 1 0 1 0 1 1 1 0 1 1 
1 1 1 0 1 1 1 0 1 1 1 0 1 1 1 0 
1 1 1 1 1 0 1 1 1 0 1 0 1 1 1 0 
1 1 1 0 1 1 1 0 1 1 1 1 1 0 1 1 
1 0 1 1 1 0 1 1 1 0 1 0 1 1 1 1 
1 0 1 1 1 0 1 1 1 0 1 1 1 0 1 1 
1 1 1 0 1 1 1 0 1 0 1 1 1 0 1 1 
1 0 1 1 1 1 1 0 1 1 1 0 1 1 1 0 
1 1 1 0 1 1 1 0 1 1 1 0 1 1 1 0 
1 1 1 0 1 1 1 0 1 1 1 0 1 1 1 1 
1 0 1 0 1 1 1 0 1 1 1 0 1 1 1 0 
1 1 1 1 1 0 1 1 1 0 1 1 1 0 1 0 
1 1 1 0 1 1 1 1 1 0 1 1 1 0 1 1 
1 0 1 1 1 0 1 1 1 0 1 1 1 0 1 1 
1 0 1 1 1 0 1 1 1 0 1 1 1 0 1 1 
1 1 1 0 1 0 1 1 1 0 1 1 1 0 1 1 
1 0 1 1 1 1 1 0 1 1 1 0 1 0 1 1 
1 0 1 1 1 0 1 1 1 1 1 0 1 1 1 0 
1 1 1 0 1 0 1 1 1 0 1 1 1 1 1 0 
1 1 1 0 1 1 1 0 1 1 1 0 1 0 1 1 
1 1 1 0 1 1 1 0 1 1 1 0 1 1 1 0 
1 1 1 0 1 1 1 0 1 1 1 0 1 1 1 0 
1 1 1 0 1 1 1 0 1 1 1 0 1 1 1 0 
1 1 1 0 1 1 1 0 1 1 1 0 1 1 1 0 
1 1 1 0 1 1 1 0 1 1 1 0 1 1 1 0 
1 1 1 0 1 1 6547 1639 300 MP stroke
1 0 1 1 1 0 1 1 1 0 1 1 1 0 1 1 
1 0 1 1 1 0 1 1 1 0 1 1 1 0 1 1 
1 0 1 1 1 0 1 1 1 0 1 1 1 0 1 1 
1 0 1 1 1 0 1 1 1 0 1 1 1 0 1 1 
1 0 1 1 1 0 1 1 1 0 1 1 1 0 1 1 
1 0 1 1 1 0 1 1 1 0 1 1 1 0 1 1 
1 0 1 1 1 0 1 1 1 0 1 1 1 0 1 1 
1 0 1 1 1 0 1 1 1 0 1 1 1 0 1 1 
1 0 1 1 1 0 1 0 1 1 1 1 1 0 1 1 
1 0 1 1 1 0 1 1 1 0 1 0 1 1 1 1 
1 0 1 1 1 0 1 1 1 0 1 0 1 1 1 0 
1 1 1 1 1 0 1 1 1 0 1 0 1 1 1 0 
1 1 1 0 1 1 1 1 1 0 1 1 1 0 1 0 
1 1 1 0 1 1 1 0 1 1 1 1 1 0 1 0 
1 1 1 0 1 1 1 0 1 1 1 0 1 1 1 0 
1 1 1 0 1 1 1 0 1 1 1 0 1 1 1 0 
1 0 1 1 1 1 1 0 1 1 1 0 1 1 1 0 
1 0 1 1 1 0 1 1 1 1 1 0 1 1 1 0 
1 0 1 1 1 0 1 1 1 0 1 1 1 1 1 0 
1 0 1 1 1 0 1 1 1 0 1 1 1 0 1 1 
1 0 1 1 1 0 1 1 1 0 1 1 1 0 1 0 
1 1 1 0 1 1 1 1 1 0 1 1 1 0 1 0 
1 1 1 0 1 1 1 0 1 1 1 1 1 0 1 0 
1 1 1 0 1 1 1 0 1 1 1 0 1 1 1 0 
1 1 1 0 1 1 1 0 1 1 1 0 1 0 1 1 
1 1 1 0 1 1 1 0 1 1 1 0 1 0 1 1 
1 0 1 1 1 1 1 0 1 0 1 1 1 0 1 1 
1 0 1 1 1 0 1 1 1 0 1 1 1 0 1 1 
1 0 1 1 1 0 1 0 1 1 1 0 1 1 1 1 
1 0 1 0 1 1 1 0 1 1 1 0 1 1 1 0 
1 1 1 0 1 1 1 0 1 1 1 0 1 1 1 0 
1 0 1 1 1 0 1 1 1 1 1 0 1 0 1 1 
1 0 1 1 1 0 1 1 1 0 1 1 1 0 1 1 
1 0 1 1 1 0 1 1 1 0 1 0 1 1 1 1 
1 0 1 1 1 0 1 0 1 1 1 0 1 1 1 0 
1 1 1 0 1 1 1 0 1 1 1 0 1 1 1 0 
1 0 1 1 1 0 1 1 1 1 1 0 1 0 1 1 
1 0 1 1 1 0 6248 1494 300 MP stroke
1 1 1 0 1 0 1 1 1 1 1 0 1 1 1 0 
1 0 1 1 1 0 1 1 1 0 1 1 1 0 1 1 
1 0 1 1 1 0 1 1 1 0 1 0 1 1 1 1 
1 0 1 1 1 0 1 0 1 1 1 0 1 1 1 0 
1 1 1 0 1 1 1 0 1 1 1 0 1 1 1 0 
1 0 1 1 1 0 1 1 1 1 1 0 1 0 1 1 
1 0 1 1 1 0 1 1 1 0 1 1 1 0 1 1 
1 0 1 0 1 1 1 0 1 1 1 0 1 1 1 0 
1 1 1 0 1 1 1 0 1 1 1 0 1 0 1 1 
1 0 1 1 1 1 1 0 1 0 1 1 1 0 1 1 
1 0 1 0 1 1 1 0 1 1 1 1 1 0 1 0 
1 1 1 0 1 1 1 0 1 1 1 0 1 1 1 0 
1 1 1 0 1 0 1 1 1 0 1 1 1 0 1 1 
1 0 1 1 1 0 1 1 1 0 1 1 1 0 1 0 
1 1 1 0 1 1 1 0 1 1 1 0 1 1 1 0 
1 1 1 0 1 0 1 1 1 1 1 0 1 0 1 1 
1 0 1 1 1 0 1 1 1 0 1 0 1 1 1 1 
1 0 1 0 1 1 1 0 1 1 1 0 1 1 1 0 
1 0 1 1 1 1 1 0 1 0 1 1 1 0 1 1 
1 0 1 1 1 0 1 1 1 0 1 1 1 0 1 0 
1 1 1 0 1 1 1 0 1 1 1 0 1 1 1 0 
1 1 1 0 1 0 1 1 1 0 1 1 1 0 1 1 
1 0 1 1 1 0 1 1 1 0 1 0 1 1 1 0 
1 1 1 0 1 1 1 0 1 1 1 0 1 0 1 1 
1 0 1 1 1 0 1 1 1 0 1 1 1 0 1 1 
1 0 1 0 1 1 1 0 1 1 1 0 1 1 1 0 
1 1 1 0 1 1 1 0 1 0 1 1 1 0 1 1 
1 0 1 1 1 0 1 1 1 0 1 0 1 1 1 0 
1 1 1 0 1 1 1 0 1 1 1 0 1 1 1 0 
1 0 1 1 1 0 1 1 1 0 1 1 1 0 1 1 
1 0 1 0 1 1 1 0 1 1 1 0 1 1 1 0 
1 1 1 0 1 1 1 0 1 0 1 1 1 0 1 1 
1 0 1 1 1 0 1 1 1 0 1 0 1 1 1 0 
1 1 1 0 1 1 1 0 1 1 1 0 1 0 1 1 
1 0 1 1 1 0 1 0 1 1 1 1 1 0 1 0 
1 1 1 0 1 1 1 0 1 0 1 1 1 0 1 1 
1 0 1 1 1 0 1 1 1 0 1 1 1 0 1 0 
1 1 1 1 1 0 5949 1357 300 MP stroke
1 0 1 1 1 0 1 1 1 0 1 0 1 1 1 0 
1 1 1 0 1 1 1 0 1 1 1 0 1 0 1 1 
1 0 1 1 1 0 1 1 1 0 1 1 1 0 1 0 
1 1 1 0 1 1 1 0 1 1 1 0 1 1 1 0 
1 0 1 1 1 0 1 1 1 0 1 0 1 1 1 1 
1 0 1 0 1 1 1 0 1 1 1 0 1 0 1 1 
1 0 1 1 1 0 1 1 1 0 1 1 1 0 1 0 
1 1 1 0 1 0 1 1 1 1 1 0 1 0 1 1 
1 0 1 1 1 0 1 0 1 1 1 1 1 0 1 0 
1 1 1 0 1 1 1 0 1 0 1 1 1 0 1 1 
1 0 1 1 1 0 1 1 1 0 1 0 1 1 1 0 
1 1 1 0 1 1 1 0 1 1 1 0 1 0 1 1 
1 0 1 0 1 1 1 1 1 0 1 0 1 1 1 0 
1 1 1 0 1 0 1 1 1 0 1 1 1 0 1 1 
1 0 1 1 1 0 1 0 1 1 1 0 1 0 1 1 
1 1 1 0 1 0 1 1 1 0 1 1 1 0 1 0 
1 1 1 0 1 1 1 0 1 1 1 0 1 1 1 0 
1 0 1 1 1 0 1 0 1 1 1 1 1 0 1 0 
1 1 1 0 1 1 1 0 1 0 1 1 1 1 1 0 
1 0 1 1 1 0 1 0 1 1 1 0 1 1 1 0 
1 1 1 0 1 1 1 0 1 0 1 1 1 0 1 1 
1 0 1 0 1 1 1 0 1 1 1 0 1 1 1 0 
1 0 1 1 1 0 1 1 1 0 1 1 1 0 1 0 
1 1 1 0 1 1 1 0 1 0 1 1 1 0 1 1 
1 0 1 1 1 0 1 0 1 1 1 0 1 1 1 0 
1 0 1 1 1 1 1 0 1 0 1 1 1 0 1 0 
1 1 1 0 1 1 1 0 1 1 1 0 1 1 1 0 
1 0 1 1 1 0 1 0 1 1 1 1 1 0 1 0 
1 1 1 0 1 0 1 1 1 0 1 1 1 0 1 1 
1 0 1 1 1 0 1 0 1 1 1 0 1 0 1 1 
1 0 1 1 1 0 1 1 1 0 1 0 1 1 1 0 
1 1 1 0 1 0 1 1 1 0 1 1 1 0 1 1 
1 0 1 0 1 1 1 0 1 1 1 0 1 1 1 0 
1 0 1 1 1 0 1 1 1 0 1 0 1 1 1 0 
1 1 1 0 1 1 1 0 1 0 1 1 1 0 1 0 
1 1 1 0 1 1 1 0 1 1 1 0 1 0 1 1 
1 0 1 1 1 0 1 0 1 1 1 0 1 1 1 0 
1 1 1 0 1 0 5650 1230 300 MP stroke
1 1 1 0 1 0 1 1 1 1 1 0 1 0 1 1 
1 0 1 0 1 1 1 0 1 1 1 0 1 1 1 0 
1 0 1 1 1 0 1 1 1 0 1 0 1 1 1 0 
1 1 1 0 1 1 1 0 1 0 1 1 1 0 1 0 
1 1 1 0 1 1 1 0 1 1 1 0 1 0 1 1 
1 0 1 1 1 0 1 0 1 1 1 0 1 1 1 0 
1 0 1 1 1 0 1 1 1 0 1 0 1 1 1 0 
1 1 1 0 1 1 1 0 1 0 1 1 1 0 1 0 
1 1 1 0 1 1 1 0 1 1 1 0 1 0 1 1 
1 0 1 0 1 1 1 1 1 0 1 0 1 1 1 0 
1 0 1 1 1 0 1 0 1 1 1 1 1 0 1 0 
1 1 1 0 1 0 1 1 1 0 1 1 1 0 1 1 
1 0 1 0 1 1 1 0 1 0 1 1 1 0 1 1 
1 0 1 1 1 0 1 0 1 1 1 0 1 0 1 1 
1 0 1 1 1 0 1 1 1 0 1 0 1 1 1 0 
1 0 1 1 1 0 1 1 1 0 1 1 1 0 1 0 
1 1 1 0 1 0 1 1 1 0 1 1 1 0 1 1 
1 0 1 0 1 1 1 0 1 0 1 1 1 0 1 1 
1 0 1 1 1 0 1 0 1 1 1 0 1 0 1 1 
1 0 1 1 1 0 1 0 1 1 1 0 1 1 1 0 
1 0 1 1 1 0 1 0 1 1 1 0 1 1 1 0 
1 1 1 0 1 0 1 1 1 0 1 0 1 1 1 0 
1 1 1 0 1 1 1 0 1 0 1 1 1 0 1 0 
1 1 1 0 1 1 1 0 1 1 1 0 1 0 1 1 
1 0 1 0 1 1 1 0 1 1 1 0 1 0 1 1 
1 0 1 1 1 0 1 0 1 1 1 0 1 1 1 0 
1 0 1 1 1 0 1 0 1 1 1 0 1 1 1 0 
1 1 1 0 1 0 1 1 1 0 1 0 1 1 1 0 
1 0 1 1 1 0 1 1 1 0 1 1 1 0 1 0 
1 1 1 0 1 0 1 1 1 0 1 1 1 0 1 0 
1 1 1 0 1 0 1 1 1 0 1 1 1 0 1 1 
1 0 1 0 1 1 1 0 1 0 1 1 1 0 1 0 
1 1 1 0 1 1 1 0 1 1 1 0 1 0 1 1 
1 0 1 0 1 1 1 0 1 1 1 0 1 0 1 1 
1 0 1 0 1 1 1 0 1 0 1 1 1 1 1 0 
1 0 1 1 1 0 1 0 1 1 1 0 1 0 1 1 
1 0 1 1 1 0 1 0 1 1 1 0 1 0 1 1 
1 0 1 1 1 0 5351 1111 300 MP stroke
1 1 1 0 1 0 1 1 1 0 1 0 1 1 1 0 
1 0 1 1 1 0 1 1 1 0 1 0 1 1 1 0 
1 0 1 1 1 0 1 1 1 0 1 1 1 0 1 0 
1 1 1 0 1 0 1 1 1 0 1 1 1 0 1 0 
1 1 1 0 1 0 1 1 1 0 1 0 1 1 1 0 
1 1 1 0 1 0 1 1 1 0 1 0 1 1 1 0 
1 1 1 0 1 1 1 0 1 0 1 1 1 0 1 0 
1 1 1 0 1 0 1 1 1 0 1 1 1 0 1 0 
1 1 1 0 1 0 1 1 1 0 1 0 1 1 1 0 
1 1 1 0 1 0 1 1 1 0 1 0 1 1 1 0 
1 1 1 0 1 1 1 0 1 0 1 1 1 0 1 0 
1 1 1 0 1 1 1 0 1 0 1 1 1 0 1 0 
1 1 1 0 1 0 1 1 1 0 1 1 1 0 1 0 
1 1 1 0 1 0 1 1 1 0 1 0 1 1 1 0 
1 1 1 0 1 0 1 1 1 0 1 0 1 1 1 0 
1 1 1 0 1 0 1 1 1 0 1 0 1 1 1 0 
1 0 1 1 1 0 1 1 1 0 1 0 1 1 1 0 
1 0 1 1 1 0 1 0 1 1 1 0 1 1 1 0 
1 0 1 1 1 0 1 0 1 1 1 0 1 0 1 1 
1 0 1 1 1 0 1 0 1 1 1 0 1 0 1 1 
1 0 1 1 1 0 1 0 1 1 1 0 1 0 1 1 
1 0 1 0 1 1 1 0 1 1 1 0 1 0 1 1 
1 0 1 0 1 1 1 0 1 0 1 1 1 0 1 1 
1 0 1 0 1 1 1 0 1 0 1 1 1 0 1 1 
1 0 1 0 1 1 1 0 1 0 1 1 1 0 1 0 
1 1 1 0 1 1 1 0 1 0 1 1 1 0 1 0 
1 1 1 0 1 0 1 1 1 0 1 1 1 0 1 0 
1 1 1 0 1 0 1 1 1 0 1 0 1 1 1 0 
1 1 1 0 1 0 1 1 1 0 1 0 1 1 1 0 
1 1 1 0 1 0 1 0 1 1 1 0 1 0 1 1 
1 0 1 0 1 1 1 0 1 1 1 0 1 0 1 1 
1 0 1 0 1 1 1 0 1 1 1 0 1 0 1 1 
1 0 1 0 1 1 1 0 1 0 1 1 1 0 1 1 
1 0 1 0 1 1 1 0 1 0 1 0 1 1 1 0 
1 0 1 1 1 0 1 1 1 0 1 0 1 1 1 0 
1 0 1 1 1 0 1 1 1 0 1 0 1 1 1 0 
1 0 1 1 1 0 1 0 1 1 1 0 1 1 1 0 
1 0 1 0 1 1 5052 1001 300 MP stroke
1 0 1 0 1 1 1 0 1 1 1 0 1 0 1 1 
1 0 1 0 1 1 1 0 1 0 1 1 1 0 1 1 
1 0 1 0 1 1 1 0 1 0 1 0 1 1 1 0 
1 1 1 0 1 0 1 1 1 0 1 0 1 1 1 0 
1 0 1 1 1 0 1 1 1 0 1 0 1 1 1 0 
1 0 1 0 1 1 1 0 1 0 1 1 1 0 1 1 
1 0 1 0 1 1 1 0 1 0 1 1 1 0 1 1 
1 0 1 0 1 0 1 1 1 0 1 0 1 1 1 0 
1 0 1 1 1 0 1 1 1 0 1 0 1 1 1 0 
1 0 1 0 1 1 1 0 1 1 1 0 1 0 1 1 
1 0 1 0 1 1 1 0 1 0 1 1 1 0 1 0 
1 1 1 0 1 0 1 1 1 0 1 0 1 1 1 0 
1 1 1 0 1 0 1 1 1 0 1 0 1 0 1 1 
1 0 1 0 1 1 1 0 1 1 1 0 1 0 1 1 
1 0 1 0 1 1 1 0 1 0 1 1 1 0 1 0 
1 1 1 0 1 0 1 1 1 0 1 0 1 1 1 0 
1 0 1 1 1 0 1 0 1 1 1 0 1 0 1 1 
1 0 1 1 1 0 1 0 1 0 1 1 1 0 1 0 
1 1 1 0 1 1 1 0 1 0 1 1 1 0 1 0 
1 0 1 1 1 0 1 0 1 1 1 0 1 1 1 0 
1 0 1 1 1 0 1 0 1 0 1 1 1 0 1 1 
1 0 1 0 1 1 1 0 1 0 1 1 1 0 1 0 
1 0 1 1 1 0 1 1 1 0 1 0 1 1 1 0 
1 0 1 0 1 1 1 0 1 1 1 0 1 0 1 1 
1 0 1 0 1 0 1 1 1 0 1 1 1 0 1 0 
1 1 1 0 1 0 1 1 1 0 1 0 1 0 1 1 
1 0 1 1 1 0 1 0 1 1 1 0 1 0 1 0 
1 1 1 0 1 1 1 0 1 0 1 1 1 0 1 0 
1 0 1 1 1 0 1 1 1 0 1 0 1 1 1 0 
1 0 1 0 1 1 1 0 1 0 1 1 1 0 1 1 
1 0 1 0 1 0 1 1 1 0 1 0 1 1 1 0 
1 1 1 0 1 0 1 0 1 1 1 0 1 0 1 1 
1 0 1 0 1 1 1 0 1 0 1 1 1 0 1 0 
1 1 1 0 1 0 1 0 1 1 1 0 1 1 1 0 
1 0 1 1 1 0 1 0 1 0 1 1 1 0 1 1 
1 0 1 0 1 0 1 1 1 0 1 0 1 1 1 0 
1 1 1 0 1 0 1 0 1 1 1 0 1 0 1 1 
1 0 1 0 1 1 4753 900 300 MP stroke
1 0 1 0 1 1 1 0 1 0 1 1 1 0 1 0 
1 0 1 1 1 0 1 1 1 0 1 0 1 0 1 1 
1 0 1 0 1 1 1 0 1 0 1 1 1 0 1 0 
1 1 1 0 1 0 1 1 1 0 1 0 1 1 1 0 
1 0 1 1 1 0 1 0 1 0 1 1 1 0 1 0 
1 1 1 0 1 0 1 1 1 0 1 0 1 1 1 0 
1 0 1 0 1 1 1 0 1 1 1 0 1 0 1 1 
1 0 1 0 1 0 1 1 1 0 1 1 1 0 1 0 
1 0 1 1 1 0 1 0 1 1 1 0 1 0 1 1 
1 0 1 0 1 1 1 0 1 0 1 0 1 1 1 0 
1 0 1 1 1 0 1 0 1 1 1 0 1 0 1 1 
1 0 1 0 1 0 1 1 1 0 1 1 1 0 1 0 
1 0 1 1 1 0 1 0 1 1 1 0 1 0 1 1 
1 0 1 0 1 1 1 0 1 0 1 0 1 1 1 0 
1 1 1 0 1 0 1 0 1 1 1 0 1 0 1 0 
1 1 1 0 1 1 1 0 1 0 1 0 1 1 1 0 
1 0 1 1 1 0 1 0 1 1 1 0 1 0 1 1 
1 0 1 0 1 0 1 1 1 0 1 1 1 0 1 0 
1 0 1 1 1 0 1 0 1 0 1 1 1 0 1 0 
1 1 1 0 1 0 1 1 1 0 1 0 1 1 1 0 
1 0 1 0 1 1 1 0 1 1 1 0 1 0 1 0 
1 1 1 0 1 0 1 0 1 1 1 0 1 1 1 0 
1 0 1 0 1 1 1 0 1 0 1 0 1 1 1 0 
1 1 1 0 1 0 1 0 1 1 1 0 1 0 1 1 
1 0 1 0 1 1 1 0 1 0 1 0 1 1 1 0 
1 0 1 1 1 0 1 0 1 1 1 0 1 0 1 0 
1 1 1 0 1 0 1 1 1 0 1 0 1 1 1 0 
1 0 1 1 1 0 1 0 1 0 1 1 1 0 1 0 
1 1 1 0 1 0 1 1 1 0 1 0 1 0 1 1 
1 0 1 0 1 1 1 0 1 0 1 1 1 0 1 0 
1 0 1 1 1 0 1 0 1 1 1 0 1 0 1 0 
1 1 1 0 1 0 1 1 1 0 1 0 1 1 1 0 
1 0 1 0 1 1 1 0 1 0 1 1 1 0 1 0 
1 1 1 0 1 0 1 0 1 1 1 0 1 0 1 0 
1 1 1 0 1 1 1 0 1 0 1 0 1 1 1 0 
1 0 1 0 1 1 1 0 1 1 1 0 1 0 1 0 
1 1 1 0 1 0 1 0 1 1 1 0 1 0 1 1 
1 0 1 0 1 1 4454 808 300 MP stroke
1 0 1 0 1 0 1 1 1 0 1 0 1 1 1 0 
1 0 1 0 1 1 1 0 1 0 1 1 1 0 1 0 
1 1 1 0 1 0 1 0 1 1 1 0 1 0 1 0 
1 1 1 0 1 0 1 1 1 0 1 0 1 1 1 0 
1 0 1 0 1 1 1 0 1 0 1 1 1 0 1 0 
1 0 1 1 1 0 1 0 1 0 1 1 1 0 1 1 
1 0 1 0 1 0 1 1 1 0 1 0 1 0 1 1 
1 0 1 0 1 1 1 0 1 0 1 0 1 1 1 0 
1 0 1 0 1 1 1 0 1 1 1 0 1 0 1 0 
1 1 1 0 1 0 1 0 1 1 1 0 1 0 1 1 
1 0 1 0 1 0 1 1 1 0 1 0 1 1 1 0 
1 0 1 0 1 1 1 0 1 0 1 0 1 1 1 0 
1 1 1 0 1 0 1 0 1 1 1 0 1 0 1 0 
1 1 1 0 1 0 1 1 1 0 1 0 1 0 1 1 
1 0 1 0 1 0 1 1 1 0 1 0 1 1 1 0 
1 0 1 0 1 1 1 0 1 0 1 0 1 1 1 0 
1 0 1 1 1 0 1 0 1 0 1 1 1 0 1 0 
1 1 1 0 1 0 1 1 1 0 1 0 1 0 1 1 
1 0 1 0 1 0 1 1 1 0 1 0 1 1 1 0 
1 0 1 0 1 1 1 0 1 0 1 1 1 0 1 0 
1 0 1 1 1 0 1 0 1 0 1 1 1 0 1 0 
1 1 1 0 1 0 1 0 1 1 1 0 1 0 1 0 
1 1 1 0 1 0 1 1 1 0 1 0 1 0 1 1 
1 0 1 0 1 0 1 1 1 0 1 0 1 1 1 0 
1 0 1 0 1 1 1 0 1 0 1 0 1 1 1 0 
1 0 1 1 1 0 1 0 1 0 1 1 1 0 1 0 
1 1 1 0 1 0 1 0 1 1 1 0 1 0 1 0 
1 1 1 0 1 0 1 1 1 0 1 0 1 0 1 0 
1 1 1 0 1 0 1 0 1 1 1 0 1 0 1 1 
1 0 1 0 1 0 1 1 1 0 1 0 1 1 1 0 
1 0 1 0 1 1 1 0 1 0 1 0 1 1 1 0 
1 0 1 1 1 0 1 0 1 0 1 1 1 0 1 0 
1 0 1 1 1 0 1 0 1 0 1 1 1 0 1 0 
1 0 1 1 1 0 1 0 1 0 1 1 1 0 1 0 
1 1 1 0 1 0 1 0 1 1 1 0 1 0 1 1 
1 0 1 0 1 0 1 1 1 0 1 0 1 0 1 0 
1 1 1 0 1 0 1 1 1 0 1 0 1 0 1 1 
1 0 1 0 1 0 4155 726 300 MP stroke
1 1 1 0 1 0 1 1 1 0 1 0 1 0 1 1 
1 0 1 0 1 0 1 1 1 0 1 0 1 0 1 1 
1 0 1 0 1 0 1 1 1 0 1 0 1 1 1 0 
1 0 1 0 1 1 1 0 1 0 1 0 1 0 1 1 
1 0 1 0 1 1 1 0 1 0 1 0 1 1 1 0 
1 0 1 1 1 0 1 0 1 0 1 0 1 1 1 0 
1 0 1 0 1 1 1 0 1 0 1 1 1 0 1 0 
1 0 1 0 1 1 1 0 1 0 1 1 1 0 1 0 
1 0 1 1 1 0 1 0 1 0 1 1 1 0 1 0 
1 0 1 1 1 0 1 0 1 0 1 1 1 0 1 0 
1 0 1 1 1 0 1 0 1 0 1 1 1 0 1 0 
1 0 1 1 1 0 1 0 1 1 1 0 1 0 1 0 
1 0 1 1 1 0 1 0 1 0 1 1 1 0 1 0 
1 1 1 0 1 0 1 0 1 0 1 1 1 0 1 0 
1 1 1 0 1 0 1 0 1 1 1 0 1 0 1 0 
1 0 1 1 1 0 1 0 1 1 1 0 1 0 1 0 
1 0 1 1 1 0 1 0 1 1 1 0 1 0 1 0 
1 1 1 0 1 0 1 0 1 0 1 1 1 0 1 0 
1 1 1 0 1 0 1 0 1 0 1 1 1 0 1 0 
1 1 1 0 1 0 1 0 1 0 1 1 1 0 1 0 
1 0 1 1 1 0 1 0 1 0 1 1 1 0 1 0 
1 0 1 1 1 0 1 0 1 0 1 1 1 0 1 0 
1 0 1 1 1 0 1 0 1 0 1 1 1 0 1 0 
1 0 1 1 1 0 1 0 1 0 1 1 1 0 1 0 
1 0 1 1 1 0 1 0 1 0 1 1 1 0 1 0 
1 0 1 0 1 1 1 0 1 0 1 0 1 1 1 0 
1 0 1 0 1 1 1 0 1 0 1 0 1 1 1 0 
1 0 1 0 1 1 1 0 1 0 1 0 1 0 1 1 
1 0 1 0 1 1 1 0 1 0 1 0 1 0 1 1 
1 0 1 0 1 0 1 1 1 0 1 0 1 0 1 1 
1 0 1 0 1 0 1 0 1 1 1 0 1 0 1 1 
1 0 1 0 1 0 1 0 1 1 1 0 1 0 1 0 
1 1 1 0 1 0 1 0 1 1 1 0 1 0 1 0 
1 1 1 0 1 0 1 0 1 0 1 1 1 0 1 0 
1 0 1 1 1 0 1 0 1 0 1 1 1 0 1 0 
1 0 1 0 1 1 1 0 1 0 1 1 1 0 1 0 
1 0 1 0 1 1 1 0 1 0 1 0 1 1 1 0 
1 0 1 0 1 1 3856 651 300 MP stroke
1 0 1 0 1 0 1 0 1 1 1 0 1 0 1 0 
1 1 1 0 1 0 1 0 1 0 1 1 1 0 1 0 
1 1 1 0 1 0 1 0 1 0 1 1 1 0 1 0 
1 0 1 0 1 1 1 0 1 0 1 0 1 1 1 0 
1 0 1 0 1 1 1 0 1 0 1 0 1 1 1 0 
1 0 1 0 1 0 1 1 1 0 1 0 1 0 1 1 
1 0 1 0 1 0 1 0 1 1 1 0 1 0 1 0 
1 1 1 0 1 0 1 0 1 1 1 0 1 0 1 0 
1 0 1 1 1 0 1 0 1 0 1 1 1 0 1 0 
1 0 1 0 1 1 1 0 1 0 1 0 1 1 1 0 
1 0 1 0 1 0 1 1 1 0 1 0 1 0 1 1 
1 0 1 0 1 0 1 0 1 1 1 0 1 0 1 0 
1 1 1 0 1 0 1 0 1 1 1 0 1 0 1 0 
1 0 1 1 1 0 1 0 1 0 1 1 1 0 1 0 
1 0 1 0 1 1 1 0 1 0 1 0 1 1 1 0 
1 0 1 0 1 0 1 1 1 0 1 0 1 0 1 1 
1 0 1 0 1 0 1 0 1 1 1 0 1 0 1 0 
1 0 1 1 1 0 1 0 1 0 1 1 1 0 1 0 
1 0 1 0 1 1 1 0 1 0 1 0 1 1 1 0 
1 0 1 0 1 0 1 1 1 0 1 0 1 0 1 1 
1 0 1 0 1 0 1 0 1 1 1 0 1 0 1 0 
1 0 1 1 1 0 1 0 1 0 1 0 1 1 1 0 
1 0 1 0 1 1 1 0 1 0 1 0 1 0 1 1 
1 0 1 0 1 0 1 0 1 1 1 0 1 0 1 0 
1 1 1 0 1 0 1 0 1 0 1 1 1 0 1 0 
1 0 1 1 1 0 1 0 1 0 1 0 1 0 1 1 
1 0 1 0 1 0 1 1 1 0 1 0 1 0 1 0 
1 1 1 0 1 0 1 0 1 1 1 0 1 0 1 0 
1 0 1 1 1 0 1 0 1 0 1 0 1 1 1 0 
1 0 1 0 1 0 1 1 1 0 1 0 1 0 1 1 
1 0 1 0 1 0 1 0 1 0 1 1 1 0 1 0 
1 0 1 1 1 0 1 0 1 0 1 0 1 1 1 0 
1 0 1 0 1 0 1 1 1 0 1 0 1 0 1 0 
1 1 1 0 1 0 1 0 1 0 1 1 1 0 1 0 
1 0 1 1 1 0 1 0 1 0 1 0 1 0 1 1 
1 0 1 0 1 0 1 1 1 0 1 0 1 0 1 0 
1 1 1 0 1 0 1 0 1 0 1 1 1 0 1 0 
1 0 1 0 1 1 3557 586 300 MP stroke
1 0 1 0 1 0 1 0 1 1 1 0 1 0 1 0 
1 0 1 1 1 0 1 0 1 0 1 0 1 1 1 0 
1 0 1 0 1 0 1 1 1 0 1 0 1 0 1 0 
1 1 1 0 1 0 1 0 1 0 1 1 1 0 1 0 
1 0 1 0 1 1 1 0 1 0 1 0 1 0 1 1 
1 0 1 0 1 0 1 0 1 1 1 0 1 0 1 0 
1 0 1 1 1 0 1 0 1 0 1 0 1 1 1 0 
1 0 1 0 1 0 1 1 1 0 1 0 1 0 1 0 
1 1 1 0 1 0 1 0 1 0 1 1 1 0 1 0 
1 0 1 0 1 1 1 0 1 0 1 0 1 0 1 0 
1 1 1 0 1 0 1 0 1 1 1 0 1 0 1 0 
1 0 1 0 1 1 1 0 1 0 1 0 1 0 1 1 
1 0 1 0 1 0 1 0 1 1 1 0 1 0 1 0 
1 0 1 1 1 0 1 0 1 0 1 0 1 0 1 1 
1 0 1 0 1 0 1 0 1 1 1 0 1 0 1 0 
1 0 1 1 1 0 1 0 1 0 1 0 1 1 1 0 
1 0 1 0 1 0 1 0 1 1 1 0 1 0 1 0 
1 0 1 1 1 0 1 0 1 0 1 0 1 1 1 0 
1 0 1 0 1 0 1 1 1 0 1 0 1 0 1 0 
1 0 1 1 1 0 1 0 1 0 1 0 1 1 1 0 
1 0 1 0 1 0 1 1 1 0 1 0 1 0 1 0 
1 0 1 1 1 0 1 0 1 0 1 0 1 1 1 0 
1 0 1 0 1 0 1 0 1 1 1 0 1 0 1 0 
1 0 1 1 1 0 1 0 1 0 1 0 1 0 1 1 
1 0 1 0 1 0 1 0 1 1 1 0 1 0 1 0 
1 0 1 0 1 1 1 0 1 0 1 0 1 0 1 1 
1 0 1 0 1 0 1 0 1 0 1 1 1 0 1 0 
1 0 1 0 1 1 1 0 1 0 1 0 1 0 1 0 
1 1 1 0 1 0 1 0 1 0 1 1 1 0 1 0 
1 0 1 0 1 1 1 0 1 0 1 0 1 0 1 0 
1 1 1 0 1 0 1 0 1 0 1 1 1 0 1 0 
1 0 1 0 1 0 1 1 1 0 1 0 1 0 1 0 
1 0 1 1 1 0 1 0 1 0 1 0 1 0 1 1 
1 0 1 0 1 0 1 0 1 1 1 0 1 0 1 0 
1 0 1 0 1 1 1 0 1 0 1 0 1 0 1 0 
1 1 1 0 1 0 1 0 1 0 1 1 1 0 1 0 
1 0 1 0 1 0 1 1 1 0 1 0 1 0 1 0 
1 0 1 1 1 0 3258 530 300 MP stroke
1 0 1 0 1 0 1 0 1 1 1 0 1 0 1 0 
1 0 1 1 1 0 1 0 1 0 1 0 1 0 1 0 
1 1 1 0 1 0 1 0 1 0 1 1 1 0 1 0 
1 0 1 0 1 0 1 1 1 0 1 0 1 0 1 0 
1 0 1 1 1 0 1 0 1 0 1 0 1 0 1 1 
1 0 1 0 1 0 1 0 1 0 1 1 1 0 1 0 
1 0 1 0 1 0 1 1 1 0 1 0 1 0 1 0 
1 0 1 1 1 0 1 0 1 0 1 0 1 0 1 1 
1 0 1 0 1 0 1 0 1 1 1 0 1 0 1 0 
1 0 1 0 1 0 1 1 1 0 1 0 1 0 1 0 
1 0 1 1 1 0 1 0 1 0 1 0 1 0 1 1 
1 0 1 0 1 0 1 0 1 0 1 1 1 0 1 0 
1 0 1 0 1 0 1 1 1 0 1 0 1 0 1 0 
1 0 1 1 1 0 1 0 1 0 1 0 1 0 1 1 
1 0 1 0 1 0 1 0 1 0 1 0 1 1 1 0 
1 0 1 0 1 0 1 0 1 1 1 0 1 0 1 0 
1 0 1 0 1 1 1 0 1 0 1 0 1 0 1 0 
1 0 1 1 1 0 1 0 1 0 1 0 1 0 1 1 
1 0 1 0 1 0 1 0 1 1 1 0 1 0 1 0 
1 0 1 0 1 0 1 1 1 0 1 0 1 0 1 0 
1 0 1 1 1 0 1 0 1 0 1 0 1 0 1 0 
1 1 1 0 1 0 1 0 1 0 1 0 1 1 1 0 
1 0 1 0 1 0 1 0 1 0 1 1 1 0 1 0 
1 0 1 0 1 0 1 0 1 1 1 0 1 0 1 0 
1 0 1 0 1 1 1 0 1 0 1 0 1 0 1 0 
1 1 1 0 1 0 1 0 1 0 1 0 1 0 1 1 
1 0 1 0 1 0 1 0 1 0 1 1 1 0 1 0 
1 0 1 0 1 0 1 0 1 1 1 0 1 0 1 0 
1 0 1 0 1 0 1 1 1 0 1 0 1 0 1 0 
1 0 1 1 1 0 1 0 1 0 1 0 1 0 1 0 
1 1 1 0 1 0 1 0 1 0 1 0 1 0 1 1 
1 0 1 0 1 0 1 0 1 0 1 0 1 1 1 0 
1 0 1 0 1 0 1 0 1 1 1 0 1 0 1 0 
1 0 1 0 1 0 1 1 1 0 1 0 1 0 1 0 
1 0 1 0 1 1 1 0 1 0 1 0 1 0 1 0 
1 0 1 1 1 0 1 0 1 0 1 0 1 0 1 0 
1 1 1 0 1 0 1 0 1 0 1 0 1 0 1 1 
1 0 1 0 1 0 2959 483 300 MP stroke
1 0 1 0 1 1 1 0 1 0 1 0 1 0 1 0 
1 0 1 0 1 1 1 0 1 0 1 0 1 0 1 0 
1 0 1 1 1 0 1 0 1 0 1 0 1 0 1 0 
1 1 1 0 1 0 1 0 1 0 1 0 1 0 1 0 
1 1 1 0 1 0 1 0 1 0 1 0 1 1 1 0 
1 0 1 0 1 0 1 0 1 0 1 1 1 0 1 0 
1 0 1 0 1 0 1 0 1 1 1 0 1 0 1 0 
1 0 1 0 1 0 1 0 1 1 1 0 1 0 1 0 
1 0 1 0 1 0 1 1 1 0 1 0 1 0 1 0 
1 0 1 0 1 1 1 0 1 0 1 0 1 0 1 0 
1 0 1 0 1 0 1 1 1 0 1 0 1 0 1 0 
1 0 1 0 1 1 1 0 1 0 1 0 1 0 1 0 
1 0 1 1 1 0 1 0 1 0 1 0 1 0 1 0 
1 1 1 0 1 0 1 0 1 0 1 0 1 0 1 0 
1 0 1 1 1 0 1 0 1 0 1 0 1 0 1 0 
1 1 1 0 1 0 1 0 1 0 1 0 1 0 1 1 
1 0 1 0 1 0 1 0 1 0 1 0 1 0 1 1 
1 0 1 0 1 0 1 0 1 0 1 0 1 0 1 1 
1 0 1 0 1 0 1 0 1 0 1 0 1 0 1 1 
1 0 1 0 1 0 1 0 1 0 1 0 1 1 1 0 
1 0 1 0 1 0 1 0 1 0 1 0 1 1 1 0 
1 0 1 0 1 0 1 0 1 0 1 0 1 1 1 0 
1 0 1 0 1 0 1 0 1 0 1 0 1 0 1 1 
1 0 1 0 1 0 1 0 1 0 1 0 1 1 1 0 
1 0 1 0 1 0 1 0 1 0 1 0 1 1 1 0 
1 0 1 0 1 0 1 0 1 0 1 0 1 1 1 0 
1 0 1 0 1 0 1 0 1 0 1 0 1 0 1 1 
1 0 1 0 1 0 1 0 1 0 1 0 1 0 1 1 
1 0 1 0 1 0 1 0 1 0 1 0 1 0 1 1 
1 0 1 0 1 0 1 0 1 0 1 0 1 0 1 0 
1 1 1 0 1 0 1 0 1 0 1 0 1 0 1 0 
1 1 1 0 1 0 1 0 1 0 1 0 1 0 1 0 
1 1 1 0 1 0 1 0 1 0 1 0 1 0 1 0 
1 0 1 1 1 0 1 0 1 0 1 0 1 0 1 0 
1 0 1 0 1 1 1 0 1 0 1 0 1 0 1 0 
1 0 1 0 1 0 1 1 1 0 1 0 1 0 1 0 
1 0 1 0 1 0 1 1 1 0 1 0 1 0 1 0 
1 0 1 0 1 0 2660 445 300 MP stroke
1 0 1 1 1 0 1 0 1 0 1 0 1 0 1 0 
1 0 1 0 1 1 1 0 1 0 1 0 1 0 1 0 
1 0 1 0 1 1 1 0 1 0 1 0 1 0 1 0 
1 0 1 0 1 0 1 1 1 0 1 0 1 0 1 0 
1 0 1 0 1 0 1 0 1 0 1 1 1 0 1 0 
1 0 1 0 1 0 1 0 1 0 1 0 1 1 1 0 
1 0 1 0 1 0 1 0 1 0 1 0 1 0 1 0 
1 1 1 0 1 0 1 0 1 0 1 0 1 0 1 0 
1 0 1 1 1 0 1 0 1 0 1 0 1 0 1 0 
1 0 1 0 1 1 1 0 1 0 1 0 1 0 1 0 
1 0 1 0 1 0 1 0 1 1 1 0 1 0 1 0 
1 0 1 0 1 0 1 0 1 0 1 1 1 0 1 0 
1 0 1 0 1 0 1 0 1 0 1 0 1 0 1 1 
1 0 1 0 1 0 1 0 1 0 1 0 1 0 1 0 
1 1 1 0 1 0 1 0 1 0 1 0 1 0 1 0 
1 0 1 0 1 1 1 0 1 0 1 0 1 0 1 0 
1 0 1 0 1 0 1 0 1 1 1 0 1 0 1 0 
1 0 1 0 1 0 1 0 1 0 1 0 1 1 1 0 
1 0 1 0 1 0 1 0 1 0 1 0 1 0 1 0 
1 1 1 0 1 0 1 0 1 0 1 0 1 0 1 0 
1 0 1 0 1 0 1 1 1 0 1 0 1 0 1 0 
1 0 1 0 1 0 1 0 1 0 1 1 1 0 1 0 
1 0 1 0 1 0 1 0 1 0 1 0 1 0 1 0 
1 1 1 0 1 0 1 0 1 0 1 0 1 0 1 0 
1 0 1 0 1 1 1 0 1 0 1 0 1 0 1 0 
1 0 1 0 1 0 1 0 1 0 1 1 1 0 1 0 
1 0 1 0 1 0 1 0 1 0 1 0 1 0 1 0 
1 1 1 0 1 0 1 0 1 0 1 0 1 0 1 0 
1 0 1 0 1 0 1 1 1 0 1 0 1 0 1 0 
1 0 1 0 1 0 1 0 1 0 1 0 1 1 1 0 
1 0 1 0 1 0 1 0 1 0 1 0 1 0 1 0 
1 0 1 0 1 1 1 0 1 0 1 0 1 0 1 0 
1 0 1 0 1 0 1 0 1 0 1 1 1 0 1 0 
1 0 1 0 1 0 1 0 1 0 1 0 1 0 1 0 
1 1 1 0 1 0 1 0 1 0 1 0 1 0 1 0 
1 0 1 0 1 0 1 0 1 1 1 0 1 0 1 0 
1 0 1 0 1 0 1 0 1 0 1 0 1 0 1 0 
1 1 1 0 1 0 2361 415 300 MP stroke
1 0 1 0 1 0 1 0 1 0 1 0 1 0 1 0 
1 0 1 1 1 0 1 0 1 0 1 0 1 0 1 0 
1 0 1 0 1 0 1 0 1 0 1 1 1 0 1 0 
1 0 1 0 1 0 1 0 1 0 1 0 1 0 1 0 
1 0 1 1 1 0 1 0 1 0 1 0 1 0 1 0 
1 0 1 0 1 0 1 0 1 0 1 0 1 1 1 0 
1 0 1 0 1 0 1 0 1 0 1 0 1 0 1 0 
1 0 1 0 1 0 1 1 1 0 1 0 1 0 1 0 
1 0 1 0 1 0 1 0 1 0 1 0 1 0 1 0 
1 1 1 0 1 0 1 0 1 0 1 0 1 0 1 0 
1 0 1 0 1 0 1 0 1 0 1 1 1 0 1 0 
1 0 1 0 1 0 1 0 1 0 1 0 1 0 1 0 
1 0 1 0 1 0 1 1 1 0 1 0 1 0 1 0 
1 0 1 0 1 0 1 0 1 0 1 0 1 0 1 0 
1 0 1 1 1 0 1 0 1 0 1 0 1 0 1 0 
1 0 1 0 1 0 1 0 1 0 1 0 1 1 1 0 
1 0 1 0 1 0 1 0 1 0 1 0 1 0 1 0 
1 0 1 0 1 0 1 0 1 0 1 1 1 0 1 0 
1 0 1 0 1 0 1 0 1 0 1 0 1 0 1 0 
1 0 1 0 1 0 1 1 1 0 1 0 1 0 1 0 
1 0 1 0 1 0 1 0 1 0 1 0 1 0 1 0 
1 0 1 0 1 1 1 0 1 0 1 0 1 0 1 0 
1 0 1 0 1 0 1 0 1 0 1 0 1 0 1 0 
1 0 1 1 1 0 1 0 1 0 1 0 1 0 1 0 
1 0 1 0 1 0 1 0 1 0 1 0 1 0 1 0 
1 0 1 1 1 0 1 0 1 0 1 0 1 0 1 0 
1 0 1 0 1 0 1 0 1 0 1 0 1 0 1 0 
1 0 1 1 1 0 1 0 1 0 1 0 1 0 1 0 
1 0 1 0 1 0 1 0 1 0 1 0 1 0 1 0 
1 0 1 0 1 1 1 0 1 0 1 0 1 0 1 0 
1 0 1 0 1 0 1 0 1 0 1 0 1 0 1 0 
1 0 1 0 1 0 1 1 1 0 1 0 1 0 1 0 
1 0 1 0 1 0 1 0 1 0 1 0 1 0 1 0 
1 0 1 0 1 0 1 0 1 1 1 0 1 0 1 0 
1 0 1 0 1 0 1 0 1 0 1 0 1 0 1 0 
1 0 1 0 1 0 1 0 1 0 1 0 1 1 1 0 
1 0 1 0 1 0 1 0 1 0 1 0 1 0 1 0 
1 0 1 0 1 0 2062 395 300 MP stroke
1 0 1 0 1 0 1 0 1 0 1 0 1 1 1 0 
1 0 1 0 1 0 1 0 1 0 1 0 1 0 1 0 
1 0 1 0 1 0 1 0 1 0 1 0 1 0 1 0 
1 0 1 1 1 0 1 0 1 0 1 0 1 0 1 0 
1 0 1 0 1 0 1 0 1 0 1 0 1 0 1 0 
1 0 1 0 1 0 1 0 1 0 1 1 1 0 1 0 
1 0 1 0 1 0 1 0 1 0 1 0 1 0 1 0 
1 0 1 0 1 0 1 0 1 0 1 0 1 0 1 0 
1 0 1 0 1 1 1 0 1 0 1 0 1 0 1 0 
1 0 1 0 1 0 1 0 1 0 1 0 1 0 1 0 
1 0 1 0 1 0 1 0 1 0 1 0 1 0 1 0 
1 1 1 0 1 0 1 0 1 0 1 0 1 0 1 0 
1 0 1 0 1 0 1 0 1 0 1 0 1 0 1 0 
1 0 1 0 1 0 1 0 1 0 1 0 1 1 1 0 
1 0 1 0 1 0 1 0 1 0 1 0 1 0 1 0 
1 0 1 0 1 0 1 0 1 0 1 0 1 0 1 0 
1 0 1 0 1 0 1 0 1 0 1 0 1 0 1 1 
1 0 1 0 1 0 1 0 1 0 1 0 1 0 1 0 
1 0 1 0 1 0 1 0 1 0 1 0 1 0 1 0 
1 0 1 0 1 0 1 0 1 0 1 0 1 0 1 0 
1 1 1 0 1 0 1 0 1 0 1 0 1 0 1 0 
1 0 1 0 1 0 1 0 1 0 1 0 1 0 1 0 
1 0 1 0 1 0 1 0 1 0 1 0 1 0 1 0 
1 0 1 0 1 0 1 0 1 0 1 1 1 0 1 0 
1 0 1 0 1 0 1 0 1 0 1 0 1 0 1 0 
1 0 1 0 1 0 1 0 1 0 1 0 1 0 1 0 
1 0 1 0 1 0 1 0 1 0 1 0 1 0 1 0 
1 0 1 0 1 0 1 1 1 0 1 0 1 0 1 0 
1 0 1 0 1 0 1 0 1 0 1 0 1 0 1 0 
1 0 1 0 1 0 1 0 1 0 1 0 1 0 1 0 
1 0 1 0 1 0 1 0 1 0 1 0 1 0 1 0 
1 0 1 0 1 0 1 0 1 1 1 0 1 0 1 0 
1 0 1 0 1 0 1 0 1 0 1 0 1 0 1 0 
1 0 1 0 1 0 1 0 1 0 1 0 1 0 1 0 
1 0 1 0 1 0 1 0 1 0 1 0 1 0 1 0 
1 0 1 0 1 0 1 0 1 0 1 0 1 0 1 0 
1 0 1 0 1 1 1 0 1 0 1 0 1 0 1 0 
1 0 1 0 1 0 1763 383 300 MP stroke
1 0 1 0 1 0 1 0 1 0 1 0 1 0 1 0 
1 0 1 0 1 0 1 0 1 0 1 0 1 0 1 0 
1 0 1 0 1 0 1 0 1 0 1 0 1 0 1 0 
1 0 1 0 1 0 1 0 1 0 1 0 1 0 1 0 
1 0 1 0 1 0 1 0 1 1 1 0 1 0 1 0 
1 0 1 0 1 0 1 0 1 0 1 0 1 0 1 0 
1 0 1 0 1 0 1 0 1 0 1 0 1 0 1 0 
1 0 1 0 1 0 1 0 1 0 1 0 1 0 1 0 
1 0 1 0 1 0 1 0 1 0 1 0 1 0 1 0 
1 0 1 0 1 0 1 0 1 0 1 0 1 0 1 0 
1 0 1 0 1 0 1 0 1 0 1 0 1 0 1 0 
1 0 1 0 1 0 1 0 1 0 1 0 1 1 1 0 
1 0 1 0 1 0 1 0 1 0 1 0 1 0 1 0 
1 0 1 0 1 0 1 0 1 0 1 0 1 0 1 0 
1 0 1 0 1 0 1 0 1 0 1 0 1 0 1 0 
1 0 1 0 1 0 1 0 1 0 1 0 1 0 1 0 
1 0 1 0 1 0 1 0 1 0 1 0 1 0 1 0 
1 0 1 0 1 0 1 0 1 0 1 0 1 0 1 0 
1 0 1 0 1 0 1 0 1 0 1 0 1 0 1 0 
1 0 1 0 1 0 1 0 1 0 1 0 1 0 1 0 
1 0 1 0 1 0 1 0 1 0 1 0 1 0 1 0 
1 0 1 0 1 0 1 0 1 0 1 0 1 0 1 0 
1 0 1 0 1 0 1 0 1 0 1 0 1 0 1 0 
1 0 1 0 1 0 1 0 1 0 1 0 1 0 1 0 
1 0 1 0 1 0 1 0 1 0 1 0 1 0 1 0 
1 0 1 0 1 0 1 0 1 0 1 0 1 0 1 0 
1 0 1 0 1 0 1 0 1 0 1 0 1 0 1 0 
1 0 1 0 1 0 1 0 1 0 1 0 1 0 1 0 
1 0 1 0 1 0 1 0 1 0 1 0 1 0 1 0 
1 0 1 0 1 0 1 0 1527 381 237 MP stroke
72 w
gr

72 w
c8
/c9 { 0.000000 1.000000 1.000000 sr} bdef
c9
  36   36 8745 2983 FO
  36   36 8746 2983 FO
  36   36 8747 2984 FO
  36   36 8748 2985 FO
  36   36 8749 2985 FO
  36   36 8750 2986 FO
  36   36 8751 2987 FO
  36   36 8752 2987 FO
  36   36 8752 2988 FO
  36   36 8753 2989 FO
  36   36 8754 2989 FO
  36   36 8755 2990 FO
  36   36 8756 2991 FO
  36   36 8757 2991 FO
  36   36 8758 2992 FO
  36   36 8759 2993 FO
  36   36 8760 2993 FO
  36   36 8761 2994 FO
  36   36 8762 2995 FO
  36   36 8763 2996 FO
  36   36 8764 2996 FO
  36   36 8765 2997 FO
  36   36 8766 2998 FO
  36   36 8767 2998 FO
  36   36 8768 2999 FO
  36   36 8769 3000 FO
  36   36 8770 3000 FO
  36   36 8771 3001 FO
  36   36 8772 3002 FO
  36   36 8773 3003 FO
  36   36 8774 3004 FO
  36   36 8775 3004 FO
  36   36 8776 3005 FO
  36   36 8777 3006 FO
  36   36 8778 3006 FO
  36   36 8779 3007 FO
  36   36 8780 3008 FO
  36   36 8781 3008 FO
  36   36 8782 3009 FO
  36   36 8783 3010 FO
  36   36 8784 3011 FO
  36   36 8785 3012 FO
  36   36 8786 3012 FO
  36   36 8787 3013 FO
  36   36 8788 3014 FO
  36   36 8789 3014 FO
  36   36 8790 3015 FO
  36   36 8791 3016 FO
  36   36 8792 3016 FO
  36   36 8793 3017 FO
  36   36 8793 3018 FO
  36   36 8794 3018 FO
  36   36 8795 3019 FO
  36   36 8796 3020 FO
  36   36 8797 3020 FO
  36   36 8798 3021 FO
  36   36 8799 3022 FO
  36   36 8800 3022 FO
  36   36 8801 3023 FO
  36   36 8802 3024 FO
  36   36 8803 3024 FO
  36   36 8803 3025 FO
  36   36 8804 3026 FO
  36   36 8805 3026 FO
  36   36 8806 3027 FO
  36   36 8807 3027 FO
  36   36 8808 3028 FO
  36   36 8809 3029 FO
  36   36 8810 3029 FO
  36   36 8811 3030 FO
  36   36 8812 3031 FO
  36   36 8813 3031 FO
  36   36 8813 3032 FO
  36   36 8814 3033 FO
  36   36 8815 3033 FO
  36   36 8816 3034 FO
  36   36 8817 3035 FO
  36   36 8818 3035 FO
  36   36 8819 3036 FO
  36   36 8820 3037 FO
  36   36 8821 3037 FO
  36   36 8822 3038 FO
  36   36 8823 3039 FO
  36   36 8824 3040 FO
  36   36 8825 3041 FO
  36   36 8826 3041 FO
  36   36 8827 3042 FO
  36   36 8828 3043 FO
  36   36 8829 3043 FO
  36   36 8830 3044 FO
  36   36 8831 3045 FO
  36   36 8832 3045 FO
  36   36 8833 3046 FO
  36   36 8833 3047 FO
  36   36 8834 3047 FO
  36   36 8835 3048 FO
  36   36 8836 3049 FO
  36   36 8837 3049 FO
  36   36 8838 3050 FO
  36   36 8839 3051 FO
  36   36 8840 3051 FO
  36   36 8841 3052 FO
  36   36 8842 3053 FO
  36   36 8843 3053 FO
  36   36 8843 3054 FO
  36   36 8844 3055 FO
  36   36 8845 3055 FO
  36   36 8846 3056 FO
  36   36 8847 3057 FO
  36   36 8848 3057 FO
  36   36 8849 3058 FO
  36   36 8850 3059 FO
  36   36 8851 3059 FO
  36   36 8852 3060 FO
  36   36 8853 3061 FO
  36   36 8854 3061 FO
  36   36 8854 3062 FO
  36   36 8855 3063 FO
  36   36 8856 3063 FO
  36   36 8857 3064 FO
  36   36 8858 3065 FO
  36   36 8859 3065 FO
  36   36 8860 3066 FO
  36   36 8861 3067 FO
  36   36 8862 3067 FO
  36   36 8863 3068 FO
  36   36 8864 3069 FO
  36   36 8865 3070 FO
  36   36 8866 3071 FO
  36   36 8867 3071 FO
  36   36 8868 3072 FO
  36   36 8869 3073 FO
  36   36 8870 3073 FO
  36   36 8871 3074 FO
  36   36 8872 3075 FO
  36   36 8873 3075 FO
  36   36 8874 3076 FO
  36   36 8874 3077 FO
  36   36 8875 3077 FO
  36   36 8876 3078 FO
  36   36 8877 3079 FO
  36   36 8878 3079 FO
  36   36 8879 3080 FO
  36   36 8880 3081 FO
  36   36 8881 3081 FO
  36   36 8882 3082 FO
  36   36 8883 3083 FO
  36   36 8884 3083 FO
  36   36 8884 3084 FO
  36   36 8885 3085 FO
  36   36 8886 3085 FO
  36   36 8887 3086 FO
  36   36 8888 3087 FO
  36   36 8889 3087 FO
  36   36 8890 3088 FO
  36   36 8891 3089 FO
  36   36 8892 3089 FO
  36   36 8893 3090 FO
  36   36 8894 3091 FO
  36   36 8895 3092 FO
  36   36 8896 3093 FO
  36   36 8897 3093 FO
  36   36 8898 3094 FO
  36   36 8899 3095 FO
  36   36 8900 3095 FO
  36   36 8901 3096 FO
  36   36 8902 3097 FO
  36   36 8903 3097 FO
  36   36 8904 3098 FO
  36   36 8904 3099 FO
  36   36 8905 3099 FO
  36   36 8906 3100 FO
  36   36 8907 3101 FO
  36   36 8908 3101 FO
  36   36 8909 3102 FO
  36   36 8910 3103 FO
  36   36 8911 3103 FO
  36   36 8912 3104 FO
  36   36 8913 3105 FO
  36   36 8914 3106 FO
  36   36 8915 3107 FO
  36   36 8916 3108 FO
  36   36 8917 3108 FO
  36   36 8918 3109 FO
  36   36 8919 3110 FO
  36   36 8920 3110 FO
  36   36 8921 3111 FO
  36   36 8922 3112 FO
  36   36 8923 3112 FO
  36   36 8924 3113 FO
  36   36 8925 3114 FO
  36   36 8926 3115 FO
  36   36 8927 3116 FO
  36   36 8928 3116 FO
  36   36 8929 3117 FO
  36   36 8930 3118 FO
  36   36 8931 3118 FO
  36   36 8932 3119 FO
  36   36 8933 3120 FO
  36   36 8934 3120 FO
  36   36 8935 3121 FO
  36   36 8935 3122 FO
  36   36 8936 3122 FO
  36   36 8937 3123 FO
  36   36 8938 3124 FO
  36   36 8939 3124 FO
  36   36 8940 3125 FO
  36   36 8941 3126 FO
  36   36 8942 3126 FO
  36   36 8943 3127 FO
  36   36 8944 3128 FO
  36   36 8945 3128 FO
  36   36 8945 3129 FO
  36   36 8946 3130 FO
  36   36 8947 3130 FO
  36   36 8948 3131 FO
  36   36 8949 3132 FO
  36   36 8950 3132 FO
  36   36 8951 3133 FO
  36   36 8952 3134 FO
  36   36 8953 3134 FO
  36   36 8954 3135 FO
  36   36 8955 3136 FO
  36   36 8956 3137 FO
  36   36 8957 3138 FO
  36   36 8958 3139 FO
  36   36 8959 3139 FO
  36   36 8960 3140 FO
  36   36 8961 3141 FO
  36   36 8962 3141 FO
  36   36 8963 3142 FO
  36   36 8964 3143 FO
  36   36 8965 3143 FO
  36   36 8965 3144 FO
  36   36 8966 3145 FO
  36   36 8967 3145 FO
  36   36 8968 3146 FO
  36   36 8969 3147 FO
  36   36 8970 3147 FO
  36   36 8971 3148 FO
  36   36 8972 3149 FO
  36   36 8973 3149 FO
  36   36 8974 3150 FO
  36   36 8975 3151 FO
  36   36 8976 3152 FO
  36   36 8977 3153 FO
  36   36 8978 3153 FO
  36   36 8979 3154 FO
  36   36 8980 3155 FO
  36   36 8981 3155 FO
  36   36 8982 3156 FO
  36   36 8983 3157 FO
  36   36 8984 3157 FO
  36   36 8985 3158 FO
  36   36 8985 3159 FO
  36   36 8986 3159 FO
  36   36 8987 3160 FO
  36   36 8988 3161 FO
  36   36 8989 3162 FO
  36   36 8990 3162 FO
  36   36 8991 3163 FO
  36   36 8992 3164 FO
  36   36 8993 3164 FO
  36   36 8994 3165 FO
  36   36 8995 3166 FO
  36   36 8996 3166 FO
  36   36 8996 3167 FO
  36   36 8997 3168 FO
  36   36 8998 3168 FO
  36   36 8999 3169 FO
  36   36 9000 3170 FO
  36   36 9001 3170 FO
  36   36 9002 3171 FO
  36   36 9003 3172 FO
  36   36 9004 3172 FO
  36   36 9005 3173 FO
  36   36 9006 3174 FO
  36   36 9007 3175 FO
  36   36 9008 3176 FO
  36   36 9009 3176 FO
  36   36 9010 3177 FO
  36   36 9011 3178 FO
  36   36 9012 3179 FO
  36   36 9013 3179 FO
  36   36 9014 3180 FO
  36   36 9015 3181 FO
  36   36 9016 3181 FO
  36   36 9016 3182 FO
  36   36 9017 3183 FO
  36   36 9018 3183 FO
  36   36 9019 3184 FO
  36   36 9020 3185 FO
  36   36 9021 3185 FO
  36   36 9022 3186 FO
  36   36 9023 3187 FO
  36   36 9024 3187 FO
  36   36 9025 3188 FO
  36   36 9026 3189 FO
  36   36 9027 3190 FO
  36   36 9028 3191 FO
  36   36 9029 3191 FO
  36   36 9030 3192 FO
  36   36 9031 3193 FO
  36   36 9032 3194 FO
  36   36 9033 3194 FO
  36   36 9034 3195 FO
  36   36 9035 3196 FO
  36   36 9036 3196 FO
  36   36 9036 3197 FO
  36   36 9037 3198 FO
  36   36 9038 3198 FO
  36   36 9039 3199 FO
  36   36 9040 3200 FO
  36   36 9041 3200 FO
  36   36 9042 3201 FO
  36   36 9043 3202 FO
  36   36 9044 3202 FO
  36   36 9045 3203 FO
  36   36 9046 3204 FO
  36   36 9047 3205 FO
  36   36 9048 3206 FO
  36   36 9049 3206 FO
  36   36 9050 3207 FO
  36   36 9051 3208 FO
  36   36 9052 3209 FO
  36   36 9053 3209 FO
  36   36 9054 3210 FO
  36   36 9055 3211 FO
  36   36 9056 3211 FO
  36   36 9057 3212 FO
  36   36 9057 3213 FO
  36   36 9058 3213 FO
  36   36 9059 3214 FO
  36   36 9060 3215 FO
  36   36 9061 3215 FO
  36   36 9062 3216 FO
  36   36 9063 3217 FO
  36   36 9064 3217 FO
  36   36 9065 3218 FO
  36   36 9066 3219 FO
  36   36 9067 3220 FO
  36   36 9068 3221 FO
  36   36 9069 3222 FO
  36   36 9070 3222 FO
  36   36 9071 3223 FO
  36   36 9072 3224 FO
  36   36 9073 3224 FO
  36   36 9074 3225 FO
  36   36 9075 3226 FO
  36   36 9076 3226 FO
  36   36 9077 3227 FO
  36   36 9077 3228 FO
  36   36 9078 3228 FO
  36   36 9079 3229 FO
  36   36 9080 3230 FO
  36   36 9081 3230 FO
  36   36 9082 3231 FO
  36   36 9083 3232 FO
  36   36 9084 3233 FO
  36   36 9085 3233 FO
  36   36 9086 3234 FO
  36   36 9087 3235 FO
  36   36 9088 3236 FO
  36   36 9089 3237 FO
  36   36 9090 3237 FO
  36   36 9091 3238 FO
  36   36 9092 3239 FO
  36   36 9093 3239 FO
  36   36 9094 3240 FO
  36   36 9095 3241 FO
  36   36 9096 3241 FO
  36   36 9097 3242 FO
  36   36 9097 3243 FO
  36   36 9098 3244 FO
  36   36 9099 3244 FO
  36   36 9100 3245 FO
  36   36 9101 3246 FO
  36   36 9102 3246 FO
  36   36 9103 3247 FO
  36   36 9104 3248 FO
  36   36 9105 3248 FO
  36   36 9106 3249 FO
  36   36 9107 3250 FO
  36   36 9108 3251 FO
  36   36 9109 3252 FO
  36   36 9110 3253 FO
  36   36 9111 3253 FO
  36   36 9112 3254 FO
  36   36 9113 3255 FO
  36   36 9114 3255 FO
  36   36 9115 3256 FO
  36   36 9116 3257 FO
  36   36 9117 3257 FO
  36   36 9117 3258 FO
  36   36 9118 3259 FO
  36   36 9119 3259 FO
  36   36 9120 3260 FO
  36   36 9121 3261 FO
  36   36 9122 3261 FO
  36   36 9123 3262 FO
  36   36 9124 3263 FO
  36   36 9125 3264 FO
  36   36 9126 3264 FO
  36   36 9127 3265 FO
  36   36 9128 3266 FO
  36   36 9129 3267 FO
  36   36 9130 3268 FO
  36   36 9131 3268 FO
  36   36 9132 3269 FO
  36   36 9133 3270 FO
  36   36 9134 3270 FO
  36   36 9135 3271 FO
  36   36 9136 3272 FO
  36   36 9137 3273 FO
  36   36 9138 3273 FO
  36   36 9138 3274 FO
  36   36 9139 3275 FO
  36   36 9140 3275 FO
  36   36 9141 3276 FO
  36   36 9142 3277 FO
  36   36 9143 3277 FO
  36   36 9144 3278 FO
  36   36 9145 3279 FO
  36   36 9146 3279 FO
  36   36 9147 3280 FO
  36   36 9148 3281 FO
  36   36 9148 3282 FO
  36   36 9149 3282 FO
  36   36 9150 3283 FO
  36   36 9151 3284 FO
  36   36 9152 3284 FO
  36   36 9153 3285 FO
  36   36 9154 3286 FO
  36   36 9155 3286 FO
  36   36 9156 3287 FO
  36   36 9157 3288 FO
  36   36 9158 3288 FO
  36   36 9158 3289 FO
  36   36 9159 3290 FO
  36   36 9160 3291 FO
  36   36 9161 3291 FO
  36   36 9162 3292 FO
  36   36 9163 3293 FO
  36   36 9164 3293 FO
  36   36 9165 3294 FO
  36   36 9166 3295 FO
  36   36 9167 3295 FO
  36   36 9168 3296 FO
  36   36 9168 3297 FO
  36   36 9169 3297 FO
  36   36 9170 3298 FO
  36   36 9171 3299 FO
  36   36 9172 3300 FO
  36   36 9173 3300 FO
  36   36 9174 3301 FO
  36   36 9175 3302 FO
  36   36 9176 3302 FO
  36   36 9177 3303 FO
  36   36 9178 3304 FO
  36   36 9179 3305 FO
  36   36 9180 3306 FO
  36   36 9181 3307 FO
  36   36 9182 3307 FO
  36   36 9183 3308 FO
  36   36 9184 3309 FO
  36   36 9185 3309 FO
  36   36 9186 3310 FO
  36   36 9187 3311 FO
  36   36 9188 3311 FO
  36   36 9188 3312 FO
  36   36 9189 3313 FO
  36   36 9190 3313 FO
  36   36 9191 3314 FO
  36   36 9192 3315 FO
  36   36 9193 3316 FO
  36   36 9194 3316 FO
  36   36 9195 3317 FO
  36   36 9196 3318 FO
  36   36 9197 3318 FO
  36   36 9198 3319 FO
  36   36 9199 3320 FO
  36   36 9200 3321 FO
  36   36 9201 3322 FO
  36   36 9202 3323 FO
  36   36 9203 3323 FO
  36   36 9204 3324 FO
  36   36 9205 3325 FO
  36   36 9206 3325 FO
  36   36 9207 3326 FO
  36   36 9208 3327 FO
  36   36 9209 3327 FO
  36   36 9209 3328 FO
  36   36 9210 3329 FO
  36   36 9211 3330 FO
  36   36 9212 3330 FO
  36   36 9213 3331 FO
  36   36 9214 3332 FO
  36   36 9215 3332 FO
  36   36 9216 3333 FO
  36   36 9217 3334 FO
  36   36 9218 3334 FO
  36   36 9219 3335 FO
  36   36 9219 3336 FO
  36   36 9220 3337 FO
  36   36 9221 3337 FO
  36   36 9222 3338 FO
  36   36 9223 3339 FO
  36   36 9224 3339 FO
  36   36 9225 3340 FO
  36   36 9226 3341 FO
  36   36 9227 3341 FO
  36   36 9228 3342 FO
  36   36 9229 3343 FO
  36   36 9229 3344 FO
  36   36 9230 3344 FO
  36   36 9231 3345 FO
  36   36 9232 3346 FO
  36   36 9233 3346 FO
  36   36 9234 3347 FO
  36   36 9235 3348 FO
  36   36 9236 3348 FO
  36   36 9237 3349 FO
  36   36 9238 3350 FO
  36   36 9239 3351 FO
  36   36 9240 3352 FO
  36   36 9241 3353 FO
  36   36 9242 3353 FO
  36   36 9243 3354 FO
  36   36 9244 3355 FO
  36   36 9245 3355 FO
  36   36 9246 3356 FO
  36   36 9247 3357 FO
  36   36 9248 3358 FO
  36   36 9249 3358 FO
  36   36 9249 3359 FO
  36   36 9250 3360 FO
  36   36 9251 3360 FO
  36   36 9252 3361 FO
  36   36 9253 3362 FO
  36   36 9254 3362 FO
  36   36 9255 3363 FO
  36   36 9256 3364 FO
  36   36 9257 3365 FO
  36   36 9258 3365 FO
  36   36 9259 3366 FO
  36   36 9259 3367 FO
  36   36 9260 3367 FO
  36   36 9261 3368 FO
  36   36 9262 3369 FO
  36   36 9263 3370 FO
  36   36 9264 3370 FO
  36   36 9265 3371 FO
  36   36 9266 3372 FO
  36   36 9267 3372 FO
  36   36 9268 3373 FO
  36   36 9269 3374 FO
  36   36 9270 3374 FO
  36   36 9270 3375 FO
  36   36 9271 3376 FO
  36   36 9272 3377 FO
  36   36 9273 3377 FO
  36   36 9274 3378 FO
  36   36 9275 3379 FO
  36   36 9276 3379 FO
  36   36 9277 3380 FO
  36   36 9278 3381 FO
  36   36 9279 3381 FO
  36   36 9280 3382 FO
  36   36 9280 3383 FO
  36   36 9281 3384 FO
  36   36 9282 3384 FO
  36   36 9283 3385 FO
  36   36 9284 3386 FO
  36   36 9285 3386 FO
  36   36 9286 3387 FO
  36   36 9287 3388 FO
  36   36 9288 3389 FO
  36   36 9289 3389 FO
  36   36 9290 3390 FO
  36   36 9290 3391 FO
  36   36 9291 3391 FO
  36   36 9292 3392 FO
  36   36 9293 3393 FO
  36   36 9294 3393 FO
  36   36 9295 3394 FO
  36   36 9296 3395 FO
  36   36 9297 3396 FO
  36   36 9298 3396 FO
  36   36 9299 3397 FO
  36   36 9300 3398 FO
  36   36 9301 3399 FO
  36   36 9302 3400 FO
  36   36 9303 3401 FO
  36   36 9304 3401 FO
  36   36 9305 3402 FO
  36   36 9306 3403 FO
  36   36 9307 3403 FO
  36   36 9308 3404 FO
  36   36 9309 3405 FO
  36   36 9310 3405 FO
  36   36 9310 3406 FO
  36   36 9311 3407 FO
  36   36 9312 3408 FO
  36   36 9313 3408 FO
  36   36 9314 3409 FO
  36   36 9315 3410 FO
  36   36 9316 3410 FO
  36   36 9317 3411 FO
  36   36 9318 3412 FO
  36   36 9319 3413 FO
  36   36 9320 3413 FO
  36   36 9320 3414 FO
  36   36 9321 3415 FO
  36   36 9322 3415 FO
  36   36 9323 3416 FO
  36   36 9324 3417 FO
  36   36 9325 3418 FO
  36   36 9326 3418 FO
  36   36 9327 3419 FO
  36   36 9328 3420 FO
  36   36 9329 3420 FO
  36   36 9330 3421 FO
  36   36 9331 3422 FO
  36   36 9332 3423 FO
  36   36 9333 3424 FO
  36   36 9334 3425 FO
  36   36 9335 3425 FO
  36   36 9336 3426 FO
  36   36 9337 3427 FO
  36   36 9338 3427 FO
  36   36 9339 3428 FO
  36   36 9340 3429 FO
  36   36 9341 3430 FO
  36   36 9342 3431 FO
  36   36 9343 3432 FO
  36   36 9344 3432 FO
  36   36 9345 3433 FO
  36   36 9346 3434 FO
  36   36 9347 3435 FO
  36   36 9348 3435 FO
  36   36 9349 3436 FO
  36   36 9350 3437 FO
  36   36 9351 3437 FO
  36   36 9351 3438 FO
  36   36 9352 3439 FO
  36   36 9353 3440 FO
  36   36 9354 3440 FO
  36   36 9355 3441 FO
  36   36 9356 3442 FO
  36   36 9357 3442 FO
  36   36 9358 3443 FO
  36   36 9359 3444 FO
  36   36 9360 3445 FO
  36   36 9361 3445 FO
  36   36 9361 3446 FO
  36   36 9362 3447 FO
  36   36 9363 3447 FO
  36   36 9364 3448 FO
  36   36 9365 3449 FO
  36   36 9366 3450 FO
  36   36 9367 3450 FO
  36   36 9368 3451 FO
  36   36 9369 3452 FO
  36   36 9370 3452 FO
  36   36 9371 3453 FO
  36   36 9371 3454 FO
  36   36 9372 3455 FO
  36   36 9373 3455 FO
  36   36 9374 3456 FO
  36   36 9375 3457 FO
  36   36 9376 3457 FO
  36   36 9377 3458 FO
  36   36 9378 3459 FO
  36   36 9379 3459 FO
  36   36 9380 3460 FO
  36   36 9381 3461 FO
  36   36 9381 3462 FO
  36   36 9382 3462 FO
  36   36 9383 3463 FO
  36   36 9384 3464 FO
  36   36 9385 3464 FO
  36   36 9386 3465 FO
  36   36 9387 3466 FO
  36   36 9388 3467 FO
  36   36 9389 3467 FO
  36   36 9390 3468 FO
  36   36 9391 3469 FO
  36   36 9391 3470 FO
  36   36 9392 3470 FO
  36   36 9393 3471 FO
  36   36 9394 3472 FO
  36   36 9395 3472 FO
  36   36 9396 3473 FO
  36   36 9397 3474 FO
  36   36 9398 3475 FO
  36   36 9399 3475 FO
  36   36 9400 3476 FO
  36   36 9401 3477 FO
  36   36 9402 3477 FO
  36   36 9402 3478 FO
  36   36 9403 3479 FO
  36   36 9404 3480 FO
  36   36 9405 3480 FO
  36   36 9406 3481 FO
  36   36 9407 3482 FO
  36   36 9408 3482 FO
  36   36 9409 3483 FO
  36   36 9410 3484 FO
  36   36 9411 3485 FO
  36   36 9412 3485 FO
  36   36 9412 3486 FO
  36   36 9413 3487 FO
  36   36 9414 3487 FO
  36   36 9415 3488 FO
  36   36 9416 3489 FO
  36   36 9417 3490 FO
  36   36 9418 3490 FO
  36   36 9419 3491 FO
  36   36 9420 3492 FO
  36   36 9421 3492 FO
  36   36 9422 3493 FO
  36   36 9422 3494 FO
  36   36 9423 3495 FO
  36   36 9424 3495 FO
  36   36 9425 3496 FO
  36   36 9426 3497 FO
  36   36 9427 3497 FO
  36   36 9428 3498 FO
  36   36 9429 3499 FO
  36   36 9430 3500 FO
  36   36 9431 3500 FO
  36   36 9432 3501 FO
  36   36 9432 3502 FO
  36   36 9433 3502 FO
  36   36 9434 3503 FO
  36   36 9435 3504 FO
  36   36 9436 3505 FO
  36   36 9437 3505 FO
  36   36 9438 3506 FO
  36   36 9439 3507 FO
  36   36 9440 3508 FO
  36   36 9441 3508 FO
  36   36 9442 3509 FO
  36   36 9442 3510 FO
  36   36 9443 3510 FO
  36   36 9444 3511 FO
  36   36 9445 3512 FO
  36   36 9446 3513 FO
  36   36 9447 3513 FO
  36   36 9448 3514 FO
  36   36 9449 3515 FO
  36   36 9450 3515 FO
  36   36 9451 3516 FO
  36   36 9452 3517 FO
  36   36 9452 3518 FO
  36   36 9453 3518 FO
  36   36 9454 3519 FO
  36   36 9455 3520 FO
  36   36 9456 3520 FO
  36   36 9457 3521 FO
  36   36 9458 3522 FO
  36   36 9459 3523 FO
  36   36 9460 3523 FO
  36   36 9461 3524 FO
  36   36 9462 3525 FO
  36   36 9462 3526 FO
  36   36 9463 3526 FO
  36   36 9464 3527 FO
  36   36 9465 3528 FO
  36   36 9466 3528 FO
  36   36 9467 3529 FO
  36   36 9468 3530 FO
  36   36 9469 3531 FO
  36   36 9470 3531 FO
  36   36 9471 3532 FO
  36   36 9472 3533 FO
  36   36 9473 3533 FO
  36   36 9473 3534 FO
  36   36 9474 3535 FO
  36   36 9475 3536 FO
  36   36 9476 3536 FO
  36   36 9477 3537 FO
  36   36 9478 3538 FO
  36   36 9479 3539 FO
  36   36 9480 3539 FO
  36   36 9481 3540 FO
  36   36 9482 3541 FO
  36   36 9483 3541 FO
  36   36 9483 3542 FO
  36   36 9484 3543 FO
  36   36 9485 3544 FO
  36   36 9486 3544 FO
  36   36 9487 3545 FO
  36   36 9488 3546 FO
  36   36 9489 3546 FO
  36   36 9490 3547 FO
  36   36 9491 3548 FO
  36   36 9492 3549 FO
  36   36 9493 3549 FO
  36   36 9493 3550 FO
  36   36 9494 3551 FO
  36   36 9495 3552 FO
  36   36 9496 3552 FO
  36   36 9497 3553 FO
  36   36 9498 3554 FO
  36   36 9499 3554 FO
  36   36 9500 3555 FO
  36   36 9501 3556 FO
  36   36 9502 3557 FO
  36   36 9503 3557 FO
  36   36 9503 3558 FO
  36   36 9504 3559 FO
  36   36 9505 3560 FO
  36   36 9506 3560 FO
  36   36 9507 3561 FO
  36   36 9508 3562 FO
  36   36 9509 3562 FO
  36   36 9510 3563 FO
  36   36 9511 3564 FO
  36   36 9512 3565 FO
  36   36 9513 3565 FO
  36   36 9513 3566 FO
  36   36 9514 3567 FO
  36   36 9515 3568 FO
  36   36 9516 3568 FO
  36   36 9517 3569 FO
  36   36 9518 3570 FO
  36   36 9519 3570 FO
  36   36 9520 3571 FO
  36   36 9521 3572 FO
  36   36 9522 3573 FO
  36   36 9523 3573 FO
  36   36 9523 3574 FO
  36   36 9524 3575 FO
  36   36 9525 3576 FO
  36   36 9526 3576 FO
  36   36 9527 3577 FO
  36   36 9528 3578 FO
  36   36 9529 3578 FO
  36   36 9530 3579 FO
  36   36 9531 3580 FO
  36   36 9532 3581 FO
  36   36 9533 3581 FO
  36   36 9533 3582 FO
  36   36 9534 3583 FO
  36   36 9535 3584 FO
  36   36 9536 3584 FO
  36   36 9537 3585 FO
  36   36 9538 3586 FO
  36   36 9539 3586 FO
  36   36 9540 3587 FO
  36   36 9541 3588 FO
  36   36 9542 3589 FO
  36   36 9543 3589 FO
  36   36 9544 3590 FO
  36   36 9544 3591 FO
  36   36 9545 3592 FO
  36   36 9546 3592 FO
  36   36 9547 3593 FO
  36   36 9548 3594 FO
  36   36 9549 3594 FO
  36   36 9550 3595 FO
  36   36 9551 3596 FO
  36   36 9552 3597 FO
  36   36 9553 3597 FO
  36   36 9554 3598 FO
  36   36 9554 3599 FO
  36   36 9555 3600 FO
  36   36 9556 3600 FO
  36   36 9557 3601 FO
  36   36 9558 3602 FO
  36   36 9559 3602 FO
  36   36 9560 3603 FO
  36   36 9561 3604 FO
  36   36 9562 3605 FO
  36   36 9563 3605 FO
  36   36 9564 3606 FO
  36   36 9564 3607 FO
  36   36 9565 3608 FO
  36   36 9566 3608 FO
  36   36 9567 3609 FO
  36   36 9568 3610 FO
  36   36 9569 3611 FO
  36   36 9570 3611 FO
  36   36 9571 3612 FO
  36   36 9572 3613 FO
  36   36 9573 3613 FO
  36   36 9574 3614 FO
  36   36 9574 3615 FO
  36   36 9575 3616 FO
  36   36 9576 3616 FO
  36   36 9577 3617 FO
  36   36 9578 3618 FO
  36   36 9579 3619 FO
  36   36 9580 3619 FO
  36   36 9581 3620 FO
  36   36 9582 3621 FO
  36   36 9583 3621 FO
  36   36 9584 3622 FO
  36   36 9584 3623 FO
  36   36 9585 3624 FO
  36   36 9586 3624 FO
  36   36 9587 3625 FO
  36   36 9588 3626 FO
  36   36 9589 3627 FO
  36   36 9590 3627 FO
  36   36 9591 3628 FO
  36   36 9592 3629 FO
  36   36 9593 3630 FO
  36   36 9594 3630 FO
  36   36 9594 3631 FO
  36   36 9595 3632 FO
  36   36 9596 3632 FO
  36   36 9597 3633 FO
  36   36 9598 3634 FO
  36   36 9599 3635 FO
  36   36 9600 3635 FO
  36   36 9601 3636 FO
  36   36 9602 3637 FO
  36   36 9603 3638 FO
  36   36 9604 3638 FO
  36   36 9605 3639 FO
  36   36 9605 3640 FO
  36   36 9606 3641 FO
  36   36 9607 3641 FO
  36   36 9608 3642 FO
  36   36 9609 3643 FO
  36   36 9610 3643 FO
  36   36 9611 3644 FO
  36   36 9612 3645 FO
  36   36 9613 3646 FO
  36   36 9614 3646 FO
  36   36 9615 3647 FO
  36   36 9615 3648 FO
  36   36 9616 3649 FO
  36   36 9617 3649 FO
  36   36 9618 3650 FO
  36   36 9619 3651 FO
  36   36 9620 3652 FO
  36   36 9621 3652 FO
  36   36 9622 3653 FO
  36   36 9623 3654 FO
  36   36 9624 3655 FO
  36   36 9625 3655 FO
  36   36 9625 3656 FO
  36   36 9626 3657 FO
  36   36 9627 3657 FO
  36   36 9628 3658 FO
  36   36 9629 3659 FO
  36   36 9630 3660 FO
  36   36 9631 3660 FO
  36   36 9632 3661 FO
  36   36 9633 3662 FO
  36   36 9634 3663 FO
  36   36 9635 3663 FO
  36   36 9635 3664 FO
  36   36 9636 3665 FO
  36   36 9637 3666 FO
  36   36 9638 3666 FO
  36   36 9639 3667 FO
  36   36 9640 3668 FO
  36   36 9641 3669 FO
  36   36 9642 3669 FO
  36   36 9643 3670 FO
  36   36 9644 3671 FO
  36   36 9645 3671 FO
  36   36 9645 3672 FO
  36   36 9646 3673 FO
  36   36 9647 3674 FO
  36   36 9648 3674 FO
  36   36 9649 3675 FO
  36   36 9650 3676 FO
  36   36 9651 3677 FO
  36   36 9652 3677 FO
  36   36 9653 3678 FO
  36   36 9654 3679 FO
  36   36 9655 3680 FO
  36   36 9656 3681 FO
  36   36 9657 3682 FO
  36   36 9658 3683 FO
  36   36 9659 3683 FO
  36   36 9660 3684 FO
  36   36 9661 3685 FO
  36   36 9662 3686 FO
  36   36 9663 3686 FO
  36   36 9664 3687 FO
  36   36 9665 3688 FO
  36   36 9666 3689 FO
  36   36 9667 3690 FO
  36   36 9668 3691 FO
  36   36 9669 3691 FO
  36   36 9670 3692 FO
  36   36 9671 3693 FO
gs 1527 381 9104 4139 rc
48 w
gr

48 w
0 sg
  36   36 7899 3691 PO
  36   36 7899 3691 FO
gs 1527 381 9104 4139 rc
gr

%%IncludeResource: font Helvetica
/Helvetica /WindowsLatin1Encoding 120 FMSR

1510 4562 mt 
( ) s
10614  423 mt 
( ) s
6 w
1 sg
0 552 3962 0 0 -552 6464 1008 4 MP
PP
-3962 0 0 552 3962 0 0 -552 6464 1008 5 MP stroke
4 w
DO
SO
6 w
6464  456 mt 10426  456 L
6464 1008 mt 10426 1008 L
10426 1008 mt 10426  456 L
6464 1008 mt 6464  456 L
6464 1008 mt 10426 1008 L
6464 1008 mt 6464  456 L
6464  456 mt 10426  456 L
6464 1008 mt 10426 1008 L
10426 1008 mt 10426  456 L
6464 1008 mt 6464  456 L
0 sg
%%IncludeResource: font Courier
/Courier /WindowsLatin1Encoding 360 FMSR

7046  850 mt 
(Preferred Region) s
gs 6464 456 3963 553 rc
72 w
gs 6631 586 293 293 rc
c9
  36   36 6777  732 FO
gr

c9
6 w
gr

c9
0 sg
%%IncludeResource: font Courier-Bold
/Courier-Bold /WindowsLatin1Encoding 360 FMSR

5808 3197 mt 
(\( 0.7, 0.2 \)) s

end %%Color Dict

eplot
%%EndObject

epage
end

showpage

%%Trailer
%%EOF
