%!PS-Adobe-3.0 EPSF-3.0
%%Creator: MATLAB, The MathWorks, Inc. Version 7.13.0.564 (R2011b). Operating System: Microsoft Windows XP.
%%Title: D:\DriveG\Sem2-2012\Program\ReferenceMetric-v3\metricfig\zdt6\zdt6-te.eps
%%CreationDate: 02/20/2013  12:57:13
%%DocumentNeededFonts: Helvetica
%%+ Courier-Bold
%%+ Courier
%%DocumentProcessColors: Cyan Magenta Yellow Black
%%LanguageLevel: 2
%%Pages: 1
%%BoundingBox:  -191   208   787   632
%%EndComments

%%BeginProlog
% MathWorks dictionary
/MathWorks 160 dict begin
% definition operators
/bdef {bind def} bind def
/ldef {load def} bind def
/xdef {exch def} bdef
/xstore {exch store} bdef
% operator abbreviations
/c  /clip ldef
/cc /concat ldef
/cp /closepath ldef
/gr /grestore ldef
/gs /gsave ldef
/mt /moveto ldef
/np /newpath ldef
/cm /currentmatrix ldef
/sm /setmatrix ldef
/rm /rmoveto ldef
/rl /rlineto ldef
/s {show newpath} bdef
/sc {setcmykcolor} bdef
/sr /setrgbcolor ldef
/sg /setgray ldef
/w /setlinewidth ldef
/j /setlinejoin ldef
/cap /setlinecap ldef
/rc {rectclip} bdef
/rf {rectfill} bdef
% page state control
/pgsv () def
/bpage {/pgsv save def} bdef
/epage {pgsv restore} bdef
/bplot /gsave ldef
/eplot {stroke grestore} bdef
% orientation switch
/portraitMode 0 def /landscapeMode 1 def /rotateMode 2 def
% coordinate system mappings
/dpi2point 0 def
% font control
/FontSize 0 def
/FMS {/FontSize xstore findfont [FontSize 0 0 FontSize neg 0 0]
  makefont setfont} bdef
/ISOLatin1Encoding where {pop /WindowsLatin1Encoding 256 array bdef
ISOLatin1Encoding WindowsLatin1Encoding copy pop
/.notdef/.notdef/quotesinglbase/florin/quotedblbase/ellipsis/dagger
/daggerdbl/circumflex/perthousand/Scaron/guilsinglleft/OE/.notdef/.notdef
/.notdef/.notdef/quoteleft/quoteright/quotedblleft/quotedblright/bullet
/endash/emdash/tilde/trademark/scaron/guilsinglright/oe/.notdef/.notdef
/Ydieresis WindowsLatin1Encoding 128 32 getinterval astore pop}
{/WindowsLatin1Encoding StandardEncoding bdef} ifelse
/reencode {exch dup where {pop load} {pop StandardEncoding} ifelse
  exch dup 3 1 roll findfont dup length dict begin
  { 1 index /FID ne {def}{pop pop} ifelse } forall
  /Encoding exch def currentdict end definefont pop} bdef
/isroman {findfont /CharStrings get /Agrave known} bdef
/FMSR {3 1 roll 1 index dup isroman {reencode} {pop pop} ifelse
  exch FMS} bdef
/csm {1 dpi2point div -1 dpi2point div scale neg translate
 dup landscapeMode eq {pop -90 rotate}
  {rotateMode eq {90 rotate} if} ifelse} bdef
% line types: solid, dotted, dashed, dotdash
/SO { [] 0 setdash } bdef
/DO { [.5 dpi2point mul 4 dpi2point mul] 0 setdash } bdef
/DA { [6 dpi2point mul] 0 setdash } bdef
/DD { [.5 dpi2point mul 4 dpi2point mul 6 dpi2point mul 4
  dpi2point mul] 0 setdash } bdef
% macros for lines and objects
/L {lineto stroke} bdef
/MP {3 1 roll moveto 1 sub {rlineto} repeat} bdef
/AP {{rlineto} repeat} bdef
/PDlw -1 def
/W {/PDlw currentlinewidth def setlinewidth} def
/PP {closepath eofill} bdef
/DP {closepath stroke} bdef
/MR {4 -2 roll moveto dup  0 exch rlineto exch 0 rlineto
  neg 0 exch rlineto closepath} bdef
/FR {MR stroke} bdef
/PR {MR fill} bdef
/L1i {{currentfile picstr readhexstring pop} image} bdef
/tMatrix matrix def
/MakeOval {newpath tMatrix currentmatrix pop translate scale
0 0 1 0 360 arc tMatrix setmatrix} bdef
/FO {MakeOval stroke} bdef
/PO {MakeOval fill} bdef
/PD {currentlinewidth 2 div 0 360 arc fill
   PDlw -1 eq not {PDlw w /PDlw -1 def} if} def
/FA {newpath tMatrix currentmatrix pop translate scale
  0 0 1 5 -2 roll arc tMatrix setmatrix stroke} bdef
/PA {newpath tMatrix currentmatrix pop	translate 0 0 moveto scale
  0 0 1 5 -2 roll arc closepath tMatrix setmatrix fill} bdef
/FAn {newpath tMatrix currentmatrix pop translate scale
  0 0 1 5 -2 roll arcn tMatrix setmatrix stroke} bdef
/PAn {newpath tMatrix currentmatrix pop translate 0 0 moveto scale
  0 0 1 5 -2 roll arcn closepath tMatrix setmatrix fill} bdef
/vradius 0 def /hradius 0 def /lry 0 def
/lrx 0 def /uly 0 def /ulx 0 def /rad 0 def
/MRR {/vradius xdef /hradius xdef /lry xdef /lrx xdef /uly xdef
  /ulx xdef newpath tMatrix currentmatrix pop ulx hradius add uly
  vradius add translate hradius vradius scale 0 0 1 180 270 arc 
  tMatrix setmatrix lrx hradius sub uly vradius add translate
  hradius vradius scale 0 0 1 270 360 arc tMatrix setmatrix
  lrx hradius sub lry vradius sub translate hradius vradius scale
  0 0 1 0 90 arc tMatrix setmatrix ulx hradius add lry vradius sub
  translate hradius vradius scale 0 0 1 90 180 arc tMatrix setmatrix
  closepath} bdef
/FRR {MRR stroke } bdef
/PRR {MRR fill } bdef
/MlrRR {/lry xdef /lrx xdef /uly xdef /ulx xdef /rad lry uly sub 2 div def
  newpath tMatrix currentmatrix pop ulx rad add uly rad add translate
  rad rad scale 0 0 1 90 270 arc tMatrix setmatrix lrx rad sub lry rad
  sub translate rad rad scale 0 0 1 270 90 arc tMatrix setmatrix
  closepath} bdef
/FlrRR {MlrRR stroke } bdef
/PlrRR {MlrRR fill } bdef
/MtbRR {/lry xdef /lrx xdef /uly xdef /ulx xdef /rad lrx ulx sub 2 div def
  newpath tMatrix currentmatrix pop ulx rad add uly rad add translate
  rad rad scale 0 0 1 180 360 arc tMatrix setmatrix lrx rad sub lry rad
  sub translate rad rad scale 0 0 1 0 180 arc tMatrix setmatrix
  closepath} bdef
/FtbRR {MtbRR stroke } bdef
/PtbRR {MtbRR fill } bdef
/stri 6 array def /dtri 6 array def
/smat 6 array def /dmat 6 array def
/tmat1 6 array def /tmat2 6 array def /dif 3 array def
/asub {/ind2 exch def /ind1 exch def dup dup
  ind1 get exch ind2 get sub exch } bdef
/tri_to_matrix {
  2 0 asub 3 1 asub 4 0 asub 5 1 asub
  dup 0 get exch 1 get 7 -1 roll astore } bdef
/compute_transform {
  dmat dtri tri_to_matrix tmat1 invertmatrix 
  smat stri tri_to_matrix tmat2 concatmatrix } bdef
/ds {stri astore pop} bdef
/dt {dtri astore pop} bdef
/db {2 copy /cols xdef /rows xdef mul dup 3 mul string
  currentfile 
  3 index 0 eq {/ASCIIHexDecode filter}
  {/ASCII85Decode filter 3 index 2 eq {/RunLengthDecode filter} if }
  ifelse exch readstring pop
  dup 0 3 index getinterval /rbmap xdef
  dup 2 index dup getinterval /gbmap xdef
  1 index dup 2 mul exch getinterval /bbmap xdef pop pop}bdef
/it {gs np dtri aload pop moveto lineto lineto cp c
  cols rows 8 compute_transform 
  rbmap gbmap bbmap true 3 colorimage gr}bdef
/il {newpath moveto lineto stroke}bdef
currentdict end def
%%EndProlog

%%BeginSetup
MathWorks begin

0 cap

end
%%EndSetup

%%Page: 1 1
%%BeginPageSetup
%%PageBoundingBox:  -191   208   787   632
MathWorks begin
bpage
%%EndPageSetup

%%BeginObject: obj1
bplot

/dpi2point 12 def
portraitMode -2292 7584 csm

    0     0 11746  5078 rc
86 dict begin %Colortable dictionary
/c0 { 0.000000 0.000000 0.000000 sr} bdef
/c1 { 1.000000 1.000000 1.000000 sr} bdef
/c2 { 0.900000 0.000000 0.000000 sr} bdef
/c3 { 0.000000 0.820000 0.000000 sr} bdef
/c4 { 0.000000 0.000000 0.800000 sr} bdef
/c5 { 0.910000 0.820000 0.320000 sr} bdef
/c6 { 1.000000 0.260000 0.820000 sr} bdef
/c7 { 0.000000 0.820000 0.820000 sr} bdef
c0
1 j
1 sg
   0    0 11747 5079 rf
6 w
0 4601 8858 0 0 -4601 1539 4784 4 MP
PP
-8858 0 0 4601 8858 0 0 -4601 1539 4784 5 MP stroke
4 w
DO
SO
6 w
0 sg
1539  183 mt 10397  183 L
1539 4784 mt 10397 4784 L
10397 4784 mt 10397  183 L
1539 4784 mt 1539  183 L
1539 4784 mt 10397 4784 L
1539 4784 mt 1539  183 L
1539 4784 mt 1539 4695 L
1539  183 mt 1539  271 L
%%IncludeResource: font Helvetica
/Helvetica /WindowsLatin1Encoding 192 FMSR

1406 4996 mt 
(0.2) s
2646 4784 mt 2646 4695 L
2646  183 mt 2646  271 L
2513 4996 mt 
(0.3) s
3753 4784 mt 3753 4695 L
3753  183 mt 3753  271 L
3620 4996 mt 
(0.4) s
4860 4784 mt 4860 4695 L
4860  183 mt 4860  271 L
4727 4996 mt 
(0.5) s
5968 4784 mt 5968 4695 L
5968  183 mt 5968  271 L
5835 4996 mt 
(0.6) s
7075 4784 mt 7075 4695 L
7075  183 mt 7075  271 L
6942 4996 mt 
(0.7) s
8182 4784 mt 8182 4695 L
8182  183 mt 8182  271 L
8049 4996 mt 
(0.8) s
9289 4784 mt 9289 4695 L
9289  183 mt 9289  271 L
9156 4996 mt 
(0.9) s
10397 4784 mt 10397 4695 L
10397  183 mt 10397  271 L
10344 4996 mt 
(1) s
1539 4784 mt 1627 4784 L
10397 4784 mt 10308 4784 L
1398 4855 mt 
(0) s
1539 4323 mt 1627 4323 L
10397 4323 mt 10308 4323 L
1238 4394 mt 
(0.1) s
1539 3863 mt 1627 3863 L
10397 3863 mt 10308 3863 L
1238 3934 mt 
(0.2) s
1539 3403 mt 1627 3403 L
10397 3403 mt 10308 3403 L
1238 3474 mt 
(0.3) s
1539 2943 mt 1627 2943 L
10397 2943 mt 10308 2943 L
1238 3014 mt 
(0.4) s
1539 2483 mt 1627 2483 L
10397 2483 mt 10308 2483 L
1238 2554 mt 
(0.5) s
1539 2023 mt 1627 2023 L
10397 2023 mt 10308 2023 L
1238 2094 mt 
(0.6) s
1539 1563 mt 1627 1563 L
10397 1563 mt 10308 1563 L
1238 1634 mt 
(0.7) s
1539 1103 mt 1627 1103 L
10397 1103 mt 10308 1103 L
1238 1174 mt 
(0.8) s
1539  643 mt 1627  643 L
10397  643 mt 10308  643 L
1238  714 mt 
(0.9) s
1539  183 mt 1627  183 L
10397  183 mt 10308  183 L
1398  254 mt 
(1) s
1539  183 mt 10397  183 L
1539 4784 mt 10397 4784 L
10397 4784 mt 10397  183 L
1539 4784 mt 1539  183 L
gs 1539 183 8859 4602 rc
27.6 w
/c8 { 0.000000 0.000000 1.000000 sr} bdef
c8
1 1 1 1 1 1 1 0 1 1 1 1 1 1 1 1 
2 1 1 1 2 2 2 1 2 2 2 2 3 2 3 3 
3 2 4 3 3 3 4 4 5 3 4 4 5 4 6 5 
5 4 6 5 6 5 6 5 7 6 7 6 7 6 8 6 
7 6 8 6 8 7 8 6 8 7 8 7 9 6 8 7 
8 7 8 7 8 6 8 6 8 7 7 6 7 6 7 5 
7 6 6 5 6 4 5 5 5 4 4 3 4 3 3 3 
3 2 2 2 2 1 1 1 1 1 -1 -1 -2 -1 -2 -2 
-2 -2 -3 -3 -4 -3 -4 -3 -5 -4 -5 -4 -6 -5 -6 -5 
-7 -5 -6 -5 -8 -6 -7 -6 -8 -7 -8 -6 -8 -7 -8 -7 
-8 -6 -9 -7 -8 -7 -9 -7 -8 -7 -8 -7 -8 -6 -8 -7 
-8 -6 -8 -6 -7 -7 -7 -5 -7 -6 -7 -5 -6 -6 -6 -5 
-6 -4 -5 -5 -5 -4 -5 -4 -4 -3 -4 -4 -4 -3 -3 -3 
-4 -3 -3 -2 -2 -2 -3 -2 -2 -2 -2 -1 -1 -2 -2 -1 
-1 -1 -1 -1 -1 -1 -1 0 -1 -1 -1 -1 -1 -1 1 0 
1 1 1 1 1 1 1 1 1 1 1 1 2 1 2 2 
2 2 2 2 3 2 3 3 4 3 4 3 4 3 5 4 
5 5 6 5 7 5 7 6 7 6 8 7 9 7 9 7 
10 8 10 9 11 9 12 9 12 10 12 11 14 11 13 11 
14 11 15 12 15 12 15 13 16 12 15 13 16 13 16 13 
16 13 16 13 16 12 16 13 15 12 16 13 14 11 15 12 
14 11 13 10 12 10 12 10 11 9 10 8 9 7 9 6 
7 6 6 5 5 4 4 3 3 2 1 2 1 0 -1 -1 
-2 -1 -3 -3 -4 -3 -6 -4 -6 -5 -8 -6 -8 -7 -10 -8 
-10 -8 -11 -9 -13 -10 -12 -10 -14 -11 -14 -11 -15 -12 -15 -12 
-16 -12 -16 -13 -16 -13 -16 -13 -16 -13 -17 -14 -16 -13 -16 -13 
-16 -13 -16 -13 -15 -12 -15 -13 -15 -12 -14 -11 -14 -11 -13 -11 
-13 -11 -12 -9 -11 -10 -11 -9 -10 -8 -10 -8 -9 -8 -8 -6 
-8 -7 -7 -6 -7 -5 -6 -5 -5 -5 -5 -4 -5 -3 -4 -4 
-3 -3 -3 -2 -3 -3 -3 -2 -2 -1 -1 -2 -2 -1 -1 -1 
-1 -1 -1 -1 -1 0 -1 -1 -1 -1 1 0 -1 0 2 2 
1 0 1 1 1 1 1 1 2 2 2 1 3 2 2 3 
4 3 4 3 4 3 5 5 6 4 6 6 7 5 8 7 
9 7 10 8 11 9 11 10 13 10 14 12 15 12 16 13 
17 14 19 15 19 16 21 17 21 18 23 18 24 20 25 20 
26 21 27 21 28 23 29 23 29 23 30 24 30 24 31 24 
31 24 31 25 31 24 31 25 31 24 31 24 30 23 29 22 
29 22 27 22 27 20 9511 4077 300 MP stroke
25 19 24 18 22 17 21 16 19 15 18 13 15 11 14 10 
11 9 9 7 7 5 5 4 2 1 -2 -1 -5 -4 -6 -5 
-9 -6 -12 -9 -13 -10 -15 -11 -18 -14 -19 -14 -21 -16 -22 -17 
-25 -19 -25 -19 -27 -21 -28 -21 -29 -22 -30 -23 -30 -24 -31 -24 
-32 -25 -32 -25 -32 -25 -31 -25 -32 -25 -31 -24 -31 -25 -31 -24 
-30 -24 -29 -23 -28 -23 -28 -22 -26 -21 -25 -21 -24 -19 -24 -19 
-22 -18 -20 -17 -20 -16 -18 -15 -17 -14 -16 -13 -15 -12 -13 -11 
-13 -10 -11 -10 -10 -8 -10 -8 -8 -7 -8 -6 -6 -6 -6 -4 
-5 -5 -5 -3 -4 -4 -3 -2 -3 -3 -2 -2 -2 -1 -2 -2 
-1 -1 -1 -1 -1 0 -1 -1 -1 -1 -1 -1 1 1 1 0 
0 1 3 2 1 1 2 1 2 2 2 2 3 3 4 3 
4 3 5 4 6 5 6 6 8 6 9 8 10 8 12 9 
13 11 14 12 16 13 18 15 20 16 21 18 24 19 26 21 
27 22 30 24 32 26 34 28 37 29 39 31 41 33 43 34 
45 36 47 37 50 39 51 40 53 41 54 42 57 43 57 44 
58 44 60 45 60 45 61 46 60 45 61 44 61 45 60 43 
59 43 58 42 57 40 55 39 53 38 51 36 48 33 46 32 
42 30 40 27 36 25 32 22 29 19 25 17 20 14 17 11 
12 8 7 5 4 3 -2 -1 -5 -4 -11 -7 -14 -10 -19 -13 
-23 -15 -28 -19 -31 -21 -35 -24 -38 -27 -42 -29 -45 -31 -48 -33 
-51 -36 -53 -37 -55 -40 -57 -40 -59 -42 -60 -43 -61 -45 -61 -45 
-62 -45 -62 -46 -62 -46 -62 -47 -61 -45 -60 -46 -59 -45 -57 -44 
-57 -44 -54 -42 -53 -41 -51 -40 -48 -38 -47 -37 -44 -35 -42 -34 
-40 -31 -37 -30 -35 -28 -32 -27 -30 -24 -28 -23 -26 -21 -23 -19 
-22 -18 -19 -16 -18 -14 -15 -13 -14 -11 -13 -11 -11 -9 -9 -7 
-9 -7 -7 -6 -6 -5 -5 -5 -4 -3 -4 -3 -3 -3 -2 -2 
-2 -1 -2 -2 -1 -1 -1 -1 -1 0 -1 -1 1 0 -1 0 
2 2 1 0 1 1 2 2 2 2 3 2 3 3 5 3 
5 5 6 5 7 6 9 7 10 9 12 10 14 11 16 13 
18 15 21 17 23 19 27 22 29 23 32 27 36 29 40 32 
43 35 47 37 51 41 55 44 60 47 64 50 68 54 72 56 
77 59 82 62 85 65 90 67 93 69 97 72 101 74 105 75 
107 76 110 78 113 79 114 78 117 79 117 79 118 79 119 77 
118 76 118 75 116 73 115 71 112 68 109 66 106 63 102 59 
98 57 92 52 87 50 81 45 75 41 68 37 61 33 53 29 
46 24 37 20 29 15 21 11 12 6 3 2 -5 -3 -15 -7 
-22 -12 -32 -17 -39 -21 -48 -25 -56 -30 -63 -35 -70 -38 -78 -43 
-84 -47 -89 -51 -96 -54 7005 2396 300 MP stroke
-100 -59 -105 -61 -109 -65 -112 -68 -115 -70 -117 -73 -119 -75 -120 -77 
-121 -78 -121 -80 -120 -80 -120 -81 -118 -81 -117 -81 -114 -80 -111 -79 
-108 -78 -105 -76 -102 -74 -97 -73 -94 -70 -89 -67 -84 -65 -81 -61 
-75 -59 -71 -55 -67 -52 -61 -49 -58 -46 -53 -42 -48 -39 -45 -35 
-40 -33 -36 -30 -33 -27 -30 -24 -26 -21 -23 -19 -20 -17 -18 -14 
-16 -13 -13 -11 -11 -9 -10 -8 -8 -7 -6 -5 -6 -5 -4 -4 
-4 -3 -3 -2 -2 -2 -1 -1 -2 -1 -1 -1 -1 -1 1 0 
-1 0 2 2 1 1 2 1 2 2 3 2 3 3 5 4 
6 5 7 6 9 7 10 9 13 10 16 13 18 15 21 17 
24 20 29 24 32 26 37 30 42 34 47 38 53 43 59 47 
65 52 73 57 79 62 87 68 94 73 102 78 111 83 118 89 
128 94 135 99 144 103 153 108 161 112 169 116 177 118 185 121 
192 124 198 124 206 126 211 126 216 125 221 125 224 123 227 120 
230 118 230 114 231 111 230 106 228 102 226 96 222 91 216 85 
211 80 204 74 196 68 187 62 177 57 166 51 154 45 141 40 
128 35 114 30 98 25 84 21 67 17 51 12 35 8 18 4 
-16 -3 -33 -8 -50 -12 -67 -16 -82 -21 -98 -25 -114 -30 -128 -35 
-142 -40 -155 -46 -167 -51 -178 -57 -189 -63 -199 -69 -206 -75 -215 -81 
-220 -87 -226 -93 -229 -98 -233 -104 -235 -109 -235 -113 -236 -117 -234 -121 
-232 -124 -229 -126 -225 -128 -221 -129 -215 -130 -209 -129 -202 -128 -195 -126 
-187 -124 -179 -121 -171 -118 -162 -113 -153 -109 -145 -105 -135 -99 -126 -94 
-118 -89 -108 -83 -100 -77 -92 -71 -84 -66 -76 -60 -69 -55 -62 -49 
-55 -45 -49 -39 -43 -35 -38 -31 -33 -27 -28 -24 -25 -20 -21 -17 
-17 -14 -15 -12 -12 -11 -10 -8 -8 -6 -6 -6 -5 -4 -4 -3 
-3 -3 -3 -1 -1 -2 -1 -1 -1 0 -1 -1 -1 -1 10397 4784 200 MP stroke
72 w
gs 7998 2956 1379 1056 rc
/c9 { 0.000000 1.000000 1.000000 sr} bdef
c9
  36   36 9182 3829 FO
  36   36 9047 3730 FO
  36   36 8902 3625 FO
  36   36 8749 3516 FO
  36   36 8587 3403 FO
  36   36 8416 3285 FO
  36   36 8237 3164 FO
  36   36 8159 3112 FO
  36   36 8336 3230 FO
  36   36 8505 3346 FO
  36   36 8666 3458 FO
  36   36 8819 3566 FO
  36   36 8963 3669 FO
  36   36 9098 3768 FO
  36   36 9226 3862 FO
  36   36 9159 3812 FO
  36   36 9057 3738 FO
  36   36 8952 3662 FO
  36   36 8844 3584 FO
  36   36 8733 3505 FO
  36   36 8619 3425 FO
  36   36 8502 3344 FO
  36   36 8384 3263 FO
  36   36 8264 3182 FO
  36   36 8144 3102 FO
  36   36 8204 3142 FO
  36   36 8321 3221 FO
  36   36 8438 3300 FO
  36   36 8552 3378 FO
  36   36 8665 3457 FO
  36   36 8775 3535 FO
  36   36 8882 3611 FO
  36   36 8987 3686 FO
  36   36 9088 3760 FO
  36   36 9185 3832 FO
  36   36 9219 3857 FO
  36   36 9157 3811 FO
  36   36 9095 3766 FO
  36   36 9034 3721 FO
  36   36 8973 3676 FO
  36   36 8913 3633 FO
  36   36 8854 3591 FO
  36   36 8797 3551 FO
  36   36 8742 3511 FO
  36   36 8689 3474 FO
  36   36 8638 3438 FO
  36   36 8590 3405 FO
  36   36 8545 3374 FO
  36   36 8503 3345 FO
  36   36 8465 3318 FO
  36   36 8430 3294 FO
  36   36 8399 3273 FO
  36   36 8371 3254 FO
  36   36 8348 3239 FO
  36   36 8329 3226 FO
  36   36 8315 3216 FO
  36   36 8304 3209 FO
  36   36 8299 3205 FO
  36   36 8297 3204 FO
  36   36 8301 3207 FO
  36   36 8308 3212 FO
  36   36 8320 3220 FO
  36   36 8337 3231 FO
  36   36 8357 3245 FO
  36   36 8382 3262 FO
  36   36 8411 3281 FO
  36   36 8443 3303 FO
  36   36 8479 3328 FO
  36   36 8519 3355 FO
  36   36 8561 3385 FO
  36   36 8607 3417 FO
  36   36 8655 3450 FO
  36   36 8706 3486 FO
  36   36 8759 3524 FO
  36   36 8814 3563 FO
  36   36 8871 3603 FO
  36   36 8929 3645 FO
  36   36 8988 3688 FO
  36   36 9048 3731 FO
  36   36 9109 3776 FO
  36   36 9170 3820 FO
  36   36 9230 3865 FO
gr

c9
48 w
gs 8388 3212 620 537 rc
0 j
0 -94 -94 0 0 94 94 0 8633 3421 5 MP
/c10 { 1.000000 0.000000 0.000000 sr} bdef
c10
gs
PP
gr
DP
0 -94 -94 0 0 94 94 0 8511 3335 5 MP
gs
PP
gr
DP
0 -94 -94 0 0 94 94 0 8724 3485 5 MP
gs
PP
gr
DP
0 -94 -94 0 0 94 94 0 8682 3455 5 MP
gs
PP
gr
DP
0 -94 -94 0 0 94 94 0 8524 3344 5 MP
gs
PP
gr
DP
0 -94 -94 0 0 94 94 0 8638 3424 5 MP
gs
PP
gr
DP
0 -94 -94 0 0 94 94 0 8790 3531 5 MP
gs
PP
gr
DP
0 -94 -94 0 0 94 94 0 8638 3424 5 MP
gs
PP
gr
DP
0 -94 -94 0 0 94 94 0 8576 3381 5 MP
gs
PP
gr
DP
0 -94 -94 0 0 94 94 0 8633 3421 5 MP
gs
PP
gr
DP
0 -94 -94 0 0 94 94 0 8576 3381 5 MP
gs
PP
gr
DP
0 -94 -94 0 0 94 94 0 8511 3335 5 MP
gs
PP
gr
DP
0 -94 -94 0 0 94 94 0 8605 3401 5 MP
gs
PP
gr
DP
0 -94 -94 0 0 94 94 0 8724 3485 5 MP
gs
PP
gr
DP
0 -94 -94 0 0 94 94 0 8576 3381 5 MP
gs
PP
gr
DP
0 -94 -94 0 0 94 94 0 8592 3392 5 MP
gs
PP
gr
DP
0 -94 -94 0 0 94 94 0 8638 3424 5 MP
gs
PP
gr
DP
0 -94 -94 0 0 94 94 0 8724 3485 5 MP
gs
PP
gr
DP
0 -94 -94 0 0 94 94 0 8576 3381 5 MP
gs
PP
gr
DP
0 -94 -94 0 0 94 94 0 8790 3531 5 MP
gs
PP
gr
DP
0 -94 -94 0 0 94 94 0 8724 3485 5 MP
gs
PP
gr
DP
0 -94 -94 0 0 94 94 0 8678 3452 5 MP
gs
PP
gr
DP
0 -94 -94 0 0 94 94 0 8576 3381 5 MP
gs
PP
gr
DP
0 -94 -94 0 0 94 94 0 8633 3421 5 MP
gs
PP
gr
DP
0 -94 -94 0 0 94 94 0 8576 3381 5 MP
gs
PP
gr
DP
0 -94 -94 0 0 94 94 0 8524 3344 5 MP
gs
PP
gr
DP
0 -94 -94 0 0 94 94 0 8678 3452 5 MP
gs
PP
gr
DP
0 -94 -94 0 0 94 94 0 8740 3496 5 MP
gs
PP
gr
DP
0 -94 -94 0 0 94 94 0 8605 3401 5 MP
gs
PP
gr
DP
0 -94 -94 0 0 94 94 0 8790 3531 5 MP
gs
PP
gr
DP
0 -94 -94 0 0 94 94 0 8678 3452 5 MP
gs
PP
gr
DP
0 -94 -94 0 0 94 94 0 8524 3344 5 MP
gs
PP
gr
DP
0 -94 -94 0 0 94 94 0 8724 3485 5 MP
gs
PP
gr
DP
0 -94 -94 0 0 94 94 0 8678 3452 5 MP
gs
PP
gr
DP
0 -94 -94 0 0 94 94 0 8605 3401 5 MP
gs
PP
gr
DP
0 -94 -94 0 0 94 94 0 8576 3381 5 MP
gs
PP
gr
DP
0 -94 -94 0 0 94 94 0 8678 3452 5 MP
gs
PP
gr
DP
0 -94 -94 0 0 94 94 0 8724 3485 5 MP
gs
PP
gr
DP
0 -94 -94 0 0 94 94 0 8638 3424 5 MP
gs
PP
gr
DP
0 -94 -94 0 0 94 94 0 8576 3381 5 MP
gs
PP
gr
DP
0 -94 -94 0 0 94 94 0 8592 3392 5 MP
gs
PP
gr
DP
0 -94 -94 0 0 94 94 0 8678 3452 5 MP
gs
PP
gr
DP
0 -94 -94 0 0 94 94 0 8605 3401 5 MP
gs
PP
gr
DP
0 -94 -94 0 0 94 94 0 8724 3485 5 MP
gs
PP
gr
DP
0 -94 -94 0 0 94 94 0 8633 3421 5 MP
gs
PP
gr
DP
gr

c10
72 w
gs 6929 3717 293 293 rc
0 sg
  36   36 7075 3863 PO
  36   36 7075 3863 FO
gr

0 sg
gr

72 w
%%IncludeResource: font Helvetica
/Helvetica /WindowsLatin1Encoding 120 FMSR

1522 4827 mt 
( ) s
10381  225 mt 
( ) s
6 w
1 sg
0 792 3789 0 0 -792 6391 1005 4 MP
PP
-3789 0 0 792 3789 0 0 -792 6391 1005 5 MP stroke
4 w
DO
SO
6 w
6391  213 mt 10180  213 L
6391 1005 mt 10180 1005 L
10180 1005 mt 10180  213 L
6391 1005 mt 6391  213 L
6391 1005 mt 10180 1005 L
6391 1005 mt 6391  213 L
6391  213 mt 10180  213 L
6391 1005 mt 10180 1005 L
10180 1005 mt 10180  213 L
6391 1005 mt 6391  213 L
0 sg
%%IncludeResource: font Courier
/Courier /WindowsLatin1Encoding 288 FMSR

6969  515 mt 
(Preferred Region) s
gs 6391 213 3790 793 rc
72 w
gs 6556 275 293 293 rc
c9
  36   36 6702  421 FO
gr

c9
gr

72 w
c9
0 sg
6969  890 mt 
(Obtained Soloutions) s
gs 6391 213 3790 793 rc
48 w
gs 6532 626 341 341 rc
0 j
0 -94 -94 0 0 94 94 0 6655 749 5 MP
c10
gs
PP
gr
DP
gr

c10
6 w
gr

6 w
c10
0 sg
%%IncludeResource: font Courier-Bold
/Courier-Bold /WindowsLatin1Encoding 288 FMSR

5104 3163 mt 
(\( 0.7 , 0.2 \)) s

end %%Color Dict

eplot
%%EndObject

epage
end

showpage

%%Trailer
%%EOF
