%!PS-Adobe-3.0 EPSF-3.0
%%Creator: MATLAB, The MathWorks, Inc. Version 7.13.0.564 (R2011b). Operating System: Microsoft Windows XP.
%%Title: D:\DriveG\Sem2-2012\Program\ReferenceMetric-v3\metricfig\zdt6\zdt6-ws.eps
%%CreationDate: 02/27/2013  12:35:42
%%DocumentNeededFonts: Helvetica
%%+ Courier-Bold
%%+ Courier
%%DocumentProcessColors: Cyan Magenta Yellow Black
%%LanguageLevel: 2
%%Pages: 1
%%BoundingBox:  -191   238   787   604
%%EndComments

%%BeginProlog
% MathWorks dictionary
/MathWorks 160 dict begin
% definition operators
/bdef {bind def} bind def
/ldef {load def} bind def
/xdef {exch def} bdef
/xstore {exch store} bdef
% operator abbreviations
/c  /clip ldef
/cc /concat ldef
/cp /closepath ldef
/gr /grestore ldef
/gs /gsave ldef
/mt /moveto ldef
/np /newpath ldef
/cm /currentmatrix ldef
/sm /setmatrix ldef
/rm /rmoveto ldef
/rl /rlineto ldef
/s {show newpath} bdef
/sc {setcmykcolor} bdef
/sr /setrgbcolor ldef
/sg /setgray ldef
/w /setlinewidth ldef
/j /setlinejoin ldef
/cap /setlinecap ldef
/rc {rectclip} bdef
/rf {rectfill} bdef
% page state control
/pgsv () def
/bpage {/pgsv save def} bdef
/epage {pgsv restore} bdef
/bplot /gsave ldef
/eplot {stroke grestore} bdef
% orientation switch
/portraitMode 0 def /landscapeMode 1 def /rotateMode 2 def
% coordinate system mappings
/dpi2point 0 def
% font control
/FontSize 0 def
/FMS {/FontSize xstore findfont [FontSize 0 0 FontSize neg 0 0]
  makefont setfont} bdef
/ISOLatin1Encoding where {pop /WindowsLatin1Encoding 256 array bdef
ISOLatin1Encoding WindowsLatin1Encoding copy pop
/.notdef/.notdef/quotesinglbase/florin/quotedblbase/ellipsis/dagger
/daggerdbl/circumflex/perthousand/Scaron/guilsinglleft/OE/.notdef/.notdef
/.notdef/.notdef/quoteleft/quoteright/quotedblleft/quotedblright/bullet
/endash/emdash/tilde/trademark/scaron/guilsinglright/oe/.notdef/.notdef
/Ydieresis WindowsLatin1Encoding 128 32 getinterval astore pop}
{/WindowsLatin1Encoding StandardEncoding bdef} ifelse
/reencode {exch dup where {pop load} {pop StandardEncoding} ifelse
  exch dup 3 1 roll findfont dup length dict begin
  { 1 index /FID ne {def}{pop pop} ifelse } forall
  /Encoding exch def currentdict end definefont pop} bdef
/isroman {findfont /CharStrings get /Agrave known} bdef
/FMSR {3 1 roll 1 index dup isroman {reencode} {pop pop} ifelse
  exch FMS} bdef
/csm {1 dpi2point div -1 dpi2point div scale neg translate
 dup landscapeMode eq {pop -90 rotate}
  {rotateMode eq {90 rotate} if} ifelse} bdef
% line types: solid, dotted, dashed, dotdash
/SO { [] 0 setdash } bdef
/DO { [.5 dpi2point mul 4 dpi2point mul] 0 setdash } bdef
/DA { [6 dpi2point mul] 0 setdash } bdef
/DD { [.5 dpi2point mul 4 dpi2point mul 6 dpi2point mul 4
  dpi2point mul] 0 setdash } bdef
% macros for lines and objects
/L {lineto stroke} bdef
/MP {3 1 roll moveto 1 sub {rlineto} repeat} bdef
/AP {{rlineto} repeat} bdef
/PDlw -1 def
/W {/PDlw currentlinewidth def setlinewidth} def
/PP {closepath eofill} bdef
/DP {closepath stroke} bdef
/MR {4 -2 roll moveto dup  0 exch rlineto exch 0 rlineto
  neg 0 exch rlineto closepath} bdef
/FR {MR stroke} bdef
/PR {MR fill} bdef
/L1i {{currentfile picstr readhexstring pop} image} bdef
/tMatrix matrix def
/MakeOval {newpath tMatrix currentmatrix pop translate scale
0 0 1 0 360 arc tMatrix setmatrix} bdef
/FO {MakeOval stroke} bdef
/PO {MakeOval fill} bdef
/PD {currentlinewidth 2 div 0 360 arc fill
   PDlw -1 eq not {PDlw w /PDlw -1 def} if} def
/FA {newpath tMatrix currentmatrix pop translate scale
  0 0 1 5 -2 roll arc tMatrix setmatrix stroke} bdef
/PA {newpath tMatrix currentmatrix pop	translate 0 0 moveto scale
  0 0 1 5 -2 roll arc closepath tMatrix setmatrix fill} bdef
/FAn {newpath tMatrix currentmatrix pop translate scale
  0 0 1 5 -2 roll arcn tMatrix setmatrix stroke} bdef
/PAn {newpath tMatrix currentmatrix pop translate 0 0 moveto scale
  0 0 1 5 -2 roll arcn closepath tMatrix setmatrix fill} bdef
/vradius 0 def /hradius 0 def /lry 0 def
/lrx 0 def /uly 0 def /ulx 0 def /rad 0 def
/MRR {/vradius xdef /hradius xdef /lry xdef /lrx xdef /uly xdef
  /ulx xdef newpath tMatrix currentmatrix pop ulx hradius add uly
  vradius add translate hradius vradius scale 0 0 1 180 270 arc 
  tMatrix setmatrix lrx hradius sub uly vradius add translate
  hradius vradius scale 0 0 1 270 360 arc tMatrix setmatrix
  lrx hradius sub lry vradius sub translate hradius vradius scale
  0 0 1 0 90 arc tMatrix setmatrix ulx hradius add lry vradius sub
  translate hradius vradius scale 0 0 1 90 180 arc tMatrix setmatrix
  closepath} bdef
/FRR {MRR stroke } bdef
/PRR {MRR fill } bdef
/MlrRR {/lry xdef /lrx xdef /uly xdef /ulx xdef /rad lry uly sub 2 div def
  newpath tMatrix currentmatrix pop ulx rad add uly rad add translate
  rad rad scale 0 0 1 90 270 arc tMatrix setmatrix lrx rad sub lry rad
  sub translate rad rad scale 0 0 1 270 90 arc tMatrix setmatrix
  closepath} bdef
/FlrRR {MlrRR stroke } bdef
/PlrRR {MlrRR fill } bdef
/MtbRR {/lry xdef /lrx xdef /uly xdef /ulx xdef /rad lrx ulx sub 2 div def
  newpath tMatrix currentmatrix pop ulx rad add uly rad add translate
  rad rad scale 0 0 1 180 360 arc tMatrix setmatrix lrx rad sub lry rad
  sub translate rad rad scale 0 0 1 0 180 arc tMatrix setmatrix
  closepath} bdef
/FtbRR {MtbRR stroke } bdef
/PtbRR {MtbRR fill } bdef
/stri 6 array def /dtri 6 array def
/smat 6 array def /dmat 6 array def
/tmat1 6 array def /tmat2 6 array def /dif 3 array def
/asub {/ind2 exch def /ind1 exch def dup dup
  ind1 get exch ind2 get sub exch } bdef
/tri_to_matrix {
  2 0 asub 3 1 asub 4 0 asub 5 1 asub
  dup 0 get exch 1 get 7 -1 roll astore } bdef
/compute_transform {
  dmat dtri tri_to_matrix tmat1 invertmatrix 
  smat stri tri_to_matrix tmat2 concatmatrix } bdef
/ds {stri astore pop} bdef
/dt {dtri astore pop} bdef
/db {2 copy /cols xdef /rows xdef mul dup 3 mul string
  currentfile 
  3 index 0 eq {/ASCIIHexDecode filter}
  {/ASCII85Decode filter 3 index 2 eq {/RunLengthDecode filter} if }
  ifelse exch readstring pop
  dup 0 3 index getinterval /rbmap xdef
  dup 2 index dup getinterval /gbmap xdef
  1 index dup 2 mul exch getinterval /bbmap xdef pop pop}bdef
/it {gs np dtri aload pop moveto lineto lineto cp c
  cols rows 8 compute_transform 
  rbmap gbmap bbmap true 3 colorimage gr}bdef
/il {newpath moveto lineto stroke}bdef
currentdict end def
%%EndProlog

%%BeginSetup
MathWorks begin

0 cap

end
%%EndSetup

%%Page: 1 1
%%BeginPageSetup
%%PageBoundingBox:  -191   238   787   604
MathWorks begin
bpage
%%EndPageSetup

%%BeginObject: obj1
bplot

/dpi2point 12 def
portraitMode -2292 7248 csm

    0     0 11746  4385 rc
86 dict begin %Colortable dictionary
/c0 { 0.000000 0.000000 0.000000 sr} bdef
/c1 { 1.000000 1.000000 1.000000 sr} bdef
/c2 { 0.900000 0.000000 0.000000 sr} bdef
/c3 { 0.000000 0.820000 0.000000 sr} bdef
/c4 { 0.000000 0.000000 0.800000 sr} bdef
/c5 { 0.910000 0.820000 0.320000 sr} bdef
/c6 { 1.000000 0.260000 0.820000 sr} bdef
/c7 { 0.000000 0.820000 0.820000 sr} bdef
c0
1 j
1 sg
   0    0 11747 4386 rf
6 w
0 3887 8431 0 0 -3887 1504 4131 4 MP
PP
-8431 0 0 3887 8431 0 0 -3887 1504 4131 5 MP stroke
4 w
DO
SO
6 w
0 sg
1504  244 mt 9935  244 L
1504 4131 mt 9935 4131 L
9935 4131 mt 9935  244 L
1504 4131 mt 1504  244 L
1504 4131 mt 9935 4131 L
1504 4131 mt 1504  244 L
1504 4131 mt 1504 4046 L
1504  244 mt 1504  328 L
%%IncludeResource: font Helvetica
/Helvetica /WindowsLatin1Encoding 192 FMSR

1371 4343 mt 
(0.2) s
2557 4131 mt 2557 4046 L
2557  244 mt 2557  328 L
2424 4343 mt 
(0.3) s
3611 4131 mt 3611 4046 L
3611  244 mt 3611  328 L
3478 4343 mt 
(0.4) s
4665 4131 mt 4665 4046 L
4665  244 mt 4665  328 L
4532 4343 mt 
(0.5) s
5719 4131 mt 5719 4046 L
5719  244 mt 5719  328 L
5586 4343 mt 
(0.6) s
6773 4131 mt 6773 4046 L
6773  244 mt 6773  328 L
6640 4343 mt 
(0.7) s
7827 4131 mt 7827 4046 L
7827  244 mt 7827  328 L
7694 4343 mt 
(0.8) s
8881 4131 mt 8881 4046 L
8881  244 mt 8881  328 L
8748 4343 mt 
(0.9) s
9935 4131 mt 9935 4046 L
9935  244 mt 9935  328 L
9882 4343 mt 
(1) s
1504 4131 mt 1588 4131 L
9935 4131 mt 9850 4131 L
1363 4202 mt 
(0) s
1504 3353 mt 1588 3353 L
9935 3353 mt 9850 3353 L
1203 3424 mt 
(0.2) s
1504 2576 mt 1588 2576 L
9935 2576 mt 9850 2576 L
1203 2647 mt 
(0.4) s
1504 1798 mt 1588 1798 L
9935 1798 mt 9850 1798 L
1203 1869 mt 
(0.6) s
1504 1021 mt 1588 1021 L
9935 1021 mt 9850 1021 L
1203 1092 mt 
(0.8) s
1504  244 mt 1588  244 L
9935  244 mt 9850  244 L
1363  315 mt 
(1) s
1504  244 mt 9935  244 L
1504 4131 mt 9935 4131 L
9935 4131 mt 9935  244 L
1504 4131 mt 1504  244 L
gs 1504 244 8432 3888 rc
27.6 w
/c8 { 0.000000 0.000000 1.000000 sr} bdef
c8
1 1 1 0 1 1 1 1 1 1 1 0 1 1 1 1 
1 1 2 1 1 1 2 2 2 1 3 2 2 2 3 2 
3 2 3 2 4 3 4 3 4 3 4 3 5 4 5 3 
5 4 6 4 5 4 7 5 6 5 6 4 7 5 7 5 
8 6 7 5 8 6 7 5 8 6 8 6 8 5 7 6 
8 6 8 5 8 6 7 5 7 5 7 6 7 4 7 5 
6 5 6 4 5 4 5 4 5 3 4 3 4 3 3 2 
3 2 2 1 1 1 1 1 1 0 -1 0 -1 -1 -2 -2 
-3 -1 -3 -2 -3 -3 -4 -3 -5 -3 -5 -4 -5 -4 -6 -4 
-6 -4 -7 -5 -6 -5 -8 -5 -7 -5 -7 -6 -8 -5 -8 -6 
-8 -6 -8 -6 -8 -5 -8 -6 -8 -6 -8 -6 -7 -5 -8 -6 
-7 -5 -8 -6 -7 -5 -6 -5 -7 -5 -6 -4 -6 -4 -6 -5 
-5 -4 -5 -3 -5 -4 -5 -3 -4 -3 -4 -3 -3 -3 -4 -2 
-3 -2 -2 -2 -3 -2 -2 -2 -2 -1 -2 -2 -2 -1 -1 -1 
-1 -1 -1 -1 -1 0 -1 -1 -1 0 -1 -1 -1 -1 1 0 
1 1 1 1 1 1 2 1 1 1 1 1 2 1 2 2 
3 2 2 2 3 2 4 2 3 3 5 3 4 3 5 4 
6 4 6 5 6 5 8 5 7 5 8 6 9 7 10 7 
10 7 10 8 11 8 12 8 12 9 12 9 13 9 14 10 
13 10 15 10 14 11 15 10 15 11 15 11 15 11 15 11 
16 11 15 11 15 10 15 11 14 10 14 10 14 10 13 9 
12 9 12 8 12 8 10 8 10 6 8 7 8 5 7 5 
6 4 5 3 4 3 2 2 2 1 -1 0 -1 -1 -3 -3 
-4 -2 -5 -4 -7 -4 -7 -5 -8 -6 -9 -6 -10 -7 -11 -8 
-11 -8 -13 -9 -13 -9 -13 -10 -14 -10 -14 -10 -15 -10 -15 -11 
-16 -11 -15 -11 -16 -11 -15 -11 -16 -12 -15 -11 -15 -11 -15 -10 
-15 -11 -15 -10 -13 -10 -14 -10 -13 -10 -13 -9 -12 -9 -11 -8 
-11 -8 -10 -8 -10 -7 -9 -6 -9 -7 -8 -5 -7 -6 -7 -5 
-6 -4 -6 -5 -5 -3 -5 -4 -4 -3 -4 -3 -3 -2 -3 -2 
-3 -2 -2 -2 -2 -2 -2 -1 -1 -1 -1 -1 -2 -1 -1 -1 
-1 0 -1 -1 1 0 1 1 1 1 1 0 1 1 1 1 
2 2 2 1 2 2 3 2 3 2 4 3 4 3 4 3 
6 4 6 5 7 5 7 5 9 7 9 6 10 8 11 8 
13 9 13 9 14 11 15 11 17 12 17 13 19 13 19 14 
21 15 22 16 23 16 24 17 24 18 26 18 26 19 27 19 
28 20 29 20 29 20 29 21 29 21 30 20 30 21 30 21 
29 20 29 20 29 19 27 20 28 18 26 18 25 17 24 17 
23 15 21 14 20 14 9004 3474 300 MP stroke
18 12 17 11 15 10 12 8 11 7 9 6 6 5 5 3 
2 1 -2 -1 -4 -3 -7 -4 -8 -6 -11 -7 -13 -9 -14 -9 
-17 -11 -18 -13 -20 -13 -21 -15 -23 -15 -25 -17 -25 -17 -27 -18 
-28 -19 -28 -20 -29 -20 -30 -20 -30 -21 -30 -21 -30 -21 -30 -21 
-31 -21 -30 -21 -29 -21 -29 -20 -28 -20 -28 -20 -27 -19 -26 -19 
-25 -18 -24 -17 -23 -17 -22 -15 -21 -16 -20 -14 -19 -13 -17 -13 
-16 -12 -15 -11 -14 -10 -13 -9 -12 -9 -11 -8 -10 -7 -9 -7 
-8 -5 -7 -6 -6 -4 -6 -4 -4 -4 -5 -3 -3 -3 -4 -2 
-2 -2 -2 -2 -2 -1 -2 -1 -1 -1 -1 -1 -1 -1 -1 0 
-1 -1 -1 -1 1 1 1 0 1 1 1 1 2 1 1 1 
2 2 2 2 3 2 4 2 4 3 5 4 5 4 7 5 
7 5 9 6 9 7 11 8 12 9 14 10 16 12 17 12 
18 14 21 15 22 16 24 17 27 19 28 21 31 22 32 23 
35 25 37 26 39 28 41 28 43 31 45 31 47 33 49 34 
50 34 52 36 54 36 54 37 56 38 57 38 57 38 57 38 
58 38 58 38 58 37 57 37 56 36 55 36 54 34 53 33 
50 32 49 30 46 28 43 27 41 25 37 23 35 21 31 19 
27 16 24 14 19 12 16 10 11 6 7 5 3 2 -1 -1 
-5 -3 -10 -6 -14 -9 -18 -10 -22 -14 -26 -15 -30 -18 -33 -21 
-37 -22 -40 -24 -43 -27 -45 -28 -48 -30 -51 -32 -52 -33 -55 -34 
-56 -36 -57 -36 -57 -38 -59 -38 -59 -38 -59 -39 -59 -39 -59 -39 
-58 -39 -57 -38 -56 -38 -55 -38 -53 -36 -52 -36 -50 -35 -49 -33 
-46 -33 -44 -31 -42 -30 -40 -28 -38 -27 -35 -25 -34 -24 -31 -22 
-28 -21 -27 -19 -24 -17 -23 -17 -20 -15 -18 -13 -17 -12 -15 -11 
-13 -10 -12 -8 -11 -8 -9 -7 -7 -6 -7 -5 -6 -4 -5 -3 
-4 -3 -4 -3 -3 -2 -2 -2 -2 -1 -1 -1 -1 -1 -1 -1 
-1 0 -1 -1 1 0 1 1 1 1 1 1 2 1 2 2 
2 2 4 2 4 3 5 3 5 5 8 5 8 6 10 7 
11 9 13 9 15 11 18 13 19 14 23 17 25 18 27 20 
31 22 34 25 38 27 41 29 45 32 49 34 52 38 57 39 
61 43 65 45 69 47 73 50 77 52 81 55 86 57 89 59 
92 60 96 62 100 64 102 65 105 65 107 66 109 67 111 67 
111 66 113 67 113 65 112 64 112 64 111 61 109 60 107 58 
104 55 101 53 97 51 93 47 88 45 83 41 77 39 71 35 
65 31 58 28 50 24 44 20 35 17 28 13 19 9 12 6 
3 1 -5 -2 -14 -7 -21 -10 -30 -14 -38 -18 -45 -21 -53 -25 
-61 -29 -67 -33 -73 -36 -80 -40 -85 -43 -91 -46 -96 -49 -99 -52 
-104 -55 -107 -57 -109 -60 7221 2387 300 MP stroke
-112 -61 -113 -64 -114 -65 -115 -66 -116 -67 -114 -68 -114 -68 -113 -68 
-110 -68 -109 -68 -106 -67 -103 -66 -100 -64 -96 -63 -93 -61 -89 -59 
-85 -57 -80 -55 -77 -52 -72 -49 -67 -47 -64 -44 -58 -41 -55 -39 
-50 -35 -46 -33 -43 -31 -38 -27 -35 -25 -31 -23 -28 -20 -25 -18 
-22 -16 -20 -14 -16 -13 -15 -10 -13 -10 -10 -8 -10 -6 -7 -6 
-6 -5 -6 -3 -4 -3 -3 -3 -3 -2 -2 -1 -2 -2 -1 0 
-1 -1 -1 -1 1 1 1 0 1 1 2 1 2 2 2 2 
4 2 4 3 6 5 6 5 9 6 10 7 12 9 15 11 
17 12 20 15 23 17 27 20 31 22 35 26 40 28 45 33 
51 35 56 40 62 44 69 48 75 53 83 57 90 62 97 66 
105 70 113 75 121 79 129 84 137 87 146 91 153 95 161 98 
168 100 176 102 183 104 189 106 195 106 201 106 206 106 210 105 
213 104 217 102 218 99 220 97 219 93 219 90 218 86 214 81 
211 77 207 72 200 68 194 62 187 58 178 52 168 48 158 43 
147 38 134 34 122 30 108 25 94 21 79 18 64 14 49 10 
33 7 17 4 1 0 -16 -4 -32 -6 -47 -10 -63 -14 -79 -17 
-93 -21 -108 -26 -122 -29 -135 -34 -148 -39 -159 -43 -170 -48 -180 -53 
-188 -58 -197 -64 -204 -68 -210 -74 -215 -78 -218 -83 -222 -88 -223 -92 
-224 -96 -224 -99 -223 -102 -221 -105 -218 -106 -214 -108 -210 -109 -205 -110 
-199 -109 -192 -108 -186 -106 -178 -105 -171 -102 -162 -100 -154 -96 -146 -92 
-138 -88 -128 -84 -121 -80 -111 -75 -104 -70 -95 -65 -88 -60 -79 -56 
-73 -50 -65 -47 -59 -41 -53 -38 -46 -33 -41 -30 -36 -26 -32 -23 
-27 -20 -23 -17 -20 -14 -17 -12 -14 -11 -11 -8 -10 -7 -7 -6 
-6 -4 -5 -4 -4 -2 -3 -2 -2 -2 -1 -1 -1 -1 -1 -1 
-1 0 -1 -1 9935 4131 195 MP stroke
72 w
gr

72 w
c8
/c9 { 0.000000 1.000000 1.000000 sr} bdef
c9
  36   36 8778 3324 FO
  36   36 8650 3240 FO
  36   36 8512 3152 FO
  36   36 8366 3060 FO
  36   36 8212 2964 FO
  36   36 8050 2864 FO
  36   36 7879 2762 FO
  36   36 7805 2718 FO
  36   36 7973 2818 FO
  36   36 8134 2916 FO
  36   36 8287 3011 FO
  36   36 8433 3102 FO
  36   36 8570 3189 FO
  36   36 8699 3273 FO
  36   36 8820 3352 FO
  36   36 8756 3310 FO
  36   36 8660 3247 FO
  36   36 8560 3183 FO
  36   36 8457 3117 FO
  36   36 8351 3050 FO
  36   36 8242 2982 FO
  36   36 8132 2914 FO
  36   36 8019 2846 FO
  36   36 7905 2778 FO
  36   36 7791 2710 FO
  36   36 7848 2744 FO
  36   36 7959 2810 FO
  36   36 8070 2877 FO
  36   36 8179 2944 FO
  36   36 8286 3010 FO
  36   36 8391 3075 FO
  36   36 8493 3140 FO
  36   36 8593 3204 FO
  36   36 8689 3266 FO
  36   36 8781 3326 FO
  36   36 8814 3348 FO
  36   36 8755 3309 FO
  36   36 8696 3271 FO
  36   36 8637 3233 FO
  36   36 8580 3195 FO
  36   36 8523 3159 FO
  36   36 8467 3123 FO
  36   36 8412 3089 FO
  36   36 8360 3056 FO
  36   36 8309 3024 FO
  36   36 8261 2994 FO
  36   36 8216 2966 FO
  36   36 8173 2939 FO
  36   36 8133 2915 FO
  36   36 8096 2893 FO
  36   36 8063 2872 FO
  36   36 8033 2854 FO
  36   36 8007 2839 FO
  36   36 7985 2825 FO
  36   36 7967 2815 FO
  36   36 7953 2806 FO
  36   36 7943 2800 FO
  36   36 7938 2797 FO
  36   36 7937 2796 FO
  36   36 7940 2798 FO
  36   36 7947 2803 FO
  36   36 7958 2809 FO
  36   36 7974 2819 FO
  36   36 7993 2831 FO
  36   36 8017 2845 FO
  36   36 8044 2861 FO
  36   36 8075 2880 FO
  36   36 8110 2901 FO
  36   36 8147 2924 FO
  36   36 8188 2949 FO
  36   36 8231 2976 FO
  36   36 8277 3004 FO
  36   36 8326 3034 FO
  36   36 8376 3066 FO
  36   36 8429 3099 FO
  36   36 8483 3133 FO
  36   36 8538 3169 FO
  36   36 8594 3205 FO
  36   36 8651 3242 FO
  36   36 8709 3279 FO
  36   36 8767 3317 FO
  36   36 8825 3355 FO
gs 1504 244 8432 3888 rc
gr

0 sg
  36   36 6773 3353 PO
  36   36 6773 3353 FO
gs 1504 244 8432 3888 rc
gr

%%IncludeResource: font Helvetica
/Helvetica /WindowsLatin1Encoding 120 FMSR

1487 4174 mt 
( ) s
9919  286 mt 
( ) s
6 w
1 sg
0 498 3748 0 0 -498 5920 765 4 MP
PP
-3748 0 0 498 3748 0 0 -498 5920 765 5 MP stroke
4 w
DO
SO
6 w
5920  267 mt 9668  267 L
5920  765 mt 9668  765 L
9668  765 mt 9668  267 L
5920  765 mt 5920  267 L
5920  765 mt 9668  765 L
5920  765 mt 5920  267 L
5920  267 mt 9668  267 L
5920  765 mt 9668  765 L
9668  765 mt 9668  267 L
5920  765 mt 5920  267 L
0 sg
%%IncludeResource: font Courier
/Courier /WindowsLatin1Encoding 288 FMSR

6574  610 mt 
(Preferred Region) s
gs 5920 267 3749 499 rc
72 w
gs 6126 370 293 293 rc
c9
  36   36 6272  516 FO
gr

c9
6 w
gr

c9
0 sg
%%IncludeResource: font Courier-Bold
/Courier-Bold /WindowsLatin1Encoding 288 FMSR

4971 2702 mt 
(\( 0.7 , 0.2 \)) s

end %%Color Dict

eplot
%%EndObject

epage
end

showpage

%%Trailer
%%EOF
