%!PS-Adobe-3.0 EPSF-3.0
%%Creator: MATLAB, The MathWorks, Inc. Version 7.13.0.564 (R2011b). Operating System: Microsoft Windows XP.
%%Title: D:\DriveG\Sem2-2012\Program\ReferenceMetric-v3\metricfig\zdt6\zdt6-rnsgaii.eps
%%CreationDate: 02/05/2013  17:32:46
%%DocumentNeededFonts: Helvetica
%%+ Helvetica-Bold
%%DocumentProcessColors: Cyan Magenta Yellow Black
%%LanguageLevel: 2
%%Pages: 1
%%BoundingBox:  -191   288   787   553
%%EndComments

%%BeginProlog
% MathWorks dictionary
/MathWorks 160 dict begin
% definition operators
/bdef {bind def} bind def
/ldef {load def} bind def
/xdef {exch def} bdef
/xstore {exch store} bdef
% operator abbreviations
/c  /clip ldef
/cc /concat ldef
/cp /closepath ldef
/gr /grestore ldef
/gs /gsave ldef
/mt /moveto ldef
/np /newpath ldef
/cm /currentmatrix ldef
/sm /setmatrix ldef
/rm /rmoveto ldef
/rl /rlineto ldef
/s {show newpath} bdef
/sc {setcmykcolor} bdef
/sr /setrgbcolor ldef
/sg /setgray ldef
/w /setlinewidth ldef
/j /setlinejoin ldef
/cap /setlinecap ldef
/rc {rectclip} bdef
/rf {rectfill} bdef
% page state control
/pgsv () def
/bpage {/pgsv save def} bdef
/epage {pgsv restore} bdef
/bplot /gsave ldef
/eplot {stroke grestore} bdef
% orientation switch
/portraitMode 0 def /landscapeMode 1 def /rotateMode 2 def
% coordinate system mappings
/dpi2point 0 def
% font control
/FontSize 0 def
/FMS {/FontSize xstore findfont [FontSize 0 0 FontSize neg 0 0]
  makefont setfont} bdef
/ISOLatin1Encoding where {pop /WindowsLatin1Encoding 256 array bdef
ISOLatin1Encoding WindowsLatin1Encoding copy pop
/.notdef/.notdef/quotesinglbase/florin/quotedblbase/ellipsis/dagger
/daggerdbl/circumflex/perthousand/Scaron/guilsinglleft/OE/.notdef/.notdef
/.notdef/.notdef/quoteleft/quoteright/quotedblleft/quotedblright/bullet
/endash/emdash/tilde/trademark/scaron/guilsinglright/oe/.notdef/.notdef
/Ydieresis WindowsLatin1Encoding 128 32 getinterval astore pop}
{/WindowsLatin1Encoding StandardEncoding bdef} ifelse
/reencode {exch dup where {pop load} {pop StandardEncoding} ifelse
  exch dup 3 1 roll findfont dup length dict begin
  { 1 index /FID ne {def}{pop pop} ifelse } forall
  /Encoding exch def currentdict end definefont pop} bdef
/isroman {findfont /CharStrings get /Agrave known} bdef
/FMSR {3 1 roll 1 index dup isroman {reencode} {pop pop} ifelse
  exch FMS} bdef
/csm {1 dpi2point div -1 dpi2point div scale neg translate
 dup landscapeMode eq {pop -90 rotate}
  {rotateMode eq {90 rotate} if} ifelse} bdef
% line types: solid, dotted, dashed, dotdash
/SO { [] 0 setdash } bdef
/DO { [.5 dpi2point mul 4 dpi2point mul] 0 setdash } bdef
/DA { [6 dpi2point mul] 0 setdash } bdef
/DD { [.5 dpi2point mul 4 dpi2point mul 6 dpi2point mul 4
  dpi2point mul] 0 setdash } bdef
% macros for lines and objects
/L {lineto stroke} bdef
/MP {3 1 roll moveto 1 sub {rlineto} repeat} bdef
/AP {{rlineto} repeat} bdef
/PDlw -1 def
/W {/PDlw currentlinewidth def setlinewidth} def
/PP {closepath eofill} bdef
/DP {closepath stroke} bdef
/MR {4 -2 roll moveto dup  0 exch rlineto exch 0 rlineto
  neg 0 exch rlineto closepath} bdef
/FR {MR stroke} bdef
/PR {MR fill} bdef
/L1i {{currentfile picstr readhexstring pop} image} bdef
/tMatrix matrix def
/MakeOval {newpath tMatrix currentmatrix pop translate scale
0 0 1 0 360 arc tMatrix setmatrix} bdef
/FO {MakeOval stroke} bdef
/PO {MakeOval fill} bdef
/PD {currentlinewidth 2 div 0 360 arc fill
   PDlw -1 eq not {PDlw w /PDlw -1 def} if} def
/FA {newpath tMatrix currentmatrix pop translate scale
  0 0 1 5 -2 roll arc tMatrix setmatrix stroke} bdef
/PA {newpath tMatrix currentmatrix pop	translate 0 0 moveto scale
  0 0 1 5 -2 roll arc closepath tMatrix setmatrix fill} bdef
/FAn {newpath tMatrix currentmatrix pop translate scale
  0 0 1 5 -2 roll arcn tMatrix setmatrix stroke} bdef
/PAn {newpath tMatrix currentmatrix pop translate 0 0 moveto scale
  0 0 1 5 -2 roll arcn closepath tMatrix setmatrix fill} bdef
/vradius 0 def /hradius 0 def /lry 0 def
/lrx 0 def /uly 0 def /ulx 0 def /rad 0 def
/MRR {/vradius xdef /hradius xdef /lry xdef /lrx xdef /uly xdef
  /ulx xdef newpath tMatrix currentmatrix pop ulx hradius add uly
  vradius add translate hradius vradius scale 0 0 1 180 270 arc 
  tMatrix setmatrix lrx hradius sub uly vradius add translate
  hradius vradius scale 0 0 1 270 360 arc tMatrix setmatrix
  lrx hradius sub lry vradius sub translate hradius vradius scale
  0 0 1 0 90 arc tMatrix setmatrix ulx hradius add lry vradius sub
  translate hradius vradius scale 0 0 1 90 180 arc tMatrix setmatrix
  closepath} bdef
/FRR {MRR stroke } bdef
/PRR {MRR fill } bdef
/MlrRR {/lry xdef /lrx xdef /uly xdef /ulx xdef /rad lry uly sub 2 div def
  newpath tMatrix currentmatrix pop ulx rad add uly rad add translate
  rad rad scale 0 0 1 90 270 arc tMatrix setmatrix lrx rad sub lry rad
  sub translate rad rad scale 0 0 1 270 90 arc tMatrix setmatrix
  closepath} bdef
/FlrRR {MlrRR stroke } bdef
/PlrRR {MlrRR fill } bdef
/MtbRR {/lry xdef /lrx xdef /uly xdef /ulx xdef /rad lrx ulx sub 2 div def
  newpath tMatrix currentmatrix pop ulx rad add uly rad add translate
  rad rad scale 0 0 1 180 360 arc tMatrix setmatrix lrx rad sub lry rad
  sub translate rad rad scale 0 0 1 0 180 arc tMatrix setmatrix
  closepath} bdef
/FtbRR {MtbRR stroke } bdef
/PtbRR {MtbRR fill } bdef
/stri 6 array def /dtri 6 array def
/smat 6 array def /dmat 6 array def
/tmat1 6 array def /tmat2 6 array def /dif 3 array def
/asub {/ind2 exch def /ind1 exch def dup dup
  ind1 get exch ind2 get sub exch } bdef
/tri_to_matrix {
  2 0 asub 3 1 asub 4 0 asub 5 1 asub
  dup 0 get exch 1 get 7 -1 roll astore } bdef
/compute_transform {
  dmat dtri tri_to_matrix tmat1 invertmatrix 
  smat stri tri_to_matrix tmat2 concatmatrix } bdef
/ds {stri astore pop} bdef
/dt {dtri astore pop} bdef
/db {2 copy /cols xdef /rows xdef mul dup 3 mul string
  currentfile 
  3 index 0 eq {/ASCIIHexDecode filter}
  {/ASCII85Decode filter 3 index 2 eq {/RunLengthDecode filter} if }
  ifelse exch readstring pop
  dup 0 3 index getinterval /rbmap xdef
  dup 2 index dup getinterval /gbmap xdef
  1 index dup 2 mul exch getinterval /bbmap xdef pop pop}bdef
/it {gs np dtri aload pop moveto lineto lineto cp c
  cols rows 8 compute_transform 
  rbmap gbmap bbmap true 3 colorimage gr}bdef
/il {newpath moveto lineto stroke}bdef
currentdict end def
%%EndProlog

%%BeginSetup
MathWorks begin

0 cap

end
%%EndSetup

%%Page: 1 1
%%BeginPageSetup
%%PageBoundingBox:  -191   288   787   553
MathWorks begin
bpage
%%EndPageSetup

%%BeginObject: obj1
bplot

/dpi2point 12 def
portraitMode -2292 6636 csm

    0     0 11746  3179 rc
86 dict begin %Colortable dictionary
/c0 { 0.000000 0.000000 0.000000 sr} bdef
/c1 { 1.000000 1.000000 1.000000 sr} bdef
/c2 { 0.900000 0.000000 0.000000 sr} bdef
/c3 { 0.000000 0.820000 0.000000 sr} bdef
/c4 { 0.000000 0.000000 0.800000 sr} bdef
/c5 { 0.910000 0.820000 0.320000 sr} bdef
/c6 { 1.000000 0.260000 0.820000 sr} bdef
/c7 { 0.000000 0.820000 0.820000 sr} bdef
c0
1 j
1 sg
   0    0 11747 3180 rf
6 w
0 2591 9103 0 0 -2591 1527 2829 4 MP
PP
-9103 0 0 2591 9103 0 0 -2591 1527 2829 5 MP stroke
4 w
DO
SO
6 w
0 sg
1527  238 mt 10630  238 L
1527 2829 mt 10630 2829 L
10630 2829 mt 10630  238 L
1527 2829 mt 1527  238 L
1527 2829 mt 10630 2829 L
1527 2829 mt 1527  238 L
1527 2829 mt 1527 2737 L
1527  238 mt 1527  329 L
%%IncludeResource: font Helvetica
/Helvetica /WindowsLatin1Encoding 120 FMSR

1444 2974 mt 
(0.2) s
2664 2829 mt 2664 2737 L
2664  238 mt 2664  329 L
2581 2974 mt 
(0.3) s
3802 2829 mt 3802 2737 L
3802  238 mt 3802  329 L
3719 2974 mt 
(0.4) s
4940 2829 mt 4940 2737 L
4940  238 mt 4940  329 L
4857 2974 mt 
(0.5) s
6078 2829 mt 6078 2737 L
6078  238 mt 6078  329 L
5995 2974 mt 
(0.6) s
7216 2829 mt 7216 2737 L
7216  238 mt 7216  329 L
7133 2974 mt 
(0.7) s
8354 2829 mt 8354 2737 L
8354  238 mt 8354  329 L
8271 2974 mt 
(0.8) s
9492 2829 mt 9492 2737 L
9492  238 mt 9492  329 L
9409 2974 mt 
(0.9) s
10630 2829 mt 10630 2737 L
10630  238 mt 10630  329 L
10597 2974 mt 
(1) s
1527 2829 mt 1618 2829 L
10630 2829 mt 10538 2829 L
1426 2873 mt 
(0) s
1527 2569 mt 1618 2569 L
10630 2569 mt 10538 2569 L
1326 2613 mt 
(0.1) s
1527 2310 mt 1618 2310 L
10630 2310 mt 10538 2310 L
1326 2354 mt 
(0.2) s
1527 2051 mt 1618 2051 L
10630 2051 mt 10538 2051 L
1326 2095 mt 
(0.3) s
1527 1792 mt 1618 1792 L
10630 1792 mt 10538 1792 L
1326 1836 mt 
(0.4) s
1527 1533 mt 1618 1533 L
10630 1533 mt 10538 1533 L
1326 1577 mt 
(0.5) s
1527 1274 mt 1618 1274 L
10630 1274 mt 10538 1274 L
1326 1318 mt 
(0.6) s
1527 1015 mt 1618 1015 L
10630 1015 mt 10538 1015 L
1326 1059 mt 
(0.7) s
1527  756 mt 1618  756 L
10630  756 mt 10538  756 L
1326  800 mt 
(0.8) s
1527  497 mt 1618  497 L
10630  497 mt 10538  497 L
1326  541 mt 
(0.9) s
1527  238 mt 1618  238 L
10630  238 mt 10538  238 L
1426  282 mt 
(1) s
1527  238 mt 10630  238 L
1527 2829 mt 10630 2829 L
10630 2829 mt 10630  238 L
1527 2829 mt 1527  238 L
gs 1527 238 9104 2592 rc
gr

/c8 { 1.000000 0.000000 0.000000 sr} bdef
c8
8237 1867 mt 8309 1867 L
8273 1831 mt 8273 1903 L
gs 1527 238 9104 2592 rc
27.6 w
/c9 { 0.000000 0.000000 1.000000 sr} bdef
c9
1 1 1 0 1 0 1 1 1 1 1 0 1 1 1 0 
2 1 1 0 2 1 2 1 2 1 3 1 3 2 3 1 
3 1 3 2 4 2 4 2 5 2 5 2 5 2 5 3 
6 2 6 3 6 3 7 3 7 3 7 3 7 3 8 4 
8 3 7 4 9 4 8 3 8 4 9 4 8 4 9 3 
8 4 8 4 9 4 8 3 8 4 7 3 8 3 7 4 
6 3 7 2 6 3 5 3 5 2 5 2 4 2 3 1 
3 1 2 1 2 1 1 1 -1 -1 -1 0 -2 -1 -3 -1 
-3 -2 -4 -2 -4 -1 -5 -3 -5 -2 -6 -3 -6 -2 -7 -3 
-7 -3 -7 -4 -8 -3 -8 -4 -8 -3 -9 -4 -8 -4 -9 -4 
-8 -4 -9 -3 -8 -4 -9 -4 -8 -4 -9 -4 -8 -3 -8 -4 
-8 -4 -7 -3 -8 -3 -7 -4 -7 -3 -6 -3 -6 -2 -6 -3 
-6 -2 -5 -3 -5 -2 -4 -2 -4 -2 -4 -2 -4 -1 -3 -2 
-3 -1 -3 -1 -2 -1 -2 -1 -2 -1 -2 -1 -1 -1 -2 0 
-1 -1 -1 0 -1 -1 -1 0 -1 -1 -1 0 1 0 1 0 
1 1 1 0 1 1 1 0 1 1 2 1 2 1 2 1 
3 1 3 1 3 2 4 1 4 2 4 2 5 2 6 3 
6 3 6 3 7 3 8 3 8 4 9 4 10 4 10 5 
10 5 12 5 12 5 12 6 13 6 14 6 14 6 14 7 
15 6 15 7 16 7 16 7 16 7 16 8 17 7 16 7 
17 7 16 8 16 7 16 7 16 7 15 6 15 7 14 6 
14 6 12 5 13 6 11 5 10 4 10 4 8 4 8 3 
6 3 5 2 4 2 3 1 2 1 -1 0 -2 -1 -3 -2 
-4 -1 -6 -3 -6 -3 -8 -3 -9 -4 -10 -4 -10 -5 -12 -5 
-13 -5 -13 -6 -14 -6 -14 -7 -15 -6 -16 -7 -16 -7 -16 -7 
-17 -8 -17 -7 -16 -7 -17 -8 -17 -7 -17 -8 -16 -7 -16 -7 
-16 -7 -16 -7 -15 -7 -14 -6 -14 -7 -14 -6 -13 -6 -12 -5 
-12 -5 -11 -6 -11 -4 -10 -5 -9 -4 -8 -4 -8 -3 -8 -4 
-7 -3 -6 -3 -5 -2 -5 -2 -5 -3 -4 -1 -4 -2 -3 -1 
-3 -2 -2 -1 -2 -1 -2 -1 -2 0 -1 -1 -1 -1 -1 0 
-1 0 -1 -1 -1 0 1 0 1 1 1 0 1 0 1 1 
2 1 1 1 2 1 3 1 3 1 3 2 4 1 5 2 
5 3 6 2 6 3 8 4 8 3 9 5 10 4 11 5 
12 5 13 6 14 7 16 7 16 7 18 8 19 9 20 8 
21 10 23 10 23 10 25 11 25 12 27 11 28 13 28 12 
30 13 30 13 30 13 32 14 31 14 32 14 32 13 32 14 
32 14 32 13 31 14 31 13 30 13 30 12 28 12 27 11 
26 11 25 10 23 10 9646 2400 300 MP stroke
21 9 20 8 18 7 16 7 13 6 12 4 9 4 7 3 
5 2 3 1 -2 -1 -5 -2 -7 -2 -9 -4 -12 -5 -13 -6 
-16 -6 -18 -8 -20 -8 -21 -9 -23 -9 -25 -11 -27 -11 -27 -11 
-29 -12 -30 -13 -30 -13 -32 -13 -32 -14 -32 -14 -33 -14 -32 -14 
-33 -14 -33 -14 -32 -14 -32 -14 -31 -13 -31 -14 -30 -13 -29 -13 
-28 -12 -27 -12 -26 -12 -25 -11 -24 -10 -22 -10 -22 -10 -20 -9 
-19 -8 -17 -8 -16 -7 -16 -7 -14 -6 -12 -6 -12 -5 -11 -5 
-9 -5 -9 -4 -7 -3 -7 -3 -6 -3 -5 -2 -5 -2 -4 -2 
-3 -2 -3 -1 -3 -1 -2 -1 -1 -1 -2 0 -1 -1 -1 0 
-1 -1 -1 0 -1 -1 1 1 1 0 1 1 1 0 1 0 
1 1 2 1 2 1 2 1 3 1 4 2 4 2 6 2 
6 3 7 3 8 4 9 4 10 5 12 5 13 6 15 7 
17 7 18 9 20 9 22 9 25 11 26 12 28 13 31 13 
33 15 35 15 38 17 39 17 43 19 44 19 46 20 49 21 
51 22 52 23 55 23 56 23 58 25 59 24 60 25 61 26 
62 25 62 26 62 25 63 25 62 25 62 25 60 24 60 23 
58 23 57 22 54 21 53 20 49 19 47 18 44 17 41 15 
37 14 33 13 30 11 25 9 21 8 17 6 13 5 7 3 
4 1 -2 -1 -6 -2 -10 -4 -15 -5 -20 -8 -23 -8 -28 -11 
-33 -12 -35 -13 -40 -15 -43 -17 -47 -17 -49 -19 -52 -20 -54 -21 
-57 -22 -59 -23 -60 -24 -62 -24 -62 -25 -63 -25 -64 -26 -64 -26 
-63 -26 -64 -26 -62 -26 -62 -25 -61 -26 -59 -25 -58 -24 -56 -24 
-54 -23 -52 -22 -50 -22 -48 -21 -45 -20 -43 -18 -41 -18 -38 -17 
-36 -16 -34 -15 -31 -14 -28 -12 -27 -12 -24 -11 -22 -10 -20 -9 
-18 -8 -16 -7 -14 -7 -13 -5 -11 -6 -10 -4 -8 -4 -8 -3 
-6 -3 -5 -2 -5 -2 -4 -2 -3 -2 -2 -1 -2 -1 -2 0 
-1 -1 -1 0 -1 -1 -1 0 1 0 1 1 1 0 1 1 
2 1 2 1 3 1 4 1 4 2 5 3 7 3 7 3 
9 4 11 5 12 6 15 6 16 7 19 9 21 9 24 11 
27 12 30 14 33 15 37 16 41 18 44 20 48 21 53 23 
57 25 61 26 66 28 70 30 74 32 79 33 84 35 87 36 
92 38 97 39 100 41 103 41 108 43 110 43 113 44 116 44 
117 44 120 45 121 44 121 44 122 44 122 43 120 42 120 41 
118 40 115 38 112 37 109 36 105 33 100 32 95 30 90 27 
83 26 77 23 70 21 63 19 54 16 47 13 38 11 30 9 
22 6 12 4 3 1 -5 -2 -15 -4 -23 -7 -33 -9 -40 -12 
-49 -14 -58 -17 -65 -20 -72 -21 -80 -24 -86 -27 -92 -28 -98 -31 
-103 -33 -108 -35 -111 -36 7466 1588 300 MP stroke
-116 -38 -118 -40 -120 -41 -123 -42 -123 -44 -124 -44 -125 -45 -124 -45 
-122 -45 -122 -46 -119 -45 -118 -45 -114 -45 -111 -44 -108 -43 -104 -42 
-101 -40 -96 -40 -91 -38 -87 -36 -83 -35 -77 -33 -73 -31 -69 -29 
-63 -28 -59 -25 -54 -24 -50 -22 -46 -20 -41 -19 -38 -16 -34 -15 
-30 -14 -27 -12 -24 -11 -20 -9 -19 -8 -16 -7 -13 -7 -12 -5 
-10 -4 -8 -4 -7 -3 -5 -3 -5 -2 -3 -1 -3 -2 -3 -1 
-1 -1 -2 0 -1 -1 -1 0 1 0 1 1 1 0 2 1 
2 1 3 1 4 2 5 2 5 3 8 3 9 4 11 5 
13 6 16 7 18 9 22 10 25 11 29 13 34 15 38 17 
43 19 48 21 55 24 60 27 67 29 75 32 81 35 89 38 
97 41 105 45 114 47 122 50 130 52 140 56 148 58 157 61 
165 63 174 65 182 67 190 68 197 70 204 70 211 71 217 70 
222 71 227 70 230 69 234 68 236 67 237 64 237 62 236 60 
235 57 232 54 228 52 223 48 216 45 210 41 201 39 192 35 
182 32 170 28 159 26 145 22 131 20 117 17 102 14 85 12 
70 9 52 7 36 5 18 2 1 0 -17 -2 -34 -5 -52 -6 
-68 -9 -85 -12 -101 -14 -116 -17 -132 -20 -146 -22 -159 -26 -172 -29 
-183 -32 -194 -35 -204 -39 -213 -42 -220 -46 -226 -49 -232 -52 -236 -56 
-239 -58 -242 -61 -242 -64 -241 -66 -241 -68 -239 -70 -235 -71 -231 -72 
-227 -73 -221 -73 -215 -72 -207 -72 -201 -72 -192 -69 -184 -69 -176 -66 
-166 -64 -158 -61 -148 -59 -139 -56 -130 -53 -121 -50 -111 -47 -103 -43 
-95 -40 -86 -37 -78 -34 -71 -31 -63 -28 -57 -25 -50 -22 -45 -20 
-39 -17 -34 -15 -29 -14 -25 -11 -21 -10 -18 -8 -15 -7 -13 -5 
-10 -5 -8 -4 -7 -3 -5 -2 -4 -2 -3 -1 -2 -1 -2 -1 
-1 0 -1 -1 -1 0 -1 -1 10630 2829 197 MP stroke
6 w
gr

c9
/c10 { 0.000000 1.000000 1.000000 sr} bdef
c10
  36   36 9381 2291 FO
  36   36 9242 2235 FO
  36   36 9094 2176 FO
  36   36 8936 2115 FO
  36   36 8770 2051 FO
  36   36 8594 1985 FO
  36   36 8410 1916 FO
  36   36 8330 1887 FO
  36   36 8512 1954 FO
  36   36 8686 2019 FO
  36   36 8851 2082 FO
  36   36 9008 2143 FO
  36   36 9156 2201 FO
  36   36 9296 2257 FO
  36   36 9426 2309 FO
  36   36 9357 2282 FO
  36   36 9253 2240 FO
  36   36 9145 2197 FO
  36   36 9034 2153 FO
  36   36 8920 2108 FO
  36   36 8802 2063 FO
  36   36 8683 2018 FO
  36   36 8561 1972 FO
  36   36 8439 1927 FO
  36   36 8315 1882 FO
  36   36 8376 1904 FO
  36   36 8497 1948 FO
  36   36 8617 1993 FO
  36   36 8734 2037 FO
  36   36 8850 2081 FO
  36   36 8963 2125 FO
  36   36 9073 2168 FO
  36   36 9181 2211 FO
  36   36 9284 2252 FO
  36   36 9384 2293 FO
  36   36 9420 2307 FO
  36   36 9356 2281 FO
  36   36 9292 2255 FO
  36   36 9229 2230 FO
  36   36 9167 2205 FO
  36   36 9105 2181 FO
  36   36 9045 2157 FO
  36   36 8986 2134 FO
  36   36 8929 2112 FO
  36   36 8875 2091 FO
  36   36 8823 2071 FO
  36   36 8774 2052 FO
  36   36 8727 2035 FO
  36   36 8684 2018 FO
  36   36 8644 2003 FO
  36   36 8609 1990 FO
  36   36 8576 1978 FO
  36   36 8548 1967 FO
  36   36 8525 1959 FO
  36   36 8505 1951 FO
  36   36 8490 1946 FO
  36   36 8480 1942 FO
  36   36 8474 1940 FO
  36   36 8472 1939 FO
  36   36 8476 1940 FO
  36   36 8483 1943 FO
  36   36 8496 1948 FO
  36   36 8513 1954 FO
  36   36 8534 1962 FO
  36   36 8559 1971 FO
  36   36 8589 1982 FO
  36   36 8622 1995 FO
  36   36 8659 2009 FO
  36   36 8700 2024 FO
  36   36 8744 2041 FO
  36   36 8791 2059 FO
  36   36 8840 2078 FO
  36   36 8893 2098 FO
  36   36 8947 2119 FO
  36   36 9004 2141 FO
  36   36 9062 2164 FO
  36   36 9122 2187 FO
  36   36 9182 2211 FO
  36   36 9244 2236 FO
  36   36 9306 2261 FO
  36   36 9369 2286 FO
  36   36 9431 2311 FO
gs 1527 238 9104 2592 rc
27.6 w
c9
1 1 1 0 1 0 1 1 1 1 1 0 1 1 1 0 
2 1 1 0 2 1 2 1 2 1 3 1 3 2 3 1 
3 1 3 2 4 2 4 2 5 2 5 2 5 2 5 3 
6 2 6 3 6 3 7 3 7 3 7 3 7 3 8 4 
8 3 7 4 9 4 8 3 8 4 9 4 8 4 9 3 
8 4 8 4 9 4 8 3 8 4 7 3 8 3 7 4 
6 3 7 2 6 3 5 3 5 2 5 2 4 2 3 1 
3 1 2 1 2 1 1 1 -1 -1 -1 0 -2 -1 -3 -1 
-3 -2 -4 -2 -4 -1 -5 -3 -5 -2 -6 -3 -6 -2 -7 -3 
-7 -3 -7 -4 -8 -3 -8 -4 -8 -3 -9 -4 -8 -4 -9 -4 
-8 -4 -9 -3 -8 -4 -9 -4 -8 -4 -9 -4 -8 -3 -8 -4 
-8 -4 -7 -3 -8 -3 -7 -4 -7 -3 -6 -3 -6 -2 -6 -3 
-6 -2 -5 -3 -5 -2 -4 -2 -4 -2 -4 -2 -4 -1 -3 -2 
-3 -1 -3 -1 -2 -1 -2 -1 -2 -1 -2 -1 -1 -1 -2 0 
-1 -1 -1 0 -1 -1 -1 0 -1 -1 -1 0 1 0 1 0 
1 1 1 0 1 1 1 0 1 1 2 1 2 1 2 1 
3 1 3 1 3 2 4 1 4 2 4 2 5 2 6 3 
6 3 6 3 7 3 8 3 8 4 9 4 10 4 10 5 
10 5 12 5 12 5 12 6 13 6 14 6 14 6 14 7 
15 6 15 7 16 7 16 7 16 7 16 8 17 7 16 7 
17 7 16 8 16 7 16 7 16 7 15 6 15 7 14 6 
14 6 12 5 13 6 11 5 10 4 10 4 8 4 8 3 
6 3 5 2 4 2 3 1 2 1 -1 0 -2 -1 -3 -2 
-4 -1 -6 -3 -6 -3 -8 -3 -9 -4 -10 -4 -10 -5 -12 -5 
-13 -5 -13 -6 -14 -6 -14 -7 -15 -6 -16 -7 -16 -7 -16 -7 
-17 -8 -17 -7 -16 -7 -17 -8 -17 -7 -17 -8 -16 -7 -16 -7 
-16 -7 -16 -7 -15 -7 -14 -6 -14 -7 -14 -6 -13 -6 -12 -5 
-12 -5 -11 -6 -11 -4 -10 -5 -9 -4 -8 -4 -8 -3 -8 -4 
-7 -3 -6 -3 -5 -2 -5 -2 -5 -3 -4 -1 -4 -2 -3 -1 
-3 -2 -2 -1 -2 -1 -2 -1 -2 0 -1 -1 -1 -1 -1 0 
-1 0 -1 -1 -1 0 1 0 1 1 1 0 1 0 1 1 
2 1 1 1 2 1 3 1 3 1 3 2 4 1 5 2 
5 3 6 2 6 3 8 4 8 3 9 5 10 4 11 5 
12 5 13 6 14 7 16 7 16 7 18 8 19 9 20 8 
21 10 23 10 23 10 25 11 25 12 27 11 28 13 28 12 
30 13 30 13 30 13 32 14 31 14 32 14 32 13 32 14 
32 14 32 13 31 14 31 13 30 13 30 12 28 12 27 11 
26 11 25 10 23 10 9646 2400 300 MP stroke
21 9 20 8 18 7 16 7 13 6 12 4 9 4 7 3 
5 2 3 1 -2 -1 -5 -2 -7 -2 -9 -4 -12 -5 -13 -6 
-16 -6 -18 -8 -20 -8 -21 -9 -23 -9 -25 -11 -27 -11 -27 -11 
-29 -12 -30 -13 -30 -13 -32 -13 -32 -14 -32 -14 -33 -14 -32 -14 
-33 -14 -33 -14 -32 -14 -32 -14 -31 -13 -31 -14 -30 -13 -29 -13 
-28 -12 -27 -12 -26 -12 -25 -11 -24 -10 -22 -10 -22 -10 -20 -9 
-19 -8 -17 -8 -16 -7 -16 -7 -14 -6 -12 -6 -12 -5 -11 -5 
-9 -5 -9 -4 -7 -3 -7 -3 -6 -3 -5 -2 -5 -2 -4 -2 
-3 -2 -3 -1 -3 -1 -2 -1 -1 -1 -2 0 -1 -1 -1 0 
-1 -1 -1 0 -1 -1 1 1 1 0 1 1 1 0 1 0 
1 1 2 1 2 1 2 1 3 1 4 2 4 2 6 2 
6 3 7 3 8 4 9 4 10 5 12 5 13 6 15 7 
17 7 18 9 20 9 22 9 25 11 26 12 28 13 31 13 
33 15 35 15 38 17 39 17 43 19 44 19 46 20 49 21 
51 22 52 23 55 23 56 23 58 25 59 24 60 25 61 26 
62 25 62 26 62 25 63 25 62 25 62 25 60 24 60 23 
58 23 57 22 54 21 53 20 49 19 47 18 44 17 41 15 
37 14 33 13 30 11 25 9 21 8 17 6 13 5 7 3 
4 1 -2 -1 -6 -2 -10 -4 -15 -5 -20 -8 -23 -8 -28 -11 
-33 -12 -35 -13 -40 -15 -43 -17 -47 -17 -49 -19 -52 -20 -54 -21 
-57 -22 -59 -23 -60 -24 -62 -24 -62 -25 -63 -25 -64 -26 -64 -26 
-63 -26 -64 -26 -62 -26 -62 -25 -61 -26 -59 -25 -58 -24 -56 -24 
-54 -23 -52 -22 -50 -22 -48 -21 -45 -20 -43 -18 -41 -18 -38 -17 
-36 -16 -34 -15 -31 -14 -28 -12 -27 -12 -24 -11 -22 -10 -20 -9 
-18 -8 -16 -7 -14 -7 -13 -5 -11 -6 -10 -4 -8 -4 -8 -3 
-6 -3 -5 -2 -5 -2 -4 -2 -3 -2 -2 -1 -2 -1 -2 0 
-1 -1 -1 0 -1 -1 -1 0 1 0 1 1 1 0 1 1 
2 1 2 1 3 1 4 1 4 2 5 3 7 3 7 3 
9 4 11 5 12 6 15 6 16 7 19 9 21 9 24 11 
27 12 30 14 33 15 37 16 41 18 44 20 48 21 53 23 
57 25 61 26 66 28 70 30 74 32 79 33 84 35 87 36 
92 38 97 39 100 41 103 41 108 43 110 43 113 44 116 44 
117 44 120 45 121 44 121 44 122 44 122 43 120 42 120 41 
118 40 115 38 112 37 109 36 105 33 100 32 95 30 90 27 
83 26 77 23 70 21 63 19 54 16 47 13 38 11 30 9 
22 6 12 4 3 1 -5 -2 -15 -4 -23 -7 -33 -9 -40 -12 
-49 -14 -58 -17 -65 -20 -72 -21 -80 -24 -86 -27 -92 -28 -98 -31 
-103 -33 -108 -35 -111 -36 7466 1588 300 MP stroke
-116 -38 -118 -40 -120 -41 -123 -42 -123 -44 -124 -44 -125 -45 -124 -45 
-122 -45 -122 -46 -119 -45 -118 -45 -114 -45 -111 -44 -108 -43 -104 -42 
-101 -40 -96 -40 -91 -38 -87 -36 -83 -35 -77 -33 -73 -31 -69 -29 
-63 -28 -59 -25 -54 -24 -50 -22 -46 -20 -41 -19 -38 -16 -34 -15 
-30 -14 -27 -12 -24 -11 -20 -9 -19 -8 -16 -7 -13 -7 -12 -5 
-10 -4 -8 -4 -7 -3 -5 -3 -5 -2 -3 -1 -3 -2 -3 -1 
-1 -1 -2 0 -1 -1 -1 0 1 0 1 1 1 0 2 1 
2 1 3 1 4 2 5 2 5 3 8 3 9 4 11 5 
13 6 16 7 18 9 22 10 25 11 29 13 34 15 38 17 
43 19 48 21 55 24 60 27 67 29 75 32 81 35 89 38 
97 41 105 45 114 47 122 50 130 52 140 56 148 58 157 61 
165 63 174 65 182 67 190 68 197 70 204 70 211 71 217 70 
222 71 227 70 230 69 234 68 236 67 237 64 237 62 236 60 
235 57 232 54 228 52 223 48 216 45 210 41 201 39 192 35 
182 32 170 28 159 26 145 22 131 20 117 17 102 14 85 12 
70 9 52 7 36 5 18 2 1 0 -17 -2 -34 -5 -52 -6 
-68 -9 -85 -12 -101 -14 -116 -17 -132 -20 -146 -22 -159 -26 -172 -29 
-183 -32 -194 -35 -204 -39 -213 -42 -220 -46 -226 -49 -232 -52 -236 -56 
-239 -58 -242 -61 -242 -64 -241 -66 -241 -68 -239 -70 -235 -71 -231 -72 
-227 -73 -221 -73 -215 -72 -207 -72 -201 -72 -192 -69 -184 -69 -176 -66 
-166 -64 -158 -61 -148 -59 -139 -56 -130 -53 -121 -50 -111 -47 -103 -43 
-95 -40 -86 -37 -78 -34 -71 -31 -63 -28 -57 -25 -50 -22 -45 -20 
-39 -17 -34 -15 -29 -14 -25 -11 -21 -10 -18 -8 -15 -7 -13 -5 
-10 -5 -8 -4 -7 -3 -5 -2 -4 -2 -3 -1 -2 -1 -2 -1 
-1 0 -1 -1 -1 0 -1 -1 10630 2829 197 MP stroke
6 w
gr

c9
c10
  36   36 9381 2291 FO
  36   36 9242 2235 FO
  36   36 9094 2176 FO
  36   36 8936 2115 FO
  36   36 8770 2051 FO
  36   36 8594 1985 FO
  36   36 8410 1916 FO
  36   36 8330 1887 FO
  36   36 8512 1954 FO
  36   36 8686 2019 FO
  36   36 8851 2082 FO
  36   36 9008 2143 FO
  36   36 9156 2201 FO
  36   36 9296 2257 FO
  36   36 9426 2309 FO
  36   36 9357 2282 FO
  36   36 9253 2240 FO
  36   36 9145 2197 FO
  36   36 9034 2153 FO
  36   36 8920 2108 FO
  36   36 8802 2063 FO
  36   36 8683 2018 FO
  36   36 8561 1972 FO
  36   36 8439 1927 FO
  36   36 8315 1882 FO
  36   36 8376 1904 FO
  36   36 8497 1948 FO
  36   36 8617 1993 FO
  36   36 8734 2037 FO
  36   36 8850 2081 FO
  36   36 8963 2125 FO
  36   36 9073 2168 FO
  36   36 9181 2211 FO
  36   36 9284 2252 FO
  36   36 9384 2293 FO
  36   36 9420 2307 FO
  36   36 9356 2281 FO
  36   36 9292 2255 FO
  36   36 9229 2230 FO
  36   36 9167 2205 FO
  36   36 9105 2181 FO
  36   36 9045 2157 FO
  36   36 8986 2134 FO
  36   36 8929 2112 FO
  36   36 8875 2091 FO
  36   36 8823 2071 FO
  36   36 8774 2052 FO
  36   36 8727 2035 FO
  36   36 8684 2018 FO
  36   36 8644 2003 FO
  36   36 8609 1990 FO
  36   36 8576 1978 FO
  36   36 8548 1967 FO
  36   36 8525 1959 FO
  36   36 8505 1951 FO
  36   36 8490 1946 FO
  36   36 8480 1942 FO
  36   36 8474 1940 FO
  36   36 8472 1939 FO
  36   36 8476 1940 FO
  36   36 8483 1943 FO
  36   36 8496 1948 FO
  36   36 8513 1954 FO
  36   36 8534 1962 FO
  36   36 8559 1971 FO
  36   36 8589 1982 FO
  36   36 8622 1995 FO
  36   36 8659 2009 FO
  36   36 8700 2024 FO
  36   36 8744 2041 FO
  36   36 8791 2059 FO
  36   36 8840 2078 FO
  36   36 8893 2098 FO
  36   36 8947 2119 FO
  36   36 9004 2141 FO
  36   36 9062 2164 FO
  36   36 9122 2187 FO
  36   36 9182 2211 FO
  36   36 9244 2236 FO
  36   36 9306 2261 FO
  36   36 9369 2286 FO
  36   36 9431 2311 FO
gs 1527 238 9104 2592 rc
27.6 w
c9
1 1 1 0 1 0 1 1 1 1 1 0 1 1 1 0 
2 1 1 0 2 1 2 1 2 1 3 1 3 2 3 1 
3 1 3 2 4 2 4 2 5 2 5 2 5 2 5 3 
6 2 6 3 6 3 7 3 7 3 7 3 7 3 8 4 
8 3 7 4 9 4 8 3 8 4 9 4 8 4 9 3 
8 4 8 4 9 4 8 3 8 4 7 3 8 3 7 4 
6 3 7 2 6 3 5 3 5 2 5 2 4 2 3 1 
3 1 2 1 2 1 1 1 -1 -1 -1 0 -2 -1 -3 -1 
-3 -2 -4 -2 -4 -1 -5 -3 -5 -2 -6 -3 -6 -2 -7 -3 
-7 -3 -7 -4 -8 -3 -8 -4 -8 -3 -9 -4 -8 -4 -9 -4 
-8 -4 -9 -3 -8 -4 -9 -4 -8 -4 -9 -4 -8 -3 -8 -4 
-8 -4 -7 -3 -8 -3 -7 -4 -7 -3 -6 -3 -6 -2 -6 -3 
-6 -2 -5 -3 -5 -2 -4 -2 -4 -2 -4 -2 -4 -1 -3 -2 
-3 -1 -3 -1 -2 -1 -2 -1 -2 -1 -2 -1 -1 -1 -2 0 
-1 -1 -1 0 -1 -1 -1 0 -1 -1 -1 0 1 0 1 0 
1 1 1 0 1 1 1 0 1 1 2 1 2 1 2 1 
3 1 3 1 3 2 4 1 4 2 4 2 5 2 6 3 
6 3 6 3 7 3 8 3 8 4 9 4 10 4 10 5 
10 5 12 5 12 5 12 6 13 6 14 6 14 6 14 7 
15 6 15 7 16 7 16 7 16 7 16 8 17 7 16 7 
17 7 16 8 16 7 16 7 16 7 15 6 15 7 14 6 
14 6 12 5 13 6 11 5 10 4 10 4 8 4 8 3 
6 3 5 2 4 2 3 1 2 1 -1 0 -2 -1 -3 -2 
-4 -1 -6 -3 -6 -3 -8 -3 -9 -4 -10 -4 -10 -5 -12 -5 
-13 -5 -13 -6 -14 -6 -14 -7 -15 -6 -16 -7 -16 -7 -16 -7 
-17 -8 -17 -7 -16 -7 -17 -8 -17 -7 -17 -8 -16 -7 -16 -7 
-16 -7 -16 -7 -15 -7 -14 -6 -14 -7 -14 -6 -13 -6 -12 -5 
-12 -5 -11 -6 -11 -4 -10 -5 -9 -4 -8 -4 -8 -3 -8 -4 
-7 -3 -6 -3 -5 -2 -5 -2 -5 -3 -4 -1 -4 -2 -3 -1 
-3 -2 -2 -1 -2 -1 -2 -1 -2 0 -1 -1 -1 -1 -1 0 
-1 0 -1 -1 -1 0 1 0 1 1 1 0 1 0 1 1 
2 1 1 1 2 1 3 1 3 1 3 2 4 1 5 2 
5 3 6 2 6 3 8 4 8 3 9 5 10 4 11 5 
12 5 13 6 14 7 16 7 16 7 18 8 19 9 20 8 
21 10 23 10 23 10 25 11 25 12 27 11 28 13 28 12 
30 13 30 13 30 13 32 14 31 14 32 14 32 13 32 14 
32 14 32 13 31 14 31 13 30 13 30 12 28 12 27 11 
26 11 25 10 23 10 9646 2400 300 MP stroke
21 9 20 8 18 7 16 7 13 6 12 4 9 4 7 3 
5 2 3 1 -2 -1 -5 -2 -7 -2 -9 -4 -12 -5 -13 -6 
-16 -6 -18 -8 -20 -8 -21 -9 -23 -9 -25 -11 -27 -11 -27 -11 
-29 -12 -30 -13 -30 -13 -32 -13 -32 -14 -32 -14 -33 -14 -32 -14 
-33 -14 -33 -14 -32 -14 -32 -14 -31 -13 -31 -14 -30 -13 -29 -13 
-28 -12 -27 -12 -26 -12 -25 -11 -24 -10 -22 -10 -22 -10 -20 -9 
-19 -8 -17 -8 -16 -7 -16 -7 -14 -6 -12 -6 -12 -5 -11 -5 
-9 -5 -9 -4 -7 -3 -7 -3 -6 -3 -5 -2 -5 -2 -4 -2 
-3 -2 -3 -1 -3 -1 -2 -1 -1 -1 -2 0 -1 -1 -1 0 
-1 -1 -1 0 -1 -1 1 1 1 0 1 1 1 0 1 0 
1 1 2 1 2 1 2 1 3 1 4 2 4 2 6 2 
6 3 7 3 8 4 9 4 10 5 12 5 13 6 15 7 
17 7 18 9 20 9 22 9 25 11 26 12 28 13 31 13 
33 15 35 15 38 17 39 17 43 19 44 19 46 20 49 21 
51 22 52 23 55 23 56 23 58 25 59 24 60 25 61 26 
62 25 62 26 62 25 63 25 62 25 62 25 60 24 60 23 
58 23 57 22 54 21 53 20 49 19 47 18 44 17 41 15 
37 14 33 13 30 11 25 9 21 8 17 6 13 5 7 3 
4 1 -2 -1 -6 -2 -10 -4 -15 -5 -20 -8 -23 -8 -28 -11 
-33 -12 -35 -13 -40 -15 -43 -17 -47 -17 -49 -19 -52 -20 -54 -21 
-57 -22 -59 -23 -60 -24 -62 -24 -62 -25 -63 -25 -64 -26 -64 -26 
-63 -26 -64 -26 -62 -26 -62 -25 -61 -26 -59 -25 -58 -24 -56 -24 
-54 -23 -52 -22 -50 -22 -48 -21 -45 -20 -43 -18 -41 -18 -38 -17 
-36 -16 -34 -15 -31 -14 -28 -12 -27 -12 -24 -11 -22 -10 -20 -9 
-18 -8 -16 -7 -14 -7 -13 -5 -11 -6 -10 -4 -8 -4 -8 -3 
-6 -3 -5 -2 -5 -2 -4 -2 -3 -2 -2 -1 -2 -1 -2 0 
-1 -1 -1 0 -1 -1 -1 0 1 0 1 1 1 0 1 1 
2 1 2 1 3 1 4 1 4 2 5 3 7 3 7 3 
9 4 11 5 12 6 15 6 16 7 19 9 21 9 24 11 
27 12 30 14 33 15 37 16 41 18 44 20 48 21 53 23 
57 25 61 26 66 28 70 30 74 32 79 33 84 35 87 36 
92 38 97 39 100 41 103 41 108 43 110 43 113 44 116 44 
117 44 120 45 121 44 121 44 122 44 122 43 120 42 120 41 
118 40 115 38 112 37 109 36 105 33 100 32 95 30 90 27 
83 26 77 23 70 21 63 19 54 16 47 13 38 11 30 9 
22 6 12 4 3 1 -5 -2 -15 -4 -23 -7 -33 -9 -40 -12 
-49 -14 -58 -17 -65 -20 -72 -21 -80 -24 -86 -27 -92 -28 -98 -31 
-103 -33 -108 -35 -111 -36 7466 1588 300 MP stroke
-116 -38 -118 -40 -120 -41 -123 -42 -123 -44 -124 -44 -125 -45 -124 -45 
-122 -45 -122 -46 -119 -45 -118 -45 -114 -45 -111 -44 -108 -43 -104 -42 
-101 -40 -96 -40 -91 -38 -87 -36 -83 -35 -77 -33 -73 -31 -69 -29 
-63 -28 -59 -25 -54 -24 -50 -22 -46 -20 -41 -19 -38 -16 -34 -15 
-30 -14 -27 -12 -24 -11 -20 -9 -19 -8 -16 -7 -13 -7 -12 -5 
-10 -4 -8 -4 -7 -3 -5 -3 -5 -2 -3 -1 -3 -2 -3 -1 
-1 -1 -2 0 -1 -1 -1 0 1 0 1 1 1 0 2 1 
2 1 3 1 4 2 5 2 5 3 8 3 9 4 11 5 
13 6 16 7 18 9 22 10 25 11 29 13 34 15 38 17 
43 19 48 21 55 24 60 27 67 29 75 32 81 35 89 38 
97 41 105 45 114 47 122 50 130 52 140 56 148 58 157 61 
165 63 174 65 182 67 190 68 197 70 204 70 211 71 217 70 
222 71 227 70 230 69 234 68 236 67 237 64 237 62 236 60 
235 57 232 54 228 52 223 48 216 45 210 41 201 39 192 35 
182 32 170 28 159 26 145 22 131 20 117 17 102 14 85 12 
70 9 52 7 36 5 18 2 1 0 -17 -2 -34 -5 -52 -6 
-68 -9 -85 -12 -101 -14 -116 -17 -132 -20 -146 -22 -159 -26 -172 -29 
-183 -32 -194 -35 -204 -39 -213 -42 -220 -46 -226 -49 -232 -52 -236 -56 
-239 -58 -242 -61 -242 -64 -241 -66 -241 -68 -239 -70 -235 -71 -231 -72 
-227 -73 -221 -73 -215 -72 -207 -72 -201 -72 -192 -69 -184 -69 -176 -66 
-166 -64 -158 -61 -148 -59 -139 -56 -130 -53 -121 -50 -111 -47 -103 -43 
-95 -40 -86 -37 -78 -34 -71 -31 -63 -28 -57 -25 -50 -22 -45 -20 
-39 -17 -34 -15 -29 -14 -25 -11 -21 -10 -18 -8 -15 -7 -13 -5 
-10 -5 -8 -4 -7 -3 -5 -2 -4 -2 -3 -1 -2 -1 -2 -1 
-1 0 -1 -1 -1 0 -1 -1 10630 2829 197 MP stroke
6 w
gr

c9
c10
  36   36 9381 2291 FO
  36   36 9242 2235 FO
  36   36 9094 2176 FO
  36   36 8936 2115 FO
  36   36 8770 2051 FO
  36   36 8594 1985 FO
  36   36 8410 1916 FO
  36   36 8330 1887 FO
  36   36 8512 1954 FO
  36   36 8686 2019 FO
  36   36 8851 2082 FO
  36   36 9008 2143 FO
  36   36 9156 2201 FO
  36   36 9296 2257 FO
  36   36 9426 2309 FO
  36   36 9357 2282 FO
  36   36 9253 2240 FO
  36   36 9145 2197 FO
  36   36 9034 2153 FO
  36   36 8920 2108 FO
  36   36 8802 2063 FO
  36   36 8683 2018 FO
  36   36 8561 1972 FO
  36   36 8439 1927 FO
  36   36 8315 1882 FO
  36   36 8376 1904 FO
  36   36 8497 1948 FO
  36   36 8617 1993 FO
  36   36 8734 2037 FO
  36   36 8850 2081 FO
  36   36 8963 2125 FO
  36   36 9073 2168 FO
  36   36 9181 2211 FO
  36   36 9284 2252 FO
  36   36 9384 2293 FO
  36   36 9420 2307 FO
  36   36 9356 2281 FO
  36   36 9292 2255 FO
  36   36 9229 2230 FO
  36   36 9167 2205 FO
  36   36 9105 2181 FO
  36   36 9045 2157 FO
  36   36 8986 2134 FO
  36   36 8929 2112 FO
  36   36 8875 2091 FO
  36   36 8823 2071 FO
  36   36 8774 2052 FO
  36   36 8727 2035 FO
  36   36 8684 2018 FO
  36   36 8644 2003 FO
  36   36 8609 1990 FO
  36   36 8576 1978 FO
  36   36 8548 1967 FO
  36   36 8525 1959 FO
  36   36 8505 1951 FO
  36   36 8490 1946 FO
  36   36 8480 1942 FO
  36   36 8474 1940 FO
  36   36 8472 1939 FO
  36   36 8476 1940 FO
  36   36 8483 1943 FO
  36   36 8496 1948 FO
  36   36 8513 1954 FO
  36   36 8534 1962 FO
  36   36 8559 1971 FO
  36   36 8589 1982 FO
  36   36 8622 1995 FO
  36   36 8659 2009 FO
  36   36 8700 2024 FO
  36   36 8744 2041 FO
  36   36 8791 2059 FO
  36   36 8840 2078 FO
  36   36 8893 2098 FO
  36   36 8947 2119 FO
  36   36 9004 2141 FO
  36   36 9062 2164 FO
  36   36 9122 2187 FO
  36   36 9182 2211 FO
  36   36 9244 2236 FO
  36   36 9306 2261 FO
  36   36 9369 2286 FO
  36   36 9431 2311 FO
gs 1527 238 9104 2592 rc
gr

c8
8596 1999 mt 8668 1999 L
8632 1963 mt 8632 2035 L
gs 1527 238 9104 2592 rc
48 w
gs 7094 2188 245 245 rc
0 sg
  36   36 7216 2310 PO
  36   36 7216 2310 FO
gr

0 sg
6 w
gr

0 sg
%%IncludeResource: font Helvetica-Bold
/Helvetica-Bold /WindowsLatin1Encoding 240 FMSR

6969 2639 mt 
(\( 0.7 , 0.2 \)) s

end %%Color Dict

eplot
%%EndObject

epage
end

showpage

%%Trailer
%%EOF
