%!PS-Adobe-3.0 EPSF-3.0
%%Creator: MATLAB, The MathWorks, Inc. Version 7.13.0.564 (R2011b). Operating System: Microsoft Windows XP.
%%Title: D:\DriveG\Sem2-2012\Program\ReferenceMetric-v3\metricfig\zdt6\zdt6-te.eps
%%CreationDate: 02/05/2013  17:33:46
%%DocumentNeededFonts: Helvetica
%%+ Helvetica-Bold
%%DocumentProcessColors: Cyan Magenta Yellow Black
%%LanguageLevel: 2
%%Pages: 1
%%BoundingBox:  -191   276   787   565
%%EndComments

%%BeginProlog
% MathWorks dictionary
/MathWorks 160 dict begin
% definition operators
/bdef {bind def} bind def
/ldef {load def} bind def
/xdef {exch def} bdef
/xstore {exch store} bdef
% operator abbreviations
/c  /clip ldef
/cc /concat ldef
/cp /closepath ldef
/gr /grestore ldef
/gs /gsave ldef
/mt /moveto ldef
/np /newpath ldef
/cm /currentmatrix ldef
/sm /setmatrix ldef
/rm /rmoveto ldef
/rl /rlineto ldef
/s {show newpath} bdef
/sc {setcmykcolor} bdef
/sr /setrgbcolor ldef
/sg /setgray ldef
/w /setlinewidth ldef
/j /setlinejoin ldef
/cap /setlinecap ldef
/rc {rectclip} bdef
/rf {rectfill} bdef
% page state control
/pgsv () def
/bpage {/pgsv save def} bdef
/epage {pgsv restore} bdef
/bplot /gsave ldef
/eplot {stroke grestore} bdef
% orientation switch
/portraitMode 0 def /landscapeMode 1 def /rotateMode 2 def
% coordinate system mappings
/dpi2point 0 def
% font control
/FontSize 0 def
/FMS {/FontSize xstore findfont [FontSize 0 0 FontSize neg 0 0]
  makefont setfont} bdef
/ISOLatin1Encoding where {pop /WindowsLatin1Encoding 256 array bdef
ISOLatin1Encoding WindowsLatin1Encoding copy pop
/.notdef/.notdef/quotesinglbase/florin/quotedblbase/ellipsis/dagger
/daggerdbl/circumflex/perthousand/Scaron/guilsinglleft/OE/.notdef/.notdef
/.notdef/.notdef/quoteleft/quoteright/quotedblleft/quotedblright/bullet
/endash/emdash/tilde/trademark/scaron/guilsinglright/oe/.notdef/.notdef
/Ydieresis WindowsLatin1Encoding 128 32 getinterval astore pop}
{/WindowsLatin1Encoding StandardEncoding bdef} ifelse
/reencode {exch dup where {pop load} {pop StandardEncoding} ifelse
  exch dup 3 1 roll findfont dup length dict begin
  { 1 index /FID ne {def}{pop pop} ifelse } forall
  /Encoding exch def currentdict end definefont pop} bdef
/isroman {findfont /CharStrings get /Agrave known} bdef
/FMSR {3 1 roll 1 index dup isroman {reencode} {pop pop} ifelse
  exch FMS} bdef
/csm {1 dpi2point div -1 dpi2point div scale neg translate
 dup landscapeMode eq {pop -90 rotate}
  {rotateMode eq {90 rotate} if} ifelse} bdef
% line types: solid, dotted, dashed, dotdash
/SO { [] 0 setdash } bdef
/DO { [.5 dpi2point mul 4 dpi2point mul] 0 setdash } bdef
/DA { [6 dpi2point mul] 0 setdash } bdef
/DD { [.5 dpi2point mul 4 dpi2point mul 6 dpi2point mul 4
  dpi2point mul] 0 setdash } bdef
% macros for lines and objects
/L {lineto stroke} bdef
/MP {3 1 roll moveto 1 sub {rlineto} repeat} bdef
/AP {{rlineto} repeat} bdef
/PDlw -1 def
/W {/PDlw currentlinewidth def setlinewidth} def
/PP {closepath eofill} bdef
/DP {closepath stroke} bdef
/MR {4 -2 roll moveto dup  0 exch rlineto exch 0 rlineto
  neg 0 exch rlineto closepath} bdef
/FR {MR stroke} bdef
/PR {MR fill} bdef
/L1i {{currentfile picstr readhexstring pop} image} bdef
/tMatrix matrix def
/MakeOval {newpath tMatrix currentmatrix pop translate scale
0 0 1 0 360 arc tMatrix setmatrix} bdef
/FO {MakeOval stroke} bdef
/PO {MakeOval fill} bdef
/PD {currentlinewidth 2 div 0 360 arc fill
   PDlw -1 eq not {PDlw w /PDlw -1 def} if} def
/FA {newpath tMatrix currentmatrix pop translate scale
  0 0 1 5 -2 roll arc tMatrix setmatrix stroke} bdef
/PA {newpath tMatrix currentmatrix pop	translate 0 0 moveto scale
  0 0 1 5 -2 roll arc closepath tMatrix setmatrix fill} bdef
/FAn {newpath tMatrix currentmatrix pop translate scale
  0 0 1 5 -2 roll arcn tMatrix setmatrix stroke} bdef
/PAn {newpath tMatrix currentmatrix pop translate 0 0 moveto scale
  0 0 1 5 -2 roll arcn closepath tMatrix setmatrix fill} bdef
/vradius 0 def /hradius 0 def /lry 0 def
/lrx 0 def /uly 0 def /ulx 0 def /rad 0 def
/MRR {/vradius xdef /hradius xdef /lry xdef /lrx xdef /uly xdef
  /ulx xdef newpath tMatrix currentmatrix pop ulx hradius add uly
  vradius add translate hradius vradius scale 0 0 1 180 270 arc 
  tMatrix setmatrix lrx hradius sub uly vradius add translate
  hradius vradius scale 0 0 1 270 360 arc tMatrix setmatrix
  lrx hradius sub lry vradius sub translate hradius vradius scale
  0 0 1 0 90 arc tMatrix setmatrix ulx hradius add lry vradius sub
  translate hradius vradius scale 0 0 1 90 180 arc tMatrix setmatrix
  closepath} bdef
/FRR {MRR stroke } bdef
/PRR {MRR fill } bdef
/MlrRR {/lry xdef /lrx xdef /uly xdef /ulx xdef /rad lry uly sub 2 div def
  newpath tMatrix currentmatrix pop ulx rad add uly rad add translate
  rad rad scale 0 0 1 90 270 arc tMatrix setmatrix lrx rad sub lry rad
  sub translate rad rad scale 0 0 1 270 90 arc tMatrix setmatrix
  closepath} bdef
/FlrRR {MlrRR stroke } bdef
/PlrRR {MlrRR fill } bdef
/MtbRR {/lry xdef /lrx xdef /uly xdef /ulx xdef /rad lrx ulx sub 2 div def
  newpath tMatrix currentmatrix pop ulx rad add uly rad add translate
  rad rad scale 0 0 1 180 360 arc tMatrix setmatrix lrx rad sub lry rad
  sub translate rad rad scale 0 0 1 0 180 arc tMatrix setmatrix
  closepath} bdef
/FtbRR {MtbRR stroke } bdef
/PtbRR {MtbRR fill } bdef
/stri 6 array def /dtri 6 array def
/smat 6 array def /dmat 6 array def
/tmat1 6 array def /tmat2 6 array def /dif 3 array def
/asub {/ind2 exch def /ind1 exch def dup dup
  ind1 get exch ind2 get sub exch } bdef
/tri_to_matrix {
  2 0 asub 3 1 asub 4 0 asub 5 1 asub
  dup 0 get exch 1 get 7 -1 roll astore } bdef
/compute_transform {
  dmat dtri tri_to_matrix tmat1 invertmatrix 
  smat stri tri_to_matrix tmat2 concatmatrix } bdef
/ds {stri astore pop} bdef
/dt {dtri astore pop} bdef
/db {2 copy /cols xdef /rows xdef mul dup 3 mul string
  currentfile 
  3 index 0 eq {/ASCIIHexDecode filter}
  {/ASCII85Decode filter 3 index 2 eq {/RunLengthDecode filter} if }
  ifelse exch readstring pop
  dup 0 3 index getinterval /rbmap xdef
  dup 2 index dup getinterval /gbmap xdef
  1 index dup 2 mul exch getinterval /bbmap xdef pop pop}bdef
/it {gs np dtri aload pop moveto lineto lineto cp c
  cols rows 8 compute_transform 
  rbmap gbmap bbmap true 3 colorimage gr}bdef
/il {newpath moveto lineto stroke}bdef
currentdict end def
%%EndProlog

%%BeginSetup
MathWorks begin

0 cap

end
%%EndSetup

%%Page: 1 1
%%BeginPageSetup
%%PageBoundingBox:  -191   276   787   565
MathWorks begin
bpage
%%EndPageSetup

%%BeginObject: obj1
bplot

/dpi2point 12 def
portraitMode -2292 6780 csm

    0     0 11746  3467 rc
86 dict begin %Colortable dictionary
/c0 { 0.000000 0.000000 0.000000 sr} bdef
/c1 { 1.000000 1.000000 1.000000 sr} bdef
/c2 { 0.900000 0.000000 0.000000 sr} bdef
/c3 { 0.000000 0.820000 0.000000 sr} bdef
/c4 { 0.000000 0.000000 0.800000 sr} bdef
/c5 { 0.910000 0.820000 0.320000 sr} bdef
/c6 { 1.000000 0.260000 0.820000 sr} bdef
/c7 { 0.000000 0.820000 0.820000 sr} bdef
c0
1 j
1 sg
   0    0 11747 3468 rf
6 w
0 2826 9103 0 0 -2826 1527 3086 4 MP
PP
-9103 0 0 2826 9103 0 0 -2826 1527 3086 5 MP stroke
4 w
DO
SO
6 w
0 sg
1527  260 mt 10630  260 L
1527 3086 mt 10630 3086 L
10630 3086 mt 10630  260 L
1527 3086 mt 1527  260 L
1527 3086 mt 10630 3086 L
1527 3086 mt 1527  260 L
1527 3086 mt 1527 2994 L
1527  260 mt 1527  351 L
%%IncludeResource: font Helvetica
/Helvetica /WindowsLatin1Encoding 120 FMSR

1444 3231 mt 
(0.2) s
2664 3086 mt 2664 2994 L
2664  260 mt 2664  351 L
2581 3231 mt 
(0.3) s
3802 3086 mt 3802 2994 L
3802  260 mt 3802  351 L
3719 3231 mt 
(0.4) s
4940 3086 mt 4940 2994 L
4940  260 mt 4940  351 L
4857 3231 mt 
(0.5) s
6078 3086 mt 6078 2994 L
6078  260 mt 6078  351 L
5995 3231 mt 
(0.6) s
7216 3086 mt 7216 2994 L
7216  260 mt 7216  351 L
7133 3231 mt 
(0.7) s
8354 3086 mt 8354 2994 L
8354  260 mt 8354  351 L
8271 3231 mt 
(0.8) s
9492 3086 mt 9492 2994 L
9492  260 mt 9492  351 L
9409 3231 mt 
(0.9) s
10630 3086 mt 10630 2994 L
10630  260 mt 10630  351 L
10597 3231 mt 
(1) s
1527 3086 mt 1618 3086 L
10630 3086 mt 10538 3086 L
1426 3130 mt 
(0) s
1527 2803 mt 1618 2803 L
10630 2803 mt 10538 2803 L
1326 2847 mt 
(0.1) s
1527 2520 mt 1618 2520 L
10630 2520 mt 10538 2520 L
1326 2564 mt 
(0.2) s
1527 2238 mt 1618 2238 L
10630 2238 mt 10538 2238 L
1326 2282 mt 
(0.3) s
1527 1955 mt 1618 1955 L
10630 1955 mt 10538 1955 L
1326 1999 mt 
(0.4) s
1527 1673 mt 1618 1673 L
10630 1673 mt 10538 1673 L
1326 1717 mt 
(0.5) s
1527 1390 mt 1618 1390 L
10630 1390 mt 10538 1390 L
1326 1434 mt 
(0.6) s
1527 1107 mt 1618 1107 L
10630 1107 mt 10538 1107 L
1326 1151 mt 
(0.7) s
1527  825 mt 1618  825 L
10630  825 mt 10538  825 L
1326  869 mt 
(0.8) s
1527  542 mt 1618  542 L
10630  542 mt 10538  542 L
1326  586 mt 
(0.9) s
1527  260 mt 1618  260 L
10630  260 mt 10538  260 L
1426  304 mt 
(1) s
1527  260 mt 10630  260 L
1527 3086 mt 10630 3086 L
10630 3086 mt 10630  260 L
1527 3086 mt 1527  260 L
gs 1527 260 9104 2827 rc
gr

/c8 { 1.000000 0.000000 0.000000 sr} bdef
c8
8833 2279 mt 8905 2279 L
8869 2243 mt 8869 2315 L
8900 2307 mt 8972 2307 L
8936 2271 mt 8936 2343 L
8893 2304 mt 8965 2304 L
8929 2268 mt 8929 2340 L
8833 2279 mt 8905 2279 L
8869 2243 mt 8869 2315 L
8962 2333 mt 9034 2333 L
8998 2297 mt 8998 2369 L
8851 2286 mt 8923 2286 L
8887 2250 mt 8887 2322 L
8833 2279 mt 8905 2279 L
8869 2243 mt 8869 2315 L
8957 2331 mt 9029 2331 L
8993 2295 mt 8993 2367 L
8833 2279 mt 8905 2279 L
8869 2243 mt 8869 2315 L
8851 2286 mt 8923 2286 L
8887 2250 mt 8887 2322 L
8957 2331 mt 9029 2331 L
8993 2295 mt 8993 2367 L
8833 2279 mt 8905 2279 L
8869 2243 mt 8869 2315 L
8962 2333 mt 9034 2333 L
8998 2297 mt 8998 2369 L
8900 2307 mt 8972 2307 L
8936 2271 mt 8936 2343 L
8893 2304 mt 8965 2304 L
8929 2268 mt 8929 2340 L
8833 2279 mt 8905 2279 L
8869 2243 mt 8869 2315 L
8851 2286 mt 8923 2286 L
8887 2250 mt 8887 2322 L
8957 2331 mt 9029 2331 L
8993 2295 mt 8993 2367 L
8833 2279 mt 8905 2279 L
8869 2243 mt 8869 2315 L
8962 2333 mt 9034 2333 L
8998 2297 mt 8998 2369 L
8893 2304 mt 8965 2304 L
8929 2268 mt 8929 2340 L
8833 2279 mt 8905 2279 L
8869 2243 mt 8869 2315 L
8900 2307 mt 8972 2307 L
8936 2271 mt 8936 2343 L
8893 2304 mt 8965 2304 L
8929 2268 mt 8929 2340 L
8833 2279 mt 8905 2279 L
8869 2243 mt 8869 2315 L
8851 2286 mt 8923 2286 L
8887 2250 mt 8887 2322 L
8957 2331 mt 9029 2331 L
8993 2295 mt 8993 2367 L
8851 2286 mt 8923 2286 L
8887 2250 mt 8887 2322 L
8833 2279 mt 8905 2279 L
8869 2243 mt 8869 2315 L
8893 2304 mt 8965 2304 L
8929 2268 mt 8929 2340 L
8833 2279 mt 8905 2279 L
8869 2243 mt 8869 2315 L
8900 2307 mt 8972 2307 L
8936 2271 mt 8936 2343 L
8833 2279 mt 8905 2279 L
8869 2243 mt 8869 2315 L
gs 1527 260 9104 2827 rc
27.6 w
/c9 { 0.000000 0.000000 1.000000 sr} bdef
c9
1 1 1 0 1 1 1 0 1 1 1 0 1 1 1 0 
2 1 1 1 2 1 2 1 2 1 3 1 3 2 3 1 
3 2 3 1 4 2 4 2 5 3 5 2 5 2 5 3 
6 3 6 3 6 3 7 3 7 4 7 3 7 4 8 3 
8 4 7 4 9 4 8 4 8 4 9 4 8 5 9 4 
8 4 8 4 9 4 8 4 8 4 7 3 8 4 7 3 
6 4 7 3 6 3 5 2 5 3 5 2 4 2 3 2 
3 1 2 1 2 1 1 0 -1 0 0 0 -1 -1 -2 -1 
-3 -1 -3 -1 -4 -2 -4 -2 -5 -3 -5 -2 -6 -3 -6 -3 
-7 -3 -7 -4 -7 -3 -8 -4 -8 -4 -8 -4 -9 -4 -8 -4 
-9 -4 -8 -5 -9 -4 -8 -4 -9 -4 -8 -4 -9 -4 -8 -4 
-8 -4 -8 -4 -7 -4 -8 -4 -7 -3 -7 -3 -6 -4 -6 -3 
-6 -3 -6 -2 -5 -3 -5 -2 -4 -2 -4 -3 -4 -1 -4 -2 
-3 -2 -3 -1 -3 -2 -2 -1 -2 -1 -2 -1 -2 -1 -1 -1 
-2 0 -1 -1 -1 0 -1 -1 -1 0 -1 -1 -1 0 1 0 
1 1 1 0 1 1 1 0 1 1 1 0 2 1 2 1 
2 1 3 2 3 1 3 2 4 1 4 2 4 3 5 2 
6 3 6 3 6 3 7 4 8 3 8 4 9 5 10 5 
10 4 10 6 12 5 12 6 12 6 13 7 14 6 14 7 
14 7 15 7 15 8 16 7 16 8 16 8 16 8 17 8 
16 8 17 8 16 8 16 7 16 8 16 7 15 8 15 7 
14 7 14 6 12 6 13 6 11 5 10 5 10 5 8 4 
8 3 6 3 5 3 4 2 3 1 2 1 -1 0 -2 -1 
-3 -2 -4 -2 -6 -3 -6 -3 -8 -3 -9 -5 -10 -4 -10 -5 
-12 -6 -13 -6 -13 -6 -14 -7 -14 -7 -15 -7 -16 -7 -16 -8 
-16 -8 -17 -8 -17 -8 -16 -8 -17 -8 -17 -8 -17 -8 -16 -8 
-16 -8 -16 -8 -16 -7 -15 -8 -14 -7 -14 -7 -14 -6 -13 -7 
-12 -6 -12 -6 -11 -5 -11 -5 -10 -5 -9 -5 -8 -4 -8 -4 
-8 -3 -7 -4 -6 -3 -5 -3 -5 -2 -5 -2 -4 -2 -4 -2 
-3 -2 -3 -1 -2 -1 -2 -1 -2 -1 -2 -1 -1 -1 -1 0 
-1 -1 -1 0 -1 -1 -1 0 1 0 1 1 1 0 1 1 
1 0 2 1 1 1 2 1 3 1 3 2 3 1 4 2 
5 3 5 2 6 3 6 3 8 4 8 4 9 4 10 5 
11 6 12 6 13 6 14 7 16 8 16 8 18 8 19 10 
20 9 21 11 23 11 23 11 25 12 25 12 27 13 28 13 
28 14 30 14 30 15 30 14 32 15 31 15 32 15 32 15 
32 15 32 15 32 15 31 14 31 14 30 14 30 14 28 13 
27 12 26 12 25 11 9669 2629 300 MP stroke
23 11 21 10 20 8 18 9 16 7 13 6 12 5 9 4 
7 3 5 3 3 1 -2 -1 -5 -2 -7 -3 -9 -5 -12 -5 
-13 -6 -16 -7 -18 -8 -20 -9 -21 -10 -23 -10 -25 -12 -27 -12 
-27 -12 -29 -13 -30 -14 -30 -14 -32 -15 -32 -15 -32 -15 -33 -15 
-32 -15 -33 -16 -33 -15 -32 -15 -32 -15 -31 -15 -31 -15 -30 -14 
-29 -14 -28 -14 -27 -13 -26 -12 -25 -12 -24 -12 -22 -11 -22 -10 
-20 -10 -19 -9 -17 -9 -16 -8 -16 -7 -14 -7 -12 -6 -12 -6 
-11 -5 -9 -5 -9 -4 -7 -4 -7 -3 -6 -3 -5 -3 -5 -2 
-4 -2 -3 -2 -3 -1 -3 -2 -2 -1 -1 -1 -2 0 -1 -1 
-1 0 -1 -1 -1 0 -1 -1 1 1 1 0 1 1 1 0 
1 1 1 0 2 1 2 1 2 1 3 2 4 2 4 2 
6 2 6 3 7 4 8 4 9 4 10 6 12 5 13 7 
15 7 17 8 18 9 20 10 22 11 25 12 26 13 28 14 
31 14 33 16 35 17 38 18 39 19 43 20 44 21 46 22 
49 23 51 24 52 25 55 25 56 26 58 26 59 27 60 27 
61 28 62 28 62 27 62 28 63 28 62 27 62 27 60 26 
60 26 58 24 57 24 54 23 53 22 49 21 47 20 44 18 
41 16 37 16 33 13 30 12 25 11 21 8 17 7 13 5 
7 3 4 1 -2 0 -6 -3 -10 -4 -15 -6 -20 -8 -23 -9 
-28 -12 -33 -13 -35 -15 -40 -16 -43 -18 -47 -19 -49 -20 -52 -22 
-54 -23 -57 -24 -59 -25 -60 -26 -62 -27 -62 -27 -63 -27 -64 -28 
-64 -29 -63 -28 -64 -28 -62 -28 -62 -28 -61 -28 -59 -27 -58 -27 
-56 -26 -54 -25 -52 -25 -50 -23 -48 -23 -45 -21 -43 -21 -41 -19 
-38 -19 -36 -17 -34 -16 -31 -15 -28 -14 -27 -13 -24 -12 -22 -11 
-20 -9 -18 -9 -16 -8 -14 -7 -13 -7 -11 -5 -10 -5 -8 -4 
-8 -4 -6 -3 -5 -3 -5 -2 -4 -2 -3 -1 -2 -1 -2 -1 
-2 -1 -1 -1 -1 0 -1 -1 -1 0 1 0 1 1 1 0 
1 1 2 1 2 1 3 1 4 2 4 2 5 3 7 3 
7 4 9 4 11 5 12 7 15 7 16 8 19 9 21 10 
24 12 27 13 30 15 33 16 37 18 41 19 44 22 48 23 
53 25 57 27 61 29 66 31 70 32 74 35 79 36 84 38 
87 40 92 41 97 43 100 44 103 45 108 47 110 47 113 47 
116 48 117 49 120 48 121 49 121 48 122 48 122 46 120 46 
120 45 118 43 115 42 112 41 109 38 105 37 100 35 95 32 
90 30 83 28 77 26 70 22 63 21 54 17 47 15 38 12 
30 10 22 6 12 4 3 1 -5 -2 -15 -4 -23 -7 -33 -11 
-40 -13 -49 -15 -58 -19 -65 -21 -72 -23 -80 -27 -86 -29 -92 -31 
-98 -33 -103 -36 -108 -38 7355 1693 300 MP stroke
-111 -40 -116 -41 -118 -44 -120 -44 -123 -46 -123 -48 -124 -48 -125 -49 
-124 -49 -122 -50 -122 -49 -119 -50 -118 -49 -114 -49 -111 -47 -108 -47 
-104 -46 -101 -44 -96 -43 -91 -42 -87 -39 -83 -38 -77 -36 -73 -34 
-69 -32 -63 -30 -59 -28 -54 -26 -50 -24 -46 -22 -41 -20 -38 -18 
-34 -17 -30 -15 -27 -13 -24 -11 -20 -11 -19 -9 -16 -7 -13 -7 
-12 -6 -10 -5 -8 -4 -7 -3 -5 -3 -5 -2 -3 -2 -3 -1 
-3 -2 -1 0 -2 -1 -1 -1 -1 0 1 0 1 1 1 0 
2 1 2 1 3 2 4 2 5 2 5 3 8 4 9 4 
11 5 13 7 16 8 18 9 22 11 25 12 29 14 34 16 
38 19 43 21 48 23 55 26 60 29 67 32 75 35 81 39 
89 41 97 45 105 48 114 51 122 55 130 57 140 61 148 64 
157 66 165 68 174 71 182 73 190 75 197 75 204 77 211 77 
217 77 222 78 227 76 230 75 234 75 236 72 237 70 237 68 
236 65 235 63 232 59 228 56 223 52 216 49 210 46 201 41 
192 39 182 34 170 31 159 28 145 25 131 21 117 19 102 15 
85 13 70 10 52 8 36 5 18 2 1 0 -17 -2 -34 -5 
-52 -7 -68 -10 -85 -13 -101 -15 -116 -18 -132 -22 -146 -25 -159 -27 
-172 -32 -183 -35 -194 -39 -204 -42 -213 -46 -220 -50 -226 -53 -232 -57 
-236 -61 -239 -63 -242 -67 -242 -70 -241 -72 -241 -74 -239 -76 -235 -78 
-231 -79 -227 -79 -221 -79 -215 -79 -207 -79 -201 -78 -192 -76 -184 -74 
-176 -72 -166 -70 -158 -67 -148 -64 -139 -61 -130 -58 -121 -55 -111 -51 
-103 -47 -95 -44 -86 -40 -78 -37 -71 -34 -63 -30 -57 -27 -50 -25 
-45 -21 -39 -19 -34 -17 -29 -14 -25 -12 -21 -11 -18 -9 -15 -7 
-13 -6 -10 -5 -8 -5 -7 -3 -5 -2 -4 -2 -3 -2 -2 -1 
-2 -1 -1 0 -1 -1 -1 0 -1 -1 10630 3086 198 MP stroke
6 w
gr

c9
/c10 { 0.000000 1.000000 1.000000 sr} bdef
c10
  36   36 9381 2499 FO
  36   36 9242 2438 FO
  36   36 9094 2374 FO
  36   36 8936 2307 FO
  36   36 8770 2237 FO
  36   36 8594 2165 FO
  36   36 8410 2091 FO
  36   36 8330 2059 FO
  36   36 8512 2132 FO
  36   36 8686 2203 FO
  36   36 8851 2271 FO
  36   36 9008 2337 FO
  36   36 9156 2401 FO
  36   36 9296 2462 FO
  36   36 9426 2519 FO
  36   36 9357 2489 FO
  36   36 9253 2443 FO
  36   36 9145 2396 FO
  36   36 9034 2349 FO
  36   36 8920 2300 FO
  36   36 8802 2251 FO
  36   36 8683 2201 FO
  36   36 8561 2152 FO
  36   36 8439 2102 FO
  36   36 8315 2053 FO
  36   36 8376 2077 FO
  36   36 8497 2126 FO
  36   36 8617 2174 FO
  36   36 8734 2223 FO
  36   36 8850 2271 FO
  36   36 8963 2318 FO
  36   36 9073 2365 FO
  36   36 9181 2412 FO
  36   36 9284 2457 FO
  36   36 9384 2501 FO
  36   36 9420 2517 FO
  36   36 9356 2488 FO
  36   36 9292 2460 FO
  36   36 9229 2433 FO
  36   36 9167 2406 FO
  36   36 9105 2379 FO
  36   36 9045 2353 FO
  36   36 8986 2328 FO
  36   36 8929 2304 FO
  36   36 8875 2281 FO
  36   36 8823 2259 FO
  36   36 8774 2239 FO
  36   36 8727 2220 FO
  36   36 8684 2202 FO
  36   36 8644 2186 FO
  36   36 8609 2171 FO
  36   36 8576 2158 FO
  36   36 8548 2146 FO
  36   36 8525 2137 FO
  36   36 8505 2129 FO
  36   36 8490 2123 FO
  36   36 8480 2119 FO
  36   36 8474 2116 FO
  36   36 8472 2116 FO
  36   36 8476 2117 FO
  36   36 8483 2120 FO
  36   36 8496 2125 FO
  36   36 8513 2132 FO
  36   36 8534 2140 FO
  36   36 8559 2151 FO
  36   36 8589 2163 FO
  36   36 8622 2176 FO
  36   36 8659 2192 FO
  36   36 8700 2208 FO
  36   36 8744 2226 FO
  36   36 8791 2246 FO
  36   36 8840 2267 FO
  36   36 8893 2289 FO
  36   36 8947 2312 FO
  36   36 9004 2336 FO
  36   36 9062 2360 FO
  36   36 9122 2386 FO
  36   36 9182 2412 FO
  36   36 9244 2439 FO
  36   36 9306 2466 FO
  36   36 9369 2494 FO
  36   36 9431 2522 FO
gs 1527 260 9104 2827 rc
27.6 w
c9
1 1 1 0 1 1 1 0 1 1 1 0 1 1 1 0 
2 1 1 1 2 1 2 1 2 1 3 1 3 2 3 1 
3 2 3 1 4 2 4 2 5 3 5 2 5 2 5 3 
6 3 6 3 6 3 7 3 7 4 7 3 7 4 8 3 
8 4 7 4 9 4 8 4 8 4 9 4 8 5 9 4 
8 4 8 4 9 4 8 4 8 4 7 3 8 4 7 3 
6 4 7 3 6 3 5 2 5 3 5 2 4 2 3 2 
3 1 2 1 2 1 1 0 -1 0 0 0 -1 -1 -2 -1 
-3 -1 -3 -1 -4 -2 -4 -2 -5 -3 -5 -2 -6 -3 -6 -3 
-7 -3 -7 -4 -7 -3 -8 -4 -8 -4 -8 -4 -9 -4 -8 -4 
-9 -4 -8 -5 -9 -4 -8 -4 -9 -4 -8 -4 -9 -4 -8 -4 
-8 -4 -8 -4 -7 -4 -8 -4 -7 -3 -7 -3 -6 -4 -6 -3 
-6 -3 -6 -2 -5 -3 -5 -2 -4 -2 -4 -3 -4 -1 -4 -2 
-3 -2 -3 -1 -3 -2 -2 -1 -2 -1 -2 -1 -2 -1 -1 -1 
-2 0 -1 -1 -1 0 -1 -1 -1 0 -1 -1 -1 0 1 0 
1 1 1 0 1 1 1 0 1 1 1 0 2 1 2 1 
2 1 3 2 3 1 3 2 4 1 4 2 4 3 5 2 
6 3 6 3 6 3 7 4 8 3 8 4 9 5 10 5 
10 4 10 6 12 5 12 6 12 6 13 7 14 6 14 7 
14 7 15 7 15 8 16 7 16 8 16 8 16 8 17 8 
16 8 17 8 16 8 16 7 16 8 16 7 15 8 15 7 
14 7 14 6 12 6 13 6 11 5 10 5 10 5 8 4 
8 3 6 3 5 3 4 2 3 1 2 1 -1 0 -2 -1 
-3 -2 -4 -2 -6 -3 -6 -3 -8 -3 -9 -5 -10 -4 -10 -5 
-12 -6 -13 -6 -13 -6 -14 -7 -14 -7 -15 -7 -16 -7 -16 -8 
-16 -8 -17 -8 -17 -8 -16 -8 -17 -8 -17 -8 -17 -8 -16 -8 
-16 -8 -16 -8 -16 -7 -15 -8 -14 -7 -14 -7 -14 -6 -13 -7 
-12 -6 -12 -6 -11 -5 -11 -5 -10 -5 -9 -5 -8 -4 -8 -4 
-8 -3 -7 -4 -6 -3 -5 -3 -5 -2 -5 -2 -4 -2 -4 -2 
-3 -2 -3 -1 -2 -1 -2 -1 -2 -1 -2 -1 -1 -1 -1 0 
-1 -1 -1 0 -1 -1 -1 0 1 0 1 1 1 0 1 1 
1 0 2 1 1 1 2 1 3 1 3 2 3 1 4 2 
5 3 5 2 6 3 6 3 8 4 8 4 9 4 10 5 
11 6 12 6 13 6 14 7 16 8 16 8 18 8 19 10 
20 9 21 11 23 11 23 11 25 12 25 12 27 13 28 13 
28 14 30 14 30 15 30 14 32 15 31 15 32 15 32 15 
32 15 32 15 32 15 31 14 31 14 30 14 30 14 28 13 
27 12 26 12 25 11 9669 2629 300 MP stroke
23 11 21 10 20 8 18 9 16 7 13 6 12 5 9 4 
7 3 5 3 3 1 -2 -1 -5 -2 -7 -3 -9 -5 -12 -5 
-13 -6 -16 -7 -18 -8 -20 -9 -21 -10 -23 -10 -25 -12 -27 -12 
-27 -12 -29 -13 -30 -14 -30 -14 -32 -15 -32 -15 -32 -15 -33 -15 
-32 -15 -33 -16 -33 -15 -32 -15 -32 -15 -31 -15 -31 -15 -30 -14 
-29 -14 -28 -14 -27 -13 -26 -12 -25 -12 -24 -12 -22 -11 -22 -10 
-20 -10 -19 -9 -17 -9 -16 -8 -16 -7 -14 -7 -12 -6 -12 -6 
-11 -5 -9 -5 -9 -4 -7 -4 -7 -3 -6 -3 -5 -3 -5 -2 
-4 -2 -3 -2 -3 -1 -3 -2 -2 -1 -1 -1 -2 0 -1 -1 
-1 0 -1 -1 -1 0 -1 -1 1 1 1 0 1 1 1 0 
1 1 1 0 2 1 2 1 2 1 3 2 4 2 4 2 
6 2 6 3 7 4 8 4 9 4 10 6 12 5 13 7 
15 7 17 8 18 9 20 10 22 11 25 12 26 13 28 14 
31 14 33 16 35 17 38 18 39 19 43 20 44 21 46 22 
49 23 51 24 52 25 55 25 56 26 58 26 59 27 60 27 
61 28 62 28 62 27 62 28 63 28 62 27 62 27 60 26 
60 26 58 24 57 24 54 23 53 22 49 21 47 20 44 18 
41 16 37 16 33 13 30 12 25 11 21 8 17 7 13 5 
7 3 4 1 -2 0 -6 -3 -10 -4 -15 -6 -20 -8 -23 -9 
-28 -12 -33 -13 -35 -15 -40 -16 -43 -18 -47 -19 -49 -20 -52 -22 
-54 -23 -57 -24 -59 -25 -60 -26 -62 -27 -62 -27 -63 -27 -64 -28 
-64 -29 -63 -28 -64 -28 -62 -28 -62 -28 -61 -28 -59 -27 -58 -27 
-56 -26 -54 -25 -52 -25 -50 -23 -48 -23 -45 -21 -43 -21 -41 -19 
-38 -19 -36 -17 -34 -16 -31 -15 -28 -14 -27 -13 -24 -12 -22 -11 
-20 -9 -18 -9 -16 -8 -14 -7 -13 -7 -11 -5 -10 -5 -8 -4 
-8 -4 -6 -3 -5 -3 -5 -2 -4 -2 -3 -1 -2 -1 -2 -1 
-2 -1 -1 -1 -1 0 -1 -1 -1 0 1 0 1 1 1 0 
1 1 2 1 2 1 3 1 4 2 4 2 5 3 7 3 
7 4 9 4 11 5 12 7 15 7 16 8 19 9 21 10 
24 12 27 13 30 15 33 16 37 18 41 19 44 22 48 23 
53 25 57 27 61 29 66 31 70 32 74 35 79 36 84 38 
87 40 92 41 97 43 100 44 103 45 108 47 110 47 113 47 
116 48 117 49 120 48 121 49 121 48 122 48 122 46 120 46 
120 45 118 43 115 42 112 41 109 38 105 37 100 35 95 32 
90 30 83 28 77 26 70 22 63 21 54 17 47 15 38 12 
30 10 22 6 12 4 3 1 -5 -2 -15 -4 -23 -7 -33 -11 
-40 -13 -49 -15 -58 -19 -65 -21 -72 -23 -80 -27 -86 -29 -92 -31 
-98 -33 -103 -36 -108 -38 7355 1693 300 MP stroke
-111 -40 -116 -41 -118 -44 -120 -44 -123 -46 -123 -48 -124 -48 -125 -49 
-124 -49 -122 -50 -122 -49 -119 -50 -118 -49 -114 -49 -111 -47 -108 -47 
-104 -46 -101 -44 -96 -43 -91 -42 -87 -39 -83 -38 -77 -36 -73 -34 
-69 -32 -63 -30 -59 -28 -54 -26 -50 -24 -46 -22 -41 -20 -38 -18 
-34 -17 -30 -15 -27 -13 -24 -11 -20 -11 -19 -9 -16 -7 -13 -7 
-12 -6 -10 -5 -8 -4 -7 -3 -5 -3 -5 -2 -3 -2 -3 -1 
-3 -2 -1 0 -2 -1 -1 -1 -1 0 1 0 1 1 1 0 
2 1 2 1 3 2 4 2 5 2 5 3 8 4 9 4 
11 5 13 7 16 8 18 9 22 11 25 12 29 14 34 16 
38 19 43 21 48 23 55 26 60 29 67 32 75 35 81 39 
89 41 97 45 105 48 114 51 122 55 130 57 140 61 148 64 
157 66 165 68 174 71 182 73 190 75 197 75 204 77 211 77 
217 77 222 78 227 76 230 75 234 75 236 72 237 70 237 68 
236 65 235 63 232 59 228 56 223 52 216 49 210 46 201 41 
192 39 182 34 170 31 159 28 145 25 131 21 117 19 102 15 
85 13 70 10 52 8 36 5 18 2 1 0 -17 -2 -34 -5 
-52 -7 -68 -10 -85 -13 -101 -15 -116 -18 -132 -22 -146 -25 -159 -27 
-172 -32 -183 -35 -194 -39 -204 -42 -213 -46 -220 -50 -226 -53 -232 -57 
-236 -61 -239 -63 -242 -67 -242 -70 -241 -72 -241 -74 -239 -76 -235 -78 
-231 -79 -227 -79 -221 -79 -215 -79 -207 -79 -201 -78 -192 -76 -184 -74 
-176 -72 -166 -70 -158 -67 -148 -64 -139 -61 -130 -58 -121 -55 -111 -51 
-103 -47 -95 -44 -86 -40 -78 -37 -71 -34 -63 -30 -57 -27 -50 -25 
-45 -21 -39 -19 -34 -17 -29 -14 -25 -12 -21 -11 -18 -9 -15 -7 
-13 -6 -10 -5 -8 -5 -7 -3 -5 -2 -4 -2 -3 -2 -2 -1 
-2 -1 -1 0 -1 -1 -1 0 -1 -1 10630 3086 198 MP stroke
6 w
gr

c9
c10
  36   36 9381 2499 FO
  36   36 9242 2438 FO
  36   36 9094 2374 FO
  36   36 8936 2307 FO
  36   36 8770 2237 FO
  36   36 8594 2165 FO
  36   36 8410 2091 FO
  36   36 8330 2059 FO
  36   36 8512 2132 FO
  36   36 8686 2203 FO
  36   36 8851 2271 FO
  36   36 9008 2337 FO
  36   36 9156 2401 FO
  36   36 9296 2462 FO
  36   36 9426 2519 FO
  36   36 9357 2489 FO
  36   36 9253 2443 FO
  36   36 9145 2396 FO
  36   36 9034 2349 FO
  36   36 8920 2300 FO
  36   36 8802 2251 FO
  36   36 8683 2201 FO
  36   36 8561 2152 FO
  36   36 8439 2102 FO
  36   36 8315 2053 FO
  36   36 8376 2077 FO
  36   36 8497 2126 FO
  36   36 8617 2174 FO
  36   36 8734 2223 FO
  36   36 8850 2271 FO
  36   36 8963 2318 FO
  36   36 9073 2365 FO
  36   36 9181 2412 FO
  36   36 9284 2457 FO
  36   36 9384 2501 FO
  36   36 9420 2517 FO
  36   36 9356 2488 FO
  36   36 9292 2460 FO
  36   36 9229 2433 FO
  36   36 9167 2406 FO
  36   36 9105 2379 FO
  36   36 9045 2353 FO
  36   36 8986 2328 FO
  36   36 8929 2304 FO
  36   36 8875 2281 FO
  36   36 8823 2259 FO
  36   36 8774 2239 FO
  36   36 8727 2220 FO
  36   36 8684 2202 FO
  36   36 8644 2186 FO
  36   36 8609 2171 FO
  36   36 8576 2158 FO
  36   36 8548 2146 FO
  36   36 8525 2137 FO
  36   36 8505 2129 FO
  36   36 8490 2123 FO
  36   36 8480 2119 FO
  36   36 8474 2116 FO
  36   36 8472 2116 FO
  36   36 8476 2117 FO
  36   36 8483 2120 FO
  36   36 8496 2125 FO
  36   36 8513 2132 FO
  36   36 8534 2140 FO
  36   36 8559 2151 FO
  36   36 8589 2163 FO
  36   36 8622 2176 FO
  36   36 8659 2192 FO
  36   36 8700 2208 FO
  36   36 8744 2226 FO
  36   36 8791 2246 FO
  36   36 8840 2267 FO
  36   36 8893 2289 FO
  36   36 8947 2312 FO
  36   36 9004 2336 FO
  36   36 9062 2360 FO
  36   36 9122 2386 FO
  36   36 9182 2412 FO
  36   36 9244 2439 FO
  36   36 9306 2466 FO
  36   36 9369 2494 FO
  36   36 9431 2522 FO
gs 1527 260 9104 2827 rc
27.6 w
c9
1 1 1 0 1 1 1 0 1 1 1 0 1 1 1 0 
2 1 1 1 2 1 2 1 2 1 3 1 3 2 3 1 
3 2 3 1 4 2 4 2 5 3 5 2 5 2 5 3 
6 3 6 3 6 3 7 3 7 4 7 3 7 4 8 3 
8 4 7 4 9 4 8 4 8 4 9 4 8 5 9 4 
8 4 8 4 9 4 8 4 8 4 7 3 8 4 7 3 
6 4 7 3 6 3 5 2 5 3 5 2 4 2 3 2 
3 1 2 1 2 1 1 0 -1 0 0 0 -1 -1 -2 -1 
-3 -1 -3 -1 -4 -2 -4 -2 -5 -3 -5 -2 -6 -3 -6 -3 
-7 -3 -7 -4 -7 -3 -8 -4 -8 -4 -8 -4 -9 -4 -8 -4 
-9 -4 -8 -5 -9 -4 -8 -4 -9 -4 -8 -4 -9 -4 -8 -4 
-8 -4 -8 -4 -7 -4 -8 -4 -7 -3 -7 -3 -6 -4 -6 -3 
-6 -3 -6 -2 -5 -3 -5 -2 -4 -2 -4 -3 -4 -1 -4 -2 
-3 -2 -3 -1 -3 -2 -2 -1 -2 -1 -2 -1 -2 -1 -1 -1 
-2 0 -1 -1 -1 0 -1 -1 -1 0 -1 -1 -1 0 1 0 
1 1 1 0 1 1 1 0 1 1 1 0 2 1 2 1 
2 1 3 2 3 1 3 2 4 1 4 2 4 3 5 2 
6 3 6 3 6 3 7 4 8 3 8 4 9 5 10 5 
10 4 10 6 12 5 12 6 12 6 13 7 14 6 14 7 
14 7 15 7 15 8 16 7 16 8 16 8 16 8 17 8 
16 8 17 8 16 8 16 7 16 8 16 7 15 8 15 7 
14 7 14 6 12 6 13 6 11 5 10 5 10 5 8 4 
8 3 6 3 5 3 4 2 3 1 2 1 -1 0 -2 -1 
-3 -2 -4 -2 -6 -3 -6 -3 -8 -3 -9 -5 -10 -4 -10 -5 
-12 -6 -13 -6 -13 -6 -14 -7 -14 -7 -15 -7 -16 -7 -16 -8 
-16 -8 -17 -8 -17 -8 -16 -8 -17 -8 -17 -8 -17 -8 -16 -8 
-16 -8 -16 -8 -16 -7 -15 -8 -14 -7 -14 -7 -14 -6 -13 -7 
-12 -6 -12 -6 -11 -5 -11 -5 -10 -5 -9 -5 -8 -4 -8 -4 
-8 -3 -7 -4 -6 -3 -5 -3 -5 -2 -5 -2 -4 -2 -4 -2 
-3 -2 -3 -1 -2 -1 -2 -1 -2 -1 -2 -1 -1 -1 -1 0 
-1 -1 -1 0 -1 -1 -1 0 1 0 1 1 1 0 1 1 
1 0 2 1 1 1 2 1 3 1 3 2 3 1 4 2 
5 3 5 2 6 3 6 3 8 4 8 4 9 4 10 5 
11 6 12 6 13 6 14 7 16 8 16 8 18 8 19 10 
20 9 21 11 23 11 23 11 25 12 25 12 27 13 28 13 
28 14 30 14 30 15 30 14 32 15 31 15 32 15 32 15 
32 15 32 15 32 15 31 14 31 14 30 14 30 14 28 13 
27 12 26 12 25 11 9669 2629 300 MP stroke
23 11 21 10 20 8 18 9 16 7 13 6 12 5 9 4 
7 3 5 3 3 1 -2 -1 -5 -2 -7 -3 -9 -5 -12 -5 
-13 -6 -16 -7 -18 -8 -20 -9 -21 -10 -23 -10 -25 -12 -27 -12 
-27 -12 -29 -13 -30 -14 -30 -14 -32 -15 -32 -15 -32 -15 -33 -15 
-32 -15 -33 -16 -33 -15 -32 -15 -32 -15 -31 -15 -31 -15 -30 -14 
-29 -14 -28 -14 -27 -13 -26 -12 -25 -12 -24 -12 -22 -11 -22 -10 
-20 -10 -19 -9 -17 -9 -16 -8 -16 -7 -14 -7 -12 -6 -12 -6 
-11 -5 -9 -5 -9 -4 -7 -4 -7 -3 -6 -3 -5 -3 -5 -2 
-4 -2 -3 -2 -3 -1 -3 -2 -2 -1 -1 -1 -2 0 -1 -1 
-1 0 -1 -1 -1 0 -1 -1 1 1 1 0 1 1 1 0 
1 1 1 0 2 1 2 1 2 1 3 2 4 2 4 2 
6 2 6 3 7 4 8 4 9 4 10 6 12 5 13 7 
15 7 17 8 18 9 20 10 22 11 25 12 26 13 28 14 
31 14 33 16 35 17 38 18 39 19 43 20 44 21 46 22 
49 23 51 24 52 25 55 25 56 26 58 26 59 27 60 27 
61 28 62 28 62 27 62 28 63 28 62 27 62 27 60 26 
60 26 58 24 57 24 54 23 53 22 49 21 47 20 44 18 
41 16 37 16 33 13 30 12 25 11 21 8 17 7 13 5 
7 3 4 1 -2 0 -6 -3 -10 -4 -15 -6 -20 -8 -23 -9 
-28 -12 -33 -13 -35 -15 -40 -16 -43 -18 -47 -19 -49 -20 -52 -22 
-54 -23 -57 -24 -59 -25 -60 -26 -62 -27 -62 -27 -63 -27 -64 -28 
-64 -29 -63 -28 -64 -28 -62 -28 -62 -28 -61 -28 -59 -27 -58 -27 
-56 -26 -54 -25 -52 -25 -50 -23 -48 -23 -45 -21 -43 -21 -41 -19 
-38 -19 -36 -17 -34 -16 -31 -15 -28 -14 -27 -13 -24 -12 -22 -11 
-20 -9 -18 -9 -16 -8 -14 -7 -13 -7 -11 -5 -10 -5 -8 -4 
-8 -4 -6 -3 -5 -3 -5 -2 -4 -2 -3 -1 -2 -1 -2 -1 
-2 -1 -1 -1 -1 0 -1 -1 -1 0 1 0 1 1 1 0 
1 1 2 1 2 1 3 1 4 2 4 2 5 3 7 3 
7 4 9 4 11 5 12 7 15 7 16 8 19 9 21 10 
24 12 27 13 30 15 33 16 37 18 41 19 44 22 48 23 
53 25 57 27 61 29 66 31 70 32 74 35 79 36 84 38 
87 40 92 41 97 43 100 44 103 45 108 47 110 47 113 47 
116 48 117 49 120 48 121 49 121 48 122 48 122 46 120 46 
120 45 118 43 115 42 112 41 109 38 105 37 100 35 95 32 
90 30 83 28 77 26 70 22 63 21 54 17 47 15 38 12 
30 10 22 6 12 4 3 1 -5 -2 -15 -4 -23 -7 -33 -11 
-40 -13 -49 -15 -58 -19 -65 -21 -72 -23 -80 -27 -86 -29 -92 -31 
-98 -33 -103 -36 -108 -38 7355 1693 300 MP stroke
-111 -40 -116 -41 -118 -44 -120 -44 -123 -46 -123 -48 -124 -48 -125 -49 
-124 -49 -122 -50 -122 -49 -119 -50 -118 -49 -114 -49 -111 -47 -108 -47 
-104 -46 -101 -44 -96 -43 -91 -42 -87 -39 -83 -38 -77 -36 -73 -34 
-69 -32 -63 -30 -59 -28 -54 -26 -50 -24 -46 -22 -41 -20 -38 -18 
-34 -17 -30 -15 -27 -13 -24 -11 -20 -11 -19 -9 -16 -7 -13 -7 
-12 -6 -10 -5 -8 -4 -7 -3 -5 -3 -5 -2 -3 -2 -3 -1 
-3 -2 -1 0 -2 -1 -1 -1 -1 0 1 0 1 1 1 0 
2 1 2 1 3 2 4 2 5 2 5 3 8 4 9 4 
11 5 13 7 16 8 18 9 22 11 25 12 29 14 34 16 
38 19 43 21 48 23 55 26 60 29 67 32 75 35 81 39 
89 41 97 45 105 48 114 51 122 55 130 57 140 61 148 64 
157 66 165 68 174 71 182 73 190 75 197 75 204 77 211 77 
217 77 222 78 227 76 230 75 234 75 236 72 237 70 237 68 
236 65 235 63 232 59 228 56 223 52 216 49 210 46 201 41 
192 39 182 34 170 31 159 28 145 25 131 21 117 19 102 15 
85 13 70 10 52 8 36 5 18 2 1 0 -17 -2 -34 -5 
-52 -7 -68 -10 -85 -13 -101 -15 -116 -18 -132 -22 -146 -25 -159 -27 
-172 -32 -183 -35 -194 -39 -204 -42 -213 -46 -220 -50 -226 -53 -232 -57 
-236 -61 -239 -63 -242 -67 -242 -70 -241 -72 -241 -74 -239 -76 -235 -78 
-231 -79 -227 -79 -221 -79 -215 -79 -207 -79 -201 -78 -192 -76 -184 -74 
-176 -72 -166 -70 -158 -67 -148 -64 -139 -61 -130 -58 -121 -55 -111 -51 
-103 -47 -95 -44 -86 -40 -78 -37 -71 -34 -63 -30 -57 -27 -50 -25 
-45 -21 -39 -19 -34 -17 -29 -14 -25 -12 -21 -11 -18 -9 -15 -7 
-13 -6 -10 -5 -8 -5 -7 -3 -5 -2 -4 -2 -3 -2 -2 -1 
-2 -1 -1 0 -1 -1 -1 0 -1 -1 10630 3086 198 MP stroke
6 w
gr

c9
c10
  36   36 9381 2499 FO
  36   36 9242 2438 FO
  36   36 9094 2374 FO
  36   36 8936 2307 FO
  36   36 8770 2237 FO
  36   36 8594 2165 FO
  36   36 8410 2091 FO
  36   36 8330 2059 FO
  36   36 8512 2132 FO
  36   36 8686 2203 FO
  36   36 8851 2271 FO
  36   36 9008 2337 FO
  36   36 9156 2401 FO
  36   36 9296 2462 FO
  36   36 9426 2519 FO
  36   36 9357 2489 FO
  36   36 9253 2443 FO
  36   36 9145 2396 FO
  36   36 9034 2349 FO
  36   36 8920 2300 FO
  36   36 8802 2251 FO
  36   36 8683 2201 FO
  36   36 8561 2152 FO
  36   36 8439 2102 FO
  36   36 8315 2053 FO
  36   36 8376 2077 FO
  36   36 8497 2126 FO
  36   36 8617 2174 FO
  36   36 8734 2223 FO
  36   36 8850 2271 FO
  36   36 8963 2318 FO
  36   36 9073 2365 FO
  36   36 9181 2412 FO
  36   36 9284 2457 FO
  36   36 9384 2501 FO
  36   36 9420 2517 FO
  36   36 9356 2488 FO
  36   36 9292 2460 FO
  36   36 9229 2433 FO
  36   36 9167 2406 FO
  36   36 9105 2379 FO
  36   36 9045 2353 FO
  36   36 8986 2328 FO
  36   36 8929 2304 FO
  36   36 8875 2281 FO
  36   36 8823 2259 FO
  36   36 8774 2239 FO
  36   36 8727 2220 FO
  36   36 8684 2202 FO
  36   36 8644 2186 FO
  36   36 8609 2171 FO
  36   36 8576 2158 FO
  36   36 8548 2146 FO
  36   36 8525 2137 FO
  36   36 8505 2129 FO
  36   36 8490 2123 FO
  36   36 8480 2119 FO
  36   36 8474 2116 FO
  36   36 8472 2116 FO
  36   36 8476 2117 FO
  36   36 8483 2120 FO
  36   36 8496 2125 FO
  36   36 8513 2132 FO
  36   36 8534 2140 FO
  36   36 8559 2151 FO
  36   36 8589 2163 FO
  36   36 8622 2176 FO
  36   36 8659 2192 FO
  36   36 8700 2208 FO
  36   36 8744 2226 FO
  36   36 8791 2246 FO
  36   36 8840 2267 FO
  36   36 8893 2289 FO
  36   36 8947 2312 FO
  36   36 9004 2336 FO
  36   36 9062 2360 FO
  36   36 9122 2386 FO
  36   36 9182 2412 FO
  36   36 9244 2439 FO
  36   36 9306 2466 FO
  36   36 9369 2494 FO
  36   36 9431 2522 FO
gs 1527 260 9104 2827 rc
gr

c8
8830 2277 mt 8902 2277 L
8866 2241 mt 8866 2313 L
8704 2225 mt 8776 2225 L
8740 2189 mt 8740 2261 L
8923 2317 mt 8995 2317 L
8959 2281 mt 8959 2353 L
8880 2298 mt 8952 2298 L
8916 2262 mt 8916 2334 L
8717 2230 mt 8789 2230 L
8753 2194 mt 8753 2266 L
8835 2279 mt 8907 2279 L
8871 2243 mt 8871 2315 L
8990 2345 mt 9062 2345 L
9026 2309 mt 9026 2381 L
8835 2279 mt 8907 2279 L
8871 2243 mt 8871 2315 L
8771 2253 mt 8843 2253 L
8807 2217 mt 8807 2289 L
8830 2277 mt 8902 2277 L
8866 2241 mt 8866 2313 L
8771 2253 mt 8843 2253 L
8807 2217 mt 8807 2289 L
8704 2225 mt 8776 2225 L
8740 2189 mt 8740 2261 L
8801 2265 mt 8873 2265 L
8837 2229 mt 8837 2301 L
8923 2317 mt 8995 2317 L
8959 2281 mt 8959 2353 L
8771 2253 mt 8843 2253 L
8807 2217 mt 8807 2289 L
8787 2259 mt 8859 2259 L
8823 2223 mt 8823 2295 L
8835 2279 mt 8907 2279 L
8871 2243 mt 8871 2315 L
8923 2317 mt 8995 2317 L
8959 2281 mt 8959 2353 L
8771 2253 mt 8843 2253 L
8807 2217 mt 8807 2289 L
8990 2345 mt 9062 2345 L
9026 2309 mt 9026 2381 L
8923 2317 mt 8995 2317 L
8959 2281 mt 8959 2353 L
8876 2297 mt 8948 2297 L
8912 2261 mt 8912 2333 L
8771 2253 mt 8843 2253 L
8807 2217 mt 8807 2289 L
8830 2277 mt 8902 2277 L
8866 2241 mt 8866 2313 L
8771 2253 mt 8843 2253 L
8807 2217 mt 8807 2289 L
8717 2230 mt 8789 2230 L
8753 2194 mt 8753 2266 L
8876 2297 mt 8948 2297 L
8912 2261 mt 8912 2333 L
8940 2324 mt 9012 2324 L
8976 2288 mt 8976 2360 L
8801 2265 mt 8873 2265 L
8837 2229 mt 8837 2301 L
8990 2345 mt 9062 2345 L
9026 2309 mt 9026 2381 L
8876 2297 mt 8948 2297 L
8912 2261 mt 8912 2333 L
8717 2230 mt 8789 2230 L
8753 2194 mt 8753 2266 L
8923 2317 mt 8995 2317 L
8959 2281 mt 8959 2353 L
8876 2297 mt 8948 2297 L
8912 2261 mt 8912 2333 L
8801 2265 mt 8873 2265 L
8837 2229 mt 8837 2301 L
8771 2253 mt 8843 2253 L
8807 2217 mt 8807 2289 L
8876 2297 mt 8948 2297 L
8912 2261 mt 8912 2333 L
8923 2317 mt 8995 2317 L
8959 2281 mt 8959 2353 L
8835 2279 mt 8907 2279 L
8871 2243 mt 8871 2315 L
8771 2253 mt 8843 2253 L
8807 2217 mt 8807 2289 L
8787 2259 mt 8859 2259 L
8823 2223 mt 8823 2295 L
8876 2297 mt 8948 2297 L
8912 2261 mt 8912 2333 L
8801 2265 mt 8873 2265 L
8837 2229 mt 8837 2301 L
8923 2317 mt 8995 2317 L
8959 2281 mt 8959 2353 L
8830 2277 mt 8902 2277 L
8866 2241 mt 8866 2313 L
gs 1527 260 9104 2827 rc
48 w
gs 7094 2398 245 245 rc
0 sg
  36   36 7216 2520 PO
  36   36 7216 2520 FO
gr

0 sg
6 w
gr

0 sg
%%IncludeResource: font Helvetica-Bold
/Helvetica-Bold /WindowsLatin1Encoding 240 FMSR

6784 2939 mt 
(\( 0.7 , 0.2 \)) s

end %%Color Dict

eplot
%%EndObject

epage
end

showpage

%%Trailer
%%EOF
