%!PS-Adobe-3.0 EPSF-3.0
%%Creator: MATLAB, The MathWorks, Inc. Version 7.13.0.564 (R2011b). Operating System: Microsoft Windows XP.
%%Title: D:\DriveG\Sem2-2012\Program\ReferenceMetric-v3\metricfig\zdt6\zdt6-ws.eps
%%CreationDate: 02/05/2013  17:33:13
%%DocumentNeededFonts: Helvetica
%%+ Helvetica-Bold
%%DocumentProcessColors: Cyan Magenta Yellow Black
%%LanguageLevel: 2
%%Pages: 1
%%BoundingBox:  -191   295   787   546
%%EndComments

%%BeginProlog
% MathWorks dictionary
/MathWorks 160 dict begin
% definition operators
/bdef {bind def} bind def
/ldef {load def} bind def
/xdef {exch def} bdef
/xstore {exch store} bdef
% operator abbreviations
/c  /clip ldef
/cc /concat ldef
/cp /closepath ldef
/gr /grestore ldef
/gs /gsave ldef
/mt /moveto ldef
/np /newpath ldef
/cm /currentmatrix ldef
/sm /setmatrix ldef
/rm /rmoveto ldef
/rl /rlineto ldef
/s {show newpath} bdef
/sc {setcmykcolor} bdef
/sr /setrgbcolor ldef
/sg /setgray ldef
/w /setlinewidth ldef
/j /setlinejoin ldef
/cap /setlinecap ldef
/rc {rectclip} bdef
/rf {rectfill} bdef
% page state control
/pgsv () def
/bpage {/pgsv save def} bdef
/epage {pgsv restore} bdef
/bplot /gsave ldef
/eplot {stroke grestore} bdef
% orientation switch
/portraitMode 0 def /landscapeMode 1 def /rotateMode 2 def
% coordinate system mappings
/dpi2point 0 def
% font control
/FontSize 0 def
/FMS {/FontSize xstore findfont [FontSize 0 0 FontSize neg 0 0]
  makefont setfont} bdef
/ISOLatin1Encoding where {pop /WindowsLatin1Encoding 256 array bdef
ISOLatin1Encoding WindowsLatin1Encoding copy pop
/.notdef/.notdef/quotesinglbase/florin/quotedblbase/ellipsis/dagger
/daggerdbl/circumflex/perthousand/Scaron/guilsinglleft/OE/.notdef/.notdef
/.notdef/.notdef/quoteleft/quoteright/quotedblleft/quotedblright/bullet
/endash/emdash/tilde/trademark/scaron/guilsinglright/oe/.notdef/.notdef
/Ydieresis WindowsLatin1Encoding 128 32 getinterval astore pop}
{/WindowsLatin1Encoding StandardEncoding bdef} ifelse
/reencode {exch dup where {pop load} {pop StandardEncoding} ifelse
  exch dup 3 1 roll findfont dup length dict begin
  { 1 index /FID ne {def}{pop pop} ifelse } forall
  /Encoding exch def currentdict end definefont pop} bdef
/isroman {findfont /CharStrings get /Agrave known} bdef
/FMSR {3 1 roll 1 index dup isroman {reencode} {pop pop} ifelse
  exch FMS} bdef
/csm {1 dpi2point div -1 dpi2point div scale neg translate
 dup landscapeMode eq {pop -90 rotate}
  {rotateMode eq {90 rotate} if} ifelse} bdef
% line types: solid, dotted, dashed, dotdash
/SO { [] 0 setdash } bdef
/DO { [.5 dpi2point mul 4 dpi2point mul] 0 setdash } bdef
/DA { [6 dpi2point mul] 0 setdash } bdef
/DD { [.5 dpi2point mul 4 dpi2point mul 6 dpi2point mul 4
  dpi2point mul] 0 setdash } bdef
% macros for lines and objects
/L {lineto stroke} bdef
/MP {3 1 roll moveto 1 sub {rlineto} repeat} bdef
/AP {{rlineto} repeat} bdef
/PDlw -1 def
/W {/PDlw currentlinewidth def setlinewidth} def
/PP {closepath eofill} bdef
/DP {closepath stroke} bdef
/MR {4 -2 roll moveto dup  0 exch rlineto exch 0 rlineto
  neg 0 exch rlineto closepath} bdef
/FR {MR stroke} bdef
/PR {MR fill} bdef
/L1i {{currentfile picstr readhexstring pop} image} bdef
/tMatrix matrix def
/MakeOval {newpath tMatrix currentmatrix pop translate scale
0 0 1 0 360 arc tMatrix setmatrix} bdef
/FO {MakeOval stroke} bdef
/PO {MakeOval fill} bdef
/PD {currentlinewidth 2 div 0 360 arc fill
   PDlw -1 eq not {PDlw w /PDlw -1 def} if} def
/FA {newpath tMatrix currentmatrix pop translate scale
  0 0 1 5 -2 roll arc tMatrix setmatrix stroke} bdef
/PA {newpath tMatrix currentmatrix pop	translate 0 0 moveto scale
  0 0 1 5 -2 roll arc closepath tMatrix setmatrix fill} bdef
/FAn {newpath tMatrix currentmatrix pop translate scale
  0 0 1 5 -2 roll arcn tMatrix setmatrix stroke} bdef
/PAn {newpath tMatrix currentmatrix pop translate 0 0 moveto scale
  0 0 1 5 -2 roll arcn closepath tMatrix setmatrix fill} bdef
/vradius 0 def /hradius 0 def /lry 0 def
/lrx 0 def /uly 0 def /ulx 0 def /rad 0 def
/MRR {/vradius xdef /hradius xdef /lry xdef /lrx xdef /uly xdef
  /ulx xdef newpath tMatrix currentmatrix pop ulx hradius add uly
  vradius add translate hradius vradius scale 0 0 1 180 270 arc 
  tMatrix setmatrix lrx hradius sub uly vradius add translate
  hradius vradius scale 0 0 1 270 360 arc tMatrix setmatrix
  lrx hradius sub lry vradius sub translate hradius vradius scale
  0 0 1 0 90 arc tMatrix setmatrix ulx hradius add lry vradius sub
  translate hradius vradius scale 0 0 1 90 180 arc tMatrix setmatrix
  closepath} bdef
/FRR {MRR stroke } bdef
/PRR {MRR fill } bdef
/MlrRR {/lry xdef /lrx xdef /uly xdef /ulx xdef /rad lry uly sub 2 div def
  newpath tMatrix currentmatrix pop ulx rad add uly rad add translate
  rad rad scale 0 0 1 90 270 arc tMatrix setmatrix lrx rad sub lry rad
  sub translate rad rad scale 0 0 1 270 90 arc tMatrix setmatrix
  closepath} bdef
/FlrRR {MlrRR stroke } bdef
/PlrRR {MlrRR fill } bdef
/MtbRR {/lry xdef /lrx xdef /uly xdef /ulx xdef /rad lrx ulx sub 2 div def
  newpath tMatrix currentmatrix pop ulx rad add uly rad add translate
  rad rad scale 0 0 1 180 360 arc tMatrix setmatrix lrx rad sub lry rad
  sub translate rad rad scale 0 0 1 0 180 arc tMatrix setmatrix
  closepath} bdef
/FtbRR {MtbRR stroke } bdef
/PtbRR {MtbRR fill } bdef
/stri 6 array def /dtri 6 array def
/smat 6 array def /dmat 6 array def
/tmat1 6 array def /tmat2 6 array def /dif 3 array def
/asub {/ind2 exch def /ind1 exch def dup dup
  ind1 get exch ind2 get sub exch } bdef
/tri_to_matrix {
  2 0 asub 3 1 asub 4 0 asub 5 1 asub
  dup 0 get exch 1 get 7 -1 roll astore } bdef
/compute_transform {
  dmat dtri tri_to_matrix tmat1 invertmatrix 
  smat stri tri_to_matrix tmat2 concatmatrix } bdef
/ds {stri astore pop} bdef
/dt {dtri astore pop} bdef
/db {2 copy /cols xdef /rows xdef mul dup 3 mul string
  currentfile 
  3 index 0 eq {/ASCIIHexDecode filter}
  {/ASCII85Decode filter 3 index 2 eq {/RunLengthDecode filter} if }
  ifelse exch readstring pop
  dup 0 3 index getinterval /rbmap xdef
  dup 2 index dup getinterval /gbmap xdef
  1 index dup 2 mul exch getinterval /bbmap xdef pop pop}bdef
/it {gs np dtri aload pop moveto lineto lineto cp c
  cols rows 8 compute_transform 
  rbmap gbmap bbmap true 3 colorimage gr}bdef
/il {newpath moveto lineto stroke}bdef
currentdict end def
%%EndProlog

%%BeginSetup
MathWorks begin

0 cap

end
%%EndSetup

%%Page: 1 1
%%BeginPageSetup
%%PageBoundingBox:  -191   295   787   546
MathWorks begin
bpage
%%EndPageSetup

%%BeginObject: obj1
bplot

/dpi2point 12 def
portraitMode -2292 6552 csm

    0     0 11746  3008 rc
86 dict begin %Colortable dictionary
/c0 { 0.000000 0.000000 0.000000 sr} bdef
/c1 { 1.000000 1.000000 1.000000 sr} bdef
/c2 { 0.900000 0.000000 0.000000 sr} bdef
/c3 { 0.000000 0.820000 0.000000 sr} bdef
/c4 { 0.000000 0.000000 0.800000 sr} bdef
/c5 { 0.910000 0.820000 0.320000 sr} bdef
/c6 { 1.000000 0.260000 0.820000 sr} bdef
/c7 { 0.000000 0.820000 0.820000 sr} bdef
c0
1 j
1 sg
   0    0 11747 3009 rf
6 w
0 2451 9103 0 0 -2451 1527 2677 4 MP
PP
-9103 0 0 2451 9103 0 0 -2451 1527 2677 5 MP stroke
4 w
DO
SO
6 w
0 sg
1527 2677 mt 10630 2677 L
1527 2677 mt 1527  226 L
1527 2677 mt 1527 2585 L
%%IncludeResource: font Helvetica
/Helvetica /WindowsLatin1Encoding 120 FMSR

1444 2822 mt 
(0.2) s
2664 2677 mt 2664 2585 L
2581 2822 mt 
(0.3) s
3802 2677 mt 3802 2585 L
3719 2822 mt 
(0.4) s
4940 2677 mt 4940 2585 L
4857 2822 mt 
(0.5) s
6078 2677 mt 6078 2585 L
5995 2822 mt 
(0.6) s
7216 2677 mt 7216 2585 L
7133 2822 mt 
(0.7) s
8354 2677 mt 8354 2585 L
8271 2822 mt 
(0.8) s
9492 2677 mt 9492 2585 L
9409 2822 mt 
(0.9) s
10630 2677 mt 10630 2585 L
10597 2822 mt 
(1) s
1527 2677 mt 1618 2677 L
1426 2721 mt 
(0) s
1527 2186 mt 1618 2186 L
1326 2230 mt 
(0.2) s
1527 1696 mt 1618 1696 L
1326 1740 mt 
(0.4) s
1527 1206 mt 1618 1206 L
1326 1250 mt 
(0.6) s
1527  716 mt 1618  716 L
1326  760 mt 
(0.8) s
1527  226 mt 1618  226 L
1426  270 mt 
(1) s
gs 1527 226 9104 2452 rc
27.6 w
/c8 { 0.000000 0.000000 1.000000 sr} bdef
c8
1 1 1 0 1 0 1 1 1 0 1 1 1 0 1 1 
2 1 1 0 2 1 2 1 2 1 3 1 3 1 3 1 
3 2 3 1 4 2 4 2 5 2 5 2 5 2 5 2 
6 3 6 2 6 3 7 3 7 3 7 3 7 3 8 3 
8 3 7 4 9 3 8 4 8 3 9 4 8 3 9 4 
8 4 8 3 9 4 8 3 8 3 7 4 8 3 7 3 
6 3 7 2 6 3 5 2 5 2 5 2 4 2 3 1 
3 1 2 1 2 1 1 0 -1 0 0 0 -1 0 -2 -1 
-3 -1 -3 -2 -4 -1 -4 -2 -5 -2 -5 -2 -6 -3 -6 -2 
-7 -3 -7 -3 -7 -3 -8 -4 -8 -3 -8 -3 -9 -4 -8 -4 
-9 -3 -8 -4 -9 -3 -8 -4 -9 -4 -8 -3 -9 -4 -8 -3 
-8 -4 -8 -3 -7 -3 -8 -4 -7 -3 -7 -2 -6 -3 -6 -3 
-6 -2 -6 -3 -5 -2 -5 -2 -4 -2 -4 -2 -4 -1 -4 -2 
-3 -1 -3 -2 -3 -1 -2 -1 -2 -1 -2 -1 -2 0 -1 -1 
-2 -1 -1 0 -1 -1 -1 0 -1 0 -1 -1 -1 0 1 0 
1 0 1 1 1 0 1 1 1 0 1 1 2 1 2 0 
2 1 3 1 3 2 3 1 4 2 4 1 4 2 5 3 
6 2 6 2 6 3 7 3 8 4 8 3 9 4 10 4 
10 4 10 5 12 5 12 5 12 5 13 6 14 5 14 6 
14 6 15 7 15 6 16 7 16 6 16 7 16 7 17 7 
16 7 17 7 16 7 16 6 16 7 16 6 15 7 15 6 
14 6 14 5 12 6 13 5 11 4 10 5 10 3 8 4 
8 3 6 3 5 2 4 1 3 1 2 1 -1 0 -2 -1 
-3 -1 -4 -2 -6 -2 -6 -3 -8 -3 -9 -4 -10 -4 -10 -4 
-12 -5 -13 -5 -13 -5 -14 -6 -14 -6 -15 -7 -16 -6 -16 -7 
-16 -6 -17 -7 -17 -7 -16 -7 -17 -7 -17 -7 -17 -7 -16 -7 
-16 -7 -16 -7 -16 -6 -15 -7 -14 -6 -14 -6 -14 -6 -13 -5 
-12 -5 -12 -5 -11 -5 -11 -5 -10 -4 -9 -4 -8 -4 -8 -3 
-8 -3 -7 -3 -6 -3 -5 -2 -5 -2 -5 -2 -4 -2 -4 -2 
-3 -1 -3 -1 -2 -1 -2 -1 -2 -1 -2 -1 -1 0 -1 -1 
-1 0 -1 0 -1 -1 -1 0 1 0 1 1 1 0 1 0 
1 1 2 1 1 0 2 1 3 1 3 2 3 1 4 2 
5 2 5 2 6 2 6 3 8 3 8 4 9 4 10 4 
11 5 12 5 13 6 14 6 16 6 16 7 18 8 19 8 
20 8 21 9 23 10 23 9 25 11 25 10 27 12 28 11 
28 12 30 12 30 13 30 12 32 13 31 13 32 13 32 13 
32 13 32 13 32 13 31 13 31 12 30 12 30 12 28 11 
27 11 26 10 25 10 9669 2280 300 MP stroke
23 9 21 8 20 8 18 7 16 6 13 6 12 4 9 4 
7 2 5 2 3 1 -2 -1 -5 -1 -7 -3 -9 -4 -12 -4 
-13 -5 -16 -7 -18 -7 -20 -7 -21 -9 -23 -9 -25 -10 -27 -10 
-27 -11 -29 -12 -30 -11 -30 -13 -32 -12 -32 -13 -32 -13 -33 -13 
-32 -14 -33 -13 -33 -13 -32 -14 -32 -13 -31 -13 -31 -12 -30 -13 
-29 -12 -28 -12 -27 -11 -26 -11 -25 -10 -24 -10 -22 -10 -22 -9 
-20 -8 -19 -8 -17 -8 -16 -7 -16 -6 -14 -6 -12 -6 -12 -4 
-11 -5 -9 -4 -9 -4 -7 -3 -7 -3 -6 -3 -5 -2 -5 -2 
-4 -2 -3 -1 -3 -1 -3 -1 -2 -1 -1 -1 -2 0 -1 -1 
-1 0 -1 -1 -1 0 -1 -1 1 1 1 0 1 0 1 1 
1 0 1 1 2 1 2 0 2 2 3 1 4 1 4 2 
6 3 6 2 7 3 8 4 9 4 10 4 12 5 13 6 
15 6 17 7 18 8 20 9 22 9 25 10 26 11 28 12 
31 13 33 14 35 15 38 15 39 17 43 17 44 18 46 20 
49 19 51 21 52 21 55 22 56 23 58 23 59 23 60 24 
61 23 62 25 62 24 62 24 63 23 62 24 62 23 60 23 
60 22 58 22 57 21 54 20 53 19 49 18 47 17 44 15 
41 15 37 13 33 12 30 10 25 9 21 8 17 6 13 4 
7 3 4 1 -2 -1 -6 -2 -10 -3 -15 -6 -20 -7 -23 -8 
-28 -10 -33 -11 -35 -13 -40 -14 -43 -15 -47 -17 -49 -18 -52 -19 
-54 -20 -57 -21 -59 -21 -60 -23 -62 -23 -62 -23 -63 -24 -64 -25 
-64 -24 -63 -25 -64 -24 -62 -25 -62 -24 -61 -24 -59 -24 -58 -23 
-56 -22 -54 -22 -52 -21 -50 -21 -48 -19 -45 -19 -43 -18 -41 -17 
-38 -16 -36 -15 -34 -14 -31 -13 -28 -12 -27 -11 -24 -10 -22 -10 
-20 -8 -18 -8 -16 -7 -14 -6 -13 -5 -11 -5 -10 -4 -8 -4 
-8 -3 -6 -3 -5 -2 -5 -2 -4 -2 -3 -1 -2 -1 -2 -1 
-2 0 -1 -1 -1 0 -1 -1 -1 0 1 0 1 1 1 0 
1 1 2 0 2 1 3 2 4 1 4 2 5 2 7 3 
7 3 9 4 11 5 12 5 15 6 16 7 19 8 21 9 
24 10 27 12 30 12 33 14 37 16 41 17 44 18 48 21 
53 21 57 24 61 25 66 26 70 29 74 30 79 31 84 33 
87 35 92 35 97 38 100 38 103 39 108 40 110 41 113 41 
116 42 117 42 120 42 121 42 121 42 122 41 122 41 120 39 
120 39 118 38 115 36 112 35 109 34 105 32 100 30 95 28 
90 26 83 24 77 22 70 20 63 17 54 16 47 13 38 10 
30 8 22 6 12 3 3 1 -5 -1 -15 -4 -23 -6 -33 -9 
-40 -12 -49 -13 -58 -16 -65 -18 -72 -21 -80 -23 -86 -25 -92 -27 
-98 -29 -103 -31 -108 -33 7355 1469 300 MP stroke
-111 -34 -116 -36 -118 -38 -120 -39 -123 -40 -123 -41 -124 -41 -125 -43 
-124 -42 -122 -44 -122 -43 -119 -43 -118 -42 -114 -42 -111 -42 -108 -40 
-104 -40 -101 -39 -96 -37 -91 -36 -87 -34 -83 -33 -77 -31 -73 -30 
-69 -27 -63 -27 -59 -24 -54 -22 -50 -21 -46 -19 -41 -17 -38 -16 
-34 -15 -30 -12 -27 -12 -24 -10 -20 -9 -19 -8 -16 -6 -13 -6 
-12 -5 -10 -4 -8 -4 -7 -3 -5 -2 -5 -2 -3 -2 -3 -1 
-3 -1 -1 -1 -2 0 -1 -1 -1 0 1 0 1 1 1 0 
2 1 2 1 3 1 4 2 5 2 5 2 8 3 9 4 
11 5 13 6 16 6 18 8 22 10 25 10 29 13 34 14 
38 16 43 18 48 20 55 23 60 25 67 28 75 30 81 33 
89 36 97 39 105 42 114 44 122 47 130 51 140 52 148 55 
157 58 165 59 174 62 182 63 190 65 197 65 204 67 211 67 
217 67 222 67 227 66 230 65 234 65 236 62 237 61 237 59 
236 57 235 54 232 51 228 48 223 46 216 42 210 40 201 36 
192 33 182 30 170 27 159 25 145 21 131 19 117 16 102 13 
85 11 70 9 52 6 36 5 18 2 1 0 -17 -2 -34 -4 
-52 -7 -68 -8 -85 -11 -101 -13 -116 -16 -132 -19 -146 -21 -159 -25 
-172 -27 -183 -30 -194 -34 -204 -37 -213 -39 -220 -44 -226 -46 -232 -49 
-236 -53 -239 -55 -242 -58 -242 -61 -241 -62 -241 -64 -239 -66 -235 -68 
-231 -68 -227 -69 -221 -69 -215 -68 -207 -68 -201 -68 -192 -66 -184 -64 
-176 -63 -166 -60 -158 -59 -148 -55 -139 -53 -130 -50 -121 -48 -111 -44 
-103 -41 -95 -38 -86 -35 -78 -32 -71 -29 -63 -26 -57 -24 -50 -21 
-45 -19 -39 -16 -34 -15 -29 -12 -25 -11 -21 -9 -18 -8 -15 -6 
-13 -5 -10 -5 -8 -3 -7 -3 -5 -2 -4 -2 -3 -1 -2 -1 
-2 -1 -1 -1 -1 0 -1 0 -1 -1 10630 2677 198 MP stroke
6 w
gs 8242 1708 1263 553 rc
/c9 { 0.000000 1.000000 1.000000 sr} bdef
c9
  36   36 9381 2168 FO
  36   36 9242 2115 FO
  36   36 9094 2060 FO
  36   36 8936 2001 FO
  36   36 8770 1941 FO
  36   36 8594 1878 FO
  36   36 8410 1814 FO
  36   36 8330 1786 FO
  36   36 8512 1849 FO
  36   36 8686 1911 FO
  36   36 8851 1970 FO
  36   36 9008 2028 FO
  36   36 9156 2083 FO
  36   36 9296 2135 FO
  36   36 9426 2186 FO
  36   36 9357 2159 FO
  36   36 9253 2119 FO
  36   36 9145 2079 FO
  36   36 9034 2037 FO
  36   36 8920 1995 FO
  36   36 8802 1953 FO
  36   36 8683 1910 FO
  36   36 8561 1867 FO
  36   36 8439 1823 FO
  36   36 8315 1781 FO
  36   36 8376 1802 FO
  36   36 8497 1844 FO
  36   36 8617 1886 FO
  36   36 8734 1928 FO
  36   36 8850 1970 FO
  36   36 8963 2011 FO
  36   36 9073 2052 FO
  36   36 9181 2092 FO
  36   36 9284 2131 FO
  36   36 9384 2169 FO
  36   36 9420 2183 FO
  36   36 9356 2159 FO
  36   36 9292 2134 FO
  36   36 9229 2110 FO
  36   36 9167 2087 FO
  36   36 9105 2064 FO
  36   36 9045 2041 FO
  36   36 8986 2020 FO
  36   36 8929 1999 FO
  36   36 8875 1979 FO
  36   36 8823 1960 FO
  36   36 8774 1942 FO
  36   36 8727 1925 FO
  36   36 8684 1910 FO
  36   36 8644 1896 FO
  36   36 8609 1883 FO
  36   36 8576 1872 FO
  36   36 8548 1862 FO
  36   36 8525 1854 FO
  36   36 8505 1847 FO
  36   36 8490 1841 FO
  36   36 8480 1838 FO
  36   36 8474 1836 FO
  36   36 8472 1835 FO
  36   36 8476 1836 FO
  36   36 8483 1839 FO
  36   36 8496 1843 FO
  36   36 8513 1849 FO
  36   36 8534 1857 FO
  36   36 8559 1866 FO
  36   36 8589 1876 FO
  36   36 8622 1888 FO
  36   36 8659 1901 FO
  36   36 8700 1916 FO
  36   36 8744 1931 FO
  36   36 8791 1948 FO
  36   36 8840 1966 FO
  36   36 8893 1985 FO
  36   36 8947 2005 FO
  36   36 9004 2026 FO
  36   36 9062 2048 FO
  36   36 9122 2070 FO
  36   36 9182 2093 FO
  36   36 9244 2116 FO
  36   36 9306 2140 FO
  36   36 9369 2163 FO
  36   36 9431 2187 FO
gr

c9
27.6 w
c8
1 1 1 0 1 0 1 1 1 0 1 1 1 0 1 1 
2 1 1 0 2 1 2 1 2 1 3 1 3 1 3 1 
3 2 3 1 4 2 4 2 5 2 5 2 5 2 5 2 
6 3 6 2 6 3 7 3 7 3 7 3 7 3 8 3 
8 3 7 4 9 3 8 4 8 3 9 4 8 3 9 4 
8 4 8 3 9 4 8 3 8 3 7 4 8 3 7 3 
6 3 7 2 6 3 5 2 5 2 5 2 4 2 3 1 
3 1 2 1 2 1 1 0 -1 0 0 0 -1 0 -2 -1 
-3 -1 -3 -2 -4 -1 -4 -2 -5 -2 -5 -2 -6 -3 -6 -2 
-7 -3 -7 -3 -7 -3 -8 -4 -8 -3 -8 -3 -9 -4 -8 -4 
-9 -3 -8 -4 -9 -3 -8 -4 -9 -4 -8 -3 -9 -4 -8 -3 
-8 -4 -8 -3 -7 -3 -8 -4 -7 -3 -7 -2 -6 -3 -6 -3 
-6 -2 -6 -3 -5 -2 -5 -2 -4 -2 -4 -2 -4 -1 -4 -2 
-3 -1 -3 -2 -3 -1 -2 -1 -2 -1 -2 -1 -2 0 -1 -1 
-2 -1 -1 0 -1 -1 -1 0 -1 0 -1 -1 -1 0 1 0 
1 0 1 1 1 0 1 1 1 0 1 1 2 1 2 0 
2 1 3 1 3 2 3 1 4 2 4 1 4 2 5 3 
6 2 6 2 6 3 7 3 8 4 8 3 9 4 10 4 
10 4 10 5 12 5 12 5 12 5 13 6 14 5 14 6 
14 6 15 7 15 6 16 7 16 6 16 7 16 7 17 7 
16 7 17 7 16 7 16 6 16 7 16 6 15 7 15 6 
14 6 14 5 12 6 13 5 11 4 10 5 10 3 8 4 
8 3 6 3 5 2 4 1 3 1 2 1 -1 0 -2 -1 
-3 -1 -4 -2 -6 -2 -6 -3 -8 -3 -9 -4 -10 -4 -10 -4 
-12 -5 -13 -5 -13 -5 -14 -6 -14 -6 -15 -7 -16 -6 -16 -7 
-16 -6 -17 -7 -17 -7 -16 -7 -17 -7 -17 -7 -17 -7 -16 -7 
-16 -7 -16 -7 -16 -6 -15 -7 -14 -6 -14 -6 -14 -6 -13 -5 
-12 -5 -12 -5 -11 -5 -11 -5 -10 -4 -9 -4 -8 -4 -8 -3 
-8 -3 -7 -3 -6 -3 -5 -2 -5 -2 -5 -2 -4 -2 -4 -2 
-3 -1 -3 -1 -2 -1 -2 -1 -2 -1 -2 -1 -1 0 -1 -1 
-1 0 -1 0 -1 -1 -1 0 1 0 1 1 1 0 1 0 
1 1 2 1 1 0 2 1 3 1 3 2 3 1 4 2 
5 2 5 2 6 2 6 3 8 3 8 4 9 4 10 4 
11 5 12 5 13 6 14 6 16 6 16 7 18 8 19 8 
20 8 21 9 23 10 23 9 25 11 25 10 27 12 28 11 
28 12 30 12 30 13 30 12 32 13 31 13 32 13 32 13 
32 13 32 13 32 13 31 13 31 12 30 12 30 12 28 11 
27 11 26 10 25 10 9669 2280 300 MP stroke
23 9 21 8 20 8 18 7 16 6 13 6 12 4 9 4 
7 2 5 2 3 1 -2 -1 -5 -1 -7 -3 -9 -4 -12 -4 
-13 -5 -16 -7 -18 -7 -20 -7 -21 -9 -23 -9 -25 -10 -27 -10 
-27 -11 -29 -12 -30 -11 -30 -13 -32 -12 -32 -13 -32 -13 -33 -13 
-32 -14 -33 -13 -33 -13 -32 -14 -32 -13 -31 -13 -31 -12 -30 -13 
-29 -12 -28 -12 -27 -11 -26 -11 -25 -10 -24 -10 -22 -10 -22 -9 
-20 -8 -19 -8 -17 -8 -16 -7 -16 -6 -14 -6 -12 -6 -12 -4 
-11 -5 -9 -4 -9 -4 -7 -3 -7 -3 -6 -3 -5 -2 -5 -2 
-4 -2 -3 -1 -3 -1 -3 -1 -2 -1 -1 -1 -2 0 -1 -1 
-1 0 -1 -1 -1 0 -1 -1 1 1 1 0 1 0 1 1 
1 0 1 1 2 1 2 0 2 2 3 1 4 1 4 2 
6 3 6 2 7 3 8 4 9 4 10 4 12 5 13 6 
15 6 17 7 18 8 20 9 22 9 25 10 26 11 28 12 
31 13 33 14 35 15 38 15 39 17 43 17 44 18 46 20 
49 19 51 21 52 21 55 22 56 23 58 23 59 23 60 24 
61 23 62 25 62 24 62 24 63 23 62 24 62 23 60 23 
60 22 58 22 57 21 54 20 53 19 49 18 47 17 44 15 
41 15 37 13 33 12 30 10 25 9 21 8 17 6 13 4 
7 3 4 1 -2 -1 -6 -2 -10 -3 -15 -6 -20 -7 -23 -8 
-28 -10 -33 -11 -35 -13 -40 -14 -43 -15 -47 -17 -49 -18 -52 -19 
-54 -20 -57 -21 -59 -21 -60 -23 -62 -23 -62 -23 -63 -24 -64 -25 
-64 -24 -63 -25 -64 -24 -62 -25 -62 -24 -61 -24 -59 -24 -58 -23 
-56 -22 -54 -22 -52 -21 -50 -21 -48 -19 -45 -19 -43 -18 -41 -17 
-38 -16 -36 -15 -34 -14 -31 -13 -28 -12 -27 -11 -24 -10 -22 -10 
-20 -8 -18 -8 -16 -7 -14 -6 -13 -5 -11 -5 -10 -4 -8 -4 
-8 -3 -6 -3 -5 -2 -5 -2 -4 -2 -3 -1 -2 -1 -2 -1 
-2 0 -1 -1 -1 0 -1 -1 -1 0 1 0 1 1 1 0 
1 1 2 0 2 1 3 2 4 1 4 2 5 2 7 3 
7 3 9 4 11 5 12 5 15 6 16 7 19 8 21 9 
24 10 27 12 30 12 33 14 37 16 41 17 44 18 48 21 
53 21 57 24 61 25 66 26 70 29 74 30 79 31 84 33 
87 35 92 35 97 38 100 38 103 39 108 40 110 41 113 41 
116 42 117 42 120 42 121 42 121 42 122 41 122 41 120 39 
120 39 118 38 115 36 112 35 109 34 105 32 100 30 95 28 
90 26 83 24 77 22 70 20 63 17 54 16 47 13 38 10 
30 8 22 6 12 3 3 1 -5 -1 -15 -4 -23 -6 -33 -9 
-40 -12 -49 -13 -58 -16 -65 -18 -72 -21 -80 -23 -86 -25 -92 -27 
-98 -29 -103 -31 -108 -33 7355 1469 300 MP stroke
-111 -34 -116 -36 -118 -38 -120 -39 -123 -40 -123 -41 -124 -41 -125 -43 
-124 -42 -122 -44 -122 -43 -119 -43 -118 -42 -114 -42 -111 -42 -108 -40 
-104 -40 -101 -39 -96 -37 -91 -36 -87 -34 -83 -33 -77 -31 -73 -30 
-69 -27 -63 -27 -59 -24 -54 -22 -50 -21 -46 -19 -41 -17 -38 -16 
-34 -15 -30 -12 -27 -12 -24 -10 -20 -9 -19 -8 -16 -6 -13 -6 
-12 -5 -10 -4 -8 -4 -7 -3 -5 -2 -5 -2 -3 -2 -3 -1 
-3 -1 -1 -1 -2 0 -1 -1 -1 0 1 0 1 1 1 0 
2 1 2 1 3 1 4 2 5 2 5 2 8 3 9 4 
11 5 13 6 16 6 18 8 22 10 25 10 29 13 34 14 
38 16 43 18 48 20 55 23 60 25 67 28 75 30 81 33 
89 36 97 39 105 42 114 44 122 47 130 51 140 52 148 55 
157 58 165 59 174 62 182 63 190 65 197 65 204 67 211 67 
217 67 222 67 227 66 230 65 234 65 236 62 237 61 237 59 
236 57 235 54 232 51 228 48 223 46 216 42 210 40 201 36 
192 33 182 30 170 27 159 25 145 21 131 19 117 16 102 13 
85 11 70 9 52 6 36 5 18 2 1 0 -17 -2 -34 -4 
-52 -7 -68 -8 -85 -11 -101 -13 -116 -16 -132 -19 -146 -21 -159 -25 
-172 -27 -183 -30 -194 -34 -204 -37 -213 -39 -220 -44 -226 -46 -232 -49 
-236 -53 -239 -55 -242 -58 -242 -61 -241 -62 -241 -64 -239 -66 -235 -68 
-231 -68 -227 -69 -221 -69 -215 -68 -207 -68 -201 -68 -192 -66 -184 -64 
-176 -63 -166 -60 -158 -59 -148 -55 -139 -53 -130 -50 -121 -48 -111 -44 
-103 -41 -95 -38 -86 -35 -78 -32 -71 -29 -63 -26 -57 -24 -50 -21 
-45 -19 -39 -16 -34 -15 -29 -12 -25 -11 -21 -9 -18 -8 -15 -6 
-13 -5 -10 -5 -8 -3 -7 -3 -5 -2 -4 -2 -3 -1 -2 -1 
-2 -1 -1 -1 -1 0 -1 0 -1 -1 10630 2677 198 MP stroke
6 w
gs 8242 1708 1263 553 rc
c9
  36   36 9381 2168 FO
  36   36 9242 2115 FO
  36   36 9094 2060 FO
  36   36 8936 2001 FO
  36   36 8770 1941 FO
  36   36 8594 1878 FO
  36   36 8410 1814 FO
  36   36 8330 1786 FO
  36   36 8512 1849 FO
  36   36 8686 1911 FO
  36   36 8851 1970 FO
  36   36 9008 2028 FO
  36   36 9156 2083 FO
  36   36 9296 2135 FO
  36   36 9426 2186 FO
  36   36 9357 2159 FO
  36   36 9253 2119 FO
  36   36 9145 2079 FO
  36   36 9034 2037 FO
  36   36 8920 1995 FO
  36   36 8802 1953 FO
  36   36 8683 1910 FO
  36   36 8561 1867 FO
  36   36 8439 1823 FO
  36   36 8315 1781 FO
  36   36 8376 1802 FO
  36   36 8497 1844 FO
  36   36 8617 1886 FO
  36   36 8734 1928 FO
  36   36 8850 1970 FO
  36   36 8963 2011 FO
  36   36 9073 2052 FO
  36   36 9181 2092 FO
  36   36 9284 2131 FO
  36   36 9384 2169 FO
  36   36 9420 2183 FO
  36   36 9356 2159 FO
  36   36 9292 2134 FO
  36   36 9229 2110 FO
  36   36 9167 2087 FO
  36   36 9105 2064 FO
  36   36 9045 2041 FO
  36   36 8986 2020 FO
  36   36 8929 1999 FO
  36   36 8875 1979 FO
  36   36 8823 1960 FO
  36   36 8774 1942 FO
  36   36 8727 1925 FO
  36   36 8684 1910 FO
  36   36 8644 1896 FO
  36   36 8609 1883 FO
  36   36 8576 1872 FO
  36   36 8548 1862 FO
  36   36 8525 1854 FO
  36   36 8505 1847 FO
  36   36 8490 1841 FO
  36   36 8480 1838 FO
  36   36 8474 1836 FO
  36   36 8472 1835 FO
  36   36 8476 1836 FO
  36   36 8483 1839 FO
  36   36 8496 1843 FO
  36   36 8513 1849 FO
  36   36 8534 1857 FO
  36   36 8559 1866 FO
  36   36 8589 1876 FO
  36   36 8622 1888 FO
  36   36 8659 1901 FO
  36   36 8700 1916 FO
  36   36 8744 1931 FO
  36   36 8791 1948 FO
  36   36 8840 1966 FO
  36   36 8893 1985 FO
  36   36 8947 2005 FO
  36   36 9004 2026 FO
  36   36 9062 2048 FO
  36   36 9122 2070 FO
  36   36 9182 2093 FO
  36   36 9244 2116 FO
  36   36 9306 2140 FO
  36   36 9369 2163 FO
  36   36 9431 2187 FO
gr

c9
27.6 w
c8
1 1 1 0 1 0 1 1 1 0 1 1 1 0 1 1 
2 1 1 0 2 1 2 1 2 1 3 1 3 1 3 1 
3 2 3 1 4 2 4 2 5 2 5 2 5 2 5 2 
6 3 6 2 6 3 7 3 7 3 7 3 7 3 8 3 
8 3 7 4 9 3 8 4 8 3 9 4 8 3 9 4 
8 4 8 3 9 4 8 3 8 3 7 4 8 3 7 3 
6 3 7 2 6 3 5 2 5 2 5 2 4 2 3 1 
3 1 2 1 2 1 1 0 -1 0 0 0 -1 0 -2 -1 
-3 -1 -3 -2 -4 -1 -4 -2 -5 -2 -5 -2 -6 -3 -6 -2 
-7 -3 -7 -3 -7 -3 -8 -4 -8 -3 -8 -3 -9 -4 -8 -4 
-9 -3 -8 -4 -9 -3 -8 -4 -9 -4 -8 -3 -9 -4 -8 -3 
-8 -4 -8 -3 -7 -3 -8 -4 -7 -3 -7 -2 -6 -3 -6 -3 
-6 -2 -6 -3 -5 -2 -5 -2 -4 -2 -4 -2 -4 -1 -4 -2 
-3 -1 -3 -2 -3 -1 -2 -1 -2 -1 -2 -1 -2 0 -1 -1 
-2 -1 -1 0 -1 -1 -1 0 -1 0 -1 -1 -1 0 1 0 
1 0 1 1 1 0 1 1 1 0 1 1 2 1 2 0 
2 1 3 1 3 2 3 1 4 2 4 1 4 2 5 3 
6 2 6 2 6 3 7 3 8 4 8 3 9 4 10 4 
10 4 10 5 12 5 12 5 12 5 13 6 14 5 14 6 
14 6 15 7 15 6 16 7 16 6 16 7 16 7 17 7 
16 7 17 7 16 7 16 6 16 7 16 6 15 7 15 6 
14 6 14 5 12 6 13 5 11 4 10 5 10 3 8 4 
8 3 6 3 5 2 4 1 3 1 2 1 -1 0 -2 -1 
-3 -1 -4 -2 -6 -2 -6 -3 -8 -3 -9 -4 -10 -4 -10 -4 
-12 -5 -13 -5 -13 -5 -14 -6 -14 -6 -15 -7 -16 -6 -16 -7 
-16 -6 -17 -7 -17 -7 -16 -7 -17 -7 -17 -7 -17 -7 -16 -7 
-16 -7 -16 -7 -16 -6 -15 -7 -14 -6 -14 -6 -14 -6 -13 -5 
-12 -5 -12 -5 -11 -5 -11 -5 -10 -4 -9 -4 -8 -4 -8 -3 
-8 -3 -7 -3 -6 -3 -5 -2 -5 -2 -5 -2 -4 -2 -4 -2 
-3 -1 -3 -1 -2 -1 -2 -1 -2 -1 -2 -1 -1 0 -1 -1 
-1 0 -1 0 -1 -1 -1 0 1 0 1 1 1 0 1 0 
1 1 2 1 1 0 2 1 3 1 3 2 3 1 4 2 
5 2 5 2 6 2 6 3 8 3 8 4 9 4 10 4 
11 5 12 5 13 6 14 6 16 6 16 7 18 8 19 8 
20 8 21 9 23 10 23 9 25 11 25 10 27 12 28 11 
28 12 30 12 30 13 30 12 32 13 31 13 32 13 32 13 
32 13 32 13 32 13 31 13 31 12 30 12 30 12 28 11 
27 11 26 10 25 10 9669 2280 300 MP stroke
23 9 21 8 20 8 18 7 16 6 13 6 12 4 9 4 
7 2 5 2 3 1 -2 -1 -5 -1 -7 -3 -9 -4 -12 -4 
-13 -5 -16 -7 -18 -7 -20 -7 -21 -9 -23 -9 -25 -10 -27 -10 
-27 -11 -29 -12 -30 -11 -30 -13 -32 -12 -32 -13 -32 -13 -33 -13 
-32 -14 -33 -13 -33 -13 -32 -14 -32 -13 -31 -13 -31 -12 -30 -13 
-29 -12 -28 -12 -27 -11 -26 -11 -25 -10 -24 -10 -22 -10 -22 -9 
-20 -8 -19 -8 -17 -8 -16 -7 -16 -6 -14 -6 -12 -6 -12 -4 
-11 -5 -9 -4 -9 -4 -7 -3 -7 -3 -6 -3 -5 -2 -5 -2 
-4 -2 -3 -1 -3 -1 -3 -1 -2 -1 -1 -1 -2 0 -1 -1 
-1 0 -1 -1 -1 0 -1 -1 1 1 1 0 1 0 1 1 
1 0 1 1 2 1 2 0 2 2 3 1 4 1 4 2 
6 3 6 2 7 3 8 4 9 4 10 4 12 5 13 6 
15 6 17 7 18 8 20 9 22 9 25 10 26 11 28 12 
31 13 33 14 35 15 38 15 39 17 43 17 44 18 46 20 
49 19 51 21 52 21 55 22 56 23 58 23 59 23 60 24 
61 23 62 25 62 24 62 24 63 23 62 24 62 23 60 23 
60 22 58 22 57 21 54 20 53 19 49 18 47 17 44 15 
41 15 37 13 33 12 30 10 25 9 21 8 17 6 13 4 
7 3 4 1 -2 -1 -6 -2 -10 -3 -15 -6 -20 -7 -23 -8 
-28 -10 -33 -11 -35 -13 -40 -14 -43 -15 -47 -17 -49 -18 -52 -19 
-54 -20 -57 -21 -59 -21 -60 -23 -62 -23 -62 -23 -63 -24 -64 -25 
-64 -24 -63 -25 -64 -24 -62 -25 -62 -24 -61 -24 -59 -24 -58 -23 
-56 -22 -54 -22 -52 -21 -50 -21 -48 -19 -45 -19 -43 -18 -41 -17 
-38 -16 -36 -15 -34 -14 -31 -13 -28 -12 -27 -11 -24 -10 -22 -10 
-20 -8 -18 -8 -16 -7 -14 -6 -13 -5 -11 -5 -10 -4 -8 -4 
-8 -3 -6 -3 -5 -2 -5 -2 -4 -2 -3 -1 -2 -1 -2 -1 
-2 0 -1 -1 -1 0 -1 -1 -1 0 1 0 1 1 1 0 
1 1 2 0 2 1 3 2 4 1 4 2 5 2 7 3 
7 3 9 4 11 5 12 5 15 6 16 7 19 8 21 9 
24 10 27 12 30 12 33 14 37 16 41 17 44 18 48 21 
53 21 57 24 61 25 66 26 70 29 74 30 79 31 84 33 
87 35 92 35 97 38 100 38 103 39 108 40 110 41 113 41 
116 42 117 42 120 42 121 42 121 42 122 41 122 41 120 39 
120 39 118 38 115 36 112 35 109 34 105 32 100 30 95 28 
90 26 83 24 77 22 70 20 63 17 54 16 47 13 38 10 
30 8 22 6 12 3 3 1 -5 -1 -15 -4 -23 -6 -33 -9 
-40 -12 -49 -13 -58 -16 -65 -18 -72 -21 -80 -23 -86 -25 -92 -27 
-98 -29 -103 -31 -108 -33 7355 1469 300 MP stroke
-111 -34 -116 -36 -118 -38 -120 -39 -123 -40 -123 -41 -124 -41 -125 -43 
-124 -42 -122 -44 -122 -43 -119 -43 -118 -42 -114 -42 -111 -42 -108 -40 
-104 -40 -101 -39 -96 -37 -91 -36 -87 -34 -83 -33 -77 -31 -73 -30 
-69 -27 -63 -27 -59 -24 -54 -22 -50 -21 -46 -19 -41 -17 -38 -16 
-34 -15 -30 -12 -27 -12 -24 -10 -20 -9 -19 -8 -16 -6 -13 -6 
-12 -5 -10 -4 -8 -4 -7 -3 -5 -2 -5 -2 -3 -2 -3 -1 
-3 -1 -1 -1 -2 0 -1 -1 -1 0 1 0 1 1 1 0 
2 1 2 1 3 1 4 2 5 2 5 2 8 3 9 4 
11 5 13 6 16 6 18 8 22 10 25 10 29 13 34 14 
38 16 43 18 48 20 55 23 60 25 67 28 75 30 81 33 
89 36 97 39 105 42 114 44 122 47 130 51 140 52 148 55 
157 58 165 59 174 62 182 63 190 65 197 65 204 67 211 67 
217 67 222 67 227 66 230 65 234 65 236 62 237 61 237 59 
236 57 235 54 232 51 228 48 223 46 216 42 210 40 201 36 
192 33 182 30 170 27 159 25 145 21 131 19 117 16 102 13 
85 11 70 9 52 6 36 5 18 2 1 0 -17 -2 -34 -4 
-52 -7 -68 -8 -85 -11 -101 -13 -116 -16 -132 -19 -146 -21 -159 -25 
-172 -27 -183 -30 -194 -34 -204 -37 -213 -39 -220 -44 -226 -46 -232 -49 
-236 -53 -239 -55 -242 -58 -242 -61 -241 -62 -241 -64 -239 -66 -235 -68 
-231 -68 -227 -69 -221 -69 -215 -68 -207 -68 -201 -68 -192 -66 -184 -64 
-176 -63 -166 -60 -158 -59 -148 -55 -139 -53 -130 -50 -121 -48 -111 -44 
-103 -41 -95 -38 -86 -35 -78 -32 -71 -29 -63 -26 -57 -24 -50 -21 
-45 -19 -39 -16 -34 -15 -29 -12 -25 -11 -21 -9 -18 -8 -15 -6 
-13 -5 -10 -5 -8 -3 -7 -3 -5 -2 -4 -2 -3 -1 -2 -1 
-2 -1 -1 -1 -1 0 -1 0 -1 -1 10630 2677 198 MP stroke
6 w
gs 8242 1708 1263 553 rc
c9
  36   36 9381 2168 FO
  36   36 9242 2115 FO
  36   36 9094 2060 FO
  36   36 8936 2001 FO
  36   36 8770 1941 FO
  36   36 8594 1878 FO
  36   36 8410 1814 FO
  36   36 8330 1786 FO
  36   36 8512 1849 FO
  36   36 8686 1911 FO
  36   36 8851 1970 FO
  36   36 9008 2028 FO
  36   36 9156 2083 FO
  36   36 9296 2135 FO
  36   36 9426 2186 FO
  36   36 9357 2159 FO
  36   36 9253 2119 FO
  36   36 9145 2079 FO
  36   36 9034 2037 FO
  36   36 8920 1995 FO
  36   36 8802 1953 FO
  36   36 8683 1910 FO
  36   36 8561 1867 FO
  36   36 8439 1823 FO
  36   36 8315 1781 FO
  36   36 8376 1802 FO
  36   36 8497 1844 FO
  36   36 8617 1886 FO
  36   36 8734 1928 FO
  36   36 8850 1970 FO
  36   36 8963 2011 FO
  36   36 9073 2052 FO
  36   36 9181 2092 FO
  36   36 9284 2131 FO
  36   36 9384 2169 FO
  36   36 9420 2183 FO
  36   36 9356 2159 FO
  36   36 9292 2134 FO
  36   36 9229 2110 FO
  36   36 9167 2087 FO
  36   36 9105 2064 FO
  36   36 9045 2041 FO
  36   36 8986 2020 FO
  36   36 8929 1999 FO
  36   36 8875 1979 FO
  36   36 8823 1960 FO
  36   36 8774 1942 FO
  36   36 8727 1925 FO
  36   36 8684 1910 FO
  36   36 8644 1896 FO
  36   36 8609 1883 FO
  36   36 8576 1872 FO
  36   36 8548 1862 FO
  36   36 8525 1854 FO
  36   36 8505 1847 FO
  36   36 8490 1841 FO
  36   36 8480 1838 FO
  36   36 8474 1836 FO
  36   36 8472 1835 FO
  36   36 8476 1836 FO
  36   36 8483 1839 FO
  36   36 8496 1843 FO
  36   36 8513 1849 FO
  36   36 8534 1857 FO
  36   36 8559 1866 FO
  36   36 8589 1876 FO
  36   36 8622 1888 FO
  36   36 8659 1901 FO
  36   36 8700 1916 FO
  36   36 8744 1931 FO
  36   36 8791 1948 FO
  36   36 8840 1966 FO
  36   36 8893 1985 FO
  36   36 8947 2005 FO
  36   36 9004 2026 FO
  36   36 9062 2048 FO
  36   36 9122 2070 FO
  36   36 9182 2093 FO
  36   36 9244 2116 FO
  36   36 9306 2140 FO
  36   36 9369 2163 FO
  36   36 9431 2187 FO
gr

c9
48 w
gs 7094 2064 245 245 rc
0 sg
  36   36 7216 2186 PO
  36   36 7216 2186 FO
gr

0 sg
6 w
gr

%%IncludeResource: font Helvetica-Bold
/Helvetica-Bold /WindowsLatin1Encoding 240 FMSR

6293 2532 mt 
(\( 0.7 , 0.2 \)) s

end %%Color Dict

eplot
%%EndObject

epage
end

showpage

%%Trailer
%%EOF
