%!PS-Adobe-3.0 EPSF-3.0
%%Title: algorithm.fig
%%Creator: fig2dev Version 3.2 Patchlevel 5d
%%CreationDate: Tue Nov 26 00:13:23 2013
%%BoundingBox: 0 0 549 249
%Magnification: 1.0000
%%EndComments
%%BeginProlog
/$F2psDict 200 dict def
$F2psDict begin
$F2psDict /mtrx matrix put
/col-1 {0 setgray} bind def
/col0 {0.000 0.000 0.000 srgb} bind def
/col1 {0.000 0.000 1.000 srgb} bind def
/col2 {0.000 1.000 0.000 srgb} bind def
/col3 {0.000 1.000 1.000 srgb} bind def
/col4 {1.000 0.000 0.000 srgb} bind def
/col5 {1.000 0.000 1.000 srgb} bind def
/col6 {1.000 1.000 0.000 srgb} bind def
/col7 {1.000 1.000 1.000 srgb} bind def
/col8 {0.000 0.000 0.560 srgb} bind def
/col9 {0.000 0.000 0.690 srgb} bind def
/col10 {0.000 0.000 0.820 srgb} bind def
/col11 {0.530 0.810 1.000 srgb} bind def
/col12 {0.000 0.560 0.000 srgb} bind def
/col13 {0.000 0.690 0.000 srgb} bind def
/col14 {0.000 0.820 0.000 srgb} bind def
/col15 {0.000 0.560 0.560 srgb} bind def
/col16 {0.000 0.690 0.690 srgb} bind def
/col17 {0.000 0.820 0.820 srgb} bind def
/col18 {0.560 0.000 0.000 srgb} bind def
/col19 {0.690 0.000 0.000 srgb} bind def
/col20 {0.820 0.000 0.000 srgb} bind def
/col21 {0.560 0.000 0.560 srgb} bind def
/col22 {0.690 0.000 0.690 srgb} bind def
/col23 {0.820 0.000 0.820 srgb} bind def
/col24 {0.500 0.190 0.000 srgb} bind def
/col25 {0.630 0.250 0.000 srgb} bind def
/col26 {0.750 0.380 0.000 srgb} bind def
/col27 {1.000 0.500 0.500 srgb} bind def
/col28 {1.000 0.630 0.630 srgb} bind def
/col29 {1.000 0.750 0.750 srgb} bind def
/col30 {1.000 0.880 0.880 srgb} bind def
/col31 {1.000 0.840 0.000 srgb} bind def
/col32 {0.886 0.886 0.933 srgb} bind def
/col33 {0.580 0.580 0.604 srgb} bind def
/col34 {0.859 0.859 0.859 srgb} bind def
/col35 {0.631 0.631 0.718 srgb} bind def
/col36 {0.612 0.000 0.000 srgb} bind def
/col37 {0.929 0.929 0.929 srgb} bind def
/col38 {0.878 0.878 0.878 srgb} bind def
/col39 {0.525 0.675 1.000 srgb} bind def
/col40 {0.439 0.439 1.000 srgb} bind def
/col41 {0.788 0.788 0.788 srgb} bind def
/col42 {0.875 0.847 0.875 srgb} bind def
/col43 {0.969 0.953 0.969 srgb} bind def
/col44 {0.549 0.549 0.549 srgb} bind def
/col45 {0.259 0.259 0.259 srgb} bind def
/col46 {0.549 0.549 0.549 srgb} bind def
/col47 {0.259 0.259 0.259 srgb} bind def
/col48 {0.549 0.549 0.549 srgb} bind def
/col49 {0.259 0.259 0.259 srgb} bind def
/col50 {0.549 0.549 0.549 srgb} bind def
/col51 {0.259 0.259 0.259 srgb} bind def
/col52 {0.549 0.549 0.549 srgb} bind def
/col53 {0.259 0.259 0.259 srgb} bind def
/col54 {0.549 0.549 0.549 srgb} bind def
/col55 {0.259 0.259 0.259 srgb} bind def
/col56 {0.776 0.718 0.592 srgb} bind def
/col57 {0.937 0.973 1.000 srgb} bind def
/col58 {0.863 0.796 0.651 srgb} bind def
/col59 {0.251 0.251 0.251 srgb} bind def
/col60 {0.502 0.502 0.502 srgb} bind def
/col61 {0.753 0.753 0.753 srgb} bind def
/col62 {0.557 0.561 0.557 srgb} bind def
/col63 {0.667 0.667 0.667 srgb} bind def
/col64 {0.333 0.333 0.333 srgb} bind def
/col65 {0.780 0.765 0.780 srgb} bind def
/col66 {0.337 0.318 0.318 srgb} bind def
/col67 {0.557 0.557 0.557 srgb} bind def
/col68 {0.843 0.843 0.843 srgb} bind def
/col69 {0.522 0.502 0.490 srgb} bind def
/col70 {0.824 0.824 0.824 srgb} bind def
/col71 {0.227 0.227 0.227 srgb} bind def
/col72 {0.271 0.451 0.667 srgb} bind def
/col73 {0.682 0.682 0.682 srgb} bind def
/col74 {0.482 0.475 0.647 srgb} bind def
/col75 {0.267 0.267 0.267 srgb} bind def
/col76 {0.451 0.459 0.549 srgb} bind def
/col77 {0.969 0.969 0.969 srgb} bind def
/col78 {0.255 0.271 0.255 srgb} bind def
/col79 {0.388 0.365 0.808 srgb} bind def
/col80 {0.745 0.745 0.745 srgb} bind def
/col81 {0.318 0.318 0.318 srgb} bind def
/col82 {0.906 0.890 0.906 srgb} bind def
/col83 {0.000 0.000 0.286 srgb} bind def
/col84 {0.475 0.475 0.475 srgb} bind def
/col85 {0.188 0.204 0.188 srgb} bind def
/col86 {0.255 0.255 0.255 srgb} bind def
/col87 {0.780 0.714 0.588 srgb} bind def
/col88 {0.867 0.616 0.576 srgb} bind def
/col89 {0.945 0.925 0.878 srgb} bind def
/col90 {0.765 0.765 0.765 srgb} bind def
/col91 {0.886 0.784 0.659 srgb} bind def
/col92 {0.882 0.882 0.882 srgb} bind def
/col93 {0.855 0.478 0.102 srgb} bind def
/col94 {0.945 0.894 0.102 srgb} bind def
/col95 {0.533 0.490 0.761 srgb} bind def
/col96 {0.690 0.631 0.576 srgb} bind def
/col97 {0.514 0.486 0.867 srgb} bind def
/col98 {0.839 0.839 0.839 srgb} bind def
/col99 {0.549 0.549 0.647 srgb} bind def
/col100 {0.290 0.290 0.290 srgb} bind def
/col101 {0.549 0.420 0.420 srgb} bind def
/col102 {0.353 0.353 0.353 srgb} bind def
/col103 {0.388 0.388 0.388 srgb} bind def
/col104 {0.718 0.608 0.451 srgb} bind def
/col105 {0.255 0.576 1.000 srgb} bind def
/col106 {0.749 0.439 0.231 srgb} bind def
/col107 {0.859 0.467 0.000 srgb} bind def
/col108 {0.855 0.722 0.000 srgb} bind def
/col109 {0.000 0.392 0.000 srgb} bind def
/col110 {0.353 0.420 0.231 srgb} bind def
/col111 {0.827 0.827 0.827 srgb} bind def
/col112 {0.557 0.557 0.643 srgb} bind def
/col113 {0.953 0.725 0.365 srgb} bind def
/col114 {0.537 0.600 0.420 srgb} bind def
/col115 {0.392 0.392 0.392 srgb} bind def
/col116 {0.718 0.902 1.000 srgb} bind def
/col117 {0.525 0.753 0.925 srgb} bind def
/col118 {0.741 0.741 0.741 srgb} bind def
/col119 {0.827 0.584 0.322 srgb} bind def
/col120 {0.596 0.824 0.996 srgb} bind def
/col121 {0.380 0.380 0.380 srgb} bind def
/col122 {0.682 0.698 0.682 srgb} bind def
/col123 {0.443 0.443 0.443 srgb} bind def
/col124 {1.000 0.604 0.000 srgb} bind def
/col125 {0.549 0.612 0.420 srgb} bind def
/col126 {0.969 0.420 0.000 srgb} bind def
/col127 {0.353 0.420 0.224 srgb} bind def
/col128 {0.549 0.612 0.420 srgb} bind def
/col129 {0.549 0.612 0.482 srgb} bind def
/col130 {0.094 0.290 0.094 srgb} bind def
/col131 {0.678 0.678 0.678 srgb} bind def
/col132 {0.969 0.741 0.353 srgb} bind def
/col133 {0.388 0.420 0.612 srgb} bind def
/col134 {0.871 0.000 0.000 srgb} bind def
/col135 {0.678 0.678 0.678 srgb} bind def
/col136 {0.969 0.741 0.353 srgb} bind def
/col137 {0.678 0.678 0.678 srgb} bind def
/col138 {0.969 0.741 0.353 srgb} bind def
/col139 {0.388 0.420 0.612 srgb} bind def
/col140 {0.322 0.420 0.161 srgb} bind def
/col141 {0.580 0.580 0.580 srgb} bind def
/col142 {0.000 0.388 0.000 srgb} bind def
/col143 {0.000 0.388 0.290 srgb} bind def
/col144 {0.482 0.518 0.290 srgb} bind def
/col145 {0.906 0.741 0.482 srgb} bind def
/col146 {0.647 0.710 0.776 srgb} bind def
/col147 {0.420 0.420 0.580 srgb} bind def
/col148 {0.518 0.420 0.420 srgb} bind def
/col149 {0.322 0.612 0.290 srgb} bind def
/col150 {0.839 0.906 0.906 srgb} bind def
/col151 {0.322 0.388 0.388 srgb} bind def
/col152 {0.094 0.420 0.290 srgb} bind def
/col153 {0.612 0.647 0.710 srgb} bind def
/col154 {1.000 0.580 0.000 srgb} bind def
/col155 {1.000 0.580 0.000 srgb} bind def
/col156 {0.000 0.388 0.290 srgb} bind def
/col157 {0.482 0.518 0.290 srgb} bind def
/col158 {0.388 0.451 0.482 srgb} bind def
/col159 {0.906 0.741 0.482 srgb} bind def
/col160 {0.094 0.290 0.094 srgb} bind def
/col161 {0.969 0.741 0.353 srgb} bind def
/col162 {0.000 0.000 0.000 srgb} bind def
/col163 {0.969 0.220 0.161 srgb} bind def
/col164 {0.000 0.000 0.000 srgb} bind def
/col165 {1.000 1.000 0.322 srgb} bind def
/col166 {0.322 0.475 0.290 srgb} bind def
/col167 {0.388 0.604 0.353 srgb} bind def
/col168 {0.776 0.380 0.259 srgb} bind def
/col169 {0.906 0.412 0.259 srgb} bind def
/col170 {1.000 0.475 0.322 srgb} bind def
/col171 {0.871 0.871 0.871 srgb} bind def
/col172 {0.953 0.933 0.827 srgb} bind def
/col173 {0.961 0.682 0.365 srgb} bind def
/col174 {0.584 0.808 0.600 srgb} bind def
/col175 {0.710 0.082 0.490 srgb} bind def
/col176 {0.933 0.933 0.933 srgb} bind def
/col177 {0.518 0.518 0.518 srgb} bind def
/col178 {0.482 0.482 0.482 srgb} bind def
/col179 {0.000 0.353 0.000 srgb} bind def
/col180 {0.906 0.451 0.451 srgb} bind def
/col181 {1.000 0.796 0.192 srgb} bind def
/col182 {0.161 0.475 0.290 srgb} bind def
/col183 {0.871 0.157 0.129 srgb} bind def
/col184 {0.129 0.349 0.776 srgb} bind def
/col185 {0.973 0.973 0.973 srgb} bind def
/col186 {0.902 0.902 0.902 srgb} bind def
/col187 {0.129 0.518 0.353 srgb} bind def

end

/cp {closepath} bind def
/ef {eofill} bind def
/gr {grestore} bind def
/gs {gsave} bind def
/sa {save} bind def
/rs {restore} bind def
/l {lineto} bind def
/m {moveto} bind def
/rm {rmoveto} bind def
/n {newpath} bind def
/s {stroke} bind def
/sh {show} bind def
/slc {setlinecap} bind def
/slj {setlinejoin} bind def
/slw {setlinewidth} bind def
/srgb {setrgbcolor} bind def
/rot {rotate} bind def
/sc {scale} bind def
/sd {setdash} bind def
/ff {findfont} bind def
/sf {setfont} bind def
/scf {scalefont} bind def
/sw {stringwidth} bind def
/tr {translate} bind def
/tnt {dup dup currentrgbcolor
  4 -2 roll dup 1 exch sub 3 -1 roll mul add
  4 -2 roll dup 1 exch sub 3 -1 roll mul add
  4 -2 roll dup 1 exch sub 3 -1 roll mul add srgb}
  bind def
/shd {dup dup currentrgbcolor 4 -2 roll mul 4 -2 roll mul
  4 -2 roll mul srgb} bind def
/reencdict 12 dict def /ReEncode { reencdict begin
/newcodesandnames exch def /newfontname exch def /basefontname exch def
/basefontdict basefontname findfont def /newfont basefontdict maxlength dict def
basefontdict { exch dup /FID ne { dup /Encoding eq
{ exch dup length array copy newfont 3 1 roll put }
{ exch newfont 3 1 roll put } ifelse } { pop pop } ifelse } forall
newfont /FontName newfontname put newcodesandnames aload pop
128 1 255 { newfont /Encoding get exch /.notdef put } for
newcodesandnames length 2 idiv { newfont /Encoding get 3 1 roll put } repeat
newfontname newfont definefont pop end } def
/isovec [
8#055 /minus 8#200 /grave 8#201 /acute 8#202 /circumflex 8#203 /tilde
8#204 /macron 8#205 /breve 8#206 /dotaccent 8#207 /dieresis
8#210 /ring 8#211 /cedilla 8#212 /hungarumlaut 8#213 /ogonek 8#214 /caron
8#220 /dotlessi 8#230 /oe 8#231 /OE
8#240 /space 8#241 /exclamdown 8#242 /cent 8#243 /sterling
8#244 /currency 8#245 /yen 8#246 /brokenbar 8#247 /section 8#250 /dieresis
8#251 /copyright 8#252 /ordfeminine 8#253 /guillemotleft 8#254 /logicalnot
8#255 /hyphen 8#256 /registered 8#257 /macron 8#260 /degree 8#261 /plusminus
8#262 /twosuperior 8#263 /threesuperior 8#264 /acute 8#265 /mu 8#266 /paragraph
8#267 /periodcentered 8#270 /cedilla 8#271 /onesuperior 8#272 /ordmasculine
8#273 /guillemotright 8#274 /onequarter 8#275 /onehalf
8#276 /threequarters 8#277 /questiondown 8#300 /Agrave 8#301 /Aacute
8#302 /Acircumflex 8#303 /Atilde 8#304 /Adieresis 8#305 /Aring
8#306 /AE 8#307 /Ccedilla 8#310 /Egrave 8#311 /Eacute
8#312 /Ecircumflex 8#313 /Edieresis 8#314 /Igrave 8#315 /Iacute
8#316 /Icircumflex 8#317 /Idieresis 8#320 /Eth 8#321 /Ntilde 8#322 /Ograve
8#323 /Oacute 8#324 /Ocircumflex 8#325 /Otilde 8#326 /Odieresis 8#327 /multiply
8#330 /Oslash 8#331 /Ugrave 8#332 /Uacute 8#333 /Ucircumflex
8#334 /Udieresis 8#335 /Yacute 8#336 /Thorn 8#337 /germandbls 8#340 /agrave
8#341 /aacute 8#342 /acircumflex 8#343 /atilde 8#344 /adieresis 8#345 /aring
8#346 /ae 8#347 /ccedilla 8#350 /egrave 8#351 /eacute
8#352 /ecircumflex 8#353 /edieresis 8#354 /igrave 8#355 /iacute
8#356 /icircumflex 8#357 /idieresis 8#360 /eth 8#361 /ntilde 8#362 /ograve
8#363 /oacute 8#364 /ocircumflex 8#365 /otilde 8#366 /odieresis 8#367 /divide
8#370 /oslash 8#371 /ugrave 8#372 /uacute 8#373 /ucircumflex
8#374 /udieresis 8#375 /yacute 8#376 /thorn 8#377 /ydieresis] def
/Times-Roman /Times-Roman-iso isovec ReEncode
 /DrawEllipse {
	/endangle exch def
	/startangle exch def
	/yrad exch def
	/xrad exch def
	/y exch def
	/x exch def
	/savematrix mtrx currentmatrix def
	x y tr xrad yrad sc 0 0 1 startangle endangle arc
	closepath
	savematrix setmatrix
	} def

/$F2psBegin {$F2psDict begin /$F2psEnteredState save def} def
/$F2psEnd {$F2psEnteredState restore end} def

/pageheader {
save
newpath 0 249 moveto 0 0 lineto 549 0 lineto 549 249 lineto closepath clip newpath
273.3 21.7 translate
1 -1 scale
$F2psBegin
10 setmiterlimit
0 slj 0 slc
 0.06299 0.06299 sc
} bind def
/pagefooter {
$F2psEnd
restore
} bind def
%%EndProlog
pageheader
%
% Fig objects follow
%
% 
% here starts figure with depth 50
% Polyline
0 slj
0 slc
7.500 slw
 [30] 0 sd
gs  clippath
-658 -2216 m -747 -2154 l -698 -2085 l -609 -2147 l -609 -2147 l -703 -2133 l -658 -2216 l cp
eoclip
n -180 -2506 m
 -711 -2129 l gs col0 s gr gr
 [] 0 sd
% arrowhead
n -658 -2216 m -703 -2133 l -609 -2147 l  col0 s
% Polyline
 [30] 0 sd
gs  clippath
-453 -2012 m -504 -1917 l -429 -1878 l -378 -1973 l -378 -1973 l -455 -1918 l -453 -2012 l cp
eoclip
n -156 -2489 m
 -460 -1911 l gs col0 s gr gr
 [] 0 sd
% arrowhead
n -453 -2012 m -455 -1918 l -378 -1973 l  col0 s
% Polyline
n -995 -2765 m 171 -2765 l 171 -1665 l -995 -1665 l
 cp gs col0 s gr 
% Polyline
2 slj
15.000 slw
gs  clippath
-596 -2074 m -670 -1995 l -607 -1938 l -534 -2018 l -534 -2018 l -622 -1984 l -596 -2074 l cp
eoclip
n -146 -2512 m
 -629 -1978 l gs col0 s gr gr

% arrowhead
0 slj
7.500 slw
n -596 -2074 m -622 -1984 l -534 -2018 l  col0 s
% Polyline
gs  clippath
-2269 -2018 m -2215 -1978 l -2188 -2014 l -2242 -2054 l -2242 -2054 l -2220 -2009 l -2269 -2018 l cp
eoclip
n -2214 -2005 m -2574 -2275 l
 -2664 -2275 l gs col0 s gr gr

% arrowhead
n -2269 -2018 m -2220 -2009 l -2242 -2054 l  col0 s
% Polyline
gs  clippath
2188 -1638 m 2243 -1598 l 2270 -1634 l 2215 -1674 l 2215 -1674 l 2238 -1629 l 2188 -1638 l cp
eoclip
n 2245 -1625 m 1885 -1895 l
 1795 -1895 l gs col0 s gr gr

% arrowhead
n 2188 -1638 m 2238 -1629 l 2215 -1674 l  col0 s
% Arc
15.000 slw
n 4078.9 -3308.9 3146.6 176.8683 93.1317 arcn
gs col0 s gr

% Ellipse
7.500 slw
n 1312 -623 54 54 0 360 DrawEllipse gs 0.00 setgray ef gr gs col0 s gr

% Polyline
n 2306 -2579 m 2380 -2579 l 2380 -2505 l 2306 -2505 l
 cp gs col41 1.00 shd ef gr gs col41 s gr 
% Polyline
n 2426 -1806 m 2500 -1806 l 2500 -1732 l 2426 -1732 l
 cp gs col41 1.00 shd ef gr gs col41 s gr 
% Polyline
n 3168 -1671 m 3242 -1671 l 3242 -1597 l 3168 -1597 l
 cp gs col41 1.00 shd ef gr gs col41 s gr 
% Polyline
 [30] 0 sd
gs  clippath
2911 -1438 m 2855 -1399 l 2881 -1362 l 2937 -1401 l 2937 -1401 l 2888 -1394 l 2911 -1438 l cp
eoclip
n 3164 -1591 m
 2881 -1390 l gs col0 s gr gr
 [] 0 sd
% arrowhead
n 2911 -1438 m 2888 -1394 l 2937 -1401 l  col0 s
% Polyline
 [30] 0 sd
gs  clippath
2140 -2249 m 2108 -2189 l 2147 -2168 l 2179 -2228 l 2179 -2228 l 2139 -2199 l 2140 -2249 l cp
eoclip
n 2297 -2500 m
 2135 -2192 l gs col0 s gr gr
 [] 0 sd
% arrowhead
n 2140 -2249 m 2139 -2199 l 2179 -2228 l  col0 s
% Polyline
n 2100 -1440 m 2174 -1440 l 2174 -1366 l 2100 -1366 l
 cp gs 0.00 setgray ef gr gs col0 s gr 
% Polyline
n 2091 -2189 m 2165 -2189 l 2165 -2115 l 2091 -2115 l
 cp gs 0.00 setgray ef gr gs col0 s gr 
% Polyline
n 2811 -1384 m 2885 -1384 l 2885 -1310 l 2811 -1310 l
 cp gs 0.00 setgray ef gr gs col0 s gr 
% Polyline
gs  clippath
4184 37 m 4369 37 l 4369 -23 l 4184 -23 l 4184 -23 l 4334 7 l 4184 37 l cp
784 -3422 m 784 -3608 l 724 -3608 l 724 -3422 l 724 -3422 l 754 -3572 l 784 -3422 l cp
eoclip
n 754 -3593 m 754 7 l
 4354 7 l gs col0 s gr gr

% arrowhead
n 784 -3422 m 754 -3572 l 724 -3422 l 754 -3452 l 784 -3422 l 
 cp gs 0.00 setgray ef gr  col0 s
% arrowhead
n 4184 37 m 4334 7 l 4184 -23 l 4214 7 l 4184 37 l 
 cp gs 0.00 setgray ef gr  col0 s
% Polyline
gs  clippath
1059 -2836 m 977 -2809 l 991 -2766 l 1074 -2793 l 1074 -2793 l 1010 -2796 l 1059 -2836 l cp
eoclip
n 999 -2793 m 1674 -3018 l
 1674 -3153 l gs col0 s gr gr

% arrowhead
n 1059 -2836 m 1010 -2796 l 1074 -2793 l  col0 s
% Polyline
n 2292 -2576 m 2366 -2576 l 2366 -2502 l 2292 -2502 l
 cp gs col41 1.00 shd ef gr gs col41 s gr 
% Polyline
n 2412 -1803 m 2486 -1803 l 2486 -1729 l 2412 -1729 l
 cp gs col41 1.00 shd ef gr gs col41 s gr 
% Polyline
n 3154 -1668 m 3228 -1668 l 3228 -1594 l 3154 -1594 l
 cp gs col41 1.00 shd ef gr gs col41 s gr 
% Polyline
gs  clippath
1855 -774 m 1869 -761 l 2027 -921 l 2014 -933 l 1935 -854 l 2014 -933 l 1855 -774 l cp
1628 -1317 m 1614 -1332 l 1456 -1172 l 1469 -1158 l 1549 -1238 l 1469 -1158 l 1628 -1317 l cp
eoclip
n 1546 -1242 m
 1938 -852 l gs col0 s gr gr

% arrowhead
n 1628 -1317 m 1469 -1158 l  col0 s
% arrowhead
n 1855 -774 m 2014 -933 l  col0 s
% Polyline
gs  clippath
1702 -959 m 1750 -1008 l 1718 -1040 l 1670 -990 l 1670 -990 l 1718 -1007 l 1702 -959 l cp
eoclip
n 1724 -1014 m 1566 -854 l
 1122 -1245 l gs col0 s gr gr

% arrowhead
n 1702 -959 m 1718 -1007 l 1670 -990 l  col0 s
% Polyline
2 slj
15.000 slw
gs  clippath
2184 -1506 m 2138 -1455 l 2171 -1425 l 2217 -1476 l 2217 -1476 l 2171 -1458 l 2184 -1506 l cp
eoclip
n 2422 -1736 m
 2165 -1452 l gs col0 s gr gr

% arrowhead
0 slj
7.500 slw
n 2184 -1506 m 2171 -1458 l 2217 -1476 l  col0 s
% Arc
15.000 slw
n -729.1 -3304.9 3146.6 176.8683 93.1317 arcn
gs col0 s gr

% Arc
7.500 slw
gs  clippath
355 -1291 m 457 -1244 l 487 -1308 l 385 -1355 l 385 -1355 l 450 -1286 l 355 -1291 l cp
eoclip
n -432.4 527.9 2018.4 -115.4257 -63.7921 arc
gs col0 s gr
 gr

% arrowhead
n 355 -1291 m 450 -1286 l 385 -1355 l 386 -1315 l 355 -1291 l 
 cp gs 0.00 setgray ef gr  col0 s
% Ellipse
n -3496 -619 54 54 0 360 DrawEllipse gs 0.00 setgray ef gr gs col0 s gr

% Polyline
gs  clippath
-3112 -991 m -3065 -1040 l -3097 -1072 l -3144 -1022 l -3144 -1022 l -3097 -1039 l -3112 -991 l cp
eoclip
n -3092 -1046 m -3250 -886 l
 -3694 -1277 l gs col0 s gr gr

% arrowhead
n -3112 -991 m -3097 -1039 l -3144 -1022 l  col0 s
% Polyline
gs  clippath
-623 41 m -439 41 l -439 -19 l -623 -19 l -623 -19 l -473 11 l -623 41 l cp
-4023 -3418 m -4024 -3604 l -4084 -3604 l -4083 -3418 l -4083 -3418 l -4053 -3568 l -4023 -3418 l cp
eoclip
n -4054 -3589 m -4054 11 l
 -454 11 l gs col0 s gr gr

% arrowhead
n -4023 -3418 m -4053 -3568 l -4083 -3418 l -4053 -3448 l -4023 -3418 l 
 cp gs 0.00 setgray ef gr  col0 s
% arrowhead
n -623 41 m -473 11 l -623 -19 l -593 11 l -623 41 l 
 cp gs 0.00 setgray ef gr  col0 s
% Polyline
gs  clippath
-3747 -2832 m -3830 -2805 l -3816 -2762 l -3732 -2789 l -3732 -2789 l -3797 -2792 l -3747 -2832 l cp
eoclip
n -3809 -2789 m -3134 -3014 l
 -3134 -3149 l gs col0 s gr gr

% arrowhead
n -3747 -2832 m -3797 -2792 l -3732 -2789 l  col0 s
% Polyline
n -2036 -2179 m -1962 -2179 l -1962 -2105 l -2036 -2105 l
 cp gs 0.00 setgray ef gr gs col0 s gr 
% Polyline
n -1530 -2352 m -1456 -2352 l -1456 -2278 l -1530 -2278 l
 cp gs 0.00 setgray ef gr gs col0 s gr 
% Polyline
n -1982 -2679 m -1908 -2679 l -1908 -2605 l -1982 -2605 l
 cp gs 0.00 setgray ef gr gs col0 s gr 
% Polyline
n -2516 -2572 m -2442 -2572 l -2442 -2498 l -2516 -2498 l
 cp gs col41 1.00 shd ef gr gs col41 s gr 
% Polyline
n -2396 -1799 m -2322 -1799 l -2322 -1725 l -2396 -1725 l
 cp gs col41 1.00 shd ef gr gs col41 s gr 
% Polyline
n -1654 -1664 m -1580 -1664 l -1580 -1590 l -1654 -1590 l
 cp gs col41 1.00 shd ef gr gs col41 s gr 
% Polyline
gs  clippath
-2951 -770 m -2938 -757 l -2780 -917 l -2792 -929 l -2872 -850 l -2792 -929 l -2951 -770 l cp
-3178 -1313 m -3193 -1328 l -3351 -1168 l -3337 -1154 l -3258 -1234 l -3337 -1154 l -3178 -1313 l cp
eoclip
n -3262 -1238 m
 -2870 -848 l gs col0 s gr gr

% arrowhead
n -3178 -1313 m -3337 -1154 l  col0 s
% arrowhead
n -2951 -770 m -2792 -929 l  col0 s
% Polyline
2 slj
 [30] 0 sd
gs  clippath
-2381 -2564 m -2449 -2548 l -2437 -2504 l -2369 -2520 l -2369 -2520 l -2419 -2531 l -2381 -2564 l cp
eoclip
n -1997 -2642 m
 -2429 -2530 l gs col0 s gr gr
 [] 0 sd
% arrowhead
0 slj
n -2381 -2564 m -2419 -2531 l -2369 -2520 l  col0 s
% Polyline
2 slj
 [30] 0 sd
gs  clippath
-1633 -1733 m -1649 -1667 l -1605 -1657 l -1589 -1724 l -1589 -1724 l -1621 -1685 l -1633 -1733 l cp
eoclip
n -1494 -2265 m
 -1624 -1677 l gs col0 s gr gr
 [] 0 sd
% arrowhead
0 slj
n -1633 -1733 m -1621 -1685 l -1589 -1724 l  col0 s
% Polyline
2 slj
15.000 slw
gs  clippath
-2292 -1862 m -2339 -1811 l -2306 -1781 l -2259 -1832 l -2259 -1832 l -2306 -1814 l -2292 -1862 l cp
eoclip
n -2056 -2092 m
 -2313 -1808 l gs col0 s gr gr

% arrowhead
0 slj
7.500 slw
n -2292 -1862 m -2306 -1814 l -2259 -1832 l  col0 s
/Times-Roman-iso ff 127.00 scf sf
-2966 -2268 m
gs 1 -1 sc (Best) col0 sh gr
/Times-Roman-iso ff 127.00 scf sf
-2958 -2142 m
gs 1 -1 sc (Weight) col0 sh gr
/Times-Roman-iso ff 127.00 scf sf
1493 -1888 m
gs 1 -1 sc (Best) col0 sh gr
/Times-Roman-iso ff 127.00 scf sf
1501 -1762 m
gs 1 -1 sc (Weight) col0 sh gr
/Times-Roman-iso ff 158.75 scf sf
484 -3233 m
gs 1 -1 sc ($f_2$) dup sw pop 2 div neg 0 rm  col0 sh gr
/Times-Roman-iso ff 158.75 scf sf
4039 232 m
gs 1 -1 sc ($f_1$) dup sw pop 2 div neg 0 rm  col0 sh gr
/Times-Roman-iso ff 127.00 scf sf
1209 -3224 m
gs 1 -1 sc (Pareto-optimal Front) col0 sh gr
/Times-Roman-iso ff 127.00 scf sf
1088 -329 m
gs 1 -1 sc (Reference Point) col0 sh gr
/Times-Roman-iso ff 190.50 scf sf
2107 277 m
gs 1 -1 sc (Iteration $n+1$) col0 sh gr
/Times-Roman-iso ff 127.00 scf sf
856 -1420 m
gs 1 -1 sc (Preferred) col0 sh gr
/Times-Roman-iso ff 127.00 scf sf
856 -1270 m
gs 1 -1 sc (Region) col0 sh gr
/Times-Roman-iso ff 127.00 scf sf
-3960 -1452 m
gs 1 -1 sc (Preferred) col0 sh gr
/Times-Roman-iso ff 127.00 scf sf
-3960 -1302 m
gs 1 -1 sc (Region) col0 sh gr
/Times-Roman-iso ff 190.50 scf sf
-2889 290 m
gs 1 -1 sc (Iteration $n$) col0 sh gr
/Times-Roman-iso ff 158.75 scf sf
-769 236 m
gs 1 -1 sc ($f_1$) dup sw pop 2 div neg 0 rm  col0 sh gr
/Times-Roman-iso ff 127.00 scf sf
-3720 -325 m
gs 1 -1 sc (Reference Point) col0 sh gr
/Times-Roman-iso ff 127.00 scf sf
-3599 -3220 m
gs 1 -1 sc (Pareto-optimal Front) col0 sh gr
/Times-Roman-iso ff 127.00 scf sf
-784 -2868 m
gs 1 -1 sc (Weight Vectors) col0 sh gr
/Times-Roman-iso ff 127.00 scf sf
-826 -3046 m
gs 1 -1 sc (Newly Generated) col0 sh gr
/Times-Roman-iso ff 158.75 scf sf
-4324 -3229 m
gs 1 -1 sc ($f_2$) dup sw pop 2 div neg 0 rm  col0 sh gr
/Times-Roman-iso ff 158.75 scf sf
1620 -2430 m
gs 1 -1 sc ($\\mathbf{w}_1$) col0 sh gr
/Times-Roman-iso ff 158.75 scf sf
3015 -1395 m
gs 1 -1 sc ($\\mathbf{w}_2$) col0 sh gr
/Times-Roman-iso ff 158.75 scf sf
-810 -2385 m
gs 1 -1 sc ($\\mathbf{w}_2$) col0 sh gr
/Times-Roman-iso ff 158.75 scf sf
-405 -2070 m
gs 1 -1 sc ($\\mathbf{w}_1$) col0 sh gr
/Times-Roman-iso ff 158.75 scf sf
-900 -1890 m
gs 1 -1 sc ($\\mathbf{w}_b$) col0 sh gr
/Times-Roman-iso ff 158.75 scf sf
-2970 -2025 m
gs 1 -1 sc ($\\mathbf{w}_b$) col0 sh gr
% here ends figure;
pagefooter
showpage
%%Trailer
%EOF
