%!PS-Adobe-3.0 EPSF-3.0
%%BoundingBox: 14 215 421 453
%%Creator: (Quick PDF Library DVer)
%%DocumentProcessColors: (Cyan) (Magenta) (Yellow) (Black)
%%EndComments
%%DebenuPDFLibrary-Start
/c { curveto } def
/cm { concat } def
/cp { currentpoint } def
/f { fill } def
/f* { eofill } def
/h { closepath } def
/j { setlinejoin } def
/J { setlinecap } def
/l { lineto } def
/m { moveto } def
/M { setmiterlimit } def
/n { newpath } def
/q { gsave } def
/Q { grestore } def
/s { stroke } def
/w { setlinewidth } def
/W { clip } def
/W* { eoclip } def
%%DebenuPDFLibrary-End
q
n
0 0.0001 m
720 0.0001 l
720 540.0001 l
0 540.0001 l
h
W*
n
0 0 m
720 0 l
720 540 l
0 540 l
h
1 setgray
f*
Q
n
211.96 228.58 m
410.82 228.58 l
410.82 427.03 l
211.96 427.03 l
h
1 setgray
f*
1.5 w
1 j
n
211.96 228.58 m
410.82 228.58 l
410.82 427.03 l
211.96 427.03 l
h
0 setgray
s
n
297.63 330.93 m
297.63 329.2 298.9 327.8 300.47 327.8 c
302.03 327.8 303.3 329.2 303.3 330.93 c
303.3 332.65 302.03 334.05 300.47 334.05 c
298.9 334.05 297.63 332.65 297.63 330.93 c
f*
2 w
n
297.63 330.93 m
297.63 329.2 298.9 327.8 300.47 327.8 c
302.03 327.8 303.3 329.2 303.3 330.93 c
303.3 332.65 302.03 334.05 300.47 334.05 c
298.9 334.05 297.63 332.65 297.63 330.93 c
s
n
246.6 289.26 m
246.6 287.54 247.87 286.14 249.44 286.14 c
251 286.14 252.27 287.54 252.27 289.26 c
252.27 290.99 251 292.39 249.44 292.39 c
247.87 292.39 246.6 290.99 246.6 289.26 c
f*
n
246.6 289.26 m
246.6 287.54 247.87 286.14 249.44 286.14 c
251 286.14 252.27 287.54 252.27 289.26 c
252.27 290.99 251 292.39 249.44 292.39 c
247.87 292.39 246.6 290.99 246.6 289.26 c
s
n
206.94 334.8 m
296.17 331.73 l
296.12 330.23 l
206.89 333.3 l
290.67 335.32 m
297.63 330.93 l
290.38 327.03 l
290.02 326.83 289.57 326.97 289.37 327.33 c
289.17 327.7 289.31 328.15 289.67 328.35 c
295.79 331.64 l
295.75 330.34 l
289.87 334.05 l
289.52 334.27 289.42 334.73 289.64 335.08 c
289.86 335.43 290.32 335.54 290.67 335.32 c
f
n
30.8898 339.9719 m
30.8898 339.089 30.7442 338.2927 30.4529 337.5827 c
30.1617 336.8728 29.7453 336.2676 29.2038 335.767 c
28.6622 335.2664 27.9978 334.8796 27.2105 334.6065 c
26.4232 334.3335 25.4835 334.197 24.3913 334.197 c
22.3844 334.197 l
22.3844 327.835 l
22.3844 327.7621 22.3639 327.6984 22.323 327.6438 c
22.282 327.5892 22.2183 327.546 22.1318 327.5141 c
22.0454 327.4823 21.9271 327.455 21.7769 327.4322 c
21.6267 327.4095 21.4378 327.3981 21.2103 327.3981 c
20.9828 327.3981 20.7939 327.4095 20.6437 327.4322 c
20.4936 327.455 20.373 327.4823 20.2819 327.5141 c
20.1909 327.546 20.1272 327.5892 20.0908 327.6438 c
20.0544 327.6984 20.0362 327.7621 20.0362 327.835 c
20.0362 344.1359 l
20.0362 344.4999 20.1318 344.7593 20.3229 344.914 c
20.514 345.0688 20.7279 345.1461 20.9646 345.1461 c
24.7463 345.1461 l
25.1285 345.1461 25.4949 345.1302 25.8453 345.0983 c
26.1957 345.0665 26.6098 344.9982 27.0876 344.8936 c
27.5655 344.7889 28.0524 344.5932 28.5484 344.3065 c
29.0445 344.0198 29.4654 343.6671 29.8113 343.2485 c
30.1571 342.8298 30.4234 342.3451 30.6099 341.7945 c
30.7965 341.2438 30.8898 340.6363 30.8898 339.9719 c
h
28.4187 339.7808 m
28.4187 340.4998 28.2845 341.1005 28.016 341.5829 c
27.7475 342.0653 27.4153 342.4248 27.0194 342.6614 c
26.6235 342.898 26.2139 343.0482 25.7907 343.1119 c
25.3674 343.1756 24.9556 343.2075 24.5551 343.2075 c
22.3844 343.2075 l
22.3844 336.1219 l
24.5005 336.1219 l
25.2104 336.1219 25.7998 336.2129 26.2685 336.395 c
26.7372 336.577 27.1309 336.8296 27.4494 337.1527 c
27.768 337.4758 28.0092 337.8626 28.173 338.3131 c
28.3368 338.7637 28.4187 339.2529 28.4187 339.7808 c
h
45.0161 334.1014 m
45.0161 333.1002 44.8841 332.1787 44.6201 331.3368 c
44.3562 330.4949 43.9626 329.769 43.4392 329.1592 c
42.9159 328.5494 42.2606 328.0739 41.4733 327.7326 c
40.686 327.3913 39.7736 327.2206 38.736 327.2206 c
37.7257 327.2206 36.8451 327.3708 36.0943 327.6711 c
35.3434 327.9715 34.7176 328.4084 34.2171 328.9818 c
33.7165 329.5552 33.3433 330.2514 33.0976 331.0706 c
32.8518 331.8897 32.729 332.8181 32.729 333.8556 c
32.729 334.8568 32.8586 335.7783 33.118 336.6202 c
33.3774 337.4621 33.7688 338.188 34.2921 338.7978 c
34.8155 339.4076 35.4685 339.8809 36.2513 340.2176 c
37.034 340.5544 37.9487 340.7228 38.9954 340.7228 c
40.0057 340.7228 40.8862 340.5726 41.6371 340.2722 c
42.388 339.9719 43.0137 339.535 43.5143 338.9616 c
44.0149 338.3882 44.3903 337.692 44.6406 336.8728 c
44.8909 336.0537 45.0161 335.1299 45.0161 334.1014 c
h
42.6406 333.9512 m
42.6406 334.6156 42.5791 335.2436 42.4562 335.8352 c
42.3334 336.4268 42.1309 336.9456 41.8487 337.3916 c
41.5666 337.8376 41.1843 338.1903 40.7019 338.4497 c
40.2195 338.7091 39.6188 338.8388 38.8998 338.8388 c
38.2354 338.8388 37.6643 338.7204 37.1864 338.4838 c
36.7086 338.2471 36.315 337.9127 36.0055 337.4803 c
35.6961 337.048 35.4662 336.5361 35.3161 335.9445 c
35.1659 335.3529 35.0908 334.7066 35.0908 334.0058 c
35.0908 333.3323 35.1522 332.6997 35.2751 332.1081 c
35.398 331.5165 35.6028 331 35.8895 330.5586 c
36.1762 330.1172 36.5607 329.7668 37.0431 329.5074 c
37.5255 329.248 38.1262 329.1183 38.8452 329.1183 c
39.5005 329.1183 40.0694 329.2366 40.5517 329.4732 c
41.0341 329.7099 41.43 330.0421 41.7395 330.4699 c
42.049 330.8976 42.2765 331.4073 42.4221 331.9989 c
42.5677 332.5905 42.6406 333.2413 42.6406 333.9512 c
h
50.5766 327.8213 m
50.5766 327.7485 50.5584 327.6871 50.522 327.637 c
50.4856 327.5869 50.4264 327.5437 50.3445 327.5073 c
50.2626 327.4709 50.1488 327.4436 50.0032 327.4254 c
49.8576 327.4072 49.671 327.3981 49.4435 327.3981 c
49.225 327.3981 49.043 327.4072 48.8974 327.4254 c
48.7517 327.4436 48.6357 327.4709 48.5492 327.5073 c
48.4628 327.5437 48.4036 327.5869 48.3718 327.637 c
48.3399 327.6871 48.324 327.7485 48.324 327.8213 c
48.324 340.1084 l
48.324 340.1721 48.3399 340.2313 48.3718 340.2859 c
48.4036 340.3405 48.4628 340.386 48.5492 340.4224 c
48.6357 340.4588 48.7517 340.4861 48.8974 340.5043 c
49.043 340.5225 49.225 340.5316 49.4435 340.5316 c
49.671 340.5316 49.8576 340.5225 50.0032 340.5043 c
50.1488 340.4861 50.2626 340.4588 50.3445 340.4224 c
50.4264 340.386 50.4856 340.3405 50.522 340.2859 c
50.5584 340.2313 50.5766 340.1721 50.5766 340.1084 c
50.5766 340.1084 l
h
50.836 344.2587 m
50.836 343.7308 50.7359 343.3713 50.5356 343.1802 c
50.3354 342.9891 49.9668 342.8935 49.4298 342.8935 c
48.9019 342.8935 48.5401 342.9868 48.3444 343.1734 c
48.1488 343.36 48.0509 343.7126 48.0509 344.2314 c
48.0509 344.7593 48.151 345.1188 48.3513 345.31 c
48.5515 345.5011 48.9201 345.5967 49.4571 345.5967 c
49.985 345.5967 50.3468 345.5034 50.5425 345.3168 c
50.7382 345.1302 50.836 344.7775 50.836 344.2587 c
h
65.3353 327.8213 m
65.3353 327.7485 65.3171 327.6871 65.2807 327.637 c
65.2443 327.5869 65.1852 327.5437 65.1032 327.5073 c
65.0213 327.4709 64.9076 327.4436 64.7619 327.4254 c
64.6163 327.4072 64.4343 327.3981 64.2158 327.3981 c
63.9883 327.3981 63.8017 327.4072 63.6561 327.4254 c
63.5105 327.4436 63.3967 327.4709 63.3148 327.5073 c
63.2329 327.5437 63.1737 327.5869 63.1373 327.637 c
63.1009 327.6871 63.0827 327.7485 63.0827 327.8213 c
63.0827 335.0161 l
63.0827 335.7169 63.0281 336.2812 62.9189 336.709 c
62.8097 337.1368 62.6504 337.5054 62.441 337.8148 c
62.2317 338.1243 61.9609 338.3609 61.6287 338.5247 c
61.2965 338.6886 60.912 338.7705 60.4751 338.7705 c
59.9108 338.7705 59.3465 338.5703 58.7822 338.1698 c
58.2179 337.7693 57.6263 337.1823 57.0074 336.4086 c
57.0074 327.8213 l
57.0074 327.7485 56.9892 327.6871 56.9528 327.637 c
56.9164 327.5869 56.8572 327.5437 56.7753 327.5073 c
56.6934 327.4709 56.5796 327.4436 56.434 327.4254 c
56.2884 327.4072 56.1018 327.3981 55.8743 327.3981 c
55.6558 327.3981 55.4738 327.4072 55.3282 327.4254 c
55.1825 327.4436 55.0665 327.4709 54.98 327.5073 c
54.8936 327.5437 54.8344 327.5869 54.8026 327.637 c
54.7707 327.6871 54.7548 327.7485 54.7548 327.8213 c
54.7548 340.1084 l
54.7548 340.1812 54.7684 340.2427 54.7957 340.2927 c
54.823 340.3428 54.8776 340.3883 54.9596 340.4292 c
55.0415 340.4702 55.1461 340.4975 55.2736 340.5112 c
55.401 340.5248 55.5694 340.5316 55.7787 340.5316 c
55.9789 340.5316 56.145 340.5248 56.277 340.5112 c
56.409 340.4975 56.5114 340.4702 56.5842 340.4292 c
56.657 340.3883 56.7093 340.3428 56.7412 340.2927 c
56.773 340.2427 56.789 340.1812 56.789 340.1084 c
56.789 338.4838 l
57.4807 339.2574 58.1701 339.824 58.8573 340.1835 c
59.5445 340.543 60.2385 340.7228 60.9393 340.7228 c
61.7584 340.7228 62.4479 340.584 63.0076 340.3064 c
63.5674 340.0288 64.0202 339.6579 64.366 339.1937 c
64.7119 338.7295 64.9599 338.1857 65.1101 337.5623 c
65.2602 336.9388 65.3353 336.1902 65.3353 335.3164 c
65.3353 335.3164 l
h
75.4875 328.7224 m
75.4875 328.4584 75.4693 328.2491 75.4329 328.0944 c
75.3965 327.9396 75.3419 327.8259 75.2691 327.753 c
75.1963 327.6802 75.0871 327.612 74.9415 327.5483 c
74.7958 327.4846 74.6297 327.4322 74.4431 327.3913 c
74.2566 327.3503 74.0586 327.3162 73.8493 327.2889 c
73.6399 327.2616 73.4306 327.2479 73.2213 327.2479 c
72.5841 327.2479 72.0381 327.3321 71.583 327.5005 c
71.1279 327.6689 70.7547 327.9237 70.4635 328.265 c
70.1722 328.6063 69.9606 329.0386 69.8286 329.562 c
69.6967 330.0853 69.6307 330.702 69.6307 331.4119 c
69.6307 338.593 l
67.9105 338.593 l
67.774 338.593 67.6648 338.6658 67.5828 338.8114 c
67.5009 338.9571 67.46 339.1937 67.46 339.5214 c
67.46 339.6943 67.4713 339.8399 67.4941 339.9582 c
67.5169 340.0766 67.5464 340.1744 67.5828 340.2518 c
67.6192 340.3291 67.667 340.3837 67.7262 340.4156 c
67.7853 340.4475 67.8513 340.4634 67.9241 340.4634 c
69.6307 340.4634 l
69.6307 343.385 l
69.6307 343.4487 69.6466 343.5079 69.6785 343.5625 c
69.7103 343.6171 69.7695 343.6649 69.856 343.7058 c
69.9424 343.7468 70.0585 343.7763 70.2041 343.7946 c
70.3497 343.8128 70.5317 343.8219 70.7502 343.8219 c
70.9777 343.8219 71.1643 343.8128 71.3099 343.7946 c
71.4556 343.7763 71.5693 343.7468 71.6512 343.7058 c
71.7332 343.6649 71.7923 343.6171 71.8287 343.5625 c
71.8651 343.5079 71.8833 343.4487 71.8833 343.385 c
71.8833 340.4634 l
75.037 340.4634 l
75.1098 340.4634 75.1735 340.4475 75.2282 340.4156 c
75.2828 340.3837 75.3305 340.3291 75.3715 340.2518 c
75.4125 340.1744 75.442 340.0766 75.4602 339.9582 c
75.4784 339.8399 75.4875 339.6943 75.4875 339.5214 c
75.4875 339.1937 75.4466 338.9571 75.3647 338.8114 c
75.2828 338.6658 75.1735 338.593 75.037 338.593 c
71.8833 338.593 l
71.8833 331.7395 l
71.8833 330.8931 72.0085 330.2537 72.2588 329.8214 c
72.5091 329.3891 72.9573 329.1729 73.6035 329.1729 c
73.8129 329.1729 73.9994 329.1934 74.1633 329.2343 c
74.3271 329.2753 74.4727 329.3185 74.6001 329.364 c
74.7276 329.4095 74.8368 329.4528 74.9278 329.4937 c
75.0188 329.5347 75.1007 329.5552 75.1735 329.5552 c
75.219 329.5552 75.2623 329.5438 75.3032 329.521 c
75.3442 329.4983 75.3761 329.455 75.3988 329.3913 c
75.4216 329.3276 75.442 329.2412 75.4602 329.1319 c
75.4784 329.0227 75.4875 328.8862 75.4875 328.7224 c
h
96.4625 334.1014 m
96.4625 333.1002 96.3305 332.1787 96.0665 331.3368 c
95.8026 330.4949 95.409 329.769 94.8856 329.1592 c
94.3623 328.5494 93.707 328.0739 92.9197 327.7326 c
92.1324 327.3913 91.22 327.2206 90.1824 327.2206 c
89.1721 327.2206 88.2915 327.3708 87.5407 327.6711 c
86.7898 327.9715 86.164 328.4084 85.6635 328.9818 c
85.1629 329.5552 84.7897 330.2514 84.544 331.0706 c
84.2982 331.8897 84.1754 332.8181 84.1754 333.8556 c
84.1754 334.8568 84.305 335.7783 84.5644 336.6202 c
84.8238 337.4621 85.2152 338.188 85.7385 338.7978 c
86.2619 339.4076 86.9149 339.8809 87.6977 340.2176 c
88.4804 340.5544 89.3951 340.7228 90.4418 340.7228 c
91.4521 340.7228 92.3326 340.5726 93.0835 340.2722 c
93.8344 339.9719 94.4601 339.535 94.9607 338.9616 c
95.4613 338.3882 95.8367 337.692 96.087 336.8728 c
96.3373 336.0537 96.4625 335.1299 96.4625 334.1014 c
h
94.087 333.9512 m
94.087 334.6156 94.0255 335.2436 93.9026 335.8352 c
93.7798 336.4268 93.5773 336.9456 93.2951 337.3916 c
93.013 337.8376 92.6307 338.1903 92.1483 338.4497 c
91.6659 338.7091 91.0652 338.8388 90.3462 338.8388 c
89.6818 338.8388 89.1107 338.7204 88.6328 338.4838 c
88.155 338.2471 87.7614 337.9127 87.4519 337.4803 c
87.1425 337.048 86.9126 336.5361 86.7625 335.9445 c
86.6123 335.3529 86.5372 334.7066 86.5372 334.0058 c
86.5372 333.3323 86.5986 332.6997 86.7215 332.1081 c
86.8444 331.5165 87.0492 331 87.3359 330.5586 c
87.6226 330.1172 88.0071 329.7668 88.4895 329.5074 c
88.9719 329.248 89.5726 329.1183 90.2916 329.1183 c
90.9469 329.1183 91.5158 329.2366 91.9981 329.4732 c
92.4805 329.7099 92.8764 330.0421 93.1859 330.4699 c
93.4954 330.8976 93.7229 331.4073 93.8685 331.9989 c
94.0141 332.5905 94.087 333.2413 94.087 333.9512 c
h
106.501 345.1598 m
106.501 344.9869 106.4919 344.8481 106.4737 344.7434 c
106.4555 344.6387 106.435 344.5545 106.4122 344.4908 c
106.3895 344.4271 106.3599 344.3839 106.3235 344.3611 c
106.2871 344.3384 106.2416 344.327 106.187 344.327 c
106.1233 344.327 106.0436 344.3475 105.9481 344.3884 c
105.8525 344.4294 105.7364 344.4749 105.5999 344.525 c
105.4634 344.575 105.3018 344.6205 105.1153 344.6615 c
104.9287 344.7024 104.7125 344.7229 104.4668 344.7229 c
104.13 344.7229 103.8433 344.6683 103.6067 344.5591 c
103.37 344.4499 103.1789 344.2792 103.0333 344.0471 c
102.8877 343.815 102.783 343.5147 102.7193 343.1461 c
102.6556 342.7775 102.6237 342.3292 102.6237 341.8013 c
102.6237 340.4634 l
105.3678 340.4634 l
105.4406 340.4634 105.5021 340.4475 105.5521 340.4156 c
105.6022 340.3837 105.6477 340.3291 105.6887 340.2518 c
105.7296 340.1744 105.7615 340.0766 105.7842 339.9582 c
105.807 339.8399 105.8184 339.6943 105.8184 339.5214 c
105.8184 339.1937 105.7774 338.9571 105.6955 338.8114 c
105.6136 338.6658 105.5044 338.593 105.3678 338.593 c
102.6237 338.593 l
102.6237 327.8213 l
102.6237 327.7485 102.6055 327.6871 102.5691 327.637 c
102.5327 327.5869 102.4713 327.5437 102.3848 327.5073 c
102.2983 327.4709 102.1823 327.4436 102.0367 327.4254 c
101.891 327.4072 101.709 327.3981 101.4906 327.3981 c
101.2721 327.3981 101.0901 327.4072 100.9445 327.4254 c
100.7988 327.4436 100.6828 327.4709 100.5963 327.5073 c
100.5099 327.5437 100.4484 327.5869 100.412 327.637 c
100.3756 327.6871 100.3574 327.7485 100.3574 327.8213 c
100.3574 338.593 l
98.6236 338.593 l
98.4779 338.593 98.3687 338.6658 98.2959 338.8114 c
98.2231 338.9571 98.1867 339.1937 98.1867 339.5214 c
98.1867 339.6943 98.1958 339.8399 98.214 339.9582 c
98.2322 340.0766 98.2595 340.1744 98.2959 340.2518 c
98.3323 340.3291 98.3778 340.3837 98.4324 340.4156 c
98.487 340.4475 98.5508 340.4634 98.6236 340.4634 c
100.3574 340.4634 l
100.3574 341.733 l
100.3574 342.5886 100.4371 343.3235 100.5963 343.9379 c
100.7556 344.5523 100.9991 345.0551 101.3267 345.4465 c
101.6544 345.8379 102.0662 346.1268 102.5623 346.3134 c
103.0583 346.5 103.6431 346.5933 104.3166 346.5933 c
104.6352 346.5933 104.9446 346.5637 105.245 346.5045 c
105.5453 346.4454 105.7774 346.3817 105.9412 346.3134 c
106.1051 346.2451 106.2143 346.1837 106.2689 346.1291 c
106.3235 346.0745 106.369 346.004 106.4054 345.9175 c
106.4418 345.831 106.4668 345.7264 106.4805 345.6035 c
106.4941 345.4806 106.501 345.3327 106.501 345.1598 c
h
117.2247 327.835 m
117.2247 327.7621 117.2065 327.6984 117.1701 327.6438 c
117.1337 327.5892 117.07 327.546 116.979 327.5141 c
116.888 327.4823 116.7674 327.455 116.6172 327.4322 c
116.467 327.4095 116.2782 327.3981 116.0506 327.3981 c
115.8322 327.3981 115.6456 327.4095 115.4909 327.4322 c
115.3362 327.455 115.2133 327.4823 115.1223 327.5141 c
115.0312 327.546 114.9675 327.5892 114.9311 327.6438 c
114.8947 327.6984 114.8765 327.7621 114.8765 327.835 c
114.8765 344.7912 l
114.8765 344.864 114.897 344.9277 114.938 344.9823 c
114.9789 345.0369 115.0472 345.0801 115.1427 345.112 c
115.2383 345.1439 115.3612 345.1712 115.5114 345.1939 c
115.6615 345.2167 115.8413 345.228 116.0506 345.228 c
116.2782 345.228 116.467 345.2167 116.6172 345.1939 c
116.7674 345.1712 116.888 345.1439 116.979 345.112 c
117.07 345.0801 117.1337 345.0369 117.1701 344.9823 c
117.2065 344.9277 117.2247 344.864 117.2247 344.7912 c
117.2247 344.7912 l
h
132.2995 327.8213 m
132.2995 327.7485 132.2813 327.6871 132.2449 327.637 c
132.2085 327.5869 132.1494 327.5437 132.0674 327.5073 c
131.9855 327.4709 131.8718 327.4436 131.7261 327.4254 c
131.5805 327.4072 131.3985 327.3981 131.18 327.3981 c
130.9525 327.3981 130.7659 327.4072 130.6203 327.4254 c
130.4747 327.4436 130.3609 327.4709 130.279 327.5073 c
130.1971 327.5437 130.1379 327.5869 130.1015 327.637 c
130.0651 327.6871 130.0469 327.7485 130.0469 327.8213 c
130.0469 335.0161 l
130.0469 335.7169 129.9923 336.2812 129.8831 336.709 c
129.7739 337.1368 129.6146 337.5054 129.4052 337.8148 c
129.1959 338.1243 128.9251 338.3609 128.5929 338.5247 c
128.2607 338.6886 127.8762 338.7705 127.4393 338.7705 c
126.875 338.7705 126.3107 338.5703 125.7464 338.1698 c
125.1821 337.7693 124.5905 337.1823 123.9716 336.4086 c
123.9716 327.8213 l
123.9716 327.7485 123.9534 327.6871 123.917 327.637 c
123.8806 327.5869 123.8214 327.5437 123.7395 327.5073 c
123.6576 327.4709 123.5438 327.4436 123.3982 327.4254 c
123.2526 327.4072 123.066 327.3981 122.8385 327.3981 c
122.62 327.3981 122.438 327.4072 122.2924 327.4254 c
122.1467 327.4436 122.0307 327.4709 121.9442 327.5073 c
121.8578 327.5437 121.7986 327.5869 121.7668 327.637 c
121.7349 327.6871 121.719 327.7485 121.719 327.8213 c
121.719 340.1084 l
121.719 340.1812 121.7326 340.2427 121.7599 340.2927 c
121.7872 340.3428 121.8418 340.3883 121.9238 340.4292 c
122.0057 340.4702 122.1103 340.4975 122.2378 340.5112 c
122.3652 340.5248 122.5336 340.5316 122.7429 340.5316 c
122.9431 340.5316 123.1092 340.5248 123.2412 340.5112 c
123.3732 340.4975 123.4756 340.4702 123.5484 340.4292 c
123.6212 340.3883 123.6735 340.3428 123.7054 340.2927 c
123.7372 340.2427 123.7532 340.1812 123.7532 340.1084 c
123.7532 338.4838 l
124.4449 339.2574 125.1343 339.824 125.8215 340.1835 c
126.5087 340.543 127.2027 340.7228 127.9035 340.7228 c
128.7226 340.7228 129.4121 340.584 129.9718 340.3064 c
130.5316 340.0288 130.9844 339.6579 131.3302 339.1937 c
131.6761 338.7295 131.9241 338.1857 132.0743 337.5623 c
132.2244 336.9388 132.2995 336.1902 132.2995 335.3164 c
132.2995 335.3164 l
h
142.5077 328.7224 m
142.5077 328.4584 142.4895 328.2491 142.4531 328.0944 c
142.4166 327.9396 142.362 327.8259 142.2892 327.753 c
142.2164 327.6802 142.1072 327.612 141.9616 327.5483 c
141.8159 327.4846 141.6498 327.4322 141.4633 327.3913 c
141.2767 327.3503 141.0787 327.3162 140.8694 327.2889 c
140.66 327.2616 140.4507 327.2479 140.2414 327.2479 c
139.6043 327.2479 139.0582 327.3321 138.6031 327.5005 c
138.148 327.6689 137.7749 327.9237 137.4836 328.265 c
137.1924 328.6063 136.9807 329.0386 136.8488 329.562 c
136.7168 330.0853 136.6508 330.702 136.6508 331.4119 c
136.6508 338.593 l
134.9306 338.593 l
134.7941 338.593 134.6849 338.6658 134.603 338.8114 c
134.521 338.9571 134.4801 339.1937 134.4801 339.5214 c
134.4801 339.6943 134.4915 339.8399 134.5142 339.9582 c
134.537 340.0766 134.5666 340.1744 134.603 340.2518 c
134.6394 340.3291 134.6871 340.3837 134.7463 340.4156 c
134.8055 340.4475 134.8715 340.4634 134.9443 340.4634 c
136.6508 340.4634 l
136.6508 343.385 l
136.6508 343.4487 136.6667 343.5079 136.6986 343.5625 c
136.7304 343.6171 136.7896 343.6649 136.8761 343.7058 c
136.9625 343.7468 137.0786 343.7763 137.2242 343.7946 c
137.3698 343.8128 137.5519 343.8219 137.7703 343.8219 c
137.9978 343.8219 138.1844 343.8128 138.33 343.7946 c
138.4757 343.7763 138.5894 343.7468 138.6714 343.7058 c
138.7533 343.6649 138.8124 343.6171 138.8488 343.5625 c
138.8852 343.5079 138.9034 343.4487 138.9034 343.385 c
138.9034 340.4634 l
142.0571 340.4634 l
142.13 340.4634 142.1937 340.4475 142.2483 340.4156 c
142.3029 340.3837 142.3507 340.3291 142.3916 340.2518 c
142.4326 340.1744 142.4622 340.0766 142.4804 339.9582 c
142.4986 339.8399 142.5077 339.6943 142.5077 339.5214 c
142.5077 339.1937 142.4667 338.9571 142.3848 338.8114 c
142.3029 338.6658 142.1937 338.593 142.0571 338.593 c
138.9034 338.593 l
138.9034 331.7395 l
138.9034 330.8931 139.0286 330.2537 139.2789 329.8214 c
139.5292 329.3891 139.9774 329.1729 140.6236 329.1729 c
140.833 329.1729 141.0196 329.1934 141.1834 329.2343 c
141.3472 329.2753 141.4928 329.3185 141.6203 329.364 c
141.7477 329.4095 141.8569 329.4528 141.9479 329.4937 c
142.0389 329.5347 142.1208 329.5552 142.1937 329.5552 c
142.2392 329.5552 142.2824 329.5438 142.3234 329.521 c
142.3643 329.4983 142.3962 329.455 142.4189 329.3913 c
142.4417 329.3276 142.4622 329.2412 142.4804 329.1319 c
142.4986 329.0227 142.5077 328.8862 142.5077 328.7224 c
h
155.7183 334.4973 m
155.7183 334.1423 155.6296 333.8898 155.4521 333.7396 c
155.2746 333.5894 155.0721 333.5143 154.8446 333.5143 c
146.7897 333.5143 l
146.7897 332.8317 146.858 332.2174 146.9945 331.6713 c
147.131 331.1252 147.3585 330.6564 147.6771 330.2651 c
147.9957 329.8737 148.4098 329.5734 148.9195 329.364 c
149.4291 329.1547 150.0526 329.05 150.7898 329.05 c
151.3723 329.05 151.8911 329.0978 152.3462 329.1934 c
152.8013 329.2889 153.1949 329.3959 153.5271 329.5142 c
153.8593 329.6325 154.1324 329.7395 154.3463 329.835 c
154.5602 329.9306 154.7217 329.9784 154.8309 329.9784 c
154.8946 329.9784 154.9515 329.9625 155.0016 329.9306 c
155.0516 329.8987 155.0903 329.851 155.1176 329.7872 c
155.1449 329.7235 155.1654 329.6348 155.1791 329.521 c
155.1927 329.4073 155.1995 329.2685 155.1995 329.1046 c
155.1995 328.9863 155.195 328.8839 155.1859 328.7975 c
155.1768 328.711 155.1654 328.6336 155.1518 328.5654 c
155.1381 328.4971 155.1154 328.4357 155.0835 328.3811 c
155.0516 328.3264 155.0107 328.2741 154.9606 328.2241 c
154.9106 328.174 154.7627 328.0921 154.5169 327.9783 c
154.2712 327.8645 153.9526 327.753 153.5613 327.6438 c
153.1699 327.5346 152.7171 327.4368 152.2029 327.3503 c
151.6886 327.2638 151.1402 327.2206 150.5577 327.2206 c
149.5475 327.2206 148.6623 327.3617 147.9024 327.6438 c
147.1424 327.926 146.503 328.3446 145.9842 328.8998 c
145.4654 329.455 145.0741 330.1513 144.8101 330.9887 c
144.5462 331.826 144.4142 332.7999 144.4142 333.9103 c
144.4142 334.966 144.5507 335.9149 144.8238 336.7568 c
145.0968 337.5987 145.4904 338.3131 146.0047 338.9002 c
146.5189 339.4872 147.1401 339.9378 147.8682 340.2518 c
148.5964 340.5658 149.4109 340.7228 150.312 340.7228 c
151.2768 340.7228 152.0982 340.568 152.7762 340.2586 c
153.4543 339.9491 154.0118 339.5327 154.4487 339.0094 c
154.8855 338.4861 155.2064 337.8717 155.4112 337.1663 c
155.6159 336.461 155.7183 335.7078 155.7183 334.9069 c
155.7183 334.9069 l
h
153.452 335.1663 m
153.4793 336.3495 153.2177 337.2778 152.667 337.9513 c
152.1164 338.6249 151.2995 338.9616 150.2164 338.9616 c
149.6612 338.9616 149.1743 338.857 148.7556 338.6476 c
148.337 338.4383 147.9866 338.1607 147.7044 337.8148 c
147.4223 337.469 147.2038 337.0662 147.0491 336.6066 c
146.8944 336.147 146.8079 335.6669 146.7897 335.1663 c
146.7897 335.1663 l
h
166.3385 339.3029 m
166.3385 339.1027 166.334 338.9343 166.3249 338.7978 c
166.3158 338.6613 166.2976 338.5543 166.2703 338.477 c
166.243 338.3996 166.2088 338.3404 166.1679 338.2995 c
166.1269 338.2585 166.07 338.238 165.9972 338.238 c
165.9244 338.238 165.8357 338.2585 165.731 338.2995 c
165.6263 338.3404 165.508 338.3814 165.3761 338.4224 c
165.2441 338.4633 165.0962 338.502 164.9324 338.5384 c
164.7685 338.5748 164.591 338.593 164.3999 338.593 c
164.1724 338.593 163.9494 338.5475 163.7309 338.4565 c
163.5125 338.3655 163.2827 338.2153 163.0415 338.006 c
162.8003 337.7966 162.5477 337.519 162.2838 337.1732 c
162.0198 336.8273 161.7286 336.4041 161.41 335.9035 c
161.41 327.8213 l
161.41 327.7485 161.3918 327.6871 161.3554 327.637 c
161.319 327.5869 161.2599 327.5437 161.178 327.5073 c
161.096 327.4709 160.9823 327.4436 160.8366 327.4254 c
160.691 327.4072 160.5044 327.3981 160.2769 327.3981 c
160.0585 327.3981 159.8764 327.4072 159.7308 327.4254 c
159.5852 327.4436 159.4691 327.4709 159.3827 327.5073 c
159.2962 327.5437 159.237 327.5869 159.2052 327.637 c
159.1733 327.6871 159.1574 327.7485 159.1574 327.8213 c
159.1574 340.1084 l
159.1574 340.1812 159.1711 340.2427 159.1984 340.2927 c
159.2257 340.3428 159.2803 340.3883 159.3622 340.4292 c
159.4441 340.4702 159.5488 340.4975 159.6762 340.5112 c
159.8036 340.5248 159.972 340.5316 160.1813 340.5316 c
160.3816 340.5316 160.5477 340.5248 160.6796 340.5112 c
160.8116 340.4975 160.914 340.4702 160.9868 340.4292 c
161.0596 340.3883 161.112 340.3428 161.1438 340.2927 c
161.1757 340.2427 161.1916 340.1812 161.1916 340.1084 c
161.1916 338.32 l
161.5284 338.8114 161.8446 339.2119 162.1404 339.5214 c
162.4362 339.8308 162.7161 340.0743 162.9801 340.2518 c
163.244 340.4292 163.5057 340.5521 163.7651 340.6204 c
164.0245 340.6886 164.2861 340.7228 164.5501 340.7228 c
164.6684 340.7228 164.8027 340.7159 164.9528 340.7023 c
165.103 340.6886 165.26 340.6636 165.4238 340.6272 c
165.5877 340.5908 165.7356 340.5498 165.8675 340.5043 c
165.9995 340.4588 166.0928 340.4133 166.1474 340.3678 c
166.202 340.3223 166.2384 340.2791 166.2566 340.2381 c
166.2748 340.1972 166.2908 340.1448 166.3044 340.0811 c
166.3181 340.0174 166.3272 339.9241 166.3317 339.8012 c
166.3363 339.6784 166.3385 339.5123 166.3385 339.3029 c
h
179.009 334.4973 m
179.009 334.1423 178.9203 333.8898 178.7428 333.7396 c
178.5653 333.5894 178.3628 333.5143 178.1353 333.5143 c
170.0804 333.5143 l
170.0804 332.8317 170.1486 332.2174 170.2852 331.6713 c
170.4217 331.1252 170.6492 330.6564 170.9678 330.2651 c
171.2863 329.8737 171.7005 329.5734 172.2101 329.364 c
172.7198 329.1547 173.3433 329.05 174.0805 329.05 c
174.663 329.05 175.1818 329.0978 175.6369 329.1934 c
176.092 329.2889 176.4856 329.3959 176.8178 329.5142 c
177.15 329.6325 177.4231 329.7395 177.6369 329.835 c
177.8508 329.9306 178.0124 329.9784 178.1216 329.9784 c
178.1853 329.9784 178.2422 329.9625 178.2923 329.9306 c
178.3423 329.8987 178.381 329.851 178.4083 329.7872 c
178.4356 329.7235 178.4561 329.6348 178.4697 329.521 c
178.4834 329.4073 178.4902 329.2685 178.4902 329.1046 c
178.4902 328.9863 178.4857 328.8839 178.4766 328.7975 c
178.4675 328.711 178.4561 328.6336 178.4424 328.5654 c
178.4288 328.4971 178.406 328.4357 178.3742 328.3811 c
178.3423 328.3264 178.3014 328.2741 178.2513 328.2241 c
178.2012 328.174 178.0533 328.0921 177.8076 327.9783 c
177.5619 327.8645 177.2433 327.753 176.8519 327.6438 c
176.4606 327.5346 176.0078 327.4368 175.4935 327.3503 c
174.9793 327.2638 174.4309 327.2206 173.8484 327.2206 c
172.8381 327.2206 171.953 327.3617 171.193 327.6438 c
170.4331 327.926 169.7937 328.3446 169.2749 328.8998 c
168.7561 329.455 168.3647 330.1513 168.1008 330.9887 c
167.8368 331.826 167.7049 332.7999 167.7049 333.9103 c
167.7049 334.966 167.8414 335.9149 168.1144 336.7568 c
168.3875 337.5987 168.7811 338.3131 169.2954 338.9002 c
169.8096 339.4872 170.4308 339.9378 171.1589 340.2518 c
171.887 340.5658 172.7016 340.7228 173.6027 340.7228 c
174.5674 340.7228 175.3889 340.568 176.0669 340.2586 c
176.745 339.9491 177.3025 339.5327 177.7393 339.0094 c
178.1762 338.4861 178.497 337.8717 178.7018 337.1663 c
178.9066 336.461 179.009 335.7078 179.009 334.9069 c
179.009 334.9069 l
h
176.7427 335.1663 m
176.77 336.3495 176.5084 337.2778 175.9577 337.9513 c
175.4071 338.6249 174.5902 338.9616 173.5071 338.9616 c
172.9519 338.9616 172.465 338.857 172.0463 338.6476 c
171.6276 338.4383 171.2772 338.1607 170.9951 337.8148 c
170.7129 337.469 170.4945 337.0662 170.3398 336.6066 c
170.185 336.147 170.0986 335.6669 170.0804 335.1663 c
170.0804 335.1663 l
h
190.1617 331.1661 m
190.1617 330.5381 190.0456 329.9784 189.8135 329.4869 c
189.5814 328.9954 189.2515 328.5813 188.8237 328.2445 c
188.396 327.9078 187.8863 327.6529 187.2947 327.48 c
186.7031 327.3071 186.0523 327.2206 185.3424 327.2206 c
184.9055 327.2206 184.4891 327.2547 184.0932 327.323 c
183.6973 327.3913 183.3423 327.4777 183.0283 327.5824 c
182.7143 327.6871 182.4481 327.7963 182.2297 327.91 c
182.0112 328.0238 181.8519 328.1262 181.7518 328.2172 c
181.6517 328.3082 181.5789 328.4357 181.5334 328.5995 c
181.4879 328.7633 181.4651 328.9863 181.4651 329.2685 c
181.4651 329.4414 181.4742 329.587 181.4924 329.7053 c
181.5106 329.8237 181.5334 329.9192 181.5607 329.992 c
181.588 330.0648 181.6267 330.1172 181.6767 330.149 c
181.7268 330.1809 181.7837 330.1968 181.8474 330.1968 c
181.9475 330.1968 182.0954 330.1354 182.2911 330.0125 c
182.4868 329.8896 182.728 329.7554 183.0147 329.6098 c
183.3014 329.4641 183.6404 329.3299 184.0318 329.207 c
184.4231 329.0842 184.8737 329.0227 185.3833 329.0227 c
185.7656 329.0227 186.1115 329.0637 186.4209 329.1456 c
186.7304 329.2275 186.9989 329.3481 187.2264 329.5074 c
187.4539 329.6667 187.6292 329.8692 187.752 330.1149 c
187.8749 330.3606 187.9363 330.6519 187.9363 330.9887 c
187.9363 331.3345 187.8476 331.6258 187.6701 331.8624 c
187.4926 332.099 187.2583 332.3084 186.967 332.4904 c
186.6758 332.6724 186.3481 332.834 185.984 332.9751 c
185.62 333.1161 185.2445 333.264 184.8577 333.4188 c
184.4709 333.5735 184.0932 333.7487 183.7246 333.9444 c
183.356 334.1401 183.026 334.379 182.7348 334.6611 c
182.4435 334.9433 182.2092 335.28 182.0317 335.6714 c
181.8542 336.0628 181.7655 336.5315 181.7655 337.0776 c
181.7655 337.56 181.8588 338.0219 182.0453 338.4633 c
182.2319 338.9047 182.5118 339.2916 182.885 339.6238 c
183.2581 339.956 183.7246 340.2222 184.2843 340.4224 c
184.8441 340.6227 185.4971 340.7228 186.2434 340.7228 c
186.5711 340.7228 186.8988 340.6955 187.2264 340.6409 c
187.5541 340.5862 187.8499 340.518 188.1138 340.4361 c
188.3778 340.3542 188.603 340.2654 188.7896 340.1699 c
188.9762 340.0743 189.1173 339.9901 189.2128 339.9173 c
189.3084 339.8445 189.3721 339.7808 189.404 339.7262 c
189.4358 339.6715 189.4586 339.6101 189.4722 339.5418 c
189.4859 339.4736 189.4995 339.3894 189.5132 339.2893 c
189.5268 339.1892 189.5337 339.0663 189.5337 338.9207 c
189.5337 338.7659 189.5268 338.6317 189.5132 338.5179 c
189.4995 338.4042 189.4768 338.3109 189.4449 338.238 c
189.4131 338.1652 189.3744 338.1129 189.3289 338.081 c
189.2834 338.0492 189.2333 338.0333 189.1787 338.0333 c
189.0968 338.0333 188.9785 338.0833 188.8237 338.1834 c
188.669 338.2836 188.4688 338.3905 188.223 338.5043 c
187.9773 338.618 187.6883 338.725 187.3561 338.8251 c
187.0239 338.9252 186.6439 338.9753 186.2161 338.9753 c
185.8339 338.9753 185.4971 338.932 185.2059 338.8456 c
184.9146 338.7591 184.6757 338.6362 184.4891 338.477 c
184.3025 338.3177 184.1615 338.1288 184.0659 337.9104 c
183.9703 337.692 183.9225 337.4553 183.9225 337.2005 c
183.9225 336.8455 184.0136 336.5474 184.1956 336.3062 c
184.3776 336.065 184.6143 335.8534 184.9055 335.6714 c
185.1968 335.4894 185.529 335.3255 185.9021 335.1799 c
186.2753 335.0343 186.6553 334.8841 187.0421 334.7294 c
187.4289 334.5747 187.8112 334.4017 188.1889 334.2106 c
188.5666 334.0195 188.9011 333.7874 189.1923 333.5143 c
189.4836 333.2413 189.718 332.9136 189.8954 332.5314 c
190.0729 332.1491 190.1617 331.694 190.1617 331.1661 c
h
199.4063 328.7224 m
199.4063 328.4584 199.3881 328.2491 199.3517 328.0944 c
199.3152 327.9396 199.2606 327.8259 199.1878 327.753 c
199.115 327.6802 199.0058 327.612 198.8602 327.5483 c
198.7145 327.4846 198.5484 327.4322 198.3619 327.3913 c
198.1753 327.3503 197.9773 327.3162 197.768 327.2889 c
197.5586 327.2616 197.3493 327.2479 197.14 327.2479 c
196.5029 327.2479 195.9568 327.3321 195.5017 327.5005 c
195.0466 327.6689 194.6735 327.9237 194.3822 328.265 c
194.091 328.6063 193.8793 329.0386 193.7474 329.562 c
193.6154 330.0853 193.5494 330.702 193.5494 331.4119 c
193.5494 338.593 l
191.8292 338.593 l
191.6927 338.593 191.5835 338.6658 191.5016 338.8114 c
191.4196 338.9571 191.3787 339.1937 191.3787 339.5214 c
191.3787 339.6943 191.3901 339.8399 191.4128 339.9582 c
191.4356 340.0766 191.4652 340.1744 191.5016 340.2518 c
191.538 340.3291 191.5857 340.3837 191.6449 340.4156 c
191.7041 340.4475 191.7701 340.4634 191.8429 340.4634 c
193.5494 340.4634 l
193.5494 343.385 l
193.5494 343.4487 193.5653 343.5079 193.5972 343.5625 c
193.629 343.6171 193.6882 343.6649 193.7747 343.7058 c
193.8611 343.7468 193.9772 343.7763 194.1228 343.7946 c
194.2684 343.8128 194.4505 343.8219 194.6689 343.8219 c
194.8964 343.8219 195.083 343.8128 195.2286 343.7946 c
195.3743 343.7763 195.488 343.7468 195.57 343.7058 c
195.6519 343.6649 195.711 343.6171 195.7474 343.5625 c
195.7838 343.5079 195.802 343.4487 195.802 343.385 c
195.802 340.4634 l
198.9557 340.4634 l
199.0286 340.4634 199.0923 340.4475 199.1469 340.4156 c
199.2015 340.3837 199.2493 340.3291 199.2902 340.2518 c
199.3312 340.1744 199.3608 340.0766 199.379 339.9582 c
199.3972 339.8399 199.4063 339.6943 199.4063 339.5214 c
199.4063 339.1937 199.3653 338.9571 199.2834 338.8114 c
199.2015 338.6658 199.0923 338.593 198.9557 338.593 c
195.802 338.593 l
195.802 331.7395 l
195.802 330.8931 195.9272 330.2537 196.1775 329.8214 c
196.4278 329.3891 196.876 329.1729 197.5222 329.1729 c
197.7316 329.1729 197.9182 329.1934 198.082 329.2343 c
198.2458 329.2753 198.3914 329.3185 198.5189 329.364 c
198.6463 329.4095 198.7555 329.4528 198.8465 329.4937 c
198.9375 329.5347 199.0194 329.5552 199.0923 329.5552 c
199.1378 329.5552 199.181 329.5438 199.222 329.521 c
199.2629 329.4983 199.2948 329.455 199.3175 329.3913 c
199.3403 329.3276 199.3608 329.2412 199.379 329.1319 c
199.3972 329.0227 199.4063 328.8862 199.4063 328.7224 c
h
f
n
f
n
246.16 382.24 m
246.16 380.51 247.43 379.11 248.99 379.11 c
250.56 379.11 251.83 380.51 251.83 382.24 c
251.83 383.97 250.56 385.37 248.99 385.37 c
247.43 385.37 246.16 383.97 246.16 382.24 c
f*
n
246.16 382.24 m
246.16 380.51 247.43 379.11 248.99 379.11 c
250.56 379.11 251.83 380.51 251.83 382.24 c
251.83 383.97 250.56 385.37 248.99 385.37 c
247.43 385.37 246.16 383.97 246.16 382.24 c
s
n
302.77 329.11 m
305.96 326.7 l
305.36 325.91 l
302.17 328.32 l
308.36 324.9 m
309.16 324.29 l
308.55 323.5 l
307.76 324.1 l
311.55 322.49 m
314.74 320.08 l
314.14 319.28 l
310.95 321.69 l
317.14 318.27 m
317.93 317.67 l
317.33 316.87 l
316.53 317.47 l
317.3 322.44 m
320.31 315.24 l
312.56 316.17 l
312.29 316.2 312.09 316.45 312.13 316.72 c
312.16 317 312.41 317.19 312.68 317.16 c
319.58 316.34 l
319.06 315.65 l
316.38 322.06 l
316.27 322.31 316.39 322.61 316.65 322.71 c
316.9 322.82 317.2 322.7 317.3 322.44 c
f
n
298.8 328.35 m
301.71 331.1 l
301.02 331.83 l
298.12 329.08 l
303.89 333.16 m
306.8 335.91 l
306.11 336.64 l
303.2 333.89 l
308.98 337.97 m
311.88 340.72 l
311.2 341.45 l
308.29 338.7 l
314.06 342.78 m
316.97 345.53 l
316.28 346.26 l
313.38 343.51 l
319.15 347.59 m
319.93 348.34 l
319.25 349.06 l
318.46 348.32 l
318.12 341.89 m
320.31 349.38 l
312.71 347.61 l
312.44 347.54 312.28 347.27 312.34 347.01 c
312.4 346.74 312.67 346.57 312.94 346.63 c
319.7 348.21 l
319.11 348.84 l
317.16 342.17 l
317.08 341.91 317.23 341.63 317.5 341.55 c
317.76 341.48 318.04 341.63 318.12 341.89 c
f
n
309.0797 292.3381 m
309.0797 291.9194 308.9864 291.61 308.7999 291.4097 c
308.6133 291.2095 308.3562 291.1094 308.0285 291.1094 c
300.6153 291.1094 l
300.6153 290.5906 300.6767 290.1196 300.7996 289.6964 c
300.9225 289.2731 301.1181 288.9136 301.3866 288.6178 c
301.6551 288.322 302.001 288.0968 302.4242 287.942 c
302.8474 287.7873 303.3548 287.7099 303.9464 287.7099 c
304.5471 287.7099 305.075 287.7532 305.5301 287.8396 c
305.9852 287.9261 306.3788 288.0217 306.711 288.1263 c
307.0433 288.231 307.3186 288.3266 307.537 288.413 c
307.7554 288.4995 307.9329 288.5427 308.0695 288.5427 c
308.1514 288.5427 308.2196 288.5268 308.2742 288.495 c
308.3288 288.4631 308.3744 288.4062 308.4108 288.3243 c
308.4472 288.2424 308.4722 288.1263 308.4858 287.9762 c
308.4995 287.826 308.5063 287.6371 308.5063 287.4096 c
308.5063 287.2094 308.5018 287.0387 308.4927 286.8976 c
308.4836 286.7566 308.4699 286.636 308.4517 286.5358 c
308.4335 286.4357 308.4062 286.3515 308.3698 286.2833 c
308.3334 286.215 308.2856 286.149 308.2265 286.0853 c
308.1673 286.0216 308.0057 285.9351 307.7418 285.8259 c
307.4779 285.7167 307.1411 285.6098 306.7315 285.5051 c
306.322 285.4004 305.8532 285.3094 305.3253 285.232 c
304.7974 285.1547 304.2331 285.116 303.6324 285.116 c
302.5494 285.116 301.6005 285.2525 300.7859 285.5256 c
299.9713 285.7986 299.291 286.2127 298.7449 286.7679 c
298.1988 287.3231 297.7915 288.0239 297.523 288.8704 c
297.2545 289.7168 297.1203 290.7089 297.1203 291.8466 c
297.1203 292.9297 297.2613 293.9058 297.5435 294.775 c
297.8256 295.6442 298.2352 296.3815 298.7722 296.9867 c
299.3092 297.592 299.9622 298.0539 300.7313 298.3724 c
301.5004 298.691 302.3673 298.8503 303.3321 298.8503 c
304.3515 298.8503 305.2229 298.7001 305.9465 298.3997 c
306.6701 298.0994 307.264 297.683 307.7281 297.1505 c
308.1923 296.6181 308.5336 295.9878 308.7521 295.2597 c
308.9705 294.5316 309.0797 293.7397 309.0797 292.8842 c
309.0797 292.8842 l
h
305.7486 293.3211 m
305.7759 294.2858 305.5825 295.0435 305.1683 295.5942 c
304.7542 296.1448 304.1148 296.4201 303.2502 296.4201 c
302.8133 296.4201 302.4333 296.3382 302.1102 296.1744 c
301.7871 296.0106 301.5186 295.7899 301.3047 295.5123 c
301.0908 295.2347 300.927 294.907 300.8132 294.5293 c
300.6995 294.1516 300.6335 293.7488 300.6153 293.3211 c
300.6153 293.3211 l
h
f
n
f
n
325.52 357.28 m
325.52 355.56 326.78 354.16 328.35 354.16 c
329.92 354.16 331.19 355.56 331.19 357.28 c
331.19 359.01 329.92 360.41 328.35 360.41 c
326.78 360.41 325.52 359.01 325.52 357.28 c
f*
n
325.52 357.28 m
325.52 355.56 326.78 354.16 328.35 354.16 c
329.92 354.16 331.19 355.56 331.19 357.28 c
331.19 359.01 329.92 360.41 328.35 360.41 c
326.78 360.41 325.52 359.01 325.52 357.28 c
s
n
300.3 332.51 m
297.35 329.82 l
298.02 329.08 l
300.98 331.77 l
295.13 327.79 m
292.18 325.1 l
292.85 324.36 l
295.81 327.05 l
289.96 323.07 m
287.01 320.38 l
287.68 319.64 l
290.64 322.34 l
284.79 318.36 m
281.84 315.66 l
282.51 314.92 l
285.47 317.62 l
279.62 313.64 m
276.67 310.94 l
277.34 310.2 l
280.3 312.9 l
274.45 308.92 m
271.5 306.22 l
272.17 305.48 l
275.12 308.18 l
269.28 304.2 m
266.33 301.5 l
267 300.76 l
269.95 303.46 l
264.11 299.48 m
264.01 299.39 l
264.68 298.65 l
264.78 298.74 l
265.94 305.8 m
263.61 298.35 l
271.24 299.99 l
271.51 300.05 271.68 300.31 271.62 300.58 c
271.56 300.85 271.3 301.02 271.03 300.97 c
264.24 299.51 l
264.82 298.87 l
266.89 305.5 l
266.97 305.76 266.83 306.04 266.56 306.12 c
266.3 306.21 266.02 306.06 265.94 305.8 c
f
n
299.41 328.19 m
286.02 292.48 l
288.13 291.69 l
301.52 327.4 l
284.65 299.6 m
286.29 289.99 l
293.84 296.15 l
294.32 296.54 294.39 297.25 294 297.73 c
293.61 298.21 292.9 298.29 292.42 297.89 c
286.36 292.96 l
288.18 292.27 l
286.87 299.98 l
286.76 300.59 286.18 301 285.57 300.9 c
284.95 300.79 284.54 300.21 284.65 299.6 c
f
%%EOF
