%!PS-Adobe-3.0 EPSF-3.0
%%Creator: MATLAB, The MathWorks, Inc. Version 7.13.0.564 (R2011b). Operating System: Microsoft Windows XP.
%%Title: D:\DriveG\Sem2-2012\Program\ReferenceMetric-v3\metricfig\zdt6\11-02-2013\zdt6-ws.eps
%%CreationDate: 02/11/2013  19:20:47
%%DocumentNeededFonts: Helvetica
%%+ Courier-Bold
%%DocumentProcessColors: Cyan Magenta Yellow Black
%%LanguageLevel: 2
%%Pages: 1
%%BoundingBox:  -329    76   926   765
%%EndComments

%%BeginProlog
% MathWorks dictionary
/MathWorks 160 dict begin
% definition operators
/bdef {bind def} bind def
/ldef {load def} bind def
/xdef {exch def} bdef
/xstore {exch store} bdef
% operator abbreviations
/c  /clip ldef
/cc /concat ldef
/cp /closepath ldef
/gr /grestore ldef
/gs /gsave ldef
/mt /moveto ldef
/np /newpath ldef
/cm /currentmatrix ldef
/sm /setmatrix ldef
/rm /rmoveto ldef
/rl /rlineto ldef
/s {show newpath} bdef
/sc {setcmykcolor} bdef
/sr /setrgbcolor ldef
/sg /setgray ldef
/w /setlinewidth ldef
/j /setlinejoin ldef
/cap /setlinecap ldef
/rc {rectclip} bdef
/rf {rectfill} bdef
% page state control
/pgsv () def
/bpage {/pgsv save def} bdef
/epage {pgsv restore} bdef
/bplot /gsave ldef
/eplot {stroke grestore} bdef
% orientation switch
/portraitMode 0 def /landscapeMode 1 def /rotateMode 2 def
% coordinate system mappings
/dpi2point 0 def
% font control
/FontSize 0 def
/FMS {/FontSize xstore findfont [FontSize 0 0 FontSize neg 0 0]
  makefont setfont} bdef
/ISOLatin1Encoding where {pop /WindowsLatin1Encoding 256 array bdef
ISOLatin1Encoding WindowsLatin1Encoding copy pop
/.notdef/.notdef/quotesinglbase/florin/quotedblbase/ellipsis/dagger
/daggerdbl/circumflex/perthousand/Scaron/guilsinglleft/OE/.notdef/.notdef
/.notdef/.notdef/quoteleft/quoteright/quotedblleft/quotedblright/bullet
/endash/emdash/tilde/trademark/scaron/guilsinglright/oe/.notdef/.notdef
/Ydieresis WindowsLatin1Encoding 128 32 getinterval astore pop}
{/WindowsLatin1Encoding StandardEncoding bdef} ifelse
/reencode {exch dup where {pop load} {pop StandardEncoding} ifelse
  exch dup 3 1 roll findfont dup length dict begin
  { 1 index /FID ne {def}{pop pop} ifelse } forall
  /Encoding exch def currentdict end definefont pop} bdef
/isroman {findfont /CharStrings get /Agrave known} bdef
/FMSR {3 1 roll 1 index dup isroman {reencode} {pop pop} ifelse
  exch FMS} bdef
/csm {1 dpi2point div -1 dpi2point div scale neg translate
 dup landscapeMode eq {pop -90 rotate}
  {rotateMode eq {90 rotate} if} ifelse} bdef
% line types: solid, dotted, dashed, dotdash
/SO { [] 0 setdash } bdef
/DO { [.5 dpi2point mul 4 dpi2point mul] 0 setdash } bdef
/DA { [6 dpi2point mul] 0 setdash } bdef
/DD { [.5 dpi2point mul 4 dpi2point mul 6 dpi2point mul 4
  dpi2point mul] 0 setdash } bdef
% macros for lines and objects
/L {lineto stroke} bdef
/MP {3 1 roll moveto 1 sub {rlineto} repeat} bdef
/AP {{rlineto} repeat} bdef
/PDlw -1 def
/W {/PDlw currentlinewidth def setlinewidth} def
/PP {closepath eofill} bdef
/DP {closepath stroke} bdef
/MR {4 -2 roll moveto dup  0 exch rlineto exch 0 rlineto
  neg 0 exch rlineto closepath} bdef
/FR {MR stroke} bdef
/PR {MR fill} bdef
/L1i {{currentfile picstr readhexstring pop} image} bdef
/tMatrix matrix def
/MakeOval {newpath tMatrix currentmatrix pop translate scale
0 0 1 0 360 arc tMatrix setmatrix} bdef
/FO {MakeOval stroke} bdef
/PO {MakeOval fill} bdef
/PD {currentlinewidth 2 div 0 360 arc fill
   PDlw -1 eq not {PDlw w /PDlw -1 def} if} def
/FA {newpath tMatrix currentmatrix pop translate scale
  0 0 1 5 -2 roll arc tMatrix setmatrix stroke} bdef
/PA {newpath tMatrix currentmatrix pop	translate 0 0 moveto scale
  0 0 1 5 -2 roll arc closepath tMatrix setmatrix fill} bdef
/FAn {newpath tMatrix currentmatrix pop translate scale
  0 0 1 5 -2 roll arcn tMatrix setmatrix stroke} bdef
/PAn {newpath tMatrix currentmatrix pop translate 0 0 moveto scale
  0 0 1 5 -2 roll arcn closepath tMatrix setmatrix fill} bdef
/vradius 0 def /hradius 0 def /lry 0 def
/lrx 0 def /uly 0 def /ulx 0 def /rad 0 def
/MRR {/vradius xdef /hradius xdef /lry xdef /lrx xdef /uly xdef
  /ulx xdef newpath tMatrix currentmatrix pop ulx hradius add uly
  vradius add translate hradius vradius scale 0 0 1 180 270 arc 
  tMatrix setmatrix lrx hradius sub uly vradius add translate
  hradius vradius scale 0 0 1 270 360 arc tMatrix setmatrix
  lrx hradius sub lry vradius sub translate hradius vradius scale
  0 0 1 0 90 arc tMatrix setmatrix ulx hradius add lry vradius sub
  translate hradius vradius scale 0 0 1 90 180 arc tMatrix setmatrix
  closepath} bdef
/FRR {MRR stroke } bdef
/PRR {MRR fill } bdef
/MlrRR {/lry xdef /lrx xdef /uly xdef /ulx xdef /rad lry uly sub 2 div def
  newpath tMatrix currentmatrix pop ulx rad add uly rad add translate
  rad rad scale 0 0 1 90 270 arc tMatrix setmatrix lrx rad sub lry rad
  sub translate rad rad scale 0 0 1 270 90 arc tMatrix setmatrix
  closepath} bdef
/FlrRR {MlrRR stroke } bdef
/PlrRR {MlrRR fill } bdef
/MtbRR {/lry xdef /lrx xdef /uly xdef /ulx xdef /rad lrx ulx sub 2 div def
  newpath tMatrix currentmatrix pop ulx rad add uly rad add translate
  rad rad scale 0 0 1 180 360 arc tMatrix setmatrix lrx rad sub lry rad
  sub translate rad rad scale 0 0 1 0 180 arc tMatrix setmatrix
  closepath} bdef
/FtbRR {MtbRR stroke } bdef
/PtbRR {MtbRR fill } bdef
/stri 6 array def /dtri 6 array def
/smat 6 array def /dmat 6 array def
/tmat1 6 array def /tmat2 6 array def /dif 3 array def
/asub {/ind2 exch def /ind1 exch def dup dup
  ind1 get exch ind2 get sub exch } bdef
/tri_to_matrix {
  2 0 asub 3 1 asub 4 0 asub 5 1 asub
  dup 0 get exch 1 get 7 -1 roll astore } bdef
/compute_transform {
  dmat dtri tri_to_matrix tmat1 invertmatrix 
  smat stri tri_to_matrix tmat2 concatmatrix } bdef
/ds {stri astore pop} bdef
/dt {dtri astore pop} bdef
/db {2 copy /cols xdef /rows xdef mul dup 3 mul string
  currentfile 
  3 index 0 eq {/ASCIIHexDecode filter}
  {/ASCII85Decode filter 3 index 2 eq {/RunLengthDecode filter} if }
  ifelse exch readstring pop
  dup 0 3 index getinterval /rbmap xdef
  dup 2 index dup getinterval /gbmap xdef
  1 index dup 2 mul exch getinterval /bbmap xdef pop pop}bdef
/it {gs np dtri aload pop moveto lineto lineto cp c
  cols rows 8 compute_transform 
  rbmap gbmap bbmap true 3 colorimage gr}bdef
/il {newpath moveto lineto stroke}bdef
currentdict end def
%%EndProlog

%%BeginSetup
MathWorks begin

0 cap

end
%%EndSetup

%%Page: 1 1
%%BeginPageSetup
%%PageBoundingBox:  -329    76   926   765
MathWorks begin
bpage
%%EndPageSetup

%%BeginObject: obj1
bplot

/dpi2point 12 def
portraitMode -3948 9180 csm

    0     0 15060  8257 rc
86 dict begin %Colortable dictionary
/c0 { 0.000000 0.000000 0.000000 sr} bdef
/c1 { 1.000000 1.000000 1.000000 sr} bdef
/c2 { 0.900000 0.000000 0.000000 sr} bdef
/c3 { 0.000000 0.820000 0.000000 sr} bdef
/c4 { 0.000000 0.000000 0.800000 sr} bdef
/c5 { 0.910000 0.820000 0.320000 sr} bdef
/c6 { 1.000000 0.260000 0.820000 sr} bdef
/c7 { 0.000000 0.820000 0.820000 sr} bdef
c0
1 j
1 sg
   0    0 15061 8258 rf
6 w
0 7319 10810 0 0 -7319 1928 7779 4 MP
PP
-10810 0 0 7319 10810 0 0 -7319 1928 7779 5 MP stroke
4 w
DO
SO
6 w
0 sg
1928 7779 mt 12738 7779 L
1928 7779 mt 1928  460 L
1928 7779 mt 1928 7670 L
%%IncludeResource: font Helvetica
/Helvetica /WindowsLatin1Encoding 240 FMSR

1762 8036 mt 
(0.2) s
3279 7779 mt 3279 7670 L
3113 8036 mt 
(0.3) s
4630 7779 mt 4630 7670 L
4464 8036 mt 
(0.4) s
5981 7779 mt 5981 7670 L
5815 8036 mt 
(0.5) s
7333 7779 mt 7333 7670 L
7167 8036 mt 
(0.6) s
8684 7779 mt 8684 7670 L
8518 8036 mt 
(0.7) s
10035 7779 mt 10035 7670 L
9869 8036 mt 
(0.8) s
11386 7779 mt 11386 7670 L
11220 8036 mt 
(0.9) s
12738 7779 mt 12738 7670 L
12672 8036 mt 
(1) s
1928 7779 mt 2036 7779 L
1760 7868 mt 
(0) s
1928 7047 mt 2036 7047 L
1560 7136 mt 
(0.1) s
1928 6315 mt 2036 6315 L
1560 6404 mt 
(0.2) s
1928 5583 mt 2036 5583 L
1560 5672 mt 
(0.3) s
1928 4851 mt 2036 4851 L
1560 4940 mt 
(0.4) s
1928 4119 mt 2036 4119 L
1560 4208 mt 
(0.5) s
1928 3387 mt 2036 3387 L
1560 3476 mt 
(0.6) s
1928 2655 mt 2036 2655 L
1560 2744 mt 
(0.7) s
1928 1923 mt 2036 1923 L
1560 2012 mt 
(0.8) s
1928 1191 mt 2036 1191 L
1560 1280 mt 
(0.9) s
1928  460 mt 2036  460 L
1760  549 mt 
(1) s
gs 1928 460 10811 7320 rc
27.6 w
/c8 { 0.000000 0.000000 1.000000 sr} bdef
c8
1 1 1 1 1 1 1 1 1 1 1 1 1 2 1 1 
2 2 2 1 1 3 3 2 2 2 3 3 3 3 3 4 
3 4 4 4 4 5 5 5 5 5 5 6 6 6 6 6 
6 7 7 7 7 8 8 8 8 8 8 9 8 9 9 10 
9 9 9 10 10 10 9 11 10 10 10 11 10 11 10 10 
10 11 10 11 10 10 10 11 9 10 10 10 9 9 9 10 
8 9 8 8 8 8 7 8 6 7 6 6 5 6 5 5 
4 4 4 3 2 3 2 2 2 2 -1 -1 -2 -2 -2 -2 
-3 -4 -4 -4 -5 -4 -5 -6 -5 -6 -7 -7 -7 -7 -7 -8 
-8 -8 -9 -9 -8 -10 -9 -9 -10 -10 -9 -10 -10 -11 -10 -11 
-11 -11 -10 -10 -10 -11 -10 -11 -10 -11 -11 -11 -9 -11 -10 -10 
-10 -10 -9 -10 -9 -10 -9 -9 -8 -9 -8 -9 -8 -8 -7 -8 
-7 -7 -7 -8 -6 -6 -5 -6 -6 -6 -5 -6 -4 -5 -5 -4 
-4 -4 -3 -4 -3 -4 -3 -3 -3 -2 -2 -3 -2 -2 -2 -2 
-2 -2 -1 -1 -1 -2 -1 -1 -1 -1 -1 0 1 0 -2 -2 
-1 -1 1 1 1 1 1 1 1 1 1 1 1 1 1 2 
2 2 2 2 2 2 3 3 3 3 3 4 4 4 4 5 
5 5 6 6 6 6 6 7 7 8 8 8 8 10 10 9 
9 11 11 11 11 12 12 13 13 14 13 14 14 15 15 16 
16 17 16 17 16 18 18 18 17 19 18 19 19 20 19 20 
19 20 20 21 19 20 20 21 19 20 20 21 19 20 19 19 
18 20 18 19 18 18 17 17 16 17 15 16 15 15 13 14 
12 13 12 11 10 11 8 9 8 7 6 7 5 5 3 3 
2 2 1 1 -1 -1 -2 -3 -4 -3 -5 -6 -7 -7 -8 -8 
-9 -9 -10 -11 -12 -12 -13 -13 -14 -15 -15 -15 -15 -16 -17 -17 
-17 -18 -18 -19 -19 -19 -19 -20 -19 -21 -20 -20 -20 -21 -20 -21 
-19 -21 -20 -21 -20 -21 -20 -21 -19 -20 -19 -20 -18 -19 -18 -19 
-17 -19 -17 -18 -16 -17 -16 -16 -14 -16 -14 -15 -14 -14 -12 -14 
-12 -12 -11 -12 -10 -11 -9 -10 -9 -10 -8 -8 -7 -8 -7 -7 
-6 -7 -6 -6 -4 -5 -5 -5 -4 -4 -3 -4 -3 -3 -2 -2 
-3 -3 -2 -2 -1 -2 -1 -1 -2 -1 0 -1 -1 -1 -1 -1 
-1 0 1 0 0 0 1 1 1 1 1 1 1 1 1 2 
2 2 2 2 3 3 3 3 3 4 4 4 5 5 5 6 
6 6 7 8 8 8 9 10 9 10 11 12 12 13 13 14 
15 15 15 17 17 18 18 20 20 21 21 22 22 24 24 25 
25 27 27 28 28 29 29 31 31 32 31 34 33 34 34 36 
35 36 36 37 36 38 37 38 38 39 37 39 39 39 38 39 
38 38 37 38 38 38 11830 6829 300 MP stroke
36 37 36 36 35 35 34 34 32 32 31 31 29 29 27 27 
26 25 23 23 21 21 19 18 16 16 14 14 11 11 9 8 
5 6 3 3 -2 -3 -6 -5 -8 -8 -11 -11 -14 -14 -16 -15 
-19 -19 -21 -21 -23 -23 -26 -25 -27 -27 -30 -30 -31 -31 -33 -32 
-34 -35 -35 -35 -37 -37 -37 -37 -38 -39 -38 -39 -39 -39 -39 -40 
-39 -40 -39 -40 -38 -39 -38 -39 -37 -39 -36 -38 -36 -37 -34 -36 
-34 -35 -32 -34 -31 -32 -29 -31 -29 -30 -26 -29 -26 -27 -24 -25 
-22 -24 -21 -22 -19 -21 -18 -19 -17 -18 -15 -16 -14 -15 -12 -13 
-12 -13 -10 -11 -9 -10 -8 -8 -7 -8 -6 -7 -6 -6 -5 -5 
-4 -4 -3 -4 -3 -3 -2 -3 -2 -2 -2 -2 -1 -1 -1 -1 
-1 -1 -1 -1 -1 -1 -1 -1 1 1 1 1 1 1 1 1 
1 2 2 2 2 2 3 2 3 4 3 4 5 4 5 6 
6 7 7 7 8 9 10 11 11 11 12 14 14 15 16 17 
18 19 19 21 22 23 24 26 26 28 29 30 31 33 34 36 
36 39 40 41 41 44 45 46 47 50 50 52 53 54 55 57 
58 59 60 62 63 64 64 65 67 67 68 69 70 69 72 71 
72 71 74 72 74 72 74 72 74 71 74 70 73 70 72 68 
71 66 69 65 67 62 65 59 62 57 59 54 56 51 52 47 
48 43 44 39 40 35 35 32 30 26 25 22 20 18 15 13 
9 8 4 3 -1 -1 -7 -6 -13 -11 -18 -16 -23 -20 -28 -25 
-33 -30 -39 -34 -42 -38 -47 -42 -51 -46 -55 -50 -59 -53 -62 -56 
-65 -60 -67 -62 -70 -65 -71 -67 -73 -68 -74 -71 -76 -71 -75 -73 
-76 -73 -76 -73 -75 -74 -74 -73 -73 -72 -72 -72 -71 -70 -68 -69 
-67 -68 -64 -65 -62 -63 -59 -61 -57 -59 -54 -56 -51 -53 -49 -51 
-45 -47 -43 -45 -39 -42 -37 -39 -34 -36 -32 -33 -28 -31 -26 -28 
-24 -25 -21 -23 -19 -20 -18 -19 -15 -16 -13 -14 -12 -13 -10 -11 
-8 -9 -8 -8 -6 -7 -6 -6 -4 -5 -4 -4 -3 -3 -2 -2 
-2 -3 -1 -1 -2 -1 0 -1 -1 -1 -1 -1 1 1 1 1 
0 1 2 1 1 2 2 2 3 3 3 4 5 4 5 6 
6 7 8 8 9 9 10 12 13 13 15 16 16 18 20 21 
22 24 25 27 29 31 32 34 35 38 40 42 44 46 48 51 
53 55 57 60 63 65 67 70 73 75 78 79 83 85 88 89 
94 95 99 98 105 103 109 107 114 111 119 114 123 117 127 119 
131 122 135 124 137 125 140 125 142 126 143 125 144 125 145 123 
144 121 144 119 142 116 140 112 137 109 133 105 129 100 125 95 
119 89 113 84 106 79 99 72 92 65 83 59 74 53 65 45 
55 39 46 31 35 25 25 17 15 10 4 3 -7 -5 -17 -12 
-28 -19 -38 -26 -48 -34 7886 3467 300 MP stroke
-59 -40 -68 -48 -77 -55 -86 -61 -94 -68 -102 -75 -110 -80 -116 -87 
-123 -93 -128 -98 -132 -103 -137 -108 -140 -112 -144 -116 -145 -119 -147 -122 
-147 -125 -148 -127 -147 -127 -146 -129 -144 -128 -142 -129 -139 -127 -136 -126 
-132 -124 -128 -121 -124 -119 -119 -115 -114 -111 -109 -107 -103 -103 -98 -98 
-92 -93 -87 -88 -81 -83 -75 -78 -70 -72 -65 -67 -59 -62 -54 -57 
-49 -52 -45 -47 -40 -43 -36 -38 -32 -34 -28 -30 -25 -27 -22 -23 
-19 -20 -16 -18 -13 -15 -12 -12 -10 -11 -8 -9 -7 -7 -5 -6 
-4 -4 -4 -4 -2 -3 -2 -2 -2 -2 -1 -1 -1 -1 -1 0 
1 0 0 0 1 1 1 1 1 1 2 2 3 3 3 4 
4 5 6 6 7 8 9 9 11 12 13 14 15 17 19 20 
22 23 26 28 30 32 34 37 40 42 45 48 51 54 58 61 
64 68 72 75 80 82 88 91 97 99 106 107 115 116 125 125 
135 132 144 142 156 149 165 157 176 165 186 171 197 178 206 184 
216 189 225 192 235 196 242 199 251 200 257 200 264 200 269 198 
274 195 278 192 280 187 281 182 282 176 280 169 279 161 275 154 
271 144 264 136 258 127 249 118 239 108 228 99 216 90 202 81 
188 72 173 64 156 55 138 48 121 40 102 33 82 27 62 19 
42 13 22 7 1 0 -20 -6 -41 -13 -60 -19 -82 -25 -100 -33 
-120 -40 -139 -48 -156 -55 -173 -64 -189 -73 -204 -81 -218 -91 -231 -100 
-242 -109 -252 -120 -261 -129 -269 -138 -276 -148 -280 -156 -284 -165 -286 -173 
-288 -181 -287 -186 -286 -193 -283 -197 -280 -201 -274 -203 -269 -206 -263 -205 
-255 -205 -247 -204 -238 -201 -228 -197 -219 -193 -208 -187 -198 -181 -187 -173 
-176 -167 -165 -158 -154 -149 -144 -141 -132 -132 -123 -123 -112 -113 -102 -105 
-93 -95 -84 -87 -75 -79 -67 -71 -60 -63 -53 -55 -46 -50 -40 -43 
-35 -37 -30 -32 -25 -27 -22 -23 -18 -19 -15 -16 -12 -13 -9 -11 
-8 -8 -6 -7 -5 -5 -4 -4 -2 -3 -2 -2 -2 -2 -1 -1 
-1 0 1 0 -2 -2 12738 7779 212 MP stroke
6 w
gr

c8
/c9 { 0.000000 1.000000 1.000000 sr} bdef
c9
  36   36 11255 6261 FO
  36   36 11090 6103 FO
  36   36 10914 5936 FO
  36   36 10727 5763 FO
  36   36 10529 5582 FO
  36   36 10321 5395 FO
  36   36 10102 5202 FO
  36   36 10007 5119 FO
  36   36 10223 5308 FO
  36   36 10429 5492 FO
  36   36 10626 5670 FO
  36   36 10812 5841 FO
  36   36 10988 6006 FO
  36   36 11153 6163 FO
  36   36 11309 6312 FO
  36   36 11227 6234 FO
  36   36 11103 6115 FO
  36   36 10975 5994 FO
  36   36 10843 5870 FO
  36   36 10707 5744 FO
  36   36 10568 5617 FO
  36   36 10426 5488 FO
  36   36 10282 5360 FO
  36   36 10136 5231 FO
  36   36 9989 5104 FO
  36   36 10062 5167 FO
  36   36 10205 5292 FO
  36   36 10347 5418 FO
  36   36 10487 5543 FO
  36   36 10624 5668 FO
  36   36 10759 5792 FO
  36   36 10890 5914 FO
  36   36 11017 6033 FO
  36   36 11140 6150 FO
  36   36 11259 6264 FO
  36   36 11301 6305 FO
  36   36 11225 6232 FO
  36   36 11150 6159 FO
  36   36 11074 6088 FO
  36   36 11000 6017 FO
  36   36 10927 5949 FO
  36   36 10856 5882 FO
  36   36 10786 5817 FO
  36   36 10719 5755 FO
  36   36 10654 5695 FO
  36   36 10592 5639 FO
  36   36 10533 5586 FO
  36   36 10478 5536 FO
  36   36 10427 5490 FO
  36   36 10380 5448 FO
  36   36 10338 5410 FO
  36   36 10299 5376 FO
  36   36 10266 5346 FO
  36   36 10238 5321 FO
  36   36 10215 5301 FO
  36   36 10197 5285 FO
  36   36 10184 5274 FO
  36   36 10177 5268 FO
  36   36 10176 5267 FO
  36   36 10180 5270 FO
  36   36 10189 5278 FO
  36   36 10204 5291 FO
  36   36 10224 5309 FO
  36   36 10249 5331 FO
  36   36 10279 5357 FO
  36   36 10314 5389 FO
  36   36 10354 5424 FO
  36   36 10398 5463 FO
  36   36 10446 5506 FO
  36   36 10498 5553 FO
  36   36 10554 5604 FO
  36   36 10613 5658 FO
  36   36 10675 5715 FO
  36   36 10740 5774 FO
  36   36 10807 5836 FO
  36   36 10876 5901 FO
  36   36 10947 5967 FO
  36   36 11019 6035 FO
  36   36 11092 6105 FO
  36   36 11166 6175 FO
  36   36 11240 6246 FO
  36   36 11314 6318 FO
gs 1928 460 10811 7320 rc
27.6 w
c8
1 1 1 1 1 1 1 1 1 1 1 1 1 2 1 1 
2 2 2 1 1 3 3 2 2 2 3 3 3 3 3 4 
3 4 4 4 4 5 5 5 5 5 5 6 6 6 6 6 
6 7 7 7 7 8 8 8 8 8 8 9 8 9 9 10 
9 9 9 10 10 10 9 11 10 10 10 11 10 11 10 10 
10 11 10 11 10 10 10 11 9 10 10 10 9 9 9 10 
8 9 8 8 8 8 7 8 6 7 6 6 5 6 5 5 
4 4 4 3 2 3 2 2 2 2 -1 -1 -2 -2 -2 -2 
-3 -4 -4 -4 -5 -4 -5 -6 -5 -6 -7 -7 -7 -7 -7 -8 
-8 -8 -9 -9 -8 -10 -9 -9 -10 -10 -9 -10 -10 -11 -10 -11 
-11 -11 -10 -10 -10 -11 -10 -11 -10 -11 -11 -11 -9 -11 -10 -10 
-10 -10 -9 -10 -9 -10 -9 -9 -8 -9 -8 -9 -8 -8 -7 -8 
-7 -7 -7 -8 -6 -6 -5 -6 -6 -6 -5 -6 -4 -5 -5 -4 
-4 -4 -3 -4 -3 -4 -3 -3 -3 -2 -2 -3 -2 -2 -2 -2 
-2 -2 -1 -1 -1 -2 -1 -1 -1 -1 -1 0 1 0 -2 -2 
-1 -1 1 1 1 1 1 1 1 1 1 1 1 1 1 2 
2 2 2 2 2 2 3 3 3 3 3 4 4 4 4 5 
5 5 6 6 6 6 6 7 7 8 8 8 8 10 10 9 
9 11 11 11 11 12 12 13 13 14 13 14 14 15 15 16 
16 17 16 17 16 18 18 18 17 19 18 19 19 20 19 20 
19 20 20 21 19 20 20 21 19 20 20 21 19 20 19 19 
18 20 18 19 18 18 17 17 16 17 15 16 15 15 13 14 
12 13 12 11 10 11 8 9 8 7 6 7 5 5 3 3 
2 2 1 1 -1 -1 -2 -3 -4 -3 -5 -6 -7 -7 -8 -8 
-9 -9 -10 -11 -12 -12 -13 -13 -14 -15 -15 -15 -15 -16 -17 -17 
-17 -18 -18 -19 -19 -19 -19 -20 -19 -21 -20 -20 -20 -21 -20 -21 
-19 -21 -20 -21 -20 -21 -20 -21 -19 -20 -19 -20 -18 -19 -18 -19 
-17 -19 -17 -18 -16 -17 -16 -16 -14 -16 -14 -15 -14 -14 -12 -14 
-12 -12 -11 -12 -10 -11 -9 -10 -9 -10 -8 -8 -7 -8 -7 -7 
-6 -7 -6 -6 -4 -5 -5 -5 -4 -4 -3 -4 -3 -3 -2 -2 
-3 -3 -2 -2 -1 -2 -1 -1 -2 -1 0 -1 -1 -1 -1 -1 
-1 0 1 0 0 0 1 1 1 1 1 1 1 1 1 2 
2 2 2 2 3 3 3 3 3 4 4 4 5 5 5 6 
6 6 7 8 8 8 9 10 9 10 11 12 12 13 13 14 
15 15 15 17 17 18 18 20 20 21 21 22 22 24 24 25 
25 27 27 28 28 29 29 31 31 32 31 34 33 34 34 36 
35 36 36 37 36 38 37 38 38 39 37 39 39 39 38 39 
38 38 37 38 38 38 11830 6829 300 MP stroke
36 37 36 36 35 35 34 34 32 32 31 31 29 29 27 27 
26 25 23 23 21 21 19 18 16 16 14 14 11 11 9 8 
5 6 3 3 -2 -3 -6 -5 -8 -8 -11 -11 -14 -14 -16 -15 
-19 -19 -21 -21 -23 -23 -26 -25 -27 -27 -30 -30 -31 -31 -33 -32 
-34 -35 -35 -35 -37 -37 -37 -37 -38 -39 -38 -39 -39 -39 -39 -40 
-39 -40 -39 -40 -38 -39 -38 -39 -37 -39 -36 -38 -36 -37 -34 -36 
-34 -35 -32 -34 -31 -32 -29 -31 -29 -30 -26 -29 -26 -27 -24 -25 
-22 -24 -21 -22 -19 -21 -18 -19 -17 -18 -15 -16 -14 -15 -12 -13 
-12 -13 -10 -11 -9 -10 -8 -8 -7 -8 -6 -7 -6 -6 -5 -5 
-4 -4 -3 -4 -3 -3 -2 -3 -2 -2 -2 -2 -1 -1 -1 -1 
-1 -1 -1 -1 -1 -1 -1 -1 1 1 1 1 1 1 1 1 
1 2 2 2 2 2 3 2 3 4 3 4 5 4 5 6 
6 7 7 7 8 9 10 11 11 11 12 14 14 15 16 17 
18 19 19 21 22 23 24 26 26 28 29 30 31 33 34 36 
36 39 40 41 41 44 45 46 47 50 50 52 53 54 55 57 
58 59 60 62 63 64 64 65 67 67 68 69 70 69 72 71 
72 71 74 72 74 72 74 72 74 71 74 70 73 70 72 68 
71 66 69 65 67 62 65 59 62 57 59 54 56 51 52 47 
48 43 44 39 40 35 35 32 30 26 25 22 20 18 15 13 
9 8 4 3 -1 -1 -7 -6 -13 -11 -18 -16 -23 -20 -28 -25 
-33 -30 -39 -34 -42 -38 -47 -42 -51 -46 -55 -50 -59 -53 -62 -56 
-65 -60 -67 -62 -70 -65 -71 -67 -73 -68 -74 -71 -76 -71 -75 -73 
-76 -73 -76 -73 -75 -74 -74 -73 -73 -72 -72 -72 -71 -70 -68 -69 
-67 -68 -64 -65 -62 -63 -59 -61 -57 -59 -54 -56 -51 -53 -49 -51 
-45 -47 -43 -45 -39 -42 -37 -39 -34 -36 -32 -33 -28 -31 -26 -28 
-24 -25 -21 -23 -19 -20 -18 -19 -15 -16 -13 -14 -12 -13 -10 -11 
-8 -9 -8 -8 -6 -7 -6 -6 -4 -5 -4 -4 -3 -3 -2 -2 
-2 -3 -1 -1 -2 -1 0 -1 -1 -1 -1 -1 1 1 1 1 
0 1 2 1 1 2 2 2 3 3 3 4 5 4 5 6 
6 7 8 8 9 9 10 12 13 13 15 16 16 18 20 21 
22 24 25 27 29 31 32 34 35 38 40 42 44 46 48 51 
53 55 57 60 63 65 67 70 73 75 78 79 83 85 88 89 
94 95 99 98 105 103 109 107 114 111 119 114 123 117 127 119 
131 122 135 124 137 125 140 125 142 126 143 125 144 125 145 123 
144 121 144 119 142 116 140 112 137 109 133 105 129 100 125 95 
119 89 113 84 106 79 99 72 92 65 83 59 74 53 65 45 
55 39 46 31 35 25 25 17 15 10 4 3 -7 -5 -17 -12 
-28 -19 -38 -26 -48 -34 7886 3467 300 MP stroke
-59 -40 -68 -48 -77 -55 -86 -61 -94 -68 -102 -75 -110 -80 -116 -87 
-123 -93 -128 -98 -132 -103 -137 -108 -140 -112 -144 -116 -145 -119 -147 -122 
-147 -125 -148 -127 -147 -127 -146 -129 -144 -128 -142 -129 -139 -127 -136 -126 
-132 -124 -128 -121 -124 -119 -119 -115 -114 -111 -109 -107 -103 -103 -98 -98 
-92 -93 -87 -88 -81 -83 -75 -78 -70 -72 -65 -67 -59 -62 -54 -57 
-49 -52 -45 -47 -40 -43 -36 -38 -32 -34 -28 -30 -25 -27 -22 -23 
-19 -20 -16 -18 -13 -15 -12 -12 -10 -11 -8 -9 -7 -7 -5 -6 
-4 -4 -4 -4 -2 -3 -2 -2 -2 -2 -1 -1 -1 -1 -1 0 
1 0 0 0 1 1 1 1 1 1 2 2 3 3 3 4 
4 5 6 6 7 8 9 9 11 12 13 14 15 17 19 20 
22 23 26 28 30 32 34 37 40 42 45 48 51 54 58 61 
64 68 72 75 80 82 88 91 97 99 106 107 115 116 125 125 
135 132 144 142 156 149 165 157 176 165 186 171 197 178 206 184 
216 189 225 192 235 196 242 199 251 200 257 200 264 200 269 198 
274 195 278 192 280 187 281 182 282 176 280 169 279 161 275 154 
271 144 264 136 258 127 249 118 239 108 228 99 216 90 202 81 
188 72 173 64 156 55 138 48 121 40 102 33 82 27 62 19 
42 13 22 7 1 0 -20 -6 -41 -13 -60 -19 -82 -25 -100 -33 
-120 -40 -139 -48 -156 -55 -173 -64 -189 -73 -204 -81 -218 -91 -231 -100 
-242 -109 -252 -120 -261 -129 -269 -138 -276 -148 -280 -156 -284 -165 -286 -173 
-288 -181 -287 -186 -286 -193 -283 -197 -280 -201 -274 -203 -269 -206 -263 -205 
-255 -205 -247 -204 -238 -201 -228 -197 -219 -193 -208 -187 -198 -181 -187 -173 
-176 -167 -165 -158 -154 -149 -144 -141 -132 -132 -123 -123 -112 -113 -102 -105 
-93 -95 -84 -87 -75 -79 -67 -71 -60 -63 -53 -55 -46 -50 -40 -43 
-35 -37 -30 -32 -25 -27 -22 -23 -18 -19 -15 -16 -12 -13 -9 -11 
-8 -8 -6 -7 -5 -5 -4 -4 -2 -3 -2 -2 -2 -2 -1 -1 
-1 0 1 0 -2 -2 12738 7779 212 MP stroke
6 w
gr

c8
c9
  36   36 11255 6261 FO
  36   36 11090 6103 FO
  36   36 10914 5936 FO
  36   36 10727 5763 FO
  36   36 10529 5582 FO
  36   36 10321 5395 FO
  36   36 10102 5202 FO
  36   36 10007 5119 FO
  36   36 10223 5308 FO
  36   36 10429 5492 FO
  36   36 10626 5670 FO
  36   36 10812 5841 FO
  36   36 10988 6006 FO
  36   36 11153 6163 FO
  36   36 11309 6312 FO
  36   36 11227 6234 FO
  36   36 11103 6115 FO
  36   36 10975 5994 FO
  36   36 10843 5870 FO
  36   36 10707 5744 FO
  36   36 10568 5617 FO
  36   36 10426 5488 FO
  36   36 10282 5360 FO
  36   36 10136 5231 FO
  36   36 9989 5104 FO
  36   36 10062 5167 FO
  36   36 10205 5292 FO
  36   36 10347 5418 FO
  36   36 10487 5543 FO
  36   36 10624 5668 FO
  36   36 10759 5792 FO
  36   36 10890 5914 FO
  36   36 11017 6033 FO
  36   36 11140 6150 FO
  36   36 11259 6264 FO
  36   36 11301 6305 FO
  36   36 11225 6232 FO
  36   36 11150 6159 FO
  36   36 11074 6088 FO
  36   36 11000 6017 FO
  36   36 10927 5949 FO
  36   36 10856 5882 FO
  36   36 10786 5817 FO
  36   36 10719 5755 FO
  36   36 10654 5695 FO
  36   36 10592 5639 FO
  36   36 10533 5586 FO
  36   36 10478 5536 FO
  36   36 10427 5490 FO
  36   36 10380 5448 FO
  36   36 10338 5410 FO
  36   36 10299 5376 FO
  36   36 10266 5346 FO
  36   36 10238 5321 FO
  36   36 10215 5301 FO
  36   36 10197 5285 FO
  36   36 10184 5274 FO
  36   36 10177 5268 FO
  36   36 10176 5267 FO
  36   36 10180 5270 FO
  36   36 10189 5278 FO
  36   36 10204 5291 FO
  36   36 10224 5309 FO
  36   36 10249 5331 FO
  36   36 10279 5357 FO
  36   36 10314 5389 FO
  36   36 10354 5424 FO
  36   36 10398 5463 FO
  36   36 10446 5506 FO
  36   36 10498 5553 FO
  36   36 10554 5604 FO
  36   36 10613 5658 FO
  36   36 10675 5715 FO
  36   36 10740 5774 FO
  36   36 10807 5836 FO
  36   36 10876 5901 FO
  36   36 10947 5967 FO
  36   36 11019 6035 FO
  36   36 11092 6105 FO
  36   36 11166 6175 FO
  36   36 11240 6246 FO
  36   36 11314 6318 FO
gs 1928 460 10811 7320 rc
c8
1 1 1 1 1 1 1 1 1 1 1 1 1 2 1 1 
2 2 2 1 1 3 3 2 2 2 3 3 3 3 3 4 
3 4 4 4 4 5 5 5 5 5 5 6 6 6 6 6 
6 7 7 7 7 8 8 8 8 8 8 9 8 9 9 10 
9 9 9 10 10 10 9 11 10 10 10 11 10 11 10 10 
10 11 10 11 10 10 10 11 9 10 10 10 9 9 9 10 
8 9 8 8 8 8 7 8 6 7 6 6 5 6 5 5 
4 4 4 3 2 3 2 2 2 2 -1 -1 -2 -2 -2 -2 
-3 -4 -4 -4 -5 -4 -5 -6 -5 -6 -7 -7 -7 -7 -7 -8 
-8 -8 -9 -9 -8 -10 -9 -9 -10 -10 -9 -10 -10 -11 -10 -11 
-11 -11 -10 -10 -10 -11 -10 -11 -10 -11 -11 -11 -9 -11 -10 -10 
-10 -10 -9 -10 -9 -10 -9 -9 -8 -9 -8 -9 -8 -8 -7 -8 
-7 -7 -7 -8 -6 -6 -5 -6 -6 -6 -5 -6 -4 -5 -5 -4 
-4 -4 -3 -4 -3 -4 -3 -3 -3 -2 -2 -3 -2 -2 -2 -2 
-2 -2 -1 -1 -1 -2 -1 -1 -1 -1 -1 0 1 0 -2 -2 
-1 -1 1 1 1 1 1 1 1 1 1 1 1 1 1 2 
2 2 2 2 2 2 3 3 3 3 3 4 4 4 4 5 
5 5 6 6 6 6 6 7 7 8 8 8 8 10 10 9 
9 11 11 11 11 12 12 13 13 14 13 14 14 15 15 16 
16 17 16 17 16 18 18 18 17 19 18 19 19 20 19 20 
19 20 20 21 19 20 20 21 19 20 20 21 19 20 19 19 
18 20 18 19 18 18 17 17 16 17 15 16 15 15 13 14 
12 13 12 11 10 11 8 9 8 7 6 7 5 5 3 3 
2 2 1 1 -1 -1 -2 -3 -4 -3 -5 -6 -7 -7 -8 -8 
-9 -9 -10 -11 -12 -12 -13 -13 -14 -15 -15 -15 -15 -16 -17 -17 
-17 -18 -18 -19 -19 -19 -19 -20 -19 -21 -20 -20 -20 -21 -20 -21 
-19 -21 -20 -21 -20 -21 -20 -21 -19 -20 -19 -20 -18 -19 -18 -19 
-17 -19 -17 -18 -16 -17 -16 -16 -14 -16 -14 -15 -14 -14 -12 -14 
-12 -12 -11 -12 -10 -11 -9 -10 -9 -10 -8 -8 -7 -8 -7 -7 
-6 -7 -6 -6 -4 -5 -5 -5 -4 -4 -3 -4 -3 -3 -2 -2 
-3 -3 -2 -2 -1 -2 -1 -1 -2 -1 0 -1 -1 -1 -1 -1 
-1 0 1 0 0 0 1 1 1 1 1 1 1 1 1 2 
2 2 2 2 3 3 3 3 3 4 4 4 5 5 5 6 
6 6 7 8 8 8 9 10 9 10 11 12 12 13 13 14 
15 15 15 17 17 18 18 20 20 21 21 22 22 24 24 25 
25 27 27 28 28 29 29 31 31 32 31 34 33 34 34 36 
35 36 36 37 36 38 37 38 38 39 37 39 39 39 38 39 
38 38 37 38 38 38 11830 6829 300 MP stroke
36 37 36 36 35 35 34 34 32 32 31 31 29 29 27 27 
26 25 23 23 21 21 19 18 16 16 14 14 11 11 9 8 
5 6 3 3 -2 -3 -6 -5 -8 -8 -11 -11 -14 -14 -16 -15 
-19 -19 -21 -21 -23 -23 -26 -25 -27 -27 -30 -30 -31 -31 -33 -32 
-34 -35 -35 -35 -37 -37 -37 -37 -38 -39 -38 -39 -39 -39 -39 -40 
-39 -40 -39 -40 -38 -39 -38 -39 -37 -39 -36 -38 -36 -37 -34 -36 
-34 -35 -32 -34 -31 -32 -29 -31 -29 -30 -26 -29 -26 -27 -24 -25 
-22 -24 -21 -22 -19 -21 -18 -19 -17 -18 -15 -16 -14 -15 -12 -13 
-12 -13 -10 -11 -9 -10 -8 -8 -7 -8 -6 -7 -6 -6 -5 -5 
-4 -4 -3 -4 -3 -3 -2 -3 -2 -2 -2 -2 -1 -1 -1 -1 
-1 -1 -1 -1 -1 -1 -1 -1 1 1 1 1 1 1 1 1 
1 2 2 2 2 2 3 2 3 4 3 4 5 4 5 6 
6 7 7 7 8 9 10 11 11 11 12 14 14 15 16 17 
18 19 19 21 22 23 24 26 26 28 29 30 31 33 34 36 
36 39 40 41 41 44 45 46 47 50 50 52 53 54 55 57 
58 59 60 62 63 64 64 65 67 67 68 69 70 69 72 71 
72 71 74 72 74 72 74 72 74 71 74 70 73 70 72 68 
71 66 69 65 67 62 65 59 62 57 59 54 56 51 52 47 
48 43 44 39 40 35 35 32 30 26 25 22 20 18 15 13 
9 8 4 3 -1 -1 -7 -6 -13 -11 -18 -16 -23 -20 -28 -25 
-33 -30 -39 -34 -42 -38 -47 -42 -51 -46 -55 -50 -59 -53 -62 -56 
-65 -60 -67 -62 -70 -65 -71 -67 -73 -68 -74 -71 -76 -71 -75 -73 
-76 -73 -76 -73 -75 -74 -74 -73 -73 -72 -72 -72 -71 -70 -68 -69 
-67 -68 -64 -65 -62 -63 -59 -61 -57 -59 -54 -56 -51 -53 -49 -51 
-45 -47 -43 -45 -39 -42 -37 -39 -34 -36 -32 -33 -28 -31 -26 -28 
-24 -25 -21 -23 -19 -20 -18 -19 -15 -16 -13 -14 -12 -13 -10 -11 
-8 -9 -8 -8 -6 -7 -6 -6 -4 -5 -4 -4 -3 -3 -2 -2 
-2 -3 -1 -1 -2 -1 0 -1 -1 -1 -1 -1 1 1 1 1 
0 1 2 1 1 2 2 2 3 3 3 4 5 4 5 6 
6 7 8 8 9 9 10 12 13 13 15 16 16 18 20 21 
22 24 25 27 29 31 32 34 35 38 40 42 44 46 48 51 
53 55 57 60 63 65 67 70 73 75 78 79 83 85 88 89 
94 95 99 98 105 103 109 107 114 111 119 114 123 117 127 119 
131 122 135 124 137 125 140 125 142 126 143 125 144 125 145 123 
144 121 144 119 142 116 140 112 137 109 133 105 129 100 125 95 
119 89 113 84 106 79 99 72 92 65 83 59 74 53 65 45 
55 39 46 31 35 25 25 17 15 10 4 3 -7 -5 -17 -12 
-28 -19 -38 -26 -48 -34 7886 3467 300 MP stroke
-59 -40 -68 -48 -77 -55 -86 -61 -94 -68 -102 -75 -110 -80 -116 -87 
-123 -93 -128 -98 -132 -103 -137 -108 -140 -112 -144 -116 -145 -119 -147 -122 
-147 -125 -148 -127 -147 -127 -146 -129 -144 -128 -142 -129 -139 -127 -136 -126 
-132 -124 -128 -121 -124 -119 -119 -115 -114 -111 -109 -107 -103 -103 -98 -98 
-92 -93 -87 -88 -81 -83 -75 -78 -70 -72 -65 -67 -59 -62 -54 -57 
-49 -52 -45 -47 -40 -43 -36 -38 -32 -34 -28 -30 -25 -27 -22 -23 
-19 -20 -16 -18 -13 -15 -12 -12 -10 -11 -8 -9 -7 -7 -5 -6 
-4 -4 -4 -4 -2 -3 -2 -2 -2 -2 -1 -1 -1 -1 -1 0 
1 0 0 0 1 1 1 1 1 1 2 2 3 3 3 4 
4 5 6 6 7 8 9 9 11 12 13 14 15 17 19 20 
22 23 26 28 30 32 34 37 40 42 45 48 51 54 58 61 
64 68 72 75 80 82 88 91 97 99 106 107 115 116 125 125 
135 132 144 142 156 149 165 157 176 165 186 171 197 178 206 184 
216 189 225 192 235 196 242 199 251 200 257 200 264 200 269 198 
274 195 278 192 280 187 281 182 282 176 280 169 279 161 275 154 
271 144 264 136 258 127 249 118 239 108 228 99 216 90 202 81 
188 72 173 64 156 55 138 48 121 40 102 33 82 27 62 19 
42 13 22 7 1 0 -20 -6 -41 -13 -60 -19 -82 -25 -100 -33 
-120 -40 -139 -48 -156 -55 -173 -64 -189 -73 -204 -81 -218 -91 -231 -100 
-242 -109 -252 -120 -261 -129 -269 -138 -276 -148 -280 -156 -284 -165 -286 -173 
-288 -181 -287 -186 -286 -193 -283 -197 -280 -201 -274 -203 -269 -206 -263 -205 
-255 -205 -247 -204 -238 -201 -228 -197 -219 -193 -208 -187 -198 -181 -187 -173 
-176 -167 -165 -158 -154 -149 -144 -141 -132 -132 -123 -123 -112 -113 -102 -105 
-93 -95 -84 -87 -75 -79 -67 -71 -60 -63 -53 -55 -46 -50 -40 -43 
-35 -37 -30 -32 -25 -27 -22 -23 -18 -19 -15 -16 -12 -13 -9 -11 
-8 -8 -6 -7 -5 -5 -4 -4 -2 -3 -2 -2 -2 -2 -1 -1 
-1 0 1 0 -2 -2 12738 7779 212 MP stroke
48 w
gr

48 w
c8
c9
  24   24 11255 6261 FO
  24   24 11090 6103 FO
  24   24 10914 5936 FO
  24   24 10727 5763 FO
  24   24 10529 5582 FO
  24   24 10321 5395 FO
  24   24 10102 5202 FO
  24   24 10007 5119 FO
  24   24 10223 5308 FO
  24   24 10429 5492 FO
  24   24 10626 5670 FO
  24   24 10812 5841 FO
  24   24 10988 6006 FO
  24   24 11153 6163 FO
  24   24 11309 6312 FO
  24   24 11227 6234 FO
  24   24 11103 6115 FO
  24   24 10975 5994 FO
  24   24 10843 5870 FO
  24   24 10707 5744 FO
  24   24 10568 5617 FO
  24   24 10426 5488 FO
  24   24 10282 5360 FO
  24   24 10136 5231 FO
  24   24 9989 5104 FO
  24   24 10062 5167 FO
  24   24 10205 5292 FO
  24   24 10347 5418 FO
  24   24 10487 5543 FO
  24   24 10624 5668 FO
  24   24 10759 5792 FO
  24   24 10890 5914 FO
  24   24 11017 6033 FO
  24   24 11140 6150 FO
  24   24 11259 6264 FO
  24   24 11301 6305 FO
  24   24 11225 6232 FO
  24   24 11150 6159 FO
  24   24 11074 6088 FO
  24   24 11000 6017 FO
  24   24 10927 5949 FO
  24   24 10856 5882 FO
  24   24 10786 5817 FO
  24   24 10719 5755 FO
  24   24 10654 5695 FO
  24   24 10592 5639 FO
  24   24 10533 5586 FO
  24   24 10478 5536 FO
  24   24 10427 5490 FO
  24   24 10380 5448 FO
  24   24 10338 5410 FO
  24   24 10299 5376 FO
  24   24 10266 5346 FO
  24   24 10238 5321 FO
  24   24 10215 5301 FO
  24   24 10197 5285 FO
  24   24 10184 5274 FO
  24   24 10177 5268 FO
  24   24 10176 5267 FO
  24   24 10180 5270 FO
  24   24 10189 5278 FO
  24   24 10204 5291 FO
  24   24 10224 5309 FO
  24   24 10249 5331 FO
  24   24 10279 5357 FO
  24   24 10314 5389 FO
  24   24 10354 5424 FO
  24   24 10398 5463 FO
  24   24 10446 5506 FO
  24   24 10498 5553 FO
  24   24 10554 5604 FO
  24   24 10613 5658 FO
  24   24 10675 5715 FO
  24   24 10740 5774 FO
  24   24 10807 5836 FO
  24   24 10876 5901 FO
  24   24 10947 5967 FO
  24   24 11019 6035 FO
  24   24 11092 6105 FO
  24   24 11166 6175 FO
  24   24 11240 6246 FO
  24   24 11314 6318 FO
gs 1928 460 10811 7320 rc
72 w
gr

72 w
0 sg
  36   36 8684 6315 PO
  36   36 8684 6315 FO
gs 1928 460 10811 7320 rc
6 w
gr

6 w
%%IncludeResource: font Courier-Bold
/Courier-Bold /WindowsLatin1Encoding 360 FMSR

5962 5474 mt 
(\( 0.7 , 0.2 \)) s

end %%Color Dict

eplot
%%EndObject

epage
end

showpage

%%Trailer
%%EOF
