%!PS-Adobe-3.0 EPSF-3.0
%%Creator: MATLAB, The MathWorks, Inc. Version 7.13.0.564 (R2011b). Operating System: Microsoft Windows XP.
%%Title: D:\DriveG\Sem2-2012\Program\ReferenceMetric-v3\metricfig\zdt6\11-02-2013\zdt6-te.eps
%%CreationDate: 02/11/2013  18:44:47
%%DocumentNeededFonts: Helvetica
%%+ Courier-Bold
%%DocumentProcessColors: Cyan Magenta Yellow Black
%%LanguageLevel: 2
%%Pages: 1
%%BoundingBox:  -329    76   926   765
%%EndComments

%%BeginProlog
% MathWorks dictionary
/MathWorks 160 dict begin
% definition operators
/bdef {bind def} bind def
/ldef {load def} bind def
/xdef {exch def} bdef
/xstore {exch store} bdef
% operator abbreviations
/c  /clip ldef
/cc /concat ldef
/cp /closepath ldef
/gr /grestore ldef
/gs /gsave ldef
/mt /moveto ldef
/np /newpath ldef
/cm /currentmatrix ldef
/sm /setmatrix ldef
/rm /rmoveto ldef
/rl /rlineto ldef
/s {show newpath} bdef
/sc {setcmykcolor} bdef
/sr /setrgbcolor ldef
/sg /setgray ldef
/w /setlinewidth ldef
/j /setlinejoin ldef
/cap /setlinecap ldef
/rc {rectclip} bdef
/rf {rectfill} bdef
% page state control
/pgsv () def
/bpage {/pgsv save def} bdef
/epage {pgsv restore} bdef
/bplot /gsave ldef
/eplot {stroke grestore} bdef
% orientation switch
/portraitMode 0 def /landscapeMode 1 def /rotateMode 2 def
% coordinate system mappings
/dpi2point 0 def
% font control
/FontSize 0 def
/FMS {/FontSize xstore findfont [FontSize 0 0 FontSize neg 0 0]
  makefont setfont} bdef
/ISOLatin1Encoding where {pop /WindowsLatin1Encoding 256 array bdef
ISOLatin1Encoding WindowsLatin1Encoding copy pop
/.notdef/.notdef/quotesinglbase/florin/quotedblbase/ellipsis/dagger
/daggerdbl/circumflex/perthousand/Scaron/guilsinglleft/OE/.notdef/.notdef
/.notdef/.notdef/quoteleft/quoteright/quotedblleft/quotedblright/bullet
/endash/emdash/tilde/trademark/scaron/guilsinglright/oe/.notdef/.notdef
/Ydieresis WindowsLatin1Encoding 128 32 getinterval astore pop}
{/WindowsLatin1Encoding StandardEncoding bdef} ifelse
/reencode {exch dup where {pop load} {pop StandardEncoding} ifelse
  exch dup 3 1 roll findfont dup length dict begin
  { 1 index /FID ne {def}{pop pop} ifelse } forall
  /Encoding exch def currentdict end definefont pop} bdef
/isroman {findfont /CharStrings get /Agrave known} bdef
/FMSR {3 1 roll 1 index dup isroman {reencode} {pop pop} ifelse
  exch FMS} bdef
/csm {1 dpi2point div -1 dpi2point div scale neg translate
 dup landscapeMode eq {pop -90 rotate}
  {rotateMode eq {90 rotate} if} ifelse} bdef
% line types: solid, dotted, dashed, dotdash
/SO { [] 0 setdash } bdef
/DO { [.5 dpi2point mul 4 dpi2point mul] 0 setdash } bdef
/DA { [6 dpi2point mul] 0 setdash } bdef
/DD { [.5 dpi2point mul 4 dpi2point mul 6 dpi2point mul 4
  dpi2point mul] 0 setdash } bdef
% macros for lines and objects
/L {lineto stroke} bdef
/MP {3 1 roll moveto 1 sub {rlineto} repeat} bdef
/AP {{rlineto} repeat} bdef
/PDlw -1 def
/W {/PDlw currentlinewidth def setlinewidth} def
/PP {closepath eofill} bdef
/DP {closepath stroke} bdef
/MR {4 -2 roll moveto dup  0 exch rlineto exch 0 rlineto
  neg 0 exch rlineto closepath} bdef
/FR {MR stroke} bdef
/PR {MR fill} bdef
/L1i {{currentfile picstr readhexstring pop} image} bdef
/tMatrix matrix def
/MakeOval {newpath tMatrix currentmatrix pop translate scale
0 0 1 0 360 arc tMatrix setmatrix} bdef
/FO {MakeOval stroke} bdef
/PO {MakeOval fill} bdef
/PD {currentlinewidth 2 div 0 360 arc fill
   PDlw -1 eq not {PDlw w /PDlw -1 def} if} def
/FA {newpath tMatrix currentmatrix pop translate scale
  0 0 1 5 -2 roll arc tMatrix setmatrix stroke} bdef
/PA {newpath tMatrix currentmatrix pop	translate 0 0 moveto scale
  0 0 1 5 -2 roll arc closepath tMatrix setmatrix fill} bdef
/FAn {newpath tMatrix currentmatrix pop translate scale
  0 0 1 5 -2 roll arcn tMatrix setmatrix stroke} bdef
/PAn {newpath tMatrix currentmatrix pop translate 0 0 moveto scale
  0 0 1 5 -2 roll arcn closepath tMatrix setmatrix fill} bdef
/vradius 0 def /hradius 0 def /lry 0 def
/lrx 0 def /uly 0 def /ulx 0 def /rad 0 def
/MRR {/vradius xdef /hradius xdef /lry xdef /lrx xdef /uly xdef
  /ulx xdef newpath tMatrix currentmatrix pop ulx hradius add uly
  vradius add translate hradius vradius scale 0 0 1 180 270 arc 
  tMatrix setmatrix lrx hradius sub uly vradius add translate
  hradius vradius scale 0 0 1 270 360 arc tMatrix setmatrix
  lrx hradius sub lry vradius sub translate hradius vradius scale
  0 0 1 0 90 arc tMatrix setmatrix ulx hradius add lry vradius sub
  translate hradius vradius scale 0 0 1 90 180 arc tMatrix setmatrix
  closepath} bdef
/FRR {MRR stroke } bdef
/PRR {MRR fill } bdef
/MlrRR {/lry xdef /lrx xdef /uly xdef /ulx xdef /rad lry uly sub 2 div def
  newpath tMatrix currentmatrix pop ulx rad add uly rad add translate
  rad rad scale 0 0 1 90 270 arc tMatrix setmatrix lrx rad sub lry rad
  sub translate rad rad scale 0 0 1 270 90 arc tMatrix setmatrix
  closepath} bdef
/FlrRR {MlrRR stroke } bdef
/PlrRR {MlrRR fill } bdef
/MtbRR {/lry xdef /lrx xdef /uly xdef /ulx xdef /rad lrx ulx sub 2 div def
  newpath tMatrix currentmatrix pop ulx rad add uly rad add translate
  rad rad scale 0 0 1 180 360 arc tMatrix setmatrix lrx rad sub lry rad
  sub translate rad rad scale 0 0 1 0 180 arc tMatrix setmatrix
  closepath} bdef
/FtbRR {MtbRR stroke } bdef
/PtbRR {MtbRR fill } bdef
/stri 6 array def /dtri 6 array def
/smat 6 array def /dmat 6 array def
/tmat1 6 array def /tmat2 6 array def /dif 3 array def
/asub {/ind2 exch def /ind1 exch def dup dup
  ind1 get exch ind2 get sub exch } bdef
/tri_to_matrix {
  2 0 asub 3 1 asub 4 0 asub 5 1 asub
  dup 0 get exch 1 get 7 -1 roll astore } bdef
/compute_transform {
  dmat dtri tri_to_matrix tmat1 invertmatrix 
  smat stri tri_to_matrix tmat2 concatmatrix } bdef
/ds {stri astore pop} bdef
/dt {dtri astore pop} bdef
/db {2 copy /cols xdef /rows xdef mul dup 3 mul string
  currentfile 
  3 index 0 eq {/ASCIIHexDecode filter}
  {/ASCII85Decode filter 3 index 2 eq {/RunLengthDecode filter} if }
  ifelse exch readstring pop
  dup 0 3 index getinterval /rbmap xdef
  dup 2 index dup getinterval /gbmap xdef
  1 index dup 2 mul exch getinterval /bbmap xdef pop pop}bdef
/it {gs np dtri aload pop moveto lineto lineto cp c
  cols rows 8 compute_transform 
  rbmap gbmap bbmap true 3 colorimage gr}bdef
/il {newpath moveto lineto stroke}bdef
currentdict end def
%%EndProlog

%%BeginSetup
MathWorks begin

0 cap

end
%%EndSetup

%%Page: 1 1
%%BeginPageSetup
%%PageBoundingBox:  -329    76   926   765
MathWorks begin
bpage
%%EndPageSetup

%%BeginObject: obj1
bplot

/dpi2point 12 def
portraitMode -3948 9180 csm

    0     0 15060  8257 rc
86 dict begin %Colortable dictionary
/c0 { 0.000000 0.000000 0.000000 sr} bdef
/c1 { 1.000000 1.000000 1.000000 sr} bdef
/c2 { 0.900000 0.000000 0.000000 sr} bdef
/c3 { 0.000000 0.820000 0.000000 sr} bdef
/c4 { 0.000000 0.000000 0.800000 sr} bdef
/c5 { 0.910000 0.820000 0.320000 sr} bdef
/c6 { 1.000000 0.260000 0.820000 sr} bdef
/c7 { 0.000000 0.820000 0.820000 sr} bdef
c0
1 j
1 sg
   0    0 15061 8258 rf
6 w
0 7482 11357 0 0 -7482 1973 7779 4 MP
PP
-11357 0 0 7482 11357 0 0 -7482 1973 7779 5 MP stroke
4 w
DO
SO
6 w
0 sg
1973  297 mt 13330  297 L
1973 7779 mt 13330 7779 L
13330 7779 mt 13330  297 L
1973 7779 mt 1973  297 L
1973 7779 mt 13330 7779 L
1973 7779 mt 1973  297 L
1973 7779 mt 1973 7665 L
1973  297 mt 1973  410 L
%%IncludeResource: font Helvetica
/Helvetica /WindowsLatin1Encoding 240 FMSR

1807 8036 mt 
(0.2) s
3392 7779 mt 3392 7665 L
3392  297 mt 3392  410 L
3226 8036 mt 
(0.3) s
4812 7779 mt 4812 7665 L
4812  297 mt 4812  410 L
4646 8036 mt 
(0.4) s
6231 7779 mt 6231 7665 L
6231  297 mt 6231  410 L
6065 8036 mt 
(0.5) s
7651 7779 mt 7651 7665 L
7651  297 mt 7651  410 L
7485 8036 mt 
(0.6) s
9071 7779 mt 9071 7665 L
9071  297 mt 9071  410 L
8905 8036 mt 
(0.7) s
10490 7779 mt 10490 7665 L
10490  297 mt 10490  410 L
10324 8036 mt 
(0.8) s
11910 7779 mt 11910 7665 L
11910  297 mt 11910  410 L
11744 8036 mt 
(0.9) s
13330 7779 mt 13330 7665 L
13330  297 mt 13330  410 L
13264 8036 mt 
(1) s
1973 7779 mt 2086 7779 L
13330 7779 mt 13216 7779 L
1805 7868 mt 
(0) s
1973 7030 mt 2086 7030 L
13330 7030 mt 13216 7030 L
1605 7119 mt 
(0.1) s
1973 6282 mt 2086 6282 L
13330 6282 mt 13216 6282 L
1605 6371 mt 
(0.2) s
1973 5534 mt 2086 5534 L
13330 5534 mt 13216 5534 L
1605 5623 mt 
(0.3) s
1973 4786 mt 2086 4786 L
13330 4786 mt 13216 4786 L
1605 4875 mt 
(0.4) s
1973 4038 mt 2086 4038 L
13330 4038 mt 13216 4038 L
1605 4127 mt 
(0.5) s
1973 3289 mt 2086 3289 L
13330 3289 mt 13216 3289 L
1605 3378 mt 
(0.6) s
1973 2541 mt 2086 2541 L
13330 2541 mt 13216 2541 L
1605 2630 mt 
(0.7) s
1973 1793 mt 2086 1793 L
13330 1793 mt 13216 1793 L
1605 1882 mt 
(0.8) s
1973 1045 mt 2086 1045 L
13330 1045 mt 13216 1045 L
1605 1134 mt 
(0.9) s
1973  297 mt 2086  297 L
13330  297 mt 13216  297 L
1805  386 mt 
(1) s
1973  297 mt 13330  297 L
1973 7779 mt 13330 7779 L
13330 7779 mt 13330  297 L
1973 7779 mt 1973  297 L
gs 1973 297 11358 7483 rc
gs 11060 5569 309 292 rc
/c8 { 1.000000 0.000000 0.000000 sr} bdef
c8
11097 5642 mt 11169 5642 L
11133 5606 mt 11133 5678 L
11181 5717 mt 11253 5717 L
11217 5681 mt 11217 5753 L
11172 5710 mt 11244 5710 L
11208 5674 mt 11208 5746 L
11097 5642 mt 11169 5642 L
11133 5606 mt 11133 5678 L
11259 5787 mt 11331 5787 L
11295 5751 mt 11295 5823 L
11120 5662 mt 11192 5662 L
11156 5626 mt 11156 5698 L
11097 5642 mt 11169 5642 L
11133 5606 mt 11133 5678 L
11251 5781 mt 11323 5781 L
11287 5745 mt 11287 5817 L
11097 5642 mt 11169 5642 L
11133 5606 mt 11133 5678 L
11120 5662 mt 11192 5662 L
11156 5626 mt 11156 5698 L
11251 5781 mt 11323 5781 L
11287 5745 mt 11287 5817 L
11097 5642 mt 11169 5642 L
11133 5606 mt 11133 5678 L
11259 5787 mt 11331 5787 L
11295 5751 mt 11295 5823 L
11181 5717 mt 11253 5717 L
11217 5681 mt 11217 5753 L
11172 5710 mt 11244 5710 L
11208 5674 mt 11208 5746 L
11097 5642 mt 11169 5642 L
11133 5606 mt 11133 5678 L
11120 5662 mt 11192 5662 L
11156 5626 mt 11156 5698 L
11251 5781 mt 11323 5781 L
11287 5745 mt 11287 5817 L
11097 5642 mt 11169 5642 L
11133 5606 mt 11133 5678 L
11259 5787 mt 11331 5787 L
11295 5751 mt 11295 5823 L
11172 5710 mt 11244 5710 L
11208 5674 mt 11208 5746 L
11097 5642 mt 11169 5642 L
11133 5606 mt 11133 5678 L
11181 5717 mt 11253 5717 L
11217 5681 mt 11217 5753 L
11172 5710 mt 11244 5710 L
11208 5674 mt 11208 5746 L
11097 5642 mt 11169 5642 L
11133 5606 mt 11133 5678 L
11120 5662 mt 11192 5662 L
11156 5626 mt 11156 5698 L
11251 5781 mt 11323 5781 L
11287 5745 mt 11287 5817 L
11120 5662 mt 11192 5662 L
11156 5626 mt 11156 5698 L
11097 5642 mt 11169 5642 L
11133 5606 mt 11133 5678 L
11172 5710 mt 11244 5710 L
11208 5674 mt 11208 5746 L
11097 5642 mt 11169 5642 L
11133 5606 mt 11133 5678 L
11181 5717 mt 11253 5717 L
11217 5681 mt 11217 5753 L
11097 5642 mt 11169 5642 L
11133 5606 mt 11133 5678 L
gr

c8
27.6 w
/c9 { 0.000000 0.000000 1.000000 sr} bdef
c9
1 1 1 1 1 1 1 1 0 1 1 1 1 1 1 1 
2 1 1 2 2 2 2 2 2 2 3 3 3 3 3 3 
3 4 4 4 4 4 4 5 5 5 5 5 6 6 6 6 
6 7 7 7 7 7 8 8 7 8 9 9 8 9 9 9 
9 10 10 10 9 10 10 10 11 11 10 10 10 11 11 11 
10 11 11 11 10 11 11 11 10 10 10 11 10 10 10 10 
9 9 9 10 8 8 8 8 7 8 7 7 6 7 6 5 
5 5 4 5 4 4 3 2 2 3 1 1 1 0 -1 0 
-1 -1 -1 -2 -3 -2 -3 -4 -4 -4 -5 -5 -5 -5 -6 -6 
-7 -7 -7 -8 -8 -8 -8 -8 -9 -9 -9 -10 -10 -10 -10 -10 
-10 -11 -10 -10 -11 -11 -11 -11 -10 -12 -11 -11 -11 -11 -11 -11 
-10 -11 -11 -11 -10 -11 -10 -10 -10 -10 -9 -10 -9 -10 -9 -9 
-9 -9 -8 -8 -7 -8 -8 -8 -6 -7 -7 -7 -6 -6 -6 -6 
-5 -6 -5 -5 -4 -4 -4 -5 -4 -4 -3 -3 -3 -3 -3 -3 
-2 -3 -3 -2 -1 -2 -2 -2 -2 -1 -1 -2 -1 -1 -1 -1 
-1 0 1 0 -2 -2 -1 -1 1 1 1 1 1 1 1 1 
1 1 1 1 2 2 1 2 2 2 3 3 3 3 3 3 
3 4 4 4 5 5 5 5 6 6 6 6 7 8 7 8 
8 8 9 9 10 10 10 11 11 12 12 12 13 13 13 14 
14 15 15 15 15 17 17 16 17 18 17 18 18 19 19 19 
19 20 19 20 20 20 21 21 20 21 20 21 21 21 21 21 
20 21 20 21 20 20 19 20 19 19 19 18 18 18 16 17 
17 17 15 15 14 14 13 13 11 12 11 11 9 9 8 8 
7 6 5 5 3 4 2 2 1 1 -1 -1 -2 -3 -4 -4 
-6 -5 -7 -7 -8 -8 -10 -10 -11 -11 -12 -12 -13 -14 -15 -15 
-15 -15 -17 -17 -17 -18 -19 -18 -18 -19 -20 -20 -20 -20 -20 -21 
-21 -21 -21 -21 -21 -22 -21 -21 -21 -22 -20 -21 -21 -21 -20 -21 
-20 -20 -19 -20 -19 -20 -18 -19 -18 -18 -17 -17 -16 -17 -15 -16 
-15 -16 -14 -14 -13 -14 -12 -13 -12 -12 -11 -11 -10 -10 -9 -10 
-8 -9 -8 -8 -7 -7 -6 -7 -6 -6 -5 -5 -5 -5 -4 -4 
-3 -4 -3 -3 -3 -3 -2 -3 -2 -2 -2 -1 -1 -2 -1 -1 
-1 -1 -1 -1 -1 -1 -1 -1 1 1 1 1 1 1 1 1 
1 1 1 2 2 2 3 2 2 3 3 3 4 4 4 5 
5 5 6 6 6 6 8 8 8 9 9 9 10 11 11 12 
13 13 14 14 15 16 16 17 18 19 19 20 21 21 22 23 
23 24 25 26 27 28 28 28 29 31 31 31 32 33 33 34 
35 35 35 36 37 37 37 38 39 39 39 39 39 40 40 39 
40 40 40 40 40 40 12455 6885 300 MP stroke
39 39 40 38 38 38 38 37 36 36 36 34 34 33 32 32 
31 29 28 28 27 26 25 23 22 21 20 19 17 17 14 14 
12 11 9 8 6 6 3 3 -3 -3 -6 -5 -8 -9 -12 -11 
-14 -13 -17 -17 -20 -18 -22 -22 -25 -23 -27 -26 -29 -28 -31 -30 
-32 -32 -35 -33 -36 -35 -37 -36 -38 -38 -39 -38 -40 -40 -40 -39 
-41 -41 -41 -40 -41 -41 -40 -41 -41 -40 -39 -40 -40 -40 -38 -38 
-37 -38 -36 -37 -35 -36 -34 -34 -33 -34 -31 -32 -30 -30 -28 -29 
-26 -28 -25 -26 -24 -24 -22 -23 -20 -21 -19 -20 -17 -18 -16 -16 
-15 -16 -13 -13 -12 -13 -11 -11 -9 -10 -9 -9 -7 -8 -7 -7 
-5 -6 -5 -5 -5 -5 -3 -3 -3 -4 -3 -2 -2 -3 -2 -1 
-1 -2 -1 -1 -1 -1 -1 -1 -1 -1 -1 -1 1 1 1 1 
1 1 1 2 2 1 1 2 2 2 3 3 3 3 4 4 
5 5 5 6 7 6 7 8 9 9 10 11 11 12 13 14 
15 15 17 17 18 20 21 21 23 24 25 26 28 29 30 31 
32 34 36 37 38 39 41 42 44 45 47 48 50 50 52 53 
55 56 58 58 61 61 63 63 66 65 68 67 70 68 72 70 
74 71 75 73 76 73 77 73 78 73 78 74 78 73 77 72 
77 71 76 69 74 68 73 66 70 63 69 61 65 58 62 55 
58 52 55 48 51 44 46 41 42 36 36 31 32 28 27 22 
21 18 15 14 10 8 4 3 -2 -1 -7 -6 -13 -12 -19 -16 
-24 -20 -30 -26 -35 -30 -40 -35 -45 -39 -49 -43 -54 -47 -58 -51 
-62 -54 -64 -58 -69 -61 -70 -63 -73 -67 -76 -68 -76 -70 -78 -72 
-79 -73 -80 -74 -79 -75 -80 -75 -79 -75 -78 -75 -77 -74 -75 -73 
-74 -72 -72 -71 -70 -69 -68 -66 -65 -65 -62 -62 -60 -60 -57 -58 
-53 -54 -51 -52 -48 -48 -45 -46 -41 -43 -39 -40 -36 -36 -33 -35 
-30 -31 -27 -28 -25 -26 -22 -24 -21 -21 -18 -18 -15 -17 -14 -15 
-13 -12 -10 -12 -9 -9 -8 -8 -7 -7 -6 -6 -4 -5 -4 -4 
-3 -4 -3 -2 -2 -2 -1 -2 -1 -1 -1 -1 -1 -1 -1 0 
1 0 0 0 1 1 1 1 1 1 2 2 2 2 3 3 
3 4 5 5 5 5 7 7 8 9 9 10 11 11 13 14 
16 16 18 19 20 21 23 25 27 27 30 31 33 35 38 39 
41 43 46 47 51 52 55 57 61 61 65 66 71 72 77 76 
81 82 88 86 93 92 98 96 105 101 109 105 115 109 120 113 
125 117 129 120 134 122 137 124 142 127 144 127 147 129 149 128 
151 128 151 128 152 125 152 124 151 122 149 118 147 116 143 111 
141 107 136 102 130 97 125 92 119 85 112 80 104 74 96 67 
87 60 78 54 68 47 58 39 48 32 38 25 26 18 15 10 
5 3 -7 -5 -19 -12 8113 3290 300 MP stroke
-29 -19 -40 -27 -51 -35 -61 -41 -71 -49 -82 -56 -90 -62 -99 -70 
-108 -76 -115 -83 -122 -89 -128 -94 -135 -101 -139 -105 -144 -110 -147 -115 
-151 -118 -152 -122 -155 -125 -154 -128 -156 -129 -154 -131 -153 -131 -152 -131 
-149 -132 -146 -130 -143 -128 -139 -127 -135 -124 -129 -121 -125 -118 -120 -114 
-114 -109 -109 -105 -103 -100 -97 -96 -91 -90 -85 -84 -79 -80 -74 -74 
-68 -68 -62 -64 -57 -58 -51 -53 -47 -48 -42 -44 -38 -39 -34 -35 
-29 -31 -27 -27 -22 -24 -20 -20 -17 -18 -14 -15 -13 -13 -10 -11 
-8 -9 -7 -7 -6 -6 -5 -5 -3 -4 -3 -3 -2 -2 -2 -2 
-1 -1 -1 -1 -1 -1 1 1 1 1 1 1 1 1 2 3 
3 3 4 3 4 5 6 7 8 7 9 10 11 12 14 14 
16 17 20 21 23 24 27 28 31 33 37 38 41 43 48 49 
54 55 60 62 68 70 76 76 83 85 93 93 102 101 111 110 
121 118 131 127 142 136 152 144 163 153 174 161 184 168 196 175 
206 182 217 188 227 193 237 197 246 200 255 203 263 205 271 204 
277 204 283 203 287 200 292 196 294 191 296 186 296 180 295 173 
292 165 289 156 285 148 278 139 270 130 262 120 251 111 239 101 
227 92 213 82 197 74 181 65 164 57 146 49 127 41 107 34 
86 27 66 20 44 13 23 7 1 0 -21 -6 -43 -13 -64 -19 
-85 -27 -106 -33 -126 -41 -145 -49 -165 -56 -181 -66 -199 -74 -214 -83 
-229 -93 -243 -102 -254 -112 -265 -122 -275 -132 -282 -141 -289 -151 -295 -160 
-298 -169 -301 -177 -302 -184 -302 -191 -300 -197 -298 -201 -293 -206 -289 -208 
-283 -210 -276 -210 -267 -210 -260 -208 -250 -205 -240 -202 -229 -197 -219 -191 
-208 -185 -197 -177 -185 -170 -173 -162 -162 -153 -151 -144 -139 -135 -128 -125 
-118 -116 -108 -107 -97 -98 -88 -89 -80 -80 -70 -72 -63 -65 -56 -57 
-48 -50 -42 -44 -37 -38 -31 -33 -27 -27 -23 -24 -18 -20 -16 -16 
-13 -13 -10 -11 -8 -9 -7 -7 -5 -5 -3 -4 -3 -3 -2 -2 
-2 -2 -1 -1 -1 -1 -1 -1 13330 7779 213 MP stroke
6 w
gs 10369 4971 1539 1389 rc
/c10 { 0.000000 1.000000 1.000000 sr} bdef
c10
  36   36 11772 6227 FO
  36   36 11599 6065 FO
  36   36 11414 5895 FO
  36   36 11217 5718 FO
  36   36 11009 5533 FO
  36   36 10790 5342 FO
  36   36 10561 5145 FO
  36   36 10461 5060 FO
  36   36 10688 5253 FO
  36   36 10905 5441 FO
  36   36 11111 5623 FO
  36   36 11307 5798 FO
  36   36 11491 5966 FO
  36   36 11665 6127 FO
  36   36 11828 6280 FO
  36   36 11742 6199 FO
  36   36 11613 6078 FO
  36   36 11478 5954 FO
  36   36 11339 5827 FO
  36   36 11196 5699 FO
  36   36 11050 5569 FO
  36   36 10901 5437 FO
  36   36 10749 5306 FO
  36   36 10596 5175 FO
  36   36 10442 5044 FO
  36   36 10518 5109 FO
  36   36 10669 5237 FO
  36   36 10818 5365 FO
  36   36 10965 5494 FO
  36   36 11109 5621 FO
  36   36 11251 5748 FO
  36   36 11388 5872 FO
  36   36 11522 5994 FO
  36   36 11651 6114 FO
  36   36 11776 6231 FO
  36   36 11820 6272 FO
  36   36 11741 6197 FO
  36   36 11661 6123 FO
  36   36 11582 6050 FO
  36   36 11504 5978 FO
  36   36 11428 5908 FO
  36   36 11352 5840 FO
  36   36 11279 5773 FO
  36   36 11209 5710 FO
  36   36 11140 5649 FO
  36   36 11076 5591 FO
  36   36 11014 5537 FO
  36   36 10956 5486 FO
  36   36 10902 5439 FO
  36   36 10853 5396 FO
  36   36 10808 5357 FO
  36   36 10768 5322 FO
  36   36 10733 5292 FO
  36   36 10703 5266 FO
  36   36 10679 5246 FO
  36   36 10660 5230 FO
  36   36 10647 5218 FO
  36   36 10640 5212 FO
  36   36 10638 5211 FO
  36   36 10642 5214 FO
  36   36 10652 5222 FO
  36   36 10667 5236 FO
  36   36 10688 5254 FO
  36   36 10715 5276 FO
  36   36 10747 5304 FO
  36   36 10783 5335 FO
  36   36 10825 5371 FO
  36   36 10871 5412 FO
  36   36 10922 5456 FO
  36   36 10977 5504 FO
  36   36 11035 5556 FO
  36   36 11097 5611 FO
  36   36 11162 5669 FO
  36   36 11231 5730 FO
  36   36 11301 5793 FO
  36   36 11374 5859 FO
  36   36 11448 5927 FO
  36   36 11524 5996 FO
  36   36 11601 6067 FO
  36   36 11678 6139 FO
  36   36 11756 6212 FO
  36   36 11834 6286 FO
gr

c10
27.6 w
c9
1 1 1 1 1 1 1 1 0 1 1 1 1 1 1 1 
2 1 1 2 2 2 2 2 2 2 3 3 3 3 3 3 
3 4 4 4 4 4 4 5 5 5 5 5 6 6 6 6 
6 7 7 7 7 7 8 8 7 8 9 9 8 9 9 9 
9 10 10 10 9 10 10 10 11 11 10 10 10 11 11 11 
10 11 11 11 10 11 11 11 10 10 10 11 10 10 10 10 
9 9 9 10 8 8 8 8 7 8 7 7 6 7 6 5 
5 5 4 5 4 4 3 2 2 3 1 1 1 0 -1 0 
-1 -1 -1 -2 -3 -2 -3 -4 -4 -4 -5 -5 -5 -5 -6 -6 
-7 -7 -7 -8 -8 -8 -8 -8 -9 -9 -9 -10 -10 -10 -10 -10 
-10 -11 -10 -10 -11 -11 -11 -11 -10 -12 -11 -11 -11 -11 -11 -11 
-10 -11 -11 -11 -10 -11 -10 -10 -10 -10 -9 -10 -9 -10 -9 -9 
-9 -9 -8 -8 -7 -8 -8 -8 -6 -7 -7 -7 -6 -6 -6 -6 
-5 -6 -5 -5 -4 -4 -4 -5 -4 -4 -3 -3 -3 -3 -3 -3 
-2 -3 -3 -2 -1 -2 -2 -2 -2 -1 -1 -2 -1 -1 -1 -1 
-1 0 1 0 -2 -2 -1 -1 1 1 1 1 1 1 1 1 
1 1 1 1 2 2 1 2 2 2 3 3 3 3 3 3 
3 4 4 4 5 5 5 5 6 6 6 6 7 8 7 8 
8 8 9 9 10 10 10 11 11 12 12 12 13 13 13 14 
14 15 15 15 15 17 17 16 17 18 17 18 18 19 19 19 
19 20 19 20 20 20 21 21 20 21 20 21 21 21 21 21 
20 21 20 21 20 20 19 20 19 19 19 18 18 18 16 17 
17 17 15 15 14 14 13 13 11 12 11 11 9 9 8 8 
7 6 5 5 3 4 2 2 1 1 -1 -1 -2 -3 -4 -4 
-6 -5 -7 -7 -8 -8 -10 -10 -11 -11 -12 -12 -13 -14 -15 -15 
-15 -15 -17 -17 -17 -18 -19 -18 -18 -19 -20 -20 -20 -20 -20 -21 
-21 -21 -21 -21 -21 -22 -21 -21 -21 -22 -20 -21 -21 -21 -20 -21 
-20 -20 -19 -20 -19 -20 -18 -19 -18 -18 -17 -17 -16 -17 -15 -16 
-15 -16 -14 -14 -13 -14 -12 -13 -12 -12 -11 -11 -10 -10 -9 -10 
-8 -9 -8 -8 -7 -7 -6 -7 -6 -6 -5 -5 -5 -5 -4 -4 
-3 -4 -3 -3 -3 -3 -2 -3 -2 -2 -2 -1 -1 -2 -1 -1 
-1 -1 -1 -1 -1 -1 -1 -1 1 1 1 1 1 1 1 1 
1 1 1 2 2 2 3 2 2 3 3 3 4 4 4 5 
5 5 6 6 6 6 8 8 8 9 9 9 10 11 11 12 
13 13 14 14 15 16 16 17 18 19 19 20 21 21 22 23 
23 24 25 26 27 28 28 28 29 31 31 31 32 33 33 34 
35 35 35 36 37 37 37 38 39 39 39 39 39 40 40 39 
40 40 40 40 40 40 12455 6885 300 MP stroke
39 39 40 38 38 38 38 37 36 36 36 34 34 33 32 32 
31 29 28 28 27 26 25 23 22 21 20 19 17 17 14 14 
12 11 9 8 6 6 3 3 -3 -3 -6 -5 -8 -9 -12 -11 
-14 -13 -17 -17 -20 -18 -22 -22 -25 -23 -27 -26 -29 -28 -31 -30 
-32 -32 -35 -33 -36 -35 -37 -36 -38 -38 -39 -38 -40 -40 -40 -39 
-41 -41 -41 -40 -41 -41 -40 -41 -41 -40 -39 -40 -40 -40 -38 -38 
-37 -38 -36 -37 -35 -36 -34 -34 -33 -34 -31 -32 -30 -30 -28 -29 
-26 -28 -25 -26 -24 -24 -22 -23 -20 -21 -19 -20 -17 -18 -16 -16 
-15 -16 -13 -13 -12 -13 -11 -11 -9 -10 -9 -9 -7 -8 -7 -7 
-5 -6 -5 -5 -5 -5 -3 -3 -3 -4 -3 -2 -2 -3 -2 -1 
-1 -2 -1 -1 -1 -1 -1 -1 -1 -1 -1 -1 1 1 1 1 
1 1 1 2 2 1 1 2 2 2 3 3 3 3 4 4 
5 5 5 6 7 6 7 8 9 9 10 11 11 12 13 14 
15 15 17 17 18 20 21 21 23 24 25 26 28 29 30 31 
32 34 36 37 38 39 41 42 44 45 47 48 50 50 52 53 
55 56 58 58 61 61 63 63 66 65 68 67 70 68 72 70 
74 71 75 73 76 73 77 73 78 73 78 74 78 73 77 72 
77 71 76 69 74 68 73 66 70 63 69 61 65 58 62 55 
58 52 55 48 51 44 46 41 42 36 36 31 32 28 27 22 
21 18 15 14 10 8 4 3 -2 -1 -7 -6 -13 -12 -19 -16 
-24 -20 -30 -26 -35 -30 -40 -35 -45 -39 -49 -43 -54 -47 -58 -51 
-62 -54 -64 -58 -69 -61 -70 -63 -73 -67 -76 -68 -76 -70 -78 -72 
-79 -73 -80 -74 -79 -75 -80 -75 -79 -75 -78 -75 -77 -74 -75 -73 
-74 -72 -72 -71 -70 -69 -68 -66 -65 -65 -62 -62 -60 -60 -57 -58 
-53 -54 -51 -52 -48 -48 -45 -46 -41 -43 -39 -40 -36 -36 -33 -35 
-30 -31 -27 -28 -25 -26 -22 -24 -21 -21 -18 -18 -15 -17 -14 -15 
-13 -12 -10 -12 -9 -9 -8 -8 -7 -7 -6 -6 -4 -5 -4 -4 
-3 -4 -3 -2 -2 -2 -1 -2 -1 -1 -1 -1 -1 -1 -1 0 
1 0 0 0 1 1 1 1 1 1 2 2 2 2 3 3 
3 4 5 5 5 5 7 7 8 9 9 10 11 11 13 14 
16 16 18 19 20 21 23 25 27 27 30 31 33 35 38 39 
41 43 46 47 51 52 55 57 61 61 65 66 71 72 77 76 
81 82 88 86 93 92 98 96 105 101 109 105 115 109 120 113 
125 117 129 120 134 122 137 124 142 127 144 127 147 129 149 128 
151 128 151 128 152 125 152 124 151 122 149 118 147 116 143 111 
141 107 136 102 130 97 125 92 119 85 112 80 104 74 96 67 
87 60 78 54 68 47 58 39 48 32 38 25 26 18 15 10 
5 3 -7 -5 -19 -12 8113 3290 300 MP stroke
-29 -19 -40 -27 -51 -35 -61 -41 -71 -49 -82 -56 -90 -62 -99 -70 
-108 -76 -115 -83 -122 -89 -128 -94 -135 -101 -139 -105 -144 -110 -147 -115 
-151 -118 -152 -122 -155 -125 -154 -128 -156 -129 -154 -131 -153 -131 -152 -131 
-149 -132 -146 -130 -143 -128 -139 -127 -135 -124 -129 -121 -125 -118 -120 -114 
-114 -109 -109 -105 -103 -100 -97 -96 -91 -90 -85 -84 -79 -80 -74 -74 
-68 -68 -62 -64 -57 -58 -51 -53 -47 -48 -42 -44 -38 -39 -34 -35 
-29 -31 -27 -27 -22 -24 -20 -20 -17 -18 -14 -15 -13 -13 -10 -11 
-8 -9 -7 -7 -6 -6 -5 -5 -3 -4 -3 -3 -2 -2 -2 -2 
-1 -1 -1 -1 -1 -1 1 1 1 1 1 1 1 1 2 3 
3 3 4 3 4 5 6 7 8 7 9 10 11 12 14 14 
16 17 20 21 23 24 27 28 31 33 37 38 41 43 48 49 
54 55 60 62 68 70 76 76 83 85 93 93 102 101 111 110 
121 118 131 127 142 136 152 144 163 153 174 161 184 168 196 175 
206 182 217 188 227 193 237 197 246 200 255 203 263 205 271 204 
277 204 283 203 287 200 292 196 294 191 296 186 296 180 295 173 
292 165 289 156 285 148 278 139 270 130 262 120 251 111 239 101 
227 92 213 82 197 74 181 65 164 57 146 49 127 41 107 34 
86 27 66 20 44 13 23 7 1 0 -21 -6 -43 -13 -64 -19 
-85 -27 -106 -33 -126 -41 -145 -49 -165 -56 -181 -66 -199 -74 -214 -83 
-229 -93 -243 -102 -254 -112 -265 -122 -275 -132 -282 -141 -289 -151 -295 -160 
-298 -169 -301 -177 -302 -184 -302 -191 -300 -197 -298 -201 -293 -206 -289 -208 
-283 -210 -276 -210 -267 -210 -260 -208 -250 -205 -240 -202 -229 -197 -219 -191 
-208 -185 -197 -177 -185 -170 -173 -162 -162 -153 -151 -144 -139 -135 -128 -125 
-118 -116 -108 -107 -97 -98 -88 -89 -80 -80 -70 -72 -63 -65 -56 -57 
-48 -50 -42 -44 -37 -38 -31 -33 -27 -27 -23 -24 -18 -20 -16 -16 
-13 -13 -10 -11 -8 -9 -7 -7 -5 -5 -3 -4 -3 -3 -2 -2 
-2 -2 -1 -1 -1 -1 -1 -1 13330 7779 213 MP stroke
6 w
gs 10369 4971 1539 1389 rc
c10
  36   36 11772 6227 FO
  36   36 11599 6065 FO
  36   36 11414 5895 FO
  36   36 11217 5718 FO
  36   36 11009 5533 FO
  36   36 10790 5342 FO
  36   36 10561 5145 FO
  36   36 10461 5060 FO
  36   36 10688 5253 FO
  36   36 10905 5441 FO
  36   36 11111 5623 FO
  36   36 11307 5798 FO
  36   36 11491 5966 FO
  36   36 11665 6127 FO
  36   36 11828 6280 FO
  36   36 11742 6199 FO
  36   36 11613 6078 FO
  36   36 11478 5954 FO
  36   36 11339 5827 FO
  36   36 11196 5699 FO
  36   36 11050 5569 FO
  36   36 10901 5437 FO
  36   36 10749 5306 FO
  36   36 10596 5175 FO
  36   36 10442 5044 FO
  36   36 10518 5109 FO
  36   36 10669 5237 FO
  36   36 10818 5365 FO
  36   36 10965 5494 FO
  36   36 11109 5621 FO
  36   36 11251 5748 FO
  36   36 11388 5872 FO
  36   36 11522 5994 FO
  36   36 11651 6114 FO
  36   36 11776 6231 FO
  36   36 11820 6272 FO
  36   36 11741 6197 FO
  36   36 11661 6123 FO
  36   36 11582 6050 FO
  36   36 11504 5978 FO
  36   36 11428 5908 FO
  36   36 11352 5840 FO
  36   36 11279 5773 FO
  36   36 11209 5710 FO
  36   36 11140 5649 FO
  36   36 11076 5591 FO
  36   36 11014 5537 FO
  36   36 10956 5486 FO
  36   36 10902 5439 FO
  36   36 10853 5396 FO
  36   36 10808 5357 FO
  36   36 10768 5322 FO
  36   36 10733 5292 FO
  36   36 10703 5266 FO
  36   36 10679 5246 FO
  36   36 10660 5230 FO
  36   36 10647 5218 FO
  36   36 10640 5212 FO
  36   36 10638 5211 FO
  36   36 10642 5214 FO
  36   36 10652 5222 FO
  36   36 10667 5236 FO
  36   36 10688 5254 FO
  36   36 10715 5276 FO
  36   36 10747 5304 FO
  36   36 10783 5335 FO
  36   36 10825 5371 FO
  36   36 10871 5412 FO
  36   36 10922 5456 FO
  36   36 10977 5504 FO
  36   36 11035 5556 FO
  36   36 11097 5611 FO
  36   36 11162 5669 FO
  36   36 11231 5730 FO
  36   36 11301 5793 FO
  36   36 11374 5859 FO
  36   36 11448 5927 FO
  36   36 11524 5996 FO
  36   36 11601 6067 FO
  36   36 11678 6139 FO
  36   36 11756 6212 FO
  36   36 11834 6286 FO
gr

c10
c9
1 1 1 1 1 1 1 1 0 1 1 1 1 1 1 1 
2 1 1 2 2 2 2 2 2 2 3 3 3 3 3 3 
3 4 4 4 4 4 4 5 5 5 5 5 6 6 6 6 
6 7 7 7 7 7 8 8 7 8 9 9 8 9 9 9 
9 10 10 10 9 10 10 10 11 11 10 10 10 11 11 11 
10 11 11 11 10 11 11 11 10 10 10 11 10 10 10 10 
9 9 9 10 8 8 8 8 7 8 7 7 6 7 6 5 
5 5 4 5 4 4 3 2 2 3 1 1 1 0 -1 0 
-1 -1 -1 -2 -3 -2 -3 -4 -4 -4 -5 -5 -5 -5 -6 -6 
-7 -7 -7 -8 -8 -8 -8 -8 -9 -9 -9 -10 -10 -10 -10 -10 
-10 -11 -10 -10 -11 -11 -11 -11 -10 -12 -11 -11 -11 -11 -11 -11 
-10 -11 -11 -11 -10 -11 -10 -10 -10 -10 -9 -10 -9 -10 -9 -9 
-9 -9 -8 -8 -7 -8 -8 -8 -6 -7 -7 -7 -6 -6 -6 -6 
-5 -6 -5 -5 -4 -4 -4 -5 -4 -4 -3 -3 -3 -3 -3 -3 
-2 -3 -3 -2 -1 -2 -2 -2 -2 -1 -1 -2 -1 -1 -1 -1 
-1 0 1 0 -2 -2 -1 -1 1 1 1 1 1 1 1 1 
1 1 1 1 2 2 1 2 2 2 3 3 3 3 3 3 
3 4 4 4 5 5 5 5 6 6 6 6 7 8 7 8 
8 8 9 9 10 10 10 11 11 12 12 12 13 13 13 14 
14 15 15 15 15 17 17 16 17 18 17 18 18 19 19 19 
19 20 19 20 20 20 21 21 20 21 20 21 21 21 21 21 
20 21 20 21 20 20 19 20 19 19 19 18 18 18 16 17 
17 17 15 15 14 14 13 13 11 12 11 11 9 9 8 8 
7 6 5 5 3 4 2 2 1 1 -1 -1 -2 -3 -4 -4 
-6 -5 -7 -7 -8 -8 -10 -10 -11 -11 -12 -12 -13 -14 -15 -15 
-15 -15 -17 -17 -17 -18 -19 -18 -18 -19 -20 -20 -20 -20 -20 -21 
-21 -21 -21 -21 -21 -22 -21 -21 -21 -22 -20 -21 -21 -21 -20 -21 
-20 -20 -19 -20 -19 -20 -18 -19 -18 -18 -17 -17 -16 -17 -15 -16 
-15 -16 -14 -14 -13 -14 -12 -13 -12 -12 -11 -11 -10 -10 -9 -10 
-8 -9 -8 -8 -7 -7 -6 -7 -6 -6 -5 -5 -5 -5 -4 -4 
-3 -4 -3 -3 -3 -3 -2 -3 -2 -2 -2 -1 -1 -2 -1 -1 
-1 -1 -1 -1 -1 -1 -1 -1 1 1 1 1 1 1 1 1 
1 1 1 2 2 2 3 2 2 3 3 3 4 4 4 5 
5 5 6 6 6 6 8 8 8 9 9 9 10 11 11 12 
13 13 14 14 15 16 16 17 18 19 19 20 21 21 22 23 
23 24 25 26 27 28 28 28 29 31 31 31 32 33 33 34 
35 35 35 36 37 37 37 38 39 39 39 39 39 40 40 39 
40 40 40 40 40 40 12455 6885 300 MP stroke
39 39 40 38 38 38 38 37 36 36 36 34 34 33 32 32 
31 29 28 28 27 26 25 23 22 21 20 19 17 17 14 14 
12 11 9 8 6 6 3 3 -3 -3 -6 -5 -8 -9 -12 -11 
-14 -13 -17 -17 -20 -18 -22 -22 -25 -23 -27 -26 -29 -28 -31 -30 
-32 -32 -35 -33 -36 -35 -37 -36 -38 -38 -39 -38 -40 -40 -40 -39 
-41 -41 -41 -40 -41 -41 -40 -41 -41 -40 -39 -40 -40 -40 -38 -38 
-37 -38 -36 -37 -35 -36 -34 -34 -33 -34 -31 -32 -30 -30 -28 -29 
-26 -28 -25 -26 -24 -24 -22 -23 -20 -21 -19 -20 -17 -18 -16 -16 
-15 -16 -13 -13 -12 -13 -11 -11 -9 -10 -9 -9 -7 -8 -7 -7 
-5 -6 -5 -5 -5 -5 -3 -3 -3 -4 -3 -2 -2 -3 -2 -1 
-1 -2 -1 -1 -1 -1 -1 -1 -1 -1 -1 -1 1 1 1 1 
1 1 1 2 2 1 1 2 2 2 3 3 3 3 4 4 
5 5 5 6 7 6 7 8 9 9 10 11 11 12 13 14 
15 15 17 17 18 20 21 21 23 24 25 26 28 29 30 31 
32 34 36 37 38 39 41 42 44 45 47 48 50 50 52 53 
55 56 58 58 61 61 63 63 66 65 68 67 70 68 72 70 
74 71 75 73 76 73 77 73 78 73 78 74 78 73 77 72 
77 71 76 69 74 68 73 66 70 63 69 61 65 58 62 55 
58 52 55 48 51 44 46 41 42 36 36 31 32 28 27 22 
21 18 15 14 10 8 4 3 -2 -1 -7 -6 -13 -12 -19 -16 
-24 -20 -30 -26 -35 -30 -40 -35 -45 -39 -49 -43 -54 -47 -58 -51 
-62 -54 -64 -58 -69 -61 -70 -63 -73 -67 -76 -68 -76 -70 -78 -72 
-79 -73 -80 -74 -79 -75 -80 -75 -79 -75 -78 -75 -77 -74 -75 -73 
-74 -72 -72 -71 -70 -69 -68 -66 -65 -65 -62 -62 -60 -60 -57 -58 
-53 -54 -51 -52 -48 -48 -45 -46 -41 -43 -39 -40 -36 -36 -33 -35 
-30 -31 -27 -28 -25 -26 -22 -24 -21 -21 -18 -18 -15 -17 -14 -15 
-13 -12 -10 -12 -9 -9 -8 -8 -7 -7 -6 -6 -4 -5 -4 -4 
-3 -4 -3 -2 -2 -2 -1 -2 -1 -1 -1 -1 -1 -1 -1 0 
1 0 0 0 1 1 1 1 1 1 2 2 2 2 3 3 
3 4 5 5 5 5 7 7 8 9 9 10 11 11 13 14 
16 16 18 19 20 21 23 25 27 27 30 31 33 35 38 39 
41 43 46 47 51 52 55 57 61 61 65 66 71 72 77 76 
81 82 88 86 93 92 98 96 105 101 109 105 115 109 120 113 
125 117 129 120 134 122 137 124 142 127 144 127 147 129 149 128 
151 128 151 128 152 125 152 124 151 122 149 118 147 116 143 111 
141 107 136 102 130 97 125 92 119 85 112 80 104 74 96 67 
87 60 78 54 68 47 58 39 48 32 38 25 26 18 15 10 
5 3 -7 -5 -19 -12 8113 3290 300 MP stroke
-29 -19 -40 -27 -51 -35 -61 -41 -71 -49 -82 -56 -90 -62 -99 -70 
-108 -76 -115 -83 -122 -89 -128 -94 -135 -101 -139 -105 -144 -110 -147 -115 
-151 -118 -152 -122 -155 -125 -154 -128 -156 -129 -154 -131 -153 -131 -152 -131 
-149 -132 -146 -130 -143 -128 -139 -127 -135 -124 -129 -121 -125 -118 -120 -114 
-114 -109 -109 -105 -103 -100 -97 -96 -91 -90 -85 -84 -79 -80 -74 -74 
-68 -68 -62 -64 -57 -58 -51 -53 -47 -48 -42 -44 -38 -39 -34 -35 
-29 -31 -27 -27 -22 -24 -20 -20 -17 -18 -14 -15 -13 -13 -10 -11 
-8 -9 -7 -7 -6 -6 -5 -5 -3 -4 -3 -3 -2 -2 -2 -2 
-1 -1 -1 -1 -1 -1 1 1 1 1 1 1 1 1 2 3 
3 3 4 3 4 5 6 7 8 7 9 10 11 12 14 14 
16 17 20 21 23 24 27 28 31 33 37 38 41 43 48 49 
54 55 60 62 68 70 76 76 83 85 93 93 102 101 111 110 
121 118 131 127 142 136 152 144 163 153 174 161 184 168 196 175 
206 182 217 188 227 193 237 197 246 200 255 203 263 205 271 204 
277 204 283 203 287 200 292 196 294 191 296 186 296 180 295 173 
292 165 289 156 285 148 278 139 270 130 262 120 251 111 239 101 
227 92 213 82 197 74 181 65 164 57 146 49 127 41 107 34 
86 27 66 20 44 13 23 7 1 0 -21 -6 -43 -13 -64 -19 
-85 -27 -106 -33 -126 -41 -145 -49 -165 -56 -181 -66 -199 -74 -214 -83 
-229 -93 -243 -102 -254 -112 -265 -122 -275 -132 -282 -141 -289 -151 -295 -160 
-298 -169 -301 -177 -302 -184 -302 -191 -300 -197 -298 -201 -293 -206 -289 -208 
-283 -210 -276 -210 -267 -210 -260 -208 -250 -205 -240 -202 -229 -197 -219 -191 
-208 -185 -197 -177 -185 -170 -173 -162 -162 -153 -151 -144 -139 -135 -128 -125 
-118 -116 -108 -107 -97 -98 -88 -89 -80 -80 -70 -72 -63 -65 -56 -57 
-48 -50 -42 -44 -37 -38 -31 -33 -27 -27 -23 -24 -18 -20 -16 -16 
-13 -13 -10 -11 -8 -9 -7 -7 -5 -5 -3 -4 -3 -3 -2 -2 
-2 -2 -1 -1 -1 -1 -1 -1 13330 7779 213 MP stroke
gs 10345 4947 1587 1437 rc
c10
  48   48 11772 6227 FO
  48   48 11599 6065 FO
  48   48 11414 5895 FO
  48   48 11217 5718 FO
  48   48 11009 5533 FO
  48   48 10790 5342 FO
  48   48 10561 5145 FO
  48   48 10461 5060 FO
  48   48 10688 5253 FO
  48   48 10905 5441 FO
  48   48 11111 5623 FO
  48   48 11307 5798 FO
  48   48 11491 5966 FO
  48   48 11665 6127 FO
  48   48 11828 6280 FO
  48   48 11742 6199 FO
  48   48 11613 6078 FO
  48   48 11478 5954 FO
  48   48 11339 5827 FO
  48   48 11196 5699 FO
  48   48 11050 5569 FO
  48   48 10901 5437 FO
  48   48 10749 5306 FO
  48   48 10596 5175 FO
  48   48 10442 5044 FO
  48   48 10518 5109 FO
  48   48 10669 5237 FO
  48   48 10818 5365 FO
  48   48 10965 5494 FO
  48   48 11109 5621 FO
  48   48 11251 5748 FO
  48   48 11388 5872 FO
  48   48 11522 5994 FO
  48   48 11651 6114 FO
  48   48 11776 6231 FO
  48   48 11820 6272 FO
  48   48 11741 6197 FO
  48   48 11661 6123 FO
  48   48 11582 6050 FO
  48   48 11504 5978 FO
  48   48 11428 5908 FO
  48   48 11352 5840 FO
  48   48 11279 5773 FO
  48   48 11209 5710 FO
  48   48 11140 5649 FO
  48   48 11076 5591 FO
  48   48 11014 5537 FO
  48   48 10956 5486 FO
  48   48 10902 5439 FO
  48   48 10853 5396 FO
  48   48 10808 5357 FO
  48   48 10768 5322 FO
  48   48 10733 5292 FO
  48   48 10703 5266 FO
  48   48 10679 5246 FO
  48   48 10660 5230 FO
  48   48 10647 5218 FO
  48   48 10640 5212 FO
  48   48 10638 5211 FO
  48   48 10642 5214 FO
  48   48 10652 5222 FO
  48   48 10667 5236 FO
  48   48 10688 5254 FO
  48   48 10715 5276 FO
  48   48 10747 5304 FO
  48   48 10783 5335 FO
  48   48 10825 5371 FO
  48   48 10871 5412 FO
  48   48 10922 5456 FO
  48   48 10977 5504 FO
  48   48 11035 5556 FO
  48   48 11097 5611 FO
  48   48 11162 5669 FO
  48   48 11231 5730 FO
  48   48 11301 5793 FO
  48   48 11374 5859 FO
  48   48 11448 5927 FO
  48   48 11524 5996 FO
  48   48 11601 6067 FO
  48   48 11678 6139 FO
  48   48 11756 6212 FO
  48   48 11834 6286 FO
gr

c10
72 w
gs 10826 5354 650 612 rc
c8
  36   36 11129 5639 PO
  36   36 10972 5500 PO
  36   36 11245 5743 PO
  36   36 11192 5695 PO
  36   36 10989 5515 PO
  36   36 11135 5644 PO
  36   36 11329 5819 PO
  36   36 11135 5644 PO
  36   36 11056 5574 PO
  36   36 11129 5639 PO
  36   36 11056 5574 PO
  36   36 10972 5500 PO
  36   36 11093 5607 PO
  36   36 11245 5743 PO
  36   36 11056 5574 PO
  36   36 11076 5591 PO
  36   36 11135 5644 PO
  36   36 11245 5743 PO
  36   36 11056 5574 PO
  36   36 11329 5819 PO
  36   36 11245 5743 PO
  36   36 11186 5690 PO
  36   36 11056 5574 PO
  36   36 11129 5639 PO
  36   36 11056 5574 PO
  36   36 10989 5515 PO
  36   36 11186 5690 PO
  36   36 11266 5762 PO
  36   36 11093 5607 PO
  36   36 11329 5819 PO
  36   36 11186 5690 PO
  36   36 10989 5515 PO
  36   36 11245 5743 PO
  36   36 11186 5690 PO
  36   36 11093 5607 PO
  36   36 11056 5574 PO
  36   36 11186 5690 PO
  36   36 11245 5743 PO
  36   36 11135 5644 PO
  36   36 11056 5574 PO
  36   36 11076 5591 PO
  36   36 11186 5690 PO
  36   36 11093 5607 PO
  36   36 11245 5743 PO
  36   36 11129 5639 PO
  36   36 11129 5639 FO
  36   36 10972 5500 FO
  36   36 11245 5743 FO
  36   36 11192 5695 FO
  36   36 10989 5515 FO
  36   36 11135 5644 FO
  36   36 11329 5819 FO
  36   36 11135 5644 FO
  36   36 11056 5574 FO
  36   36 11129 5639 FO
  36   36 11056 5574 FO
  36   36 10972 5500 FO
  36   36 11093 5607 FO
  36   36 11245 5743 FO
  36   36 11056 5574 FO
  36   36 11076 5591 FO
  36   36 11135 5644 FO
  36   36 11245 5743 FO
  36   36 11056 5574 FO
  36   36 11329 5819 FO
  36   36 11245 5743 FO
  36   36 11186 5690 FO
  36   36 11056 5574 FO
  36   36 11129 5639 FO
  36   36 11056 5574 FO
  36   36 10989 5515 FO
  36   36 11186 5690 FO
  36   36 11266 5762 FO
  36   36 11093 5607 FO
  36   36 11329 5819 FO
  36   36 11186 5690 FO
  36   36 10989 5515 FO
  36   36 11245 5743 FO
  36   36 11186 5690 FO
  36   36 11093 5607 FO
  36   36 11056 5574 FO
  36   36 11186 5690 FO
  36   36 11245 5743 FO
  36   36 11135 5644 FO
  36   36 11056 5574 FO
  36   36 11076 5591 FO
  36   36 11186 5690 FO
  36   36 11093 5607 FO
  36   36 11245 5743 FO
  36   36 11129 5639 FO
gr

c8
gs 8925 6136 293 293 rc
0 sg
  36   36 9071 6282 PO
  36   36 9071 6282 FO
gr

0 sg
6 w
gr

%%IncludeResource: font Courier-Bold
/Courier-Bold /WindowsLatin1Encoding 360 FMSR

7484 5319 mt 
(\( 0.7 , 0.2 \)) s

end %%Color Dict

eplot
%%EndObject

epage
end

showpage

%%Trailer
%%EOF
