%!PS-Adobe-3.0 EPSF-3.0
%%Creator: MATLAB, The MathWorks, Inc. Version 7.13.0.564 (R2011b). Operating System: Microsoft Windows XP.
%%Title: D:\DriveG\Sem2-2012\Program\ReferenceMetric-v3\metricfig\zdt1\zdt1-te.eps
%%CreationDate: 03/15/2013  01:07:05
%%DocumentNeededFonts: Helvetica
%%+ Times-Roman
%%DocumentProcessColors: Cyan Magenta Yellow Black
%%LanguageLevel: 2
%%Pages: 1
%%BoundingBox:   108   222   487   619
%%EndComments

%%BeginProlog
% MathWorks dictionary
/MathWorks 160 dict begin
% definition operators
/bdef {bind def} bind def
/ldef {load def} bind def
/xdef {exch def} bdef
/xstore {exch store} bdef
% operator abbreviations
/c  /clip ldef
/cc /concat ldef
/cp /closepath ldef
/gr /grestore ldef
/gs /gsave ldef
/mt /moveto ldef
/np /newpath ldef
/cm /currentmatrix ldef
/sm /setmatrix ldef
/rm /rmoveto ldef
/rl /rlineto ldef
/s {show newpath} bdef
/sc {setcmykcolor} bdef
/sr /setrgbcolor ldef
/sg /setgray ldef
/w /setlinewidth ldef
/j /setlinejoin ldef
/cap /setlinecap ldef
/rc {rectclip} bdef
/rf {rectfill} bdef
% page state control
/pgsv () def
/bpage {/pgsv save def} bdef
/epage {pgsv restore} bdef
/bplot /gsave ldef
/eplot {stroke grestore} bdef
% orientation switch
/portraitMode 0 def /landscapeMode 1 def /rotateMode 2 def
% coordinate system mappings
/dpi2point 0 def
% font control
/FontSize 0 def
/FMS {/FontSize xstore findfont [FontSize 0 0 FontSize neg 0 0]
  makefont setfont} bdef
/ISOLatin1Encoding where {pop /WindowsLatin1Encoding 256 array bdef
ISOLatin1Encoding WindowsLatin1Encoding copy pop
/.notdef/.notdef/quotesinglbase/florin/quotedblbase/ellipsis/dagger
/daggerdbl/circumflex/perthousand/Scaron/guilsinglleft/OE/.notdef/.notdef
/.notdef/.notdef/quoteleft/quoteright/quotedblleft/quotedblright/bullet
/endash/emdash/tilde/trademark/scaron/guilsinglright/oe/.notdef/.notdef
/Ydieresis WindowsLatin1Encoding 128 32 getinterval astore pop}
{/WindowsLatin1Encoding StandardEncoding bdef} ifelse
/reencode {exch dup where {pop load} {pop StandardEncoding} ifelse
  exch dup 3 1 roll findfont dup length dict begin
  { 1 index /FID ne {def}{pop pop} ifelse } forall
  /Encoding exch def currentdict end definefont pop} bdef
/isroman {findfont /CharStrings get /Agrave known} bdef
/FMSR {3 1 roll 1 index dup isroman {reencode} {pop pop} ifelse
  exch FMS} bdef
/csm {1 dpi2point div -1 dpi2point div scale neg translate
 dup landscapeMode eq {pop -90 rotate}
  {rotateMode eq {90 rotate} if} ifelse} bdef
% line types: solid, dotted, dashed, dotdash
/SO { [] 0 setdash } bdef
/DO { [.5 dpi2point mul 4 dpi2point mul] 0 setdash } bdef
/DA { [6 dpi2point mul] 0 setdash } bdef
/DD { [.5 dpi2point mul 4 dpi2point mul 6 dpi2point mul 4
  dpi2point mul] 0 setdash } bdef
% macros for lines and objects
/L {lineto stroke} bdef
/MP {3 1 roll moveto 1 sub {rlineto} repeat} bdef
/AP {{rlineto} repeat} bdef
/PDlw -1 def
/W {/PDlw currentlinewidth def setlinewidth} def
/PP {closepath eofill} bdef
/DP {closepath stroke} bdef
/MR {4 -2 roll moveto dup  0 exch rlineto exch 0 rlineto
  neg 0 exch rlineto closepath} bdef
/FR {MR stroke} bdef
/PR {MR fill} bdef
/L1i {{currentfile picstr readhexstring pop} image} bdef
/tMatrix matrix def
/MakeOval {newpath tMatrix currentmatrix pop translate scale
0 0 1 0 360 arc tMatrix setmatrix} bdef
/FO {MakeOval stroke} bdef
/PO {MakeOval fill} bdef
/PD {currentlinewidth 2 div 0 360 arc fill
   PDlw -1 eq not {PDlw w /PDlw -1 def} if} def
/FA {newpath tMatrix currentmatrix pop translate scale
  0 0 1 5 -2 roll arc tMatrix setmatrix stroke} bdef
/PA {newpath tMatrix currentmatrix pop	translate 0 0 moveto scale
  0 0 1 5 -2 roll arc closepath tMatrix setmatrix fill} bdef
/FAn {newpath tMatrix currentmatrix pop translate scale
  0 0 1 5 -2 roll arcn tMatrix setmatrix stroke} bdef
/PAn {newpath tMatrix currentmatrix pop translate 0 0 moveto scale
  0 0 1 5 -2 roll arcn closepath tMatrix setmatrix fill} bdef
/vradius 0 def /hradius 0 def /lry 0 def
/lrx 0 def /uly 0 def /ulx 0 def /rad 0 def
/MRR {/vradius xdef /hradius xdef /lry xdef /lrx xdef /uly xdef
  /ulx xdef newpath tMatrix currentmatrix pop ulx hradius add uly
  vradius add translate hradius vradius scale 0 0 1 180 270 arc 
  tMatrix setmatrix lrx hradius sub uly vradius add translate
  hradius vradius scale 0 0 1 270 360 arc tMatrix setmatrix
  lrx hradius sub lry vradius sub translate hradius vradius scale
  0 0 1 0 90 arc tMatrix setmatrix ulx hradius add lry vradius sub
  translate hradius vradius scale 0 0 1 90 180 arc tMatrix setmatrix
  closepath} bdef
/FRR {MRR stroke } bdef
/PRR {MRR fill } bdef
/MlrRR {/lry xdef /lrx xdef /uly xdef /ulx xdef /rad lry uly sub 2 div def
  newpath tMatrix currentmatrix pop ulx rad add uly rad add translate
  rad rad scale 0 0 1 90 270 arc tMatrix setmatrix lrx rad sub lry rad
  sub translate rad rad scale 0 0 1 270 90 arc tMatrix setmatrix
  closepath} bdef
/FlrRR {MlrRR stroke } bdef
/PlrRR {MlrRR fill } bdef
/MtbRR {/lry xdef /lrx xdef /uly xdef /ulx xdef /rad lrx ulx sub 2 div def
  newpath tMatrix currentmatrix pop ulx rad add uly rad add translate
  rad rad scale 0 0 1 180 360 arc tMatrix setmatrix lrx rad sub lry rad
  sub translate rad rad scale 0 0 1 0 180 arc tMatrix setmatrix
  closepath} bdef
/FtbRR {MtbRR stroke } bdef
/PtbRR {MtbRR fill } bdef
/stri 6 array def /dtri 6 array def
/smat 6 array def /dmat 6 array def
/tmat1 6 array def /tmat2 6 array def /dif 3 array def
/asub {/ind2 exch def /ind1 exch def dup dup
  ind1 get exch ind2 get sub exch } bdef
/tri_to_matrix {
  2 0 asub 3 1 asub 4 0 asub 5 1 asub
  dup 0 get exch 1 get 7 -1 roll astore } bdef
/compute_transform {
  dmat dtri tri_to_matrix tmat1 invertmatrix 
  smat stri tri_to_matrix tmat2 concatmatrix } bdef
/ds {stri astore pop} bdef
/dt {dtri astore pop} bdef
/db {2 copy /cols xdef /rows xdef mul dup 3 mul string
  currentfile 
  3 index 0 eq {/ASCIIHexDecode filter}
  {/ASCII85Decode filter 3 index 2 eq {/RunLengthDecode filter} if }
  ifelse exch readstring pop
  dup 0 3 index getinterval /rbmap xdef
  dup 2 index dup getinterval /gbmap xdef
  1 index dup 2 mul exch getinterval /bbmap xdef pop pop}bdef
/it {gs np dtri aload pop moveto lineto lineto cp c
  cols rows 8 compute_transform 
  rbmap gbmap bbmap true 3 colorimage gr}bdef
/il {newpath moveto lineto stroke}bdef
currentdict end def
%%EndProlog

%%BeginSetup
MathWorks begin

0 cap

end
%%EndSetup

%%Page: 1 1
%%BeginPageSetup
%%PageBoundingBox:   108   222   487   619
MathWorks begin
bpage
%%EndPageSetup

%%BeginObject: obj1
bplot

/dpi2point 12 def
portraitMode 1296 7428 csm

    0     0  4549  4754 rc
86 dict begin %Colortable dictionary
/c0 { 0.000000 0.000000 0.000000 sr} bdef
/c1 { 1.000000 1.000000 1.000000 sr} bdef
/c2 { 0.900000 0.000000 0.000000 sr} bdef
/c3 { 0.000000 0.820000 0.000000 sr} bdef
/c4 { 0.000000 0.000000 0.800000 sr} bdef
/c5 { 0.910000 0.820000 0.320000 sr} bdef
/c6 { 1.000000 0.260000 0.820000 sr} bdef
/c7 { 0.000000 0.820000 0.820000 sr} bdef
c0
1 j
1 sg
   0    0 4550 4755 rf
6 w
0 3566 3412 0 0 -3566 596 4479 4 MP
PP
-3412 0 0 3566 3412 0 0 -3566 596 4479 5 MP stroke
4 w
DO
SO
6 w
0 sg
 596  913 mt 4008  913 L
 596 4479 mt 4008 4479 L
4008 4479 mt 4008  913 L
 596 4479 mt  596  913 L
 596 4479 mt 4008 4479 L
 596 4479 mt  596  913 L
 596 4479 mt  596 4443 L
 596  913 mt  596  948 L
%%IncludeResource: font Times-Roman
/Times-Roman /WindowsLatin1Encoding 144 FMSR

 560 4642 mt 
(0) s
1278 4479 mt 1278 4443 L
1278  913 mt 1278  948 L
1188 4642 mt 
(0.2) s
1960 4479 mt 1960 4443 L
1960  913 mt 1960  948 L
1870 4642 mt 
(0.4) s
2643 4479 mt 2643 4443 L
2643  913 mt 2643  948 L
2553 4642 mt 
(0.6) s
3325 4479 mt 3325 4443 L
3325  913 mt 3325  948 L
3235 4642 mt 
(0.8) s
4008 4479 mt 4008 4443 L
4008  913 mt 4008  948 L
3972 4642 mt 
(1) s
 596 4479 mt  631 4479 L
4008 4479 mt 3972 4479 L
 489 4530 mt 
(0) s
 596 4122 mt  631 4122 L
4008 4122 mt 3972 4122 L
 381 4173 mt 
(0.1) s
 596 3765 mt  631 3765 L
4008 3765 mt 3972 3765 L
 381 3816 mt 
(0.2) s
 596 3409 mt  631 3409 L
4008 3409 mt 3972 3409 L
 381 3460 mt 
(0.3) s
 596 3052 mt  631 3052 L
4008 3052 mt 3972 3052 L
 381 3103 mt 
(0.4) s
 596 2696 mt  631 2696 L
4008 2696 mt 3972 2696 L
 381 2747 mt 
(0.5) s
 596 2339 mt  631 2339 L
4008 2339 mt 3972 2339 L
 381 2390 mt 
(0.6) s
 596 1982 mt  631 1982 L
4008 1982 mt 3972 1982 L
 381 2033 mt 
(0.7) s
 596 1626 mt  631 1626 L
4008 1626 mt 3972 1626 L
 381 1677 mt 
(0.8) s
 596 1269 mt  631 1269 L
4008 1269 mt 3972 1269 L
 381 1320 mt 
(0.9) s
 596  913 mt  631  913 L
4008  913 mt 3972  913 L
 489  964 mt 
(1) s
 596  913 mt 4008  913 L
 596 4479 mt 4008 4479 L
4008 4479 mt 4008  913 L
 596 4479 mt  596  913 L
gs 596 913 3413 3567 rc
27.6 w
/c8 { 0.000000 0.000000 1.000000 sr} bdef
c8
4 2 3 2 4 2 3 2 4 1 3 2 3 2 4 2 
3 2 4 1 3 2 3 2 4 2 3 2 4 1 3 2 
4 2 3 2 3 2 4 1 3 2 4 2 3 2 3 2 
4 1 3 2 4 2 3 2 3 2 4 1 3 2 4 2 
3 2 4 2 3 1 3 2 4 2 3 2 4 2 3 2 
3 1 4 2 3 2 4 2 3 2 3 1 4 2 3 2 
4 2 3 2 4 2 3 1 3 2 4 2 3 2 4 2 
3 2 3 1 4 2 3 2 4 2 3 2 3 2 4 1 
3 2 4 2 3 2 4 2 3 2 3 2 4 1 3 2 
4 2 3 2 3 2 4 2 3 2 4 1 3 2 3 2 
4 2 3 2 4 2 3 2 4 1 3 2 3 2 4 2 
3 2 4 2 3 2 3 1 4 2 3 2 4 2 3 2 
3 2 4 2 3 2 4 1 3 2 4 2 3 2 3 2 
4 2 3 2 4 2 3 2 3 1 4 2 3 2 4 2 
3 2 3 2 4 2 3 2 4 2 3 1 4 2 3 2 
3 2 4 2 3 2 4 2 3 2 3 2 4 2 3 2 
4 1 3 2 3 2 4 2 3 2 4 2 3 2 4 2 
3 2 3 2 4 2 3 2 4 1 3 2 3 2 4 2 
3 2 4 2 3 2 3 2 4 2 3 2 4 2 3 2 
4 2 3 2 3 1 4 2 3 2 4 2 3 2 3 2 
4 2 3 2 4 2 3 2 3 2 4 2 3 2 4 2 
3 2 4 2 3 2 3 2 4 2 3 2 4 2 3 1 
3 2 4 2 3 2 4 2 3 2 3 2 4 2 3 2 
4 2 3 2 4 2 3 2 3 2 4 2 3 2 4 2 
3 2 3 2 4 2 3 2 4 2 3 2 3 2 4 2 
3 2 4 2 3 2 4 2 3 2 3 2 4 2 3 2 
4 2 3 2 3 2 4 2 3 2 4 2 3 2 3 2 
4 2 3 2 4 2 3 2 4 2 3 2 3 2 4 2 
3 2 4 2 3 2 3 2 4 2 3 2 4 2 3 2 
3 2 4 2 3 3 4 2 3 2 4 2 3 2 3 2 
4 2 3 2 4 2 3 2 3 2 4 2 3 2 4 2 
3 2 3 2 4 2 3 2 4 2 3 2 4 3 3 2 
3 2 4 2 3 2 4 2 3 2 3 2 4 2 3 2 
4 2 3 2 4 2 3 3 3 2 4 2 3 2 4 2 
3 2 3 2 4 2 3 2 4 2 3 2 3 3 4 2 
3 2 4 2 3 2 4 2 3 2 3 2 4 2 3 3 
4 2 3 2 3 2 4 2 3 2 4 2 3 2 3 2 
4 3 3 2 4 2 2987 3898 300 MP stroke
3 2 4 2 3 2 3 2 4 3 3 2 4 2 3 2 
3 2 4 2 3 2 4 3 3 2 3 2 4 2 3 2 
4 2 3 2 4 3 3 2 3 2 4 2 3 2 4 2 
3 3 3 2 4 2 3 2 4 2 3 2 3 3 4 2 
3 2 4 2 3 2 4 3 3 2 3 2 4 2 3 2 
4 2 3 3 3 2 4 2 3 2 4 2 3 3 3 2 
4 2 3 2 4 2 3 3 4 2 3 2 3 2 4 3 
3 2 4 2 3 2 3 2 4 3 3 2 4 2 3 2 
3 3 4 2 3 2 4 2 3 3 4 2 3 2 3 2 
4 3 3 2 4 2 3 2 3 3 4 2 3 2 4 2 
3 3 3 2 4 2 3 2 4 3 3 2 4 2 3 3 
3 2 4 2 3 2 4 3 3 2 3 2 4 3 3 2 
4 2 3 2 3 3 4 2 3 2 4 3 3 2 4 2 
3 3 3 2 4 2 3 2 4 3 3 2 3 2 4 3 
3 2 4 2 3 3 3 2 4 2 3 3 4 2 3 2 
4 3 3 2 3 2 4 3 3 2 4 2 3 3 3 2 
4 3 3 2 4 2 3 3 3 2 4 2 3 3 4 2 
3 2 4 3 3 2 3 3 4 2 3 2 4 3 3 2 
3 2 4 3 3 2 4 3 3 2 3 2 4 3 3 2 
4 3 3 2 4 3 3 2 3 2 4 3 3 2 4 3 
3 2 3 2 4 3 3 2 4 3 3 2 3 3 4 2 
3 3 4 2 3 2 4 3 3 2 3 3 4 2 3 3 
4 2 3 3 3 2 4 3 3 2 4 2 3 3 3 2 
4 3 3 2 4 3 3 2 4 3 3 2 3 3 4 2 
3 3 4 2 3 3 3 2 4 3 3 2 4 3 3 2 
3 3 4 2 3 3 4 3 3 2 4 3 3 2 3 3 
4 2 3 3 4 2 3 3 3 2 4 3 3 3 4 2 
3 3 4 2 3 3 3 2 4 3 3 2 4 3 3 3 
3 2 4 3 3 2 4 3 3 3 3 2 4 3 3 2 
4 3 3 3 4 2 3 3 3 2 4 3 3 3 4 2 
3 3 3 3 4 2 3 3 4 2 3 3 3 3 4 2 
3 3 4 3 3 2 4 3 3 3 3 2 4 3 3 3 
4 2 3 3 3 3 4 2 3 3 4 3 3 2 3 3 
4 3 3 3 4 2 3 3 4 3 3 2 3 3 4 3 
3 3 4 2 3 3 3 3 4 2 3 3 4 3 3 3 
3 2 4 3 3 3 4 3 3 2 4 3 3 3 3 3 
4 3 3 2 4 3 3 3 3 3 4 3 3 2 4 3 
3 3 3 3 4 3 1967 3173 300 MP stroke
3 2 4 3 3 3 4 3 3 3 3 2 4 3 3 3 
4 3 3 3 3 3 4 3 3 2 4 3 3 3 3 3 
4 3 3 3 4 3 3 2 4 3 3 3 3 3 4 3 
3 3 4 3 3 3 3 3 4 3 3 3 4 2 3 3 
3 3 4 3 3 3 4 3 3 3 4 3 3 3 3 3 
4 3 3 3 4 3 3 3 3 3 4 3 3 3 4 3 
3 3 3 3 4 3 3 3 4 3 3 3 4 3 3 3 
3 3 4 3 3 3 4 3 3 3 3 3 4 3 3 3 
4 3 3 3 3 4 4 3 3 3 4 3 3 3 4 3 
3 3 3 3 4 3 3 3 4 4 3 3 3 3 4 3 
3 3 4 3 3 3 3 4 4 3 3 3 4 3 3 3 
4 3 3 4 3 3 4 3 3 3 4 3 3 4 3 3 
4 3 3 3 4 4 3 3 3 3 4 3 3 4 4 3 
3 3 4 3 3 4 3 3 4 3 3 4 4 3 3 3 
3 3 4 4 3 3 4 3 3 4 3 3 4 3 3 4 
4 3 3 4 4 3 3 3 3 4 4 3 3 3 4 4 
3 3 3 4 4 3 3 4 4 3 3 3 3 4 4 3 
3 4 4 3 3 4 4 3 3 4 3 3 4 4 3 3 
4 4 3 3 3 4 4 3 3 4 4 3 3 4 3 3 
4 4 3 4 4 3 3 4 4 3 3 4 3 4 4 3 
3 4 4 4 3 3 3 4 4 3 3 4 4 4 3 3 
4 4 3 4 3 4 4 3 3 4 4 4 3 3 3 4 
4 4 3 4 4 4 3 3 3 4 4 4 3 4 4 4 
3 3 4 4 3 4 3 4 4 4 3 4 4 3 3 4 
3 4 4 4 3 4 4 4 3 4 3 4 4 4 3 4 
4 4 3 4 4 4 3 4 3 4 4 4 3 4 4 4 
3 4 3 4 4 4 3 4 4 4 3 4 3 4 4 5 
3 4 4 4 3 4 4 4 3 4 3 5 4 4 3 4 
4 4 3 4 3 5 4 4 3 4 4 5 3 4 3 4 
4 5 3 4 4 4 3 5 4 4 3 4 3 5 4 4 
3 5 4 4 3 5 3 4 4 5 3 4 4 5 3 4 
3 5 4 4 3 5 4 4 3 5 4 5 3 4 3 5 
4 5 3 4 4 5 3 5 3 4 4 5 3 5 4 5 
3 5 3 4 4 5 3 5 4 5 3 5 4 5 3 5 
3 5 4 5 3 5 4 5 3 5 3 5 4 5 3 5 
4 5 3 5 3 5 4 6 3 5 4 5 3 5 4 5 
3 6 3 5 4 5 3 6 4 5 3 6 3 5 4 5 
3 6 4 5 3 6 947 2057 300 MP stroke
3 6 4 5 3 6 4 5 3 6 4 6 3 6 3 5 
4 6 3 6 4 6 3 6 3 6 4 6 3 6 4 6 
3 6 3 6 4 6 3 6 4 6 3 7 4 6 3 6 
3 7 4 6 3 6 4 7 3 6 3 7 4 7 3 6 
4 7 3 7 3 7 4 6 3 7 4 7 3 7 4 7 
3 8 3 7 4 7 3 7 4 8 3 7 3 8 4 7 
3 8 4 8 3 7 3 8 4 8 3 8 4 8 3 8 
4 9 3 8 3 8 4 9 3 9 4 8 3 9 3 9 
4 9 3 10 4 9 3 9 3 10 4 10 3 10 4 10 
3 10 4 10 3 11 3 11 4 10 3 12 4 11 3 12 
3 12 4 12 3 12 4 13 3 13 3 14 4 13 3 15 
4 15 3 15 4 16 3 16 3 18 4 18 3 20 4 20 
3 22 3 24 4 27 3 30 4 36 3 47 3 112 596 913 104 MP stroke
36 w
gs 2565 3598 729 517 rc
/c9 { 0.000000 1.000000 1.000000 sr} bdef
c9
  18   18 2639 3672 FO
  18   18 2643 3675 FO
  18   18 2646 3677 FO
  18   18 2650 3679 FO
  18   18 2653 3682 FO
  18   18 2656 3684 FO
  18   18 2660 3686 FO
  18   18 2663 3688 FO
  18   18 2667 3691 FO
  18   18 2670 3693 FO
  18   18 2673 3695 FO
  18   18 2677 3698 FO
  18   18 2680 3700 FO
  18   18 2684 3702 FO
  18   18 2687 3704 FO
  18   18 2690 3707 FO
  18   18 2694 3709 FO
  18   18 2697 3711 FO
  18   18 2701 3714 FO
  18   18 2704 3716 FO
  18   18 2708 3718 FO
  18   18 2711 3720 FO
  18   18 2714 3723 FO
  18   18 2718 3725 FO
  18   18 2721 3727 FO
  18   18 2725 3729 FO
  18   18 2728 3732 FO
  18   18 2731 3734 FO
  18   18 2735 3736 FO
  18   18 2738 3738 FO
  18   18 2742 3741 FO
  18   18 2745 3743 FO
  18   18 2748 3745 FO
  18   18 2752 3747 FO
  18   18 2755 3750 FO
  18   18 2759 3752 FO
  18   18 2762 3754 FO
  18   18 2766 3756 FO
  18   18 2769 3759 FO
  18   18 2772 3761 FO
  18   18 2776 3763 FO
  18   18 2779 3765 FO
  18   18 2783 3768 FO
  18   18 2786 3770 FO
  18   18 2789 3772 FO
  18   18 2793 3774 FO
  18   18 2796 3776 FO
  18   18 2800 3779 FO
  18   18 2803 3781 FO
  18   18 2806 3783 FO
  18   18 2810 3785 FO
  18   18 2813 3788 FO
  18   18 2817 3790 FO
  18   18 2820 3792 FO
  18   18 2824 3794 FO
  18   18 2827 3796 FO
  18   18 2830 3799 FO
  18   18 2834 3801 FO
  18   18 2837 3803 FO
  18   18 2841 3805 FO
  18   18 2844 3807 FO
  18   18 2847 3810 FO
  18   18 2851 3812 FO
  18   18 2854 3814 FO
  18   18 2858 3816 FO
  18   18 2861 3818 FO
  18   18 2864 3820 FO
  18   18 2868 3823 FO
  18   18 2871 3825 FO
  18   18 2875 3827 FO
  18   18 2878 3829 FO
  18   18 2882 3831 FO
  18   18 2885 3834 FO
  18   18 2888 3836 FO
  18   18 2892 3838 FO
  18   18 2895 3840 FO
  18   18 2899 3842 FO
  18   18 2902 3844 FO
  18   18 2905 3847 FO
  18   18 2909 3849 FO
  18   18 2912 3851 FO
  18   18 2916 3853 FO
  18   18 2919 3855 FO
  18   18 2922 3857 FO
  18   18 2926 3860 FO
  18   18 2929 3862 FO
  18   18 2933 3864 FO
  18   18 2936 3866 FO
  18   18 2940 3868 FO
  18   18 2943 3870 FO
  18   18 2946 3872 FO
  18   18 2950 3875 FO
  18   18 2953 3877 FO
  18   18 2957 3879 FO
  18   18 2960 3881 FO
  18   18 2963 3883 FO
  18   18 2967 3885 FO
  18   18 2970 3887 FO
  18   18 2974 3890 FO
  18   18 2977 3892 FO
  18   18 2980 3894 FO
  18   18 2984 3896 FO
  18   18 2987 3898 FO
  18   18 2991 3900 FO
  18   18 2994 3902 FO
  18   18 2998 3905 FO
  18   18 3001 3907 FO
  18   18 3004 3909 FO
  18   18 3008 3911 FO
  18   18 3011 3913 FO
  18   18 3015 3915 FO
  18   18 3018 3917 FO
  18   18 3021 3919 FO
  18   18 3025 3921 FO
  18   18 3028 3924 FO
  18   18 3032 3926 FO
  18   18 3035 3928 FO
  18   18 3038 3930 FO
  18   18 3042 3932 FO
  18   18 3045 3934 FO
  18   18 3049 3936 FO
  18   18 3052 3938 FO
  18   18 3056 3940 FO
  18   18 3059 3943 FO
  18   18 3062 3945 FO
  18   18 3066 3947 FO
  18   18 3069 3949 FO
  18   18 3073 3951 FO
  18   18 3076 3953 FO
  18   18 3079 3955 FO
  18   18 3083 3957 FO
  18   18 3086 3959 FO
  18   18 3090 3961 FO
  18   18 3093 3963 FO
  18   18 3096 3966 FO
  18   18 3100 3968 FO
  18   18 3103 3970 FO
  18   18 3107 3972 FO
  18   18 3110 3974 FO
  18   18 3114 3976 FO
  18   18 3117 3978 FO
  18   18 3120 3980 FO
  18   18 3124 3982 FO
  18   18 3127 3984 FO
  18   18 3131 3986 FO
  18   18 3134 3988 FO
  18   18 3137 3990 FO
  18   18 3141 3993 FO
  18   18 3144 3995 FO
  18   18 3148 3997 FO
  18   18 3151 3999 FO
  18   18 3155 4001 FO
  18   18 3158 4003 FO
  18   18 3161 4005 FO
  18   18 3165 4007 FO
  18   18 3168 4009 FO
  18   18 3172 4011 FO
  18   18 3175 4013 FO
  18   18 3178 4015 FO
  18   18 3182 4017 FO
  18   18 3185 4019 FO
  18   18 3189 4021 FO
  18   18 3192 4023 FO
  18   18 3195 4025 FO
  18   18 3199 4027 FO
  18   18 3202 4029 FO
  18   18 3206 4031 FO
  18   18 3209 4034 FO
  18   18 3213 4036 FO
  18   18 3216 4038 FO
  18   18 3219 4040 FO
gr

c9
gs 2960 3853 328 258 rc
0 j
0 -30 -30 0 0 30 30 0 3110 3968 5 MP
/c10 { 1.000000 0.000000 0.000000 sr} bdef
c10
gs
PP
gr
DP
0 -30 -30 0 0 30 30 0 3019 3912 5 MP
gs
PP
gr
DP
0 -30 -30 0 0 30 30 0 3169 4004 5 MP
gs
PP
gr
DP
0 -30 -30 0 0 30 30 0 3139 3986 5 MP
gs
PP
gr
DP
0 -30 -30 0 0 30 30 0 3025 3916 5 MP
gs
PP
gr
DP
0 -30 -30 0 0 30 30 0 3092 3957 5 MP
gs
PP
gr
DP
0 -30 -30 0 0 30 30 0 3198 4021 5 MP
gs
PP
gr
DP
0 -30 -30 0 0 30 30 0 3110 3968 5 MP
gs
PP
gr
DP
0 -30 -30 0 0 30 30 0 3048 3930 5 MP
gs
PP
gr
DP
0 -30 -30 0 0 30 30 0 3034 3921 5 MP
gs
PP
gr
DP
0 -30 -30 0 0 30 30 0 3081 3950 5 MP
gs
PP
gr
DP
0 -30 -30 0 0 30 30 0 3048 3930 5 MP
gs
PP
gr
DP
0 -30 -30 0 0 30 30 0 3019 3912 5 MP
gs
PP
gr
DP
0 -30 -30 0 0 30 30 0 3067 3941 5 MP
gs
PP
gr
DP
0 -30 -30 0 0 30 30 0 3152 3994 5 MP
gs
PP
gr
DP
0 -30 -30 0 0 30 30 0 3055 3934 5 MP
gs
PP
gr
DP
0 -30 -30 0 0 30 30 0 3115 3971 5 MP
gs
PP
gr
DP
0 -30 -30 0 0 30 30 0 3139 3986 5 MP
gs
PP
gr
DP
0 -30 -30 0 0 30 30 0 3025 3916 5 MP
gs
PP
gr
DP
0 -30 -30 0 0 30 30 0 3198 4021 5 MP
gs
PP
gr
DP
0 -30 -30 0 0 30 30 0 3152 3994 5 MP
gs
PP
gr
DP
0 -30 -30 0 0 30 30 0 3110 3968 5 MP
gs
PP
gr
DP
0 -30 -30 0 0 30 30 0 3055 3934 5 MP
gs
PP
gr
DP
0 -30 -30 0 0 30 30 0 3025 3916 5 MP
gs
PP
gr
DP
0 -30 -30 0 0 30 30 0 3092 3957 5 MP
gs
PP
gr
DP
0 -30 -30 0 0 30 30 0 3163 4000 5 MP
gs
PP
gr
DP
0 -30 -30 0 0 30 30 0 3198 4021 5 MP
gs
PP
gr
DP
0 -30 -30 0 0 30 30 0 3139 3986 5 MP
gs
PP
gr
DP
0 -30 -30 0 0 30 30 0 3034 3921 5 MP
gs
PP
gr
DP
0 -30 -30 0 0 30 30 0 3139 3986 5 MP
gs
PP
gr
DP
0 -30 -30 0 0 30 30 0 3067 3941 5 MP
gs
PP
gr
DP
0 -30 -30 0 0 30 30 0 3048 3930 5 MP
gs
PP
gr
DP
0 -30 -30 0 0 30 30 0 3132 3981 5 MP
gs
PP
gr
DP
0 -30 -30 0 0 30 30 0 3163 4000 5 MP
gs
PP
gr
DP
0 -30 -30 0 0 30 30 0 3110 3968 5 MP
gs
PP
gr
DP
0 -30 -30 0 0 30 30 0 3055 3934 5 MP
gs
PP
gr
DP
0 -30 -30 0 0 30 30 0 3139 3986 5 MP
gs
PP
gr
DP
0 -30 -30 0 0 30 30 0 3067 3941 5 MP
gs
PP
gr
DP
0 -30 -30 0 0 30 30 0 3132 3981 5 MP
gs
PP
gr
DP
0 -30 -30 0 0 30 30 0 3067 3942 5 MP
gs
PP
gr
DP
gr

c10
gs 2910 3691 149 149 rc
0 sg
  18   18 2984 3765 FO
gr

0 sg
gr

36 w
%%IncludeResource: font Helvetica
/Helvetica /WindowsLatin1Encoding 120 FMSR

 579 4522 mt 
( ) s
3992  955 mt 
( ) s
6 w
1 sg
0 540 2133 0 0 -540 1817 1495 4 MP
PP
-2133 0 0 540 2133 0 0 -540 1817 1495 5 MP stroke
4 w
DO
SO
6 w
1817  955 mt 3950  955 L
1817 1495 mt 3950 1495 L
3950 1495 mt 3950  955 L
1817 1495 mt 1817  955 L
1817 1495 mt 3950 1495 L
1817 1495 mt 1817  955 L
1817  955 mt 3950  955 L
1817 1495 mt 3950 1495 L
3950 1495 mt 3950  955 L
1817 1495 mt 1817  955 L
0 sg
%%IncludeResource: font Times-Roman
/Times-Roman /WindowsLatin1Encoding 192 FMSR

2285 1167 mt 
(Preferred Region) s
gs 1817 955 2134 541 rc
36 w
gs 1995 1026 149 149 rc
c9
  18   18 2069 1100 FO
gr

c9
gr

36 w
c9
0 sg
2285 1416 mt 
(Obtained Soloutions) s
gs 1817 955 2134 541 rc
gs 1995 1275 149 149 rc
0 j
0 -30 -30 0 0 30 30 0 2054 1334 5 MP
c10
gs
PP
gr
DP
gr

c10
6 w
gr

6 w
c10
0 sg
2944 3223 mt 
(\( 0.7 , 0.2 \)) s

end %%Color Dict

eplot
%%EndObject

epage
end

showpage

%%Trailer
%%EOF
