%!PS-Adobe-3.0 EPSF-3.0
%%Creator: MATLAB, The MathWorks, Inc. Version 7.13.0.564 (R2011b). Operating System: Microsoft Windows XP.
%%Title: D:\DriveG\Sem2-2012\Program\ReferenceMetric-v3\metricfig\zdt1\zdt1-ws.eps
%%CreationDate: 03/15/2013  01:06:52
%%DocumentNeededFonts: Helvetica
%%+ Times-Roman
%%DocumentProcessColors: Cyan Magenta Yellow Black
%%LanguageLevel: 2
%%Pages: 1
%%BoundingBox:   108   222   487   619
%%EndComments

%%BeginProlog
% MathWorks dictionary
/MathWorks 160 dict begin
% definition operators
/bdef {bind def} bind def
/ldef {load def} bind def
/xdef {exch def} bdef
/xstore {exch store} bdef
% operator abbreviations
/c  /clip ldef
/cc /concat ldef
/cp /closepath ldef
/gr /grestore ldef
/gs /gsave ldef
/mt /moveto ldef
/np /newpath ldef
/cm /currentmatrix ldef
/sm /setmatrix ldef
/rm /rmoveto ldef
/rl /rlineto ldef
/s {show newpath} bdef
/sc {setcmykcolor} bdef
/sr /setrgbcolor ldef
/sg /setgray ldef
/w /setlinewidth ldef
/j /setlinejoin ldef
/cap /setlinecap ldef
/rc {rectclip} bdef
/rf {rectfill} bdef
% page state control
/pgsv () def
/bpage {/pgsv save def} bdef
/epage {pgsv restore} bdef
/bplot /gsave ldef
/eplot {stroke grestore} bdef
% orientation switch
/portraitMode 0 def /landscapeMode 1 def /rotateMode 2 def
% coordinate system mappings
/dpi2point 0 def
% font control
/FontSize 0 def
/FMS {/FontSize xstore findfont [FontSize 0 0 FontSize neg 0 0]
  makefont setfont} bdef
/ISOLatin1Encoding where {pop /WindowsLatin1Encoding 256 array bdef
ISOLatin1Encoding WindowsLatin1Encoding copy pop
/.notdef/.notdef/quotesinglbase/florin/quotedblbase/ellipsis/dagger
/daggerdbl/circumflex/perthousand/Scaron/guilsinglleft/OE/.notdef/.notdef
/.notdef/.notdef/quoteleft/quoteright/quotedblleft/quotedblright/bullet
/endash/emdash/tilde/trademark/scaron/guilsinglright/oe/.notdef/.notdef
/Ydieresis WindowsLatin1Encoding 128 32 getinterval astore pop}
{/WindowsLatin1Encoding StandardEncoding bdef} ifelse
/reencode {exch dup where {pop load} {pop StandardEncoding} ifelse
  exch dup 3 1 roll findfont dup length dict begin
  { 1 index /FID ne {def}{pop pop} ifelse } forall
  /Encoding exch def currentdict end definefont pop} bdef
/isroman {findfont /CharStrings get /Agrave known} bdef
/FMSR {3 1 roll 1 index dup isroman {reencode} {pop pop} ifelse
  exch FMS} bdef
/csm {1 dpi2point div -1 dpi2point div scale neg translate
 dup landscapeMode eq {pop -90 rotate}
  {rotateMode eq {90 rotate} if} ifelse} bdef
% line types: solid, dotted, dashed, dotdash
/SO { [] 0 setdash } bdef
/DO { [.5 dpi2point mul 4 dpi2point mul] 0 setdash } bdef
/DA { [6 dpi2point mul] 0 setdash } bdef
/DD { [.5 dpi2point mul 4 dpi2point mul 6 dpi2point mul 4
  dpi2point mul] 0 setdash } bdef
% macros for lines and objects
/L {lineto stroke} bdef
/MP {3 1 roll moveto 1 sub {rlineto} repeat} bdef
/AP {{rlineto} repeat} bdef
/PDlw -1 def
/W {/PDlw currentlinewidth def setlinewidth} def
/PP {closepath eofill} bdef
/DP {closepath stroke} bdef
/MR {4 -2 roll moveto dup  0 exch rlineto exch 0 rlineto
  neg 0 exch rlineto closepath} bdef
/FR {MR stroke} bdef
/PR {MR fill} bdef
/L1i {{currentfile picstr readhexstring pop} image} bdef
/tMatrix matrix def
/MakeOval {newpath tMatrix currentmatrix pop translate scale
0 0 1 0 360 arc tMatrix setmatrix} bdef
/FO {MakeOval stroke} bdef
/PO {MakeOval fill} bdef
/PD {currentlinewidth 2 div 0 360 arc fill
   PDlw -1 eq not {PDlw w /PDlw -1 def} if} def
/FA {newpath tMatrix currentmatrix pop translate scale
  0 0 1 5 -2 roll arc tMatrix setmatrix stroke} bdef
/PA {newpath tMatrix currentmatrix pop	translate 0 0 moveto scale
  0 0 1 5 -2 roll arc closepath tMatrix setmatrix fill} bdef
/FAn {newpath tMatrix currentmatrix pop translate scale
  0 0 1 5 -2 roll arcn tMatrix setmatrix stroke} bdef
/PAn {newpath tMatrix currentmatrix pop translate 0 0 moveto scale
  0 0 1 5 -2 roll arcn closepath tMatrix setmatrix fill} bdef
/vradius 0 def /hradius 0 def /lry 0 def
/lrx 0 def /uly 0 def /ulx 0 def /rad 0 def
/MRR {/vradius xdef /hradius xdef /lry xdef /lrx xdef /uly xdef
  /ulx xdef newpath tMatrix currentmatrix pop ulx hradius add uly
  vradius add translate hradius vradius scale 0 0 1 180 270 arc 
  tMatrix setmatrix lrx hradius sub uly vradius add translate
  hradius vradius scale 0 0 1 270 360 arc tMatrix setmatrix
  lrx hradius sub lry vradius sub translate hradius vradius scale
  0 0 1 0 90 arc tMatrix setmatrix ulx hradius add lry vradius sub
  translate hradius vradius scale 0 0 1 90 180 arc tMatrix setmatrix
  closepath} bdef
/FRR {MRR stroke } bdef
/PRR {MRR fill } bdef
/MlrRR {/lry xdef /lrx xdef /uly xdef /ulx xdef /rad lry uly sub 2 div def
  newpath tMatrix currentmatrix pop ulx rad add uly rad add translate
  rad rad scale 0 0 1 90 270 arc tMatrix setmatrix lrx rad sub lry rad
  sub translate rad rad scale 0 0 1 270 90 arc tMatrix setmatrix
  closepath} bdef
/FlrRR {MlrRR stroke } bdef
/PlrRR {MlrRR fill } bdef
/MtbRR {/lry xdef /lrx xdef /uly xdef /ulx xdef /rad lrx ulx sub 2 div def
  newpath tMatrix currentmatrix pop ulx rad add uly rad add translate
  rad rad scale 0 0 1 180 360 arc tMatrix setmatrix lrx rad sub lry rad
  sub translate rad rad scale 0 0 1 0 180 arc tMatrix setmatrix
  closepath} bdef
/FtbRR {MtbRR stroke } bdef
/PtbRR {MtbRR fill } bdef
/stri 6 array def /dtri 6 array def
/smat 6 array def /dmat 6 array def
/tmat1 6 array def /tmat2 6 array def /dif 3 array def
/asub {/ind2 exch def /ind1 exch def dup dup
  ind1 get exch ind2 get sub exch } bdef
/tri_to_matrix {
  2 0 asub 3 1 asub 4 0 asub 5 1 asub
  dup 0 get exch 1 get 7 -1 roll astore } bdef
/compute_transform {
  dmat dtri tri_to_matrix tmat1 invertmatrix 
  smat stri tri_to_matrix tmat2 concatmatrix } bdef
/ds {stri astore pop} bdef
/dt {dtri astore pop} bdef
/db {2 copy /cols xdef /rows xdef mul dup 3 mul string
  currentfile 
  3 index 0 eq {/ASCIIHexDecode filter}
  {/ASCII85Decode filter 3 index 2 eq {/RunLengthDecode filter} if }
  ifelse exch readstring pop
  dup 0 3 index getinterval /rbmap xdef
  dup 2 index dup getinterval /gbmap xdef
  1 index dup 2 mul exch getinterval /bbmap xdef pop pop}bdef
/it {gs np dtri aload pop moveto lineto lineto cp c
  cols rows 8 compute_transform 
  rbmap gbmap bbmap true 3 colorimage gr}bdef
/il {newpath moveto lineto stroke}bdef
currentdict end def
%%EndProlog

%%BeginSetup
MathWorks begin

0 cap

end
%%EndSetup

%%Page: 1 1
%%BeginPageSetup
%%PageBoundingBox:   108   222   487   619
MathWorks begin
bpage
%%EndPageSetup

%%BeginObject: obj1
bplot

/dpi2point 12 def
portraitMode 1296 7428 csm

    0     0  4549  4754 rc
87 dict begin %Colortable dictionary
/c0 { 0.000000 0.000000 0.000000 sr} bdef
/c1 { 1.000000 1.000000 1.000000 sr} bdef
/c2 { 0.900000 0.000000 0.000000 sr} bdef
/c3 { 0.000000 0.820000 0.000000 sr} bdef
/c4 { 0.000000 0.000000 0.800000 sr} bdef
/c5 { 0.910000 0.820000 0.320000 sr} bdef
/c6 { 1.000000 0.260000 0.820000 sr} bdef
/c7 { 0.000000 0.820000 0.820000 sr} bdef
c0
1 j
1 sg
   0    0 4550 4755 rf
6 w
0 3565 3411 0 0 -3565 452 4611 4 MP
PP
-3411 0 0 3565 3411 0 0 -3565 452 4611 5 MP stroke
4 w
DO
SO
6 w
0 sg
 452 1046 mt 3863 1046 L
 452 4611 mt 3863 4611 L
3863 4611 mt 3863 1046 L
 452 4611 mt  452 1046 L
 452 4611 mt 3863 4611 L
 452 4611 mt  452 1046 L
 452 4611 mt  452 4575 L
 452 1046 mt  452 1081 L
%%IncludeResource: font Times-Roman
/Times-Roman /WindowsLatin1Encoding 144 FMSR

 416 4774 mt 
(0) s
1134 4611 mt 1134 4575 L
1134 1046 mt 1134 1081 L
1044 4774 mt 
(0.2) s
1816 4611 mt 1816 4575 L
1816 1046 mt 1816 1081 L
1726 4774 mt 
(0.4) s
2498 4611 mt 2498 4575 L
2498 1046 mt 2498 1081 L
2408 4774 mt 
(0.6) s
3180 4611 mt 3180 4575 L
3180 1046 mt 3180 1081 L
3090 4774 mt 
(0.8) s
3863 4611 mt 3863 4575 L
3863 1046 mt 3863 1081 L
3827 4774 mt 
(1) s
 452 4611 mt  487 4611 L
3863 4611 mt 3827 4611 L
 345 4662 mt 
(0) s
 452 4254 mt  487 4254 L
3863 4254 mt 3827 4254 L
 237 4305 mt 
(0.1) s
 452 3898 mt  487 3898 L
3863 3898 mt 3827 3898 L
 237 3949 mt 
(0.2) s
 452 3541 mt  487 3541 L
3863 3541 mt 3827 3541 L
 237 3592 mt 
(0.3) s
 452 3185 mt  487 3185 L
3863 3185 mt 3827 3185 L
 237 3236 mt 
(0.4) s
 452 2828 mt  487 2828 L
3863 2828 mt 3827 2828 L
 237 2879 mt 
(0.5) s
 452 2471 mt  487 2471 L
3863 2471 mt 3827 2471 L
 237 2522 mt 
(0.6) s
 452 2115 mt  487 2115 L
3863 2115 mt 3827 2115 L
 237 2166 mt 
(0.7) s
 452 1759 mt  487 1759 L
3863 1759 mt 3827 1759 L
 237 1810 mt 
(0.8) s
 452 1402 mt  487 1402 L
3863 1402 mt 3827 1402 L
 237 1453 mt 
(0.9) s
 452 1046 mt  487 1046 L
3863 1046 mt 3827 1046 L
 345 1097 mt 
(1) s
 452 1046 mt 3863 1046 L
 452 4611 mt 3863 4611 L
3863 4611 mt 3863 1046 L
 452 4611 mt  452 1046 L
gs 452 1046 3412 3566 rc
27.6 w
/c8 { 0.000000 0.000000 1.000000 sr} bdef
c8
4 2 3 2 4 2 3 2 4 1 3 2 3 2 4 2 
3 2 4 1 3 2 3 2 4 2 3 2 4 1 3 2 
3 2 4 2 3 2 4 1 3 2 4 2 3 2 3 2 
4 1 3 2 4 2 3 2 3 2 4 1 3 2 4 2 
3 2 3 2 4 1 3 2 4 2 3 2 4 2 3 2 
3 1 4 2 3 2 4 2 3 2 3 1 4 2 3 2 
4 2 3 2 3 2 4 1 3 2 4 2 3 2 4 2 
3 2 3 1 4 2 3 2 4 2 3 2 3 2 4 1 
3 2 4 2 3 2 3 2 4 2 3 2 4 1 3 2 
4 2 3 2 3 2 4 2 3 2 4 1 3 2 3 2 
4 2 3 2 4 2 3 2 3 1 4 2 3 2 4 2 
3 2 3 2 4 2 3 1 4 2 3 2 4 2 3 2 
3 2 4 2 3 2 4 1 3 2 3 2 4 2 3 2 
4 2 3 2 3 2 4 2 3 1 4 2 3 2 4 2 
3 2 3 2 4 2 3 2 4 2 3 1 3 2 4 2 
3 2 4 2 3 2 3 2 4 2 3 2 4 2 3 1 
4 2 3 2 3 2 4 2 3 2 4 2 3 2 3 2 
4 2 3 2 4 2 3 1 3 2 4 2 3 2 4 2 
3 2 4 2 3 2 3 2 4 2 3 2 4 2 3 2 
3 2 4 1 3 2 4 2 3 2 3 2 4 2 3 2 
4 2 3 2 3 2 4 2 3 2 4 2 3 2 4 2 
3 2 3 2 4 2 3 2 4 2 3 1 3 2 4 2 
3 2 4 2 3 2 3 2 4 2 3 2 4 2 3 2 
4 2 3 2 3 2 4 2 3 2 4 2 3 2 3 2 
4 2 3 2 4 2 3 2 3 2 4 2 3 2 4 2 
3 2 4 2 3 2 3 2 4 2 3 2 4 2 3 2 
3 2 4 2 3 2 4 2 3 2 3 2 4 2 3 2 
4 2 3 2 4 2 3 2 3 2 4 2 3 2 4 2 
3 2 3 2 4 2 3 2 4 2 3 2 3 2 4 2 
3 2 4 2 3 2 3 2 4 2 3 3 4 2 3 2 
4 2 3 2 3 2 4 2 3 2 4 2 3 2 3 2 
4 2 3 2 4 2 3 2 3 2 4 2 3 2 4 2 
3 3 4 2 3 2 3 2 4 2 3 2 4 2 3 2 
3 2 4 2 3 2 4 2 3 2 3 3 4 2 3 2 
4 2 3 2 4 2 3 2 3 2 4 2 3 2 4 2 
3 3 3 2 4 2 3 2 4 2 3 2 3 2 4 2 
3 2 4 3 3 2 4 2 3 2 3 2 4 2 3 2 
4 2 3 3 3 2 2843 4030 300 MP stroke
4 2 3 2 4 2 3 2 3 2 4 2 3 3 4 2 
3 2 3 2 4 2 3 2 4 2 3 3 4 2 3 2 
3 2 4 2 3 2 4 3 3 2 3 2 4 2 3 2 
4 2 3 3 3 2 4 2 3 2 4 2 3 2 4 3 
3 2 3 2 4 2 3 2 4 3 3 2 3 2 4 2 
3 2 4 2 3 3 3 2 4 2 3 2 4 2 3 3 
4 2 3 2 3 2 4 3 3 2 4 2 3 2 3 2 
4 3 3 2 4 2 3 2 3 2 4 3 3 2 4 2 
3 2 4 3 3 2 3 2 4 2 3 3 4 2 3 2 
3 2 4 3 3 2 4 2 3 2 3 3 4 2 3 2 
4 2 3 3 4 2 3 2 3 2 4 3 3 2 4 2 
3 3 3 2 4 2 3 2 4 3 3 2 3 2 4 3 
3 2 4 2 3 2 3 3 4 2 3 2 4 3 3 2 
4 2 3 3 3 2 4 2 3 3 4 2 3 2 3 2 
4 3 3 2 4 2 3 3 3 2 4 2 3 3 4 2 
3 2 4 3 3 2 3 3 4 2 3 2 4 3 3 2 
3 2 4 3 3 2 4 2 3 3 3 2 4 2 3 3 
4 2 3 3 4 2 3 2 3 3 4 2 3 2 4 3 
3 2 3 3 4 2 3 2 4 3 3 2 3 3 4 2 
3 2 4 3 3 2 4 3 3 2 3 3 4 2 3 2 
4 3 3 2 3 3 4 2 3 2 4 3 3 2 3 3 
4 2 3 3 4 2 3 3 3 2 4 2 3 3 4 2 
3 3 4 2 3 3 3 2 4 3 3 2 4 3 3 2 
3 3 4 2 3 3 4 2 3 3 3 2 4 3 3 2 
4 3 3 2 4 3 3 2 3 3 4 2 3 3 4 2 
3 3 3 2 4 3 3 2 4 3 3 2 3 3 4 2 
3 3 4 2 3 3 4 3 3 2 3 3 4 2 3 3 
4 2 3 3 3 2 4 3 3 3 4 2 3 3 3 2 
4 3 3 2 4 3 3 3 4 2 3 3 3 2 4 3 
3 3 4 2 3 3 3 2 4 3 3 3 4 2 3 3 
3 3 4 2 3 3 4 2 3 3 3 3 4 2 3 3 
4 3 3 2 4 3 3 3 3 2 4 3 3 3 4 2 
3 3 3 3 4 2 3 3 4 3 3 2 3 3 4 3 
3 3 4 2 3 3 4 3 3 2 3 3 4 3 3 2 
4 3 3 3 3 3 4 2 3 3 4 3 3 3 3 2 
4 3 3 3 4 3 3 2 4 3 3 3 3 3 4 2 
3 3 4 3 3 3 3 3 4 2 3 3 4 3 3 3 
3 3 4 2 3 3 1823 3306 300 MP stroke
4 3 3 3 4 3 3 2 3 3 4 3 3 3 4 3 
3 3 3 2 4 3 3 3 4 3 3 3 3 3 4 3 
3 2 4 3 3 3 3 3 4 3 3 3 4 3 3 3 
4 3 3 2 3 3 4 3 3 3 4 3 3 3 3 3 
4 3 3 3 4 3 3 3 3 3 4 3 3 3 4 3 
3 3 4 2 3 3 3 3 4 3 3 3 4 3 3 3 
3 3 4 3 3 3 4 3 3 3 3 3 4 3 3 4 
4 3 3 3 4 3 3 3 3 3 4 3 3 3 4 3 
3 3 3 3 4 3 3 3 4 3 3 3 3 3 4 4 
3 3 4 3 3 3 4 3 3 3 3 3 4 3 3 4 
4 3 3 3 3 3 4 3 3 3 4 3 3 4 3 3 
4 3 3 3 4 3 3 4 4 3 3 3 3 3 4 3 
3 4 4 3 3 3 3 3 4 4 3 3 4 3 3 3 
3 4 4 3 3 3 4 3 3 4 3 3 4 3 3 4 
4 3 3 3 4 4 3 3 3 3 4 4 3 3 4 3 
3 4 3 3 4 3 3 4 4 3 3 4 3 3 4 3 
3 4 4 3 3 4 4 3 3 4 3 3 4 3 3 4 
4 3 3 4 3 3 4 4 3 3 4 4 3 3 3 4 
4 3 3 4 4 3 3 4 4 3 3 4 3 3 4 4 
3 4 4 3 3 4 3 3 4 4 3 4 4 3 3 4 
3 3 4 4 3 4 4 3 3 4 4 4 3 3 3 4 
4 4 3 3 4 4 3 4 3 4 4 3 3 4 4 4 
3 3 3 4 4 4 3 4 4 4 3 3 3 4 4 4 
3 4 4 4 3 3 4 4 3 4 3 4 4 4 3 4 
4 4 3 4 3 4 4 3 3 4 4 4 3 4 3 4 
4 4 3 4 4 4 3 4 4 4 3 4 3 4 4 4 
3 4 4 4 3 4 3 5 4 4 3 4 4 4 3 4 
3 4 4 4 3 4 4 5 3 4 4 4 3 4 3 4 
4 5 3 4 4 4 3 4 3 5 4 4 3 4 4 5 
3 4 3 4 4 5 3 4 4 4 3 5 4 4 3 5 
3 4 4 4 3 5 4 4 3 5 3 4 4 5 3 4 
4 5 3 5 3 4 4 5 3 4 4 5 3 5 3 4 
4 5 3 5 4 4 3 5 4 5 3 5 3 4 4 5 
3 5 4 5 3 5 3 4 4 5 3 5 4 5 3 5 
3 5 4 5 3 5 4 5 3 5 4 5 3 5 3 5 
4 5 3 6 4 5 3 5 3 5 4 5 3 6 4 5 
3 5 3 5 4 6 3 5 4 6 3 5 4 5 3 6 
3 5 4 6 3 5 803 2190 300 MP stroke
4 6 3 6 3 5 4 6 3 5 4 6 3 6 3 6 
4 5 3 6 4 6 3 6 4 6 3 6 3 6 4 6 
3 6 4 6 3 6 3 6 4 7 3 6 4 6 3 6 
3 7 4 6 3 7 4 6 3 7 3 6 4 7 3 7 
4 6 3 7 4 7 3 7 3 7 4 7 3 7 4 7 
3 7 3 7 4 7 3 8 4 7 3 7 3 8 4 7 
3 8 4 8 3 8 4 7 3 8 3 8 4 8 3 9 
4 8 3 8 3 9 4 8 3 9 4 9 3 8 3 9 
4 10 3 9 4 9 3 10 4 9 3 10 3 10 4 10 
3 10 4 10 3 11 3 11 4 11 3 11 4 11 3 12 
3 12 4 12 3 12 4 13 3 13 4 14 3 14 3 14 
4 15 3 15 4 16 3 17 3 17 4 18 3 20 4 20 
3 22 3 24 4 27 3 30 4 36 3 47 3 112 452 1046 104 MP stroke
36 w
gs 2421 3731 729 516 rc
/c9 { 0.000000 1.000000 1.000000 sr} bdef
c9
  18   18 2495 3805 FO
  18   18 2498 3807 FO
  18   18 2502 3809 FO
  18   18 2505 3812 FO
  18   18 2508 3814 FO
  18   18 2512 3816 FO
  18   18 2515 3818 FO
  18   18 2519 3821 FO
  18   18 2522 3823 FO
  18   18 2525 3825 FO
  18   18 2529 3828 FO
  18   18 2532 3830 FO
  18   18 2536 3832 FO
  18   18 2539 3834 FO
  18   18 2542 3837 FO
  18   18 2546 3839 FO
  18   18 2549 3841 FO
  18   18 2553 3844 FO
  18   18 2556 3846 FO
  18   18 2559 3848 FO
  18   18 2563 3850 FO
  18   18 2566 3853 FO
  18   18 2570 3855 FO
  18   18 2573 3857 FO
  18   18 2577 3859 FO
  18   18 2580 3862 FO
  18   18 2583 3864 FO
  18   18 2587 3866 FO
  18   18 2590 3868 FO
  18   18 2594 3871 FO
  18   18 2597 3873 FO
  18   18 2600 3875 FO
  18   18 2604 3877 FO
  18   18 2607 3880 FO
  18   18 2611 3882 FO
  18   18 2614 3884 FO
  18   18 2617 3886 FO
  18   18 2621 3889 FO
  18   18 2624 3891 FO
  18   18 2628 3893 FO
  18   18 2631 3895 FO
  18   18 2635 3898 FO
  18   18 2638 3900 FO
  18   18 2641 3902 FO
  18   18 2645 3904 FO
  18   18 2648 3906 FO
  18   18 2652 3909 FO
  18   18 2655 3911 FO
  18   18 2658 3913 FO
  18   18 2662 3915 FO
  18   18 2665 3917 FO
  18   18 2669 3920 FO
  18   18 2672 3922 FO
  18   18 2675 3924 FO
  18   18 2679 3926 FO
  18   18 2682 3929 FO
  18   18 2686 3931 FO
  18   18 2689 3933 FO
  18   18 2693 3935 FO
  18   18 2696 3937 FO
  18   18 2699 3940 FO
  18   18 2703 3942 FO
  18   18 2706 3944 FO
  18   18 2710 3946 FO
  18   18 2713 3948 FO
  18   18 2716 3950 FO
  18   18 2720 3953 FO
  18   18 2723 3955 FO
  18   18 2727 3957 FO
  18   18 2730 3959 FO
  18   18 2733 3961 FO
  18   18 2737 3964 FO
  18   18 2740 3966 FO
  18   18 2744 3968 FO
  18   18 2747 3970 FO
  18   18 2751 3972 FO
  18   18 2754 3974 FO
  18   18 2757 3977 FO
  18   18 2761 3979 FO
  18   18 2764 3981 FO
  18   18 2768 3983 FO
  18   18 2771 3985 FO
  18   18 2774 3987 FO
  18   18 2778 3990 FO
  18   18 2781 3992 FO
  18   18 2785 3994 FO
  18   18 2788 3996 FO
  18   18 2791 3998 FO
  18   18 2795 4000 FO
  18   18 2798 4003 FO
  18   18 2802 4005 FO
  18   18 2805 4007 FO
  18   18 2809 4009 FO
  18   18 2812 4011 FO
  18   18 2815 4013 FO
  18   18 2819 4015 FO
  18   18 2822 4018 FO
  18   18 2826 4020 FO
  18   18 2829 4022 FO
  18   18 2832 4024 FO
  18   18 2836 4026 FO
  18   18 2839 4028 FO
  18   18 2843 4030 FO
  18   18 2846 4032 FO
  18   18 2849 4035 FO
  18   18 2853 4037 FO
  18   18 2856 4039 FO
  18   18 2860 4041 FO
  18   18 2863 4043 FO
  18   18 2866 4045 FO
  18   18 2870 4047 FO
  18   18 2873 4049 FO
  18   18 2877 4052 FO
  18   18 2880 4054 FO
  18   18 2884 4056 FO
  18   18 2887 4058 FO
  18   18 2890 4060 FO
  18   18 2894 4062 FO
  18   18 2897 4064 FO
  18   18 2901 4066 FO
  18   18 2904 4068 FO
  18   18 2907 4071 FO
  18   18 2911 4073 FO
  18   18 2914 4075 FO
  18   18 2918 4077 FO
  18   18 2921 4079 FO
  18   18 2924 4081 FO
  18   18 2928 4083 FO
  18   18 2931 4085 FO
  18   18 2935 4087 FO
  18   18 2938 4089 FO
  18   18 2942 4091 FO
  18   18 2945 4094 FO
  18   18 2948 4096 FO
  18   18 2952 4098 FO
  18   18 2955 4100 FO
  18   18 2959 4102 FO
  18   18 2962 4104 FO
  18   18 2965 4106 FO
  18   18 2969 4108 FO
  18   18 2972 4110 FO
  18   18 2976 4112 FO
  18   18 2979 4114 FO
  18   18 2982 4116 FO
  18   18 2986 4118 FO
  18   18 2989 4121 FO
  18   18 2993 4123 FO
  18   18 2996 4125 FO
  18   18 3000 4127 FO
  18   18 3003 4129 FO
  18   18 3006 4131 FO
  18   18 3010 4133 FO
  18   18 3013 4135 FO
  18   18 3017 4137 FO
  18   18 3020 4139 FO
  18   18 3023 4141 FO
  18   18 3027 4143 FO
  18   18 3030 4145 FO
  18   18 3034 4147 FO
  18   18 3037 4149 FO
  18   18 3040 4151 FO
  18   18 3044 4153 FO
  18   18 3047 4155 FO
  18   18 3051 4157 FO
  18   18 3054 4160 FO
  18   18 3058 4162 FO
  18   18 3061 4164 FO
  18   18 3064 4166 FO
  18   18 3068 4168 FO
  18   18 3071 4170 FO
  18   18 3075 4172 FO
gr

c9
gs 2412 3725 684 490 rc
0 j
0 -30 -30 0 0 30 30 0 2709 3941 5 MP
/c10 { 1.000000 0.000000 0.000000 sr} bdef
c10
gs
PP
gr
DP
0 -30 -30 0 0 30 30 0 2921 4073 5 MP
gs
PP
gr
DP
0 -30 -30 0 0 30 30 0 2723 3949 5 MP
gs
PP
gr
DP
0 -30 -30 0 0 30 30 0 2757 3971 5 MP
gs
PP
gr
DP
0 -30 -30 0 0 30 30 0 2573 3852 5 MP
gs
PP
gr
DP
0 -30 -30 0 0 30 30 0 2495 3800 5 MP
gs
PP
gr
DP
0 -30 -30 0 0 30 30 0 2651 3903 5 MP
gs
PP
gr
DP
0 -30 -30 0 0 30 30 0 2471 3784 5 MP
gs
PP
gr
DP
0 -30 -30 0 0 30 30 0 2651 3903 5 MP
gs
PP
gr
DP
0 -30 -30 0 0 30 30 0 3006 4125 5 MP
gs
PP
gr
DP
0 -30 -30 0 0 30 30 0 2495 3800 5 MP
gs
PP
gr
DP
0 -30 -30 0 0 30 30 0 2603 3871 5 MP
gs
PP
gr
DP
0 -30 -30 0 0 30 30 0 2709 3941 5 MP
gs
PP
gr
DP
0 -30 -30 0 0 30 30 0 3006 4125 5 MP
gs
PP
gr
DP
0 -30 -30 0 0 30 30 0 2471 3784 5 MP
gs
PP
gr
DP
0 -30 -30 0 0 30 30 0 2921 4073 5 MP
gs
PP
gr
DP
0 -30 -30 0 0 30 30 0 2495 3800 5 MP
gs
PP
gr
DP
0 -30 -30 0 0 30 30 0 2573 3852 5 MP
gs
PP
gr
DP
0 -30 -30 0 0 30 30 0 2723 3949 5 MP
gs
PP
gr
DP
0 -30 -30 0 0 30 30 0 2516 3814 5 MP
gs
PP
gr
DP
0 -30 -30 0 0 30 30 0 2797 3996 5 MP
gs
PP
gr
DP
0 -30 -30 0 0 30 30 0 3006 4125 5 MP
gs
PP
gr
DP
0 -30 -30 0 0 30 30 0 2603 3871 5 MP
gs
PP
gr
DP
0 -30 -30 0 0 30 30 0 2797 3996 5 MP
gs
PP
gr
DP
0 -30 -30 0 0 30 30 0 2945 4088 5 MP
gs
PP
gr
DP
0 -30 -30 0 0 30 30 0 2797 3996 5 MP
gs
PP
gr
DP
0 -30 -30 0 0 30 30 0 2603 3871 5 MP
gs
PP
gr
DP
0 -30 -30 0 0 30 30 0 2573 3852 5 MP
gs
PP
gr
DP
0 -30 -30 0 0 30 30 0 2768 3978 5 MP
gs
PP
gr
DP
0 -30 -30 0 0 30 30 0 3006 4125 5 MP
gs
PP
gr
DP
0 -30 -30 0 0 30 30 0 2723 3949 5 MP
gs
PP
gr
DP
0 -30 -30 0 0 30 30 0 2503 3805 5 MP
gs
PP
gr
DP
0 -30 -30 0 0 30 30 0 2495 3800 5 MP
gs
PP
gr
DP
0 -30 -30 0 0 30 30 0 2573 3852 5 MP
gs
PP
gr
DP
0 -30 -30 0 0 30 30 0 2797 3996 5 MP
gs
PP
gr
DP
0 -30 -30 0 0 30 30 0 2603 3871 5 MP
gs
PP
gr
DP
0 -30 -30 0 0 30 30 0 2959 4096 5 MP
gs
PP
gr
DP
0 -30 -30 0 0 30 30 0 2709 3941 5 MP
gs
PP
gr
DP
gr

c10
gs 2765 3824 149 149 rc
0 sg
  18   18 2839 3898 FO
gr

0 sg
gr

36 w
%%IncludeResource: font Helvetica
/Helvetica /WindowsLatin1Encoding 120 FMSR

 432 4667 mt 
( ) s
3844 1101 mt 
( ) s
6 w
1 sg
0 540 2133 0 0 -540 1613 1702 4 MP
PP
-2133 0 0 540 2133 0 0 -540 1613 1702 5 MP stroke
4 w
DO
SO
6 w
1613 1162 mt 3746 1162 L
1613 1702 mt 3746 1702 L
3746 1702 mt 3746 1162 L
1613 1702 mt 1613 1162 L
1613 1702 mt 3746 1702 L
1613 1702 mt 1613 1162 L
1613 1162 mt 3746 1162 L
1613 1702 mt 3746 1702 L
3746 1702 mt 3746 1162 L
1613 1702 mt 1613 1162 L
0 sg
%%IncludeResource: font Times-Roman
/Times-Roman /WindowsLatin1Encoding 192 FMSR

2081 1374 mt 
(Preferred Region) s
gs 1613 1162 2134 541 rc
36 w
gs 1791 1233 149 149 rc
c9
  18   18 1865 1307 FO
gr

c9
gr

36 w
c9
0 sg
2081 1623 mt 
(Obtained Soloutions) s
gs 1613 1162 2134 541 rc
gs 1791 1482 149 149 rc
0 j
0 -30 -30 0 0 30 30 0 1850 1541 5 MP
c10
gs
PP
gr
DP
gr

c10
6 w
gr

6 w
c10
0 sg
2982 3192 mt 
(\(0.7,0.2\)) s

end %%Color Dict

eplot
%%EndObject

epage
end

showpage

%%Trailer
%%EOF
